{
  "resourceType": "ValueSet",
  "id": "v2-0292",
  "meta": {
    "profile": [
      "http://hl7.org/fhir/StructureDefinition/valueset-shareable-definition"
    ]
  },
  "text": {
    "status": "additional",
    "div": "<div><p>Vaccines Administered (code = CVX) (parenteral, unless oral is noted)</p>\r\n<table class=\"grid\"><tr><td><b>Code</b></td><td><b>Description</b></td><td><b>Version</b></td></tr><tr><td>01<a name=\"01\"> </a></td><td>DTP</td><td>added v2.3.1</td></tr><tr><td>02<a name=\"02\"> </a></td><td>OPV</td><td>added v2.3.1</td></tr><tr><td>03<a name=\"03\"> </a></td><td>MMR</td><td>added v2.3.1</td></tr><tr><td>04<a name=\"04\"> </a></td><td>M/R</td><td>added v2.3.1</td></tr><tr><td>05<a name=\"05\"> </a></td><td>measles</td><td>added v2.3.1</td></tr><tr><td>06<a name=\"06\"> </a></td><td>rubella</td><td>added v2.3.1</td></tr><tr><td>07<a name=\"07\"> </a></td><td>mumps</td><td>added v2.3.1</td></tr><tr><td>08<a name=\"08\"> </a></td><td>Hep B, adolescent or pediatric</td><td>added v2.3.1</td></tr><tr><td>09<a name=\"09\"> </a></td><td>Td (adult)</td><td>added v2.3.1</td></tr><tr><td>10<a name=\"10\"> </a></td><td>IPV</td><td>added v2.3.1</td></tr><tr><td>100<a name=\"100\"> </a></td><td>pneumococcal conjugate</td><td>added v2.4</td></tr><tr><td>101<a name=\"101\"> </a></td><td>typhoid, ViCPs</td><td>added v2.4</td></tr><tr><td>102<a name=\"102\"> </a></td><td>DTP-Hib-Hep B</td><td>added v2.5</td></tr><tr><td>103<a name=\"103\"> </a></td><td>meningococcal C conjugate</td><td>added v2.5</td></tr><tr><td>104<a name=\"104\"> </a></td><td>Hep A-Hep B</td><td>added v2.5</td></tr><tr><td>105<a name=\"105\"> </a></td><td>vaccinia (smallpox) diluted</td><td>added v2.5</td></tr><tr><td>106<a name=\"106\"> </a></td><td>DTaP, 5 pertussis antigens6</td><td>added v2.5</td></tr><tr><td>107<a name=\"107\"> </a></td><td>DTaP, NOS</td><td>added v2.5</td></tr><tr><td>108<a name=\"108\"> </a></td><td>meningococcal, NOS</td><td>added v2.5</td></tr><tr><td>109<a name=\"109\"> </a></td><td>pneumococcal, NOS</td><td>added v2.5</td></tr><tr><td>11<a name=\"11\"> </a></td><td>pertussis</td><td>added v2.3.1</td></tr><tr><td>110<a name=\"110\"> </a></td><td>DTaP-Hep B-IPV</td><td>added v2.6</td></tr><tr><td>111<a name=\"111\"> </a></td><td>influenza, live, intranasal</td><td>added v2.6</td></tr><tr><td>112<a name=\"112\"> </a></td><td>tetanus toxoid, NOS</td><td>added v2.6</td></tr><tr><td>113<a name=\"113\"> </a></td><td>Td (adult)</td><td>added v2.6</td></tr><tr><td>114<a name=\"114\"> </a></td><td>meningococcal A,C,Y,W-135 diphtheria conjugate</td><td>added v2.6</td></tr><tr><td>115<a name=\"115\"> </a></td><td>Tdap</td><td>added v2.6</td></tr><tr><td>116<a name=\"116\"> </a></td><td>rotavirus, pentavalent</td><td>added v2.6</td></tr><tr><td>117<a name=\"117\"> </a></td><td>VZIG (IND)</td><td>added v2.6</td></tr><tr><td>118<a name=\"118\"> </a></td><td>HPV, bivalent</td><td>added v2.6</td></tr><tr><td>119<a name=\"119\"> </a></td><td>rotavirus, monovalent</td><td>added v2.6</td></tr><tr><td>12<a name=\"12\"> </a></td><td>diphtheria antitoxin</td><td>added v2.3.1</td></tr><tr><td>120<a name=\"120\"> </a></td><td>DTaP-Hib-IPV</td><td>added v2.6</td></tr><tr><td>121<a name=\"121\"> </a></td><td>zoster</td><td>added v2.6</td></tr><tr><td>122<a name=\"122\"> </a></td><td>rotavirus, NOS1</td><td>added v2.6</td></tr><tr><td>13<a name=\"13\"> </a></td><td>TIG</td><td>added v2.3.1</td></tr><tr><td>14<a name=\"14\"> </a></td><td>IG, NOS</td><td>added v2.3.1</td></tr><tr><td>15<a name=\"15\"> </a></td><td>influenza, split (incl. purified surface antigen)</td><td>added v2.3.1</td></tr><tr><td>16<a name=\"16\"> </a></td><td>influenza, whole</td><td>added v2.3.1</td></tr><tr><td>17<a name=\"17\"> </a></td><td>Hib, NOS</td><td>added v2.3.1</td></tr><tr><td>18<a name=\"18\"> </a></td><td>rabies, intramuscular injection</td><td>added v2.3.1</td></tr><tr><td>19<a name=\"19\"> </a></td><td>BCG</td><td>added v2.3.1</td></tr><tr><td>20<a name=\"20\"> </a></td><td>DTaP</td><td>added v2.3.1</td></tr><tr><td>21<a name=\"21\"> </a></td><td>varicella</td><td>added v2.3.1</td></tr><tr><td>22<a name=\"22\"> </a></td><td>DTP-Hib</td><td>added v2.3.1</td></tr><tr><td>23<a name=\"23\"> </a></td><td>plague</td><td>added v2.3.1</td></tr><tr><td>24<a name=\"24\"> </a></td><td>anthrax</td><td>added v2.3.1</td></tr><tr><td>25<a name=\"25\"> </a></td><td>typhoid, oral</td><td>added v2.3.1</td></tr><tr><td>26<a name=\"26\"> </a></td><td>cholera</td><td>added v2.3.1</td></tr><tr><td>27<a name=\"27\"> </a></td><td>botulinum antitoxin</td><td>added v2.3.1</td></tr><tr><td>28<a name=\"28\"> </a></td><td>DT (pediatric)</td><td>added v2.3.1</td></tr><tr><td>29<a name=\"29\"> </a></td><td>CMVIG</td><td>added v2.3.1</td></tr><tr><td>30<a name=\"30\"> </a></td><td>HBIG</td><td>added v2.3.1</td></tr><tr><td>31<a name=\"31\"> </a></td><td>Hep A, pediatric, NOS</td><td>added v2.3.1</td></tr><tr><td>32<a name=\"32\"> </a></td><td>meningococcal</td><td>added v2.3.1</td></tr><tr><td>33<a name=\"33\"> </a></td><td>pneumococcal</td><td>added v2.3.1</td></tr><tr><td>34<a name=\"34\"> </a></td><td>RIG</td><td>added v2.3.1</td></tr><tr><td>35<a name=\"35\"> </a></td><td>tetanus toxoid</td><td>added v2.3.1</td></tr><tr><td>36<a name=\"36\"> </a></td><td>VZIG</td><td>added v2.3.1</td></tr><tr><td>37<a name=\"37\"> </a></td><td>yellow fever</td><td>added v2.3.1</td></tr><tr><td>38<a name=\"38\"> </a></td><td>rubella/mumps</td><td>added v2.3.1</td></tr><tr><td>39<a name=\"39\"> </a></td><td>Japanese encephalitis</td><td>added v2.3.1</td></tr><tr><td>40<a name=\"40\"> </a></td><td>rabies, intradermal injection</td><td>added v2.3.1</td></tr><tr><td>41<a name=\"41\"> </a></td><td>typhoid, parenteral</td><td>added v2.3.1</td></tr><tr><td>42<a name=\"42\"> </a></td><td>Hep B, adolescent/high risk infant2</td><td>added v2.3.1</td></tr><tr><td>43<a name=\"43\"> </a></td><td>Hep B, adult4</td><td>added v2.3.1</td></tr><tr><td>44<a name=\"44\"> </a></td><td>Hep B, dialysis</td><td>added v2.3.1</td></tr><tr><td>45<a name=\"45\"> </a></td><td>Hep B, NOS</td><td>added v2.3.1</td></tr><tr><td>46<a name=\"46\"> </a></td><td>Hib (PRP-D)</td><td>added v2.3.1</td></tr><tr><td>47<a name=\"47\"> </a></td><td>Hib (HbOC)</td><td>added v2.3.1</td></tr><tr><td>48<a name=\"48\"> </a></td><td>Hib (PRP-T)</td><td>added v2.3.1</td></tr><tr><td>49<a name=\"49\"> </a></td><td>Hib (PRP-OMP)</td><td>added v2.3.1</td></tr><tr><td>50<a name=\"50\"> </a></td><td>DTaP-Hib</td><td>added v2.3.1</td></tr><tr><td>51<a name=\"51\"> </a></td><td>Hib-Hep B</td><td>added v2.3.1</td></tr><tr><td>52<a name=\"52\"> </a></td><td>Hep A, adult</td><td>added v2.3.1</td></tr><tr><td>53<a name=\"53\"> </a></td><td>typhoid, parenteral, AKD (U.S. military)</td><td>added v2.3.1</td></tr><tr><td>54<a name=\"54\"> </a></td><td>adenovirus, type 4</td><td>added v2.3.1</td></tr><tr><td>55<a name=\"55\"> </a></td><td>adenovirus, type 7</td><td>added v2.3.1</td></tr><tr><td>56<a name=\"56\"> </a></td><td>dengue fever</td><td>added v2.3.1</td></tr><tr><td>57<a name=\"57\"> </a></td><td>hantavirus</td><td>added v2.3.1</td></tr><tr><td>58<a name=\"58\"> </a></td><td>Hep C</td><td>added v2.3.1</td></tr><tr><td>59<a name=\"59\"> </a></td><td>Hep E</td><td>added v2.3.1</td></tr><tr><td>60<a name=\"60\"> </a></td><td>herpes simplex 2</td><td>added v2.3.1</td></tr><tr><td>61<a name=\"61\"> </a></td><td>HIV</td><td>added v2.3.1</td></tr><tr><td>62<a name=\"62\"> </a></td><td>HPV, quadrivalent</td><td>added v2.3.1</td></tr><tr><td>63<a name=\"63\"> </a></td><td>Junin virus</td><td>added v2.3.1</td></tr><tr><td>64<a name=\"64\"> </a></td><td>leishmaniasis</td><td>added v2.3.1</td></tr><tr><td>65<a name=\"65\"> </a></td><td>leprosy</td><td>added v2.3.1</td></tr><tr><td>66<a name=\"66\"> </a></td><td>Lyme disease</td><td>added v2.3.1</td></tr><tr><td>67<a name=\"67\"> </a></td><td>malaria</td><td>added v2.3.1</td></tr><tr><td>68<a name=\"68\"> </a></td><td>melanoma</td><td>added v2.3.1</td></tr><tr><td>69<a name=\"69\"> </a></td><td>parainfluenza-3</td><td>added v2.3.1</td></tr><tr><td>70<a name=\"70\"> </a></td><td>Q fever</td><td>added v2.3.1</td></tr><tr><td>71<a name=\"71\"> </a></td><td>RSV-IGIV</td><td>added v2.3.1</td></tr><tr><td>72<a name=\"72\"> </a></td><td>rheumatic fever</td><td>added v2.3.1</td></tr><tr><td>73<a name=\"73\"> </a></td><td>Rift Valley fever</td><td>added v2.3.1</td></tr><tr><td>74<a name=\"74\"> </a></td><td>rotavirus, tetravalent</td><td>added v2.3.1</td></tr><tr><td>75<a name=\"75\"> </a></td><td>vaccinia (smallpox)</td><td>added v2.3.1</td></tr><tr><td>76<a name=\"76\"> </a></td><td>Staphylococcus bacterio lysate</td><td>added v2.3.1</td></tr><tr><td>77<a name=\"77\"> </a></td><td>tick-borne encephalitis</td><td>added v2.3.1</td></tr><tr><td>78<a name=\"78\"> </a></td><td>tularemia vaccine</td><td>added v2.3.1</td></tr><tr><td>79<a name=\"79\"> </a></td><td>vaccinia immune globulin</td><td>added v2.3.1</td></tr><tr><td>80<a name=\"80\"> </a></td><td>VEE, live</td><td>added v2.3.1</td></tr><tr><td>81<a name=\"81\"> </a></td><td>VEE, inactivated</td><td>added v2.3.1</td></tr><tr><td>82<a name=\"82\"> </a></td><td>adenovirus, NOS1</td><td>added v2.3.1</td></tr><tr><td>83<a name=\"83\"> </a></td><td>Hep A, ped/adol, 2 dose</td><td>added v2.3.1</td></tr><tr><td>84<a name=\"84\"> </a></td><td>Hep A, ped/adol, 3 dose</td><td>added v2.3.1</td></tr><tr><td>85<a name=\"85\"> </a></td><td>Hep A, NOS</td><td>added v2.3.1</td></tr><tr><td>86<a name=\"86\"> </a></td><td>IG</td><td>added v2.3.1</td></tr><tr><td>87<a name=\"87\"> </a></td><td>IGIV</td><td>added v2.3.1</td></tr><tr><td>88<a name=\"88\"> </a></td><td>influenza, NOS</td><td>added v2.3.1</td></tr><tr><td>89<a name=\"89\"> </a></td><td>polio, NOS</td><td>added v2.3.1</td></tr><tr><td>90<a name=\"90\"> </a></td><td>rabies, NOS</td><td>added v2.3.1</td></tr><tr><td>91<a name=\"91\"> </a></td><td>typhoid, NOS</td><td>added v2.3.1</td></tr><tr><td>92<a name=\"92\"> </a></td><td>VEE, NOS</td><td>added v2.3.1</td></tr><tr><td>93<a name=\"93\"> </a></td><td>RSV-MAb</td><td>added v2.4</td></tr><tr><td>94<a name=\"94\"> </a></td><td>MMRV</td><td>added v2.4</td></tr><tr><td>95<a name=\"95\"> </a></td><td>TST-OT tine test</td><td>added v2.4</td></tr><tr><td>96<a name=\"96\"> </a></td><td>TST-PPD intradermal</td><td>added v2.4</td></tr><tr><td>97<a name=\"97\"> </a></td><td>TST-PPD tine test</td><td>added v2.4</td></tr><tr><td>98<a name=\"98\"> </a></td><td>TST, NOS</td><td>added v2.4</td></tr><tr><td>99<a name=\"99\"> </a></td><td>RESERVED - do not use3</td><td>added v2.4</td></tr><tr><td>998<a name=\"998\"> </a></td><td>no vaccine administered5</td><td>added v2.5</td></tr><tr><td>999<a name=\"999\"> </a></td><td>unknown</td><td>added v2.4</td></tr></table>\r\n</div>"
  },
  "url": "http://hl7.org/fhir/ValueSet/v2-0292",
  "version": "2.7",
  "name": "v2 Vaccines Administered (code = CVX) (parenteral, unless oral is noted)",
  "publisher": "HL7, Inc",
  "contact": [
    {
      "telecom": [
        {
          "system": "url",
          "value": "http://hl7.org"
        }
      ]
    }
  ],
  "description": "FHIR Value set/code system definition for HL7 v2 table 0292 ( Vaccines Administered (code = CVX) (parenteral, unless oral is noted))",
  "status": "active",
  "experimental": true,
  "date": "2011-01-28",
  "define": {
    "system": "http://hl7.org/fhir/v2/0292",
    "caseSensitive": true,
    "concept": [
      {
        "code": "01",
        "display": "DTP"
      },
      {
        "code": "02",
        "display": "OPV"
      },
      {
        "code": "03",
        "display": "MMR"
      },
      {
        "code": "04",
        "display": "M/R"
      },
      {
        "code": "05",
        "display": "measles"
      },
      {
        "code": "06",
        "display": "rubella"
      },
      {
        "code": "07",
        "display": "mumps"
      },
      {
        "code": "08",
        "display": "Hep B, adolescent or pediatric"
      },
      {
        "code": "09",
        "display": "Td (adult)"
      },
      {
        "code": "10",
        "display": "IPV"
      },
      {
        "code": "100",
        "display": "pneumococcal conjugate"
      },
      {
        "code": "101",
        "display": "typhoid, ViCPs"
      },
      {
        "code": "102",
        "display": "DTP-Hib-Hep B"
      },
      {
        "code": "103",
        "display": "meningococcal C conjugate"
      },
      {
        "code": "104",
        "display": "Hep A-Hep B"
      },
      {
        "code": "105",
        "display": "vaccinia (smallpox) diluted"
      },
      {
        "code": "106",
        "display": "DTaP, 5 pertussis antigens6"
      },
      {
        "code": "107",
        "display": "DTaP, NOS"
      },
      {
        "code": "108",
        "display": "meningococcal, NOS"
      },
      {
        "code": "109",
        "display": "pneumococcal, NOS"
      },
      {
        "code": "11",
        "display": "pertussis"
      },
      {
        "code": "110",
        "display": "DTaP-Hep B-IPV"
      },
      {
        "code": "111",
        "display": "influenza, live, intranasal"
      },
      {
        "code": "112",
        "display": "tetanus toxoid, NOS"
      },
      {
        "code": "113",
        "display": "Td (adult)"
      },
      {
        "code": "114",
        "display": "meningococcal A,C,Y,W-135 diphtheria conjugate"
      },
      {
        "code": "115",
        "display": "Tdap"
      },
      {
        "code": "116",
        "display": "rotavirus, pentavalent"
      },
      {
        "code": "117",
        "display": "VZIG (IND)"
      },
      {
        "code": "118",
        "display": "HPV, bivalent"
      },
      {
        "code": "119",
        "display": "rotavirus, monovalent"
      },
      {
        "code": "12",
        "display": "diphtheria antitoxin"
      },
      {
        "code": "120",
        "display": "DTaP-Hib-IPV"
      },
      {
        "code": "121",
        "display": "zoster"
      },
      {
        "code": "122",
        "display": "rotavirus, NOS1"
      },
      {
        "code": "13",
        "display": "TIG"
      },
      {
        "code": "14",
        "display": "IG, NOS"
      },
      {
        "code": "15",
        "display": "influenza, split (incl. purified surface antigen)"
      },
      {
        "code": "16",
        "display": "influenza, whole"
      },
      {
        "code": "17",
        "display": "Hib, NOS"
      },
      {
        "code": "18",
        "display": "rabies, intramuscular injection"
      },
      {
        "code": "19",
        "display": "BCG"
      },
      {
        "code": "20",
        "display": "DTaP"
      },
      {
        "code": "21",
        "display": "varicella"
      },
      {
        "code": "22",
        "display": "DTP-Hib"
      },
      {
        "code": "23",
        "display": "plague"
      },
      {
        "code": "24",
        "display": "anthrax"
      },
      {
        "code": "25",
        "display": "typhoid, oral"
      },
      {
        "code": "26",
        "display": "cholera"
      },
      {
        "code": "27",
        "display": "botulinum antitoxin"
      },
      {
        "code": "28",
        "display": "DT (pediatric)"
      },
      {
        "code": "29",
        "display": "CMVIG"
      },
      {
        "code": "30",
        "display": "HBIG"
      },
      {
        "code": "31",
        "display": "Hep A, pediatric, NOS"
      },
      {
        "code": "32",
        "display": "meningococcal"
      },
      {
        "code": "33",
        "display": "pneumococcal"
      },
      {
        "code": "34",
        "display": "RIG"
      },
      {
        "code": "35",
        "display": "tetanus toxoid"
      },
      {
        "code": "36",
        "display": "VZIG"
      },
      {
        "code": "37",
        "display": "yellow fever"
      },
      {
        "code": "38",
        "display": "rubella/mumps"
      },
      {
        "code": "39",
        "display": "Japanese encephalitis"
      },
      {
        "code": "40",
        "display": "rabies, intradermal injection"
      },
      {
        "code": "41",
        "display": "typhoid, parenteral"
      },
      {
        "code": "42",
        "display": "Hep B, adolescent/high risk infant2"
      },
      {
        "code": "43",
        "display": "Hep B, adult4"
      },
      {
        "code": "44",
        "display": "Hep B, dialysis"
      },
      {
        "code": "45",
        "display": "Hep B, NOS"
      },
      {
        "code": "46",
        "display": "Hib (PRP-D)"
      },
      {
        "code": "47",
        "display": "Hib (HbOC)"
      },
      {
        "code": "48",
        "display": "Hib (PRP-T)"
      },
      {
        "code": "49",
        "display": "Hib (PRP-OMP)"
      },
      {
        "code": "50",
        "display": "DTaP-Hib"
      },
      {
        "code": "51",
        "display": "Hib-Hep B"
      },
      {
        "code": "52",
        "display": "Hep A, adult"
      },
      {
        "code": "53",
        "display": "typhoid, parenteral, AKD (U.S. military)"
      },
      {
        "code": "54",
        "display": "adenovirus, type 4"
      },
      {
        "code": "55",
        "display": "adenovirus, type 7"
      },
      {
        "code": "56",
        "display": "dengue fever"
      },
      {
        "code": "57",
        "display": "hantavirus"
      },
      {
        "code": "58",
        "display": "Hep C"
      },
      {
        "code": "59",
        "display": "Hep E"
      },
      {
        "code": "60",
        "display": "herpes simplex 2"
      },
      {
        "code": "61",
        "display": "HIV"
      },
      {
        "code": "62",
        "display": "HPV, quadrivalent"
      },
      {
        "code": "63",
        "display": "Junin virus"
      },
      {
        "code": "64",
        "display": "leishmaniasis"
      },
      {
        "code": "65",
        "display": "leprosy"
      },
      {
        "code": "66",
        "display": "Lyme disease"
      },
      {
        "code": "67",
        "display": "malaria"
      },
      {
        "code": "68",
        "display": "melanoma"
      },
      {
        "code": "69",
        "display": "parainfluenza-3"
      },
      {
        "code": "70",
        "display": "Q fever"
      },
      {
        "code": "71",
        "display": "RSV-IGIV"
      },
      {
        "code": "72",
        "display": "rheumatic fever"
      },
      {
        "code": "73",
        "display": "Rift Valley fever"
      },
      {
        "code": "74",
        "display": "rotavirus, tetravalent"
      },
      {
        "code": "75",
        "display": "vaccinia (smallpox)"
      },
      {
        "code": "76",
        "display": "Staphylococcus bacterio lysate"
      },
      {
        "code": "77",
        "display": "tick-borne encephalitis"
      },
      {
        "code": "78",
        "display": "tularemia vaccine"
      },
      {
        "code": "79",
        "display": "vaccinia immune globulin"
      },
      {
        "code": "80",
        "display": "VEE, live"
      },
      {
        "code": "81",
        "display": "VEE, inactivated"
      },
      {
        "code": "82",
        "display": "adenovirus, NOS1"
      },
      {
        "code": "83",
        "display": "Hep A, ped/adol, 2 dose"
      },
      {
        "code": "84",
        "display": "Hep A, ped/adol, 3 dose"
      },
      {
        "code": "85",
        "display": "Hep A, NOS"
      },
      {
        "code": "86",
        "display": "IG"
      },
      {
        "code": "87",
        "display": "IGIV"
      },
      {
        "code": "88",
        "display": "influenza, NOS"
      },
      {
        "code": "89",
        "display": "polio, NOS"
      },
      {
        "code": "90",
        "display": "rabies, NOS"
      },
      {
        "code": "91",
        "display": "typhoid, NOS"
      },
      {
        "code": "92",
        "display": "VEE, NOS"
      },
      {
        "code": "93",
        "display": "RSV-MAb"
      },
      {
        "code": "94",
        "display": "MMRV"
      },
      {
        "code": "95",
        "display": "TST-OT tine test"
      },
      {
        "code": "96",
        "display": "TST-PPD intradermal"
      },
      {
        "code": "97",
        "display": "TST-PPD tine test"
      },
      {
        "code": "98",
        "display": "TST, NOS"
      },
      {
        "code": "99",
        "display": "RESERVED - do not use3"
      },
      {
        "code": "998",
        "display": "no vaccine administered5"
      },
      {
        "code": "999",
        "display": "unknown"
      }
    ]
  }
}