{
  "resourceType": "ValueSet",
  "id": "v2-0159",
  "meta": {
    "profile": [
      "http://hl7.org/fhir/StructureDefinition/valueset-shareable-definition"
    ]
  },
  "text": {
    "status": "additional",
    "div": "<div><p>Diet Code Specification Type</p>\r\n<table class=\"grid\"><tr><td><b>Code</b></td><td><b>Description</b></td><td><b>Version</b></td></tr><tr><td>D<a name=\"D\"> </a></td><td>Diet</td><td>added v2.2</td></tr><tr><td>P<a name=\"P\"> </a></td><td>Preference</td><td>added v2.2</td></tr><tr><td>S<a name=\"S\"> </a></td><td>Supplement</td><td>added v2.2</td></tr></table>\r\n</div>"
  },
  "url": "http://hl7.org/fhir/ValueSet/v2-0159",
  "version": "2.7",
  "name": "v2 Diet Code Specification Type",
  "publisher": "HL7, Inc",
  "contact": [
    {
      "telecom": [
        {
          "system": "url",
          "value": "http://hl7.org"
        }
      ]
    }
  ],
  "description": "FHIR Value set/code system definition for HL7 v2 table 0159 ( Diet Code Specification Type)",
  "status": "active",
  "experimental": true,
  "date": "2011-01-28",
  "define": {
    "system": "http://hl7.org/fhir/v2/0159",
    "caseSensitive": true,
    "concept": [
      {
        "code": "D",
        "display": "Diet"
      },
      {
        "code": "P",
        "display": "Preference"
      },
      {
        "code": "S",
        "display": "Supplement"
      }
    ]
  }
}