{
  "resourceType": "ValueSet",
  "id": "v3-EmployeeJobClass",
  "meta": {
    "lastUpdated": "2015-03-23T00:00:00.000+00:00",
    "profile": [
      "http://hl7.org/fhir/StructureDefinition/valueset-shareable-definition"
    ]
  },
  "text": {
    "status": "generated",
    "div": "<div><p>Release Date: 2015-03-23</p>\r\n<p>OID for code system: 2.16.840.1.113883.5.1059</p>\r\n<p>OID for value set: 2.16.840.1.113883.1.11.16036 (this is the value set that includes the entire code system)</p>\r\n<table class=\"grid\">\r\n <tr><td><b>Level</b></td><td><b>Code</b></td><td><b>Display</b></td><td><b>Definition</b></td></tr>\r\n <tr><td>1</td><td>FT<a name=\"FT\"> </a></td><td>full-time</td><td>\n                        Employment in which the employee is expected to work at least a standard work week (defined by the US Bureau of Labor Statistics as 35-44 hours per week)<br/>\r\n\n                     </td></tr>\r\n <tr><td>1</td><td>PT<a name=\"PT\"> </a></td><td>part-time</td><td>\n                        Employment in which the employee is expected to work less than a standard work week (defined by the US Bureau of Labor Statistics as 35-44 hours per week)<br/>\r\n\n                     </td></tr>\r\n</table>\r\n</div>"
  },
  "extension": [
    {
      "url": "http://hl7.org/fhir/StructureDefinition/valueset-oid",
      "valueUri": "urn:oid:2.16.840.1.113883.1.11.16036"
    }
  ],
  "url": "http://hl7.org/fhir/ValueSet/v3-EmployeeJobClass",
  "version": "2015-03-23",
  "name": "v3 Code System EmployeeJobClass",
  "publisher": "HL7, Inc",
  "contact": [
    {
      "telecom": [
        {
          "system": "url",
          "value": "http://hl7.org"
        }
      ]
    }
  ],
  "description": "**** MISSING DEFINITIONS ****",
  "status": "active",
  "experimental": false,
  "date": "2015-03-23",
  "define": {
    "extension": [
      {
        "url": "http://hl7.org/fhir/StructureDefinition/valueset-oid",
        "valueUri": "urn:oid:2.16.840.1.113883.5.1059"
      }
    ],
    "system": "http://hl7.org/fhir/v3/EmployeeJobClass",
    "caseSensitive": true,
    "concept": [
      {
        "code": "FT",
        "abstract": false,
        "display": "full-time",
        "definition": "Employment in which the employee is expected to work at least a standard work week (defined by the US Bureau of Labor Statistics as 35-44 hours per week)"
      },
      {
        "code": "PT",
        "abstract": false,
        "display": "part-time",
        "definition": "Employment in which the employee is expected to work less than a standard work week (defined by the US Bureau of Labor Statistics as 35-44 hours per week)"
      }
    ]
  }
}