{
  "resourceType": "ValueSet",
  "id": "v2-0806",
  "meta": {
    "profile": [
      "http://hl7.org/fhir/StructureDefinition/valueset-shareable-definition"
    ]
  },
  "text": {
    "status": "additional",
    "div": "<div><p>Sterilization Type</p>\r\n<table class=\"grid\"><tr><td><b>Code</b></td><td><b>Description</b></td><td><b>Version</b></td></tr><tr><td>EOG<a name=\"EOG\"> </a></td><td>Ethylene Oxide Gas</td><td>added v2.6</td></tr><tr><td>PCA<a name=\"PCA\"> </a></td><td>Peracetic acid</td><td>added v2.6</td></tr><tr><td>STM<a name=\"STM\"> </a></td><td>Steam</td><td>added v2.6</td></tr></table>\r\n</div>"
  },
  "url": "http://hl7.org/fhir/ValueSet/v2-0806",
  "version": "2.7",
  "name": "v2 Sterilization Type",
  "publisher": "HL7, Inc",
  "contact": [
    {
      "telecom": [
        {
          "system": "url",
          "value": "http://hl7.org"
        }
      ]
    }
  ],
  "description": "FHIR Value set/code system definition for HL7 v2 table 0806 ( Sterilization Type)",
  "status": "active",
  "experimental": true,
  "date": "2011-01-28",
  "define": {
    "system": "http://hl7.org/fhir/v2/0806",
    "caseSensitive": true,
    "concept": [
      {
        "code": "EOG",
        "display": "Ethylene Oxide Gas"
      },
      {
        "code": "PCA",
        "display": "Peracetic acid"
      },
      {
        "code": "STM",
        "display": "Steam"
      }
    ]
  }
}