<?xml version="1.0" encoding="UTF-8"?><svg xmlns="http://www.w3.org/2000/svg" xmlns:xlink="http://www.w3.org/1999/xlink" version="1.1" width="292.0" height="214.0">  <defs>
    <filter id="shadow1" x="0" y="0" width="200%" height="200%">
      <feOffset result="offOut" in="SourceGraphic" dx="3" dy="3" />
      <feColorMatrix result="matrixOut" in="offOut" type="matrix" values="0.2 0 0 0 0 0 0.2 0 0 0 0 0 0.2 0 0 0 0 0 1 0" />
      <feGaussianBlur result="blurOut" in="matrixOut" stdDeviation="2" />
      <feBlend in="SourceGraphic" in2="blurOut" mode="normal" />
    </filter>
  </defs><rect x="0.0" y="0.0" rx="4" ry="4" width="192.0" height="204.0" filter="url(#shadow1)" style="fill:#f0f8ff;stroke:black;stroke-width:1"/><line x1="0.0" y1="28.0" x2="192.0" y2="28.0" style="stroke:dimgrey;stroke-width:1"/><text x="96.0" y="20.0" fill="black" class="diagram-class-title  diagram-class-resource">Account<tspan class="diagram-class-title-link"> (<a xlink:href="domainresource.html" class="diagram-class-reference">DomainResource</a>)</tspan></text><text x="6.0" y="42.0" fill="black" class="diagram-class-detail"><a xlink:href="account-definitions.html#Account.identifier"><title>Unique identifier used to reference the account.  May or may not be intended for human use.  (E.g. credit card number)</title>identifier</a> : <a xlink:href="datatypes.html#Identifier">Identifier</a> 0..*</text><text x="6.0" y="56.0" fill="black" class="diagram-class-detail"><a xlink:href="account-definitions.html#Account.name"><title>Name used for the account when displaying it to humans in reports, etc</title>name</a> : <a xlink:href="datatypes.html#string">string</a> 0..1</text><text x="6.0" y="70.0" fill="black" class="diagram-class-detail"><a xlink:href="account-definitions.html#Account.type"><title>Categorizes the account for reporting and searching purposes</title>type</a> : <a xlink:href="datatypes.html#CodeableConcept">CodeableConcept</a> 0..1</text><text x="6.0" y="84.0" fill="black" class="diagram-class-detail"><a xlink:href="account-definitions.html#Account.status"><title>Indicates whether the account is presently used/useable or not (this element modifies the meaning of other elements)</title>status</a> : <a xlink:href="datatypes.html#code">code</a> 0..1 « <a xlink:href="valueset-account-status.html"><title>Indicates whether the account is available to be used</title>AccountStatus</a>+ »</text><text x="6.0" y="98.0" fill="black" class="diagram-class-detail"><a xlink:href="account-definitions.html#Account.activePeriod"><title>Indicates the period of time over which the account is allowed</title>activePeriod</a> : <a xlink:href="datatypes.html#Period">Period</a> 0..1</text><text x="6.0" y="112.0" fill="black" class="diagram-class-detail"><a xlink:href="account-definitions.html#Account.currency"><title>Identifies the currency to which transactions must be converted when crediting or debiting the account</title>currency</a> : <a xlink:href="datatypes.html#Coding">Coding</a> 0..1</text><text x="6.0" y="126.0" fill="black" class="diagram-class-detail"><a xlink:href="account-definitions.html#Account.balance"><title>Represents the sum of all credits less all debits associated with the account.  Might be positive, zero or negative</title>balance</a> : <a xlink:href="datatypes.html#Money">Money</a> 0..1</text><text x="6.0" y="140.0" fill="black" class="diagram-class-detail"><a xlink:href="account-definitions.html#Account.coveragePeriod"><title>Identifies the period of time the account applies to.  E.g. accounts created per fiscal year, quarter, etc</title>coveragePeriod</a> : <a xlink:href="datatypes.html#Period">Period</a> 0..1</text><text x="6.0" y="154.0" fill="black" class="diagram-class-detail"><a xlink:href="account-definitions.html#Account.subject"><title>Identifies the patient, device, practitioner, location or other object the account is associated with</title>subject</a> : <a xlink:href="references.html#Reference">Reference</a>(<a xlink:href="patient.html#Patient">Patient</a>|<a xlink:href="device.html#Device">Device</a>|<a xlink:href="practitioner.html#Practitioner">Practitioner</a>|</text><text x="26.0" y="168.0" fill="black" class="diagram-class-detail">     <a xlink:href="location.html#Location">Location</a>|<a xlink:href="healthcareservice.html#HealthcareService">HealthcareService</a>|<a xlink:href="organization.html#Organization">Organization</a>) 0..1</text><text x="6.0" y="182.0" fill="black" class="diagram-class-detail"><a xlink:href="account-definitions.html#Account.owner"><title>Indicates the organization, department, etc. with responsibility for the account</title>owner</a> : <a xlink:href="references.html#Reference">Reference</a>(<a xlink:href="organization.html#Organization">Organization</a>) 0..1</text><text x="6.0" y="196.0" fill="black" class="diagram-class-detail"><a xlink:href="account-definitions.html#Account.description"><title>Provides additional information about what the account tracks and how it is used</title>description</a> : <a xlink:href="datatypes.html#string">string</a> 0..1</text></svg>