{
  "resourceType": "StructureDefinition",
  "id": "Annotation",
  "text": {
    "status": "generated",
    "div": "<div><table style=\"border: 0px; font-size: 11px; font-family: verdana; vertical-align: top;\" cellpadding=\"0\" border=\"0\" cellspacing=\"0\"><tr style=\"border: 1px #F0F0F0 solid; font-size: 11px; font-family: verdana; vertical-align: top;\"><th style=\"vertical-align: top; text-align : left; background-color: white; padding:0px 4px 0px 4px\" class=\"heirarchy\"><a title=\"The logical name of the element\" href=\"formats.html#table\">Name</a></th><th style=\"vertical-align: top; text-align : left; background-color: white; padding:0px 4px 0px 4px\" class=\"heirarchy\"><a title=\"Information about the use of the element\" href=\"formats.html#table\">Flags</a></th><th style=\"vertical-align: top; text-align : left; background-color: white; padding:0px 4px 0px 4px\" class=\"heirarchy\"><a title=\"Minimum and Maximum # of times the the element can appear in the instance\" href=\"formats.html#table\">Card.</a></th><th style=\"width: 100px\" class=\"heirarchy\"><a title=\"Reference to the type of the element\" href=\"formats.html#table\">Type</a></th><th style=\"vertical-align: top; text-align : left; background-color: white; padding:0px 4px 0px 4px\" class=\"heirarchy\"><a title=\"Additional information about the element\" href=\"formats.html#table\">Description &amp; Constraints</a><span style=\"float: right\"><a title=\"Legend for this format\" href=\"formats.html#table\"><img style=\"background-color: inherit\" alt=\"doco\" src=\"help16.png\"/></a></span></th></tr><tr style=\"border: 0px; padding:0px; vertical-align: top; background-color: white;\"><td style=\"vertical-align: top; text-align : left; background-color: white; padding:0px 4px 0px 4px; white-space: nowrap; background-image: url(data: image/png;base64,iVBORw0KGgoAAAANSUhEUgAAAyAAAAACCAYAAACg/LjIAAAAL0lEQVR42u3XsQ0AQAgCQHdl/xn8jxvYWB3JlTR0VJLa+OltBwAAYP6EEQAAgCsPVYVAgIJrA/sAAAAASUVORK5CYII=)\" class=\"heirarchy\"><img style=\"background-color: inherit\" alt=\".\" class=\"heirarchy\" src=\"data: image/png;base64,\"/><img title=\"Element\" style=\"background-color: white; background-color: inherit\" alt=\".\" class=\"heirarchy\" src=\"data: image/png;base64,\"/> <a title=\"Annotation : A  text note which also  contains information about who made the statement and when.\" href=\"datatypes-definitions.html#Annotation\">Annotation</a><a name=\"Annotation\"> </a></td><td style=\"vertical-align: top; text-align : left; background-color: white; padding:0px 4px 0px 4px\" class=\"heirarchy\"/><td style=\"vertical-align: top; text-align : left; background-color: white; padding:0px 4px 0px 4px\" class=\"heirarchy\"></td><td style=\"vertical-align: top; text-align : left; background-color: white; padding:0px 4px 0px 4px\" class=\"heirarchy\"><a href=\"element.html\">Element</a></td><td style=\"vertical-align: top; text-align : left; background-color: white; padding:0px 4px 0px 4px\" class=\"heirarchy\">Text node with attribution</td></tr>\r\n<tr style=\"border: 0px; padding:0px; vertical-align: top; background-color: white;\"><td style=\"vertical-align: top; text-align : left; background-color: white; padding:0px 4px 0px 4px; white-space: nowrap; background-image: url(data: image/png;base64,iVBORw0KGgoAAAANSUhEUgAAAyAAAAACCAYAAACg/LjIAAAAL0lEQVR42u3XsQ0AQAgCQHdl/xn8jxvYWB3JlTR0VJLa+OltBwAAYP6EEQAAgCsPVYVAgIJrA/sAAAAASUVORK5CYII=)\" class=\"heirarchy\"><img style=\"background-color: inherit\" alt=\".\" class=\"heirarchy\" src=\"data: image/png;base64,\"/><img style=\"background-color: inherit\" alt=\".\" class=\"heirarchy\" src=\"data: image/png;base64,\"/><img title=\"Choice of Types\" style=\"background-color: white; background-color: inherit\" alt=\".\" class=\"heirarchy\" src=\"data: image/png;base64,\"/> <a title=\"Annotation.author[x] : The individual responsible for making the annotation.\" href=\"datatypes-definitions.html#Annotation.author_x_\">author[x]</a><a name=\"Annotation.author_x_\"> </a></td><td style=\"vertical-align: top; text-align : left; background-color: white; padding:0px 4px 0px 4px\" class=\"heirarchy\"/><td style=\"vertical-align: top; text-align : left; background-color: white; padding:0px 4px 0px 4px\" class=\"heirarchy\">0..1</td><td style=\"vertical-align: top; text-align : left; background-color: white; padding:0px 4px 0px 4px\" class=\"heirarchy\"></td><td style=\"vertical-align: top; text-align : left; background-color: white; padding:0px 4px 0px 4px\" class=\"heirarchy\">Individual responsible for the annotation</td></tr>\r\n<tr style=\"border: 0px; padding:0px; vertical-align: top; background-color: white;\"><td style=\"vertical-align: top; text-align : left; background-color: white; padding:0px 4px 0px 4px; white-space: nowrap; background-image: url(data: image/png;base64,iVBORw0KGgoAAAANSUhEUgAAAyAAAAACCAYAAACg/LjIAAAAMElEQVR42u3QwQkAMAwDsezq/WdoskKgFAoy6HkfV5LamJ1tc7MHAAD+5QQAAOCZBkurQFbnaRSlAAAAAElFTkSuQmCC)\" class=\"heirarchy\"><img style=\"background-color: inherit\" alt=\".\" class=\"heirarchy\" src=\"data: image/png;base64,\"/><img style=\"background-color: inherit\" alt=\".\" class=\"heirarchy\" src=\"data: image/png;base64,\"/><img style=\"background-color: inherit\" alt=\".\" class=\"heirarchy\" src=\"data: image/png;base64,\"/><img title=\"Reference to another Resource\" style=\"background-color: white; background-color: inherit\" alt=\".\" class=\"heirarchy\" src=\"data: image/png;base64,\"/> authorReference</td><td style=\"vertical-align: top; text-align : left; background-color: white; padding:0px 4px 0px 4px\" class=\"heirarchy\"/><td style=\"vertical-align: top; text-align : left; background-color: white; padding:0px 4px 0px 4px\" class=\"heirarchy\"></td><td style=\"vertical-align: top; text-align : left; background-color: white; padding:0px 4px 0px 4px\" class=\"heirarchy\"><a href=\"practitioner.html\">Practitioner</a> | <a href=\"patient.html\">Patient</a> | <a href=\"relatedperson.html\">RelatedPerson</a></td><td style=\"vertical-align: top; text-align : left; background-color: white; padding:0px 4px 0px 4px\" class=\"heirarchy\"/></tr>\r\n<tr style=\"border: 0px; padding:0px; vertical-align: top; background-color: white;\"><td style=\"vertical-align: top; text-align : left; background-color: white; padding:0px 4px 0px 4px; white-space: nowrap; background-image: url(data: image/png;base64,iVBORw0KGgoAAAANSUhEUgAAAyAAAAACCAYAAACg/LjIAAAAL0lEQVR42u3XsQ0AQAgCQHdl/xn8jxvYWB3JlTR0VJLa+OltBwAAYP6EEQAAgCsPVYVAgIJrA/sAAAAASUVORK5CYII=)\" class=\"heirarchy\"><img style=\"background-color: inherit\" alt=\".\" class=\"heirarchy\" src=\"data: image/png;base64,\"/><img style=\"background-color: inherit\" alt=\".\" class=\"heirarchy\" src=\"data: image/png;base64,\"/><img style=\"background-color: inherit\" alt=\".\" class=\"heirarchy\" src=\"data: image/png;base64,\"/><img title=\"Primitive Data Type\" style=\"background-color: white; background-color: inherit\" alt=\".\" class=\"heirarchy\" src=\"data: image/png;base64,\"/> <span title=\"A sequence of Unicode characters\">authorString</span></td><td style=\"vertical-align: top; text-align : left; background-color: white; padding:0px 4px 0px 4px\" class=\"heirarchy\"/><td style=\"vertical-align: top; text-align : left; background-color: white; padding:0px 4px 0px 4px\" class=\"heirarchy\"></td><td style=\"vertical-align: top; text-align : left; background-color: white; padding:0px 4px 0px 4px\" class=\"heirarchy\"><a href=\"datatypes.html#string\">string</a></td><td style=\"vertical-align: top; text-align : left; background-color: white; padding:0px 4px 0px 4px\" class=\"heirarchy\"/></tr>\r\n<tr style=\"border: 0px; padding:0px; vertical-align: top; background-color: white;\"><td style=\"vertical-align: top; text-align : left; background-color: white; padding:0px 4px 0px 4px; white-space: nowrap; background-image: url(data: image/png;base64,iVBORw0KGgoAAAANSUhEUgAAAyAAAAACCAYAAACg/LjIAAAAL0lEQVR42u3XsQ0AQAgCQHdl/xn8jxvYWB3JlTR0VJLa+OltBwAAYP6EEQAAgCsPVYVAgIJrA/sAAAAASUVORK5CYII=)\" class=\"heirarchy\"><img style=\"background-color: inherit\" alt=\".\" class=\"heirarchy\" src=\"data: image/png;base64,\"/><img style=\"background-color: inherit\" alt=\".\" class=\"heirarchy\" src=\"data: image/png;base64,\"/><img title=\"Primitive Data Type\" style=\"background-color: white; background-color: inherit\" alt=\".\" class=\"heirarchy\" src=\"data: image/png;base64,\"/> <a title=\"Annotation.time : Indicates when this particular annotation was made.\" href=\"datatypes-definitions.html#Annotation.time\">time</a><a name=\"Annotation.time\"> </a></td><td style=\"vertical-align: top; text-align : left; background-color: white; padding:0px 4px 0px 4px\" class=\"heirarchy\"/><td style=\"vertical-align: top; text-align : left; background-color: white; padding:0px 4px 0px 4px\" class=\"heirarchy\">0..1</td><td style=\"vertical-align: top; text-align : left; background-color: white; padding:0px 4px 0px 4px\" class=\"heirarchy\"><a href=\"datatypes.html#dateTime\">dateTime</a></td><td style=\"vertical-align: top; text-align : left; background-color: white; padding:0px 4px 0px 4px\" class=\"heirarchy\">When the annotation was made</td></tr>\r\n<tr style=\"border: 0px; padding:0px; vertical-align: top; background-color: white;\"><td style=\"vertical-align: top; text-align : left; background-color: white; padding:0px 4px 0px 4px; white-space: nowrap; background-image: url(data: image/png;base64,iVBORw0KGgoAAAANSUhEUgAAAyAAAAACCAYAAACg/LjIAAAAI0lEQVR42u3QIQEAAAACIL/6/4MvTAQOkLYBAAB4kAAAANwMad9AqkRjgNAAAAAASUVORK5CYII=)\" class=\"heirarchy\"><img style=\"background-color: inherit\" alt=\".\" class=\"heirarchy\" src=\"data: image/png;base64,\"/><img style=\"background-color: inherit\" alt=\".\" class=\"heirarchy\" src=\"data: image/png;base64,\"/><img title=\"Primitive Data Type\" style=\"background-color: white; background-color: inherit\" alt=\".\" class=\"heirarchy\" src=\"data: image/png;base64,\"/> <a title=\"Annotation.text : The text of the annotation.\" href=\"datatypes-definitions.html#Annotation.text\">text</a><a name=\"Annotation.text\"> </a></td><td style=\"vertical-align: top; text-align : left; background-color: white; padding:0px 4px 0px 4px\" class=\"heirarchy\"/><td style=\"vertical-align: top; text-align : left; background-color: white; padding:0px 4px 0px 4px\" class=\"heirarchy\">1..1</td><td style=\"vertical-align: top; text-align : left; background-color: white; padding:0px 4px 0px 4px\" class=\"heirarchy\"><a href=\"datatypes.html#string\">string</a></td><td style=\"vertical-align: top; text-align : left; background-color: white; padding:0px 4px 0px 4px\" class=\"heirarchy\">The annotation  - text content</td></tr>\r\n</table></div>"
  },
  "url": "http://hl7.org/fhir/StructureDefinition/Annotation",
  "name": "Annotation",
  "publisher": "HL7 FHIR Standard",
  "contact": [
    {
      "telecom": [
        {
          "system": "url",
          "value": "http://hl7.org/fhir"
        }
      ]
    }
  ],
  "description": "Base StructureDefinition for Annotation Resource",
  "status": "draft",
  "date": "2015-07-14T16:14:24+00:00",
  "mapping": [
    {
      "identity": "v2",
      "uri": "http://hl7.org/v2",
      "name": "HL7 v2"
    },
    {
      "identity": "rim",
      "uri": "http://hl7.org/v3",
      "name": "RIM"
    }
  ],
  "kind": "datatype",
  "abstract": false,
  "base": "http://hl7.org/fhir/StructureDefinition/Element",
  "snapshot": {
    "element": [
      {
        "path": "Annotation",
        "short": "Text node with attribution",
        "definition": "A  text note which also  contains information about who made the statement and when.",
        "comments": "For systems that do not have structured annotations, they can simply communicate a single annotation with no author or time. \nThis element may need to be included in narrative because of the potential for modifying information. \n*Annotations SHOULD NOT* be used to communicate \"modifying\" information that could be computable. (This is a SHOULD because enforcing user behavior is nearly impossible).",
        "min": 1,
        "max": "1",
        "type": [
          {
            "code": "Element"
          }
        ],
        "mapping": [
          {
            "identity": "v2",
            "map": "N/A"
          },
          {
            "identity": "rim",
            "map": "Act"
          }
        ]
      },
      {
        "path": "Annotation.id",
        "representation": [
          "xmlAttr"
        ],
        "short": "xml:id (or equivalent in JSON)",
        "definition": "unique id for the element within a resource (for internal references).",
        "min": 0,
        "max": "1",
        "type": [
          {
            "code": "id"
          }
        ],
        "mapping": [
          {
            "identity": "rim",
            "map": "n/a"
          }
        ]
      },
      {
        "path": "Annotation.extension",
        "short": "Additional Content defined by implementations",
        "definition": "May be used to represent additional information that is not part of the basic definition of the element. In order to make the use of extensions safe and manageable, there is a strict set of governance  applied to the definition and use of extensions. Though any implementer is allowed to define an extension, there is a set of requirements that SHALL be met as part of the definition of the extension.",
        "comments": "There can be no stigma associated with the use of extensions by any application, project, or standard - regardless of the institution or jurisdiction that uses or defines the extensions.  The use of extensions is what allows the FHIR specification to retain a core level of simplicity for everyone.",
        "alias": [
          "extensions",
          "user content"
        ],
        "min": 0,
        "max": "*",
        "type": [
          {
            "code": "Extension"
          }
        ],
        "mapping": [
          {
            "identity": "rim",
            "map": "n/a"
          }
        ]
      },
      {
        "path": "Annotation.author[x]",
        "short": "Individual responsible for the annotation",
        "definition": "The individual responsible for making the annotation.",
        "min": 0,
        "max": "1",
        "type": [
          {
            "code": "Reference",
            "profile": [
              "http://hl7.org/fhir/StructureDefinition/Practitioner"
            ]
          },
          {
            "code": "Reference",
            "profile": [
              "http://hl7.org/fhir/StructureDefinition/Patient"
            ]
          },
          {
            "code": "Reference",
            "profile": [
              "http://hl7.org/fhir/StructureDefinition/RelatedPerson"
            ]
          },
          {
            "code": "string"
          }
        ],
        "mapping": [
          {
            "identity": "v2",
            "map": "N/A"
          },
          {
            "identity": "rim",
            "map": "Act.participant[typeCode=AUT].role"
          }
        ]
      },
      {
        "path": "Annotation.time",
        "short": "When the annotation was made",
        "definition": "Indicates when this particular annotation was made.",
        "min": 0,
        "max": "1",
        "type": [
          {
            "code": "dateTime"
          }
        ],
        "mapping": [
          {
            "identity": "v2",
            "map": "N/A"
          },
          {
            "identity": "rim",
            "map": "Act.effectiveTime"
          }
        ]
      },
      {
        "path": "Annotation.text",
        "short": "The annotation  - text content",
        "definition": "The text of the annotation.",
        "min": 1,
        "max": "1",
        "type": [
          {
            "code": "string"
          }
        ],
        "mapping": [
          {
            "identity": "v2",
            "map": "N/A"
          },
          {
            "identity": "rim",
            "map": "Act.text"
          }
        ]
      }
    ]
  },
  "differential": {
    "element": [
      {
        "path": "Annotation",
        "short": "Text node with attribution",
        "definition": "A  text note which also  contains information about who made the statement and when.",
        "comments": "For systems that do not have structured annotations, they can simply communicate a single annotation with no author or time. \nThis element may need to be included in narrative because of the potential for modifying information. \n*Annotations SHOULD NOT* be used to communicate \"modifying\" information that could be computable. (This is a SHOULD because enforcing user behavior is nearly impossible).",
        "min": 1,
        "max": "1",
        "type": [
          {
            "code": "Element"
          }
        ],
        "mapping": [
          {
            "identity": "v2",
            "map": "N/A"
          },
          {
            "identity": "rim",
            "map": "Act"
          }
        ]
      },
      {
        "path": "Annotation.author[x]",
        "short": "Individual responsible for the annotation",
        "definition": "The individual responsible for making the annotation.",
        "min": 0,
        "max": "1",
        "type": [
          {
            "code": "Reference",
            "profile": [
              "http://hl7.org/fhir/StructureDefinition/Practitioner"
            ]
          },
          {
            "code": "Reference",
            "profile": [
              "http://hl7.org/fhir/StructureDefinition/Patient"
            ]
          },
          {
            "code": "Reference",
            "profile": [
              "http://hl7.org/fhir/StructureDefinition/RelatedPerson"
            ]
          },
          {
            "code": "string"
          }
        ],
        "mapping": [
          {
            "identity": "v2",
            "map": "N/A"
          },
          {
            "identity": "rim",
            "map": "Act.participant[typeCode=AUT].role"
          }
        ]
      },
      {
        "path": "Annotation.time",
        "short": "When the annotation was made",
        "definition": "Indicates when this particular annotation was made.",
        "min": 0,
        "max": "1",
        "type": [
          {
            "code": "dateTime"
          }
        ],
        "mapping": [
          {
            "identity": "v2",
            "map": "N/A"
          },
          {
            "identity": "rim",
            "map": "Act.effectiveTime"
          }
        ]
      },
      {
        "path": "Annotation.text",
        "short": "The annotation  - text content",
        "definition": "The text of the annotation.",
        "min": 1,
        "max": "1",
        "type": [
          {
            "code": "string"
          }
        ],
        "mapping": [
          {
            "identity": "v2",
            "map": "N/A"
          },
          {
            "identity": "rim",
            "map": "Act.text"
          }
        ]
      }
    ]
  }
}