{
  "resourceType": "CarePlan",
  "id": "f201",
  "text": {
    "status": "generated",
    "div": "<div><p><b>Generated Narrative with Details</b></p><p><b>id</b>: f201</p><p><b>contained</b>: </p><p><b>patient</b>: <a>Roel. Generated Summary: BSN = 123456789 (OFFICIAL), BSN = 123456789 (OFFICIAL); Roel(OFFICIAL); ph: +31612345678(MOBILE), ph: +31201234567(HOME); MALE; birthDate: Mar 13, 1960; <span>Legally married</span>; active</a></p><p><b>status</b>: planned</p><p><b>period</b>: Mar 11, 2013 --&gt; Mar 13, 2013</p><p><b>modified</b>: Mar 11, 2013</p><p><b>concern</b>: <a>Roel's renal insufficiency. Generated Summary: ????; dateAsserted: Mar 11, 2013; <span>Acute renal insufficiency specified as due to procedure</span>; <span>Problem</span>; WORKING; <span>Severe</span>; onset: Mar 11, 2013; abatement: Mar 20, 2013</a></p><blockquote><p><b>participant</b></p><p><b>role</b>: Review of care plan <span>(Details : {SNOMED CT code '425268008' = 'Review of care plan', given as 'Review of care plan'})</span></p><p><b>member</b>: <a>Dokter Bronsig. Generated Summary: UZI-nummer = 12345678901 (OFFICIAL); Dokter Bronsig(OFFICIAL); ph: +31715269111(WORK); MALE; birthDate: Dec 24, 1956</a></p></blockquote><blockquote><p><b>participant</b></p><p><b>role</b>: Carer <span>(Details : {SNOMED CT code '229774002' = 'Carer', given as 'Carer'})</span></p><p><b>member</b>: <a>Nurse Carla Espinosa. Generated Summary: UZI-nummer = 12345678904 (OFFICIAL); Carla Espinosa; ph: +31715262169(WORK); FEMALE; birthDate: Nov 5, 1967</a></p></blockquote><p><b>goal</b>: id: goal; description: Re-established renal function with at least healthy nutrients.; status: achieved</p><blockquote><p><b>activity</b></p><h3>Details</h3><table><tr><td>-</td><td><b>Category</b></td><td><b>Code</b></td><td><b>Status</b></td><td><b>Prohibited</b></td><td><b>Scheduled[x]</b></td><td><b>Product</b></td><td><b>DailyAmount</b></td></tr><tr><td>*</td><td>diet</td><td>Potassium supplementation <span>(Details : {SNOMED CT code '284093001' = 'Potassium supplementation', given as 'Potassium supplementation'})</span></td><td>completed</td><td>false</td><td>daily</td><td><a>Potassium. Generated Summary: <span>Potassium</span></a></td><td>80 mmol<span> (Details: SNOMED CT code 258718000 = 'millimole (qualifier value)')</span></td></tr></table></blockquote><blockquote><p><b>activity</b></p><h3>Details</h3><table><tr><td>-</td><td><b>Category</b></td><td><b>Code</b></td><td><b>Status</b></td><td><b>Prohibited</b></td></tr><tr><td>*</td><td>observation</td><td>Echography of kidney <span>(Details : {SNOMED CT code '306005' = 'US kidneys', given as 'Echography of kidney'})</span></td><td>completed</td><td>false</td></tr></table></blockquote></div>"
  },
  "contained": [
    {
      "resourceType": "Goal",
      "id": "goal",
      "patient": {
        "reference": "Patient/f201",
        "display": "Roel"
      },
      "description": "Re-established renal function with at least healthy nutrients.",
      "status": "achieved"
    }
  ],
  "patient": {
    "reference": "Patient/f201",
    "display": "Roel"
  },
  "status": "planned",
  "period": {
    "start": "2013-03-11",
    "end": "2013-03-13"
  },
  "modified": "2013-03-11",
  "concern": [
    {
      "reference": "Condition/f204",
      "display": "Roel's renal insufficiency"
    }
  ],
  "participant": [
    {
      "role": {
        "coding": [
          {
            "system": "http://snomed.info/sct",
            "code": "425268008",
            "display": "Review of care plan"
          }
        ]
      },
      "member": {
        "reference": "Practitioner/f201",
        "display": "Dokter Bronsig"
      }
    },
    {
      "role": {
        "coding": [
          {
            "system": "http://snomed.info/sct",
            "code": "229774002",
            "display": "Carer"
          }
        ]
      },
      "member": {
        "reference": "Practitioner/f204",
        "display": "Nurse Carla Espinosa"
      }
    }
  ],
  "goal": [
    {
      "reference": "#goal"
    }
  ],
  "activity": [
    {
      "detail": {
        "category": "diet",
        "code": {
          "coding": [
            {
              "system": "http://snomed.info/sct",
              "code": "284093001",
              "display": "Potassium supplementation"
            }
          ]
        },
        "status": "completed",
        "prohibited": false,
        "scheduledString": "daily",
        "product": {
          "reference": "Substance/f203",
          "display": "Potassium"
        },
        "dailyAmount": {
          "value": 80,
          "units": "mmol",
          "system": "http://snomed.info/sct",
          "code": "258718000"
        }
      }
    },
    {
      "detail": {
        "category": "observation",
        "code": {
          "coding": [
            {
              "system": "http://snomed.info/sct",
              "code": "306005",
              "display": "Echography of kidney"
            }
          ]
        },
        "status": "completed",
        "prohibited": false
      }
    }
  ]
}