{
  "resourceType": "CarePlan",
  "id": "f202",
  "text": {
    "status": "generated",
    "div": "<div><p><b>Generated Narrative with Details</b></p><p><b>id</b>: f202</p><p><b>contained</b>: , , , , </p><p><b>patient</b>: <a>Roel. Generated Summary: BSN = 123456789 (OFFICIAL), BSN = 123456789 (OFFICIAL); Roel(OFFICIAL); ph: +31612345678(MOBILE), ph: +31201234567(HOME); MALE; birthDate: Mar 13, 1960; <span>Legally married</span>; active</a></p><p><b>status</b>: active</p><p><b>concern</b>: <a>Roel's head-neck tumor. Generated Summary: dateAsserted: Dec 1, 2012; <span>Malignant neoplastic disease</span>; <span>Diagnosis</span>; CONFIRMED; <span>Severe</span>; 52 years</a></p><h3>Participants</h3><table><tr><td>-</td><td><b>Role</b></td><td><b>Member</b></td></tr><tr><td>*</td><td>Treated with <span>(Details : {SNOMED CT code '28995006' = 'TW', given as 'Treated with'})</span></td><td><a>Dokter Bronsig. Generated Summary: UZI-nummer = 12345678901 (OFFICIAL); Dokter Bronsig(OFFICIAL); ph: +31715269111(WORK); MALE; birthDate: Dec 24, 1956</a></td></tr></table><p><b>goal</b>: id: goal; description: Elimination of the spenoid bone tumor; status: in-progress</p><blockquote><p><b>activity</b></p><p><b>actionResulting</b>: <a>Roel's Chemotherapy. Generated Summary: COMPLETED; <span>Chemotherapy</span>; <span>DiagnosticReport/f201</span>; performed: Jan 28, 2013 1:31:00 PM --&gt; Jan 28, 2013 2:27:00 PM; notes: Eerste neo-adjuvante TPF-kuur bij groot proces in sphenoid met intracraniale uitbreiding.</a></p><h3>Details</h3><table><tr><td>-</td><td><b>Category</b></td><td><b>Code</b></td><td><b>Status</b></td><td><b>Prohibited</b></td><td><b>Product</b></td></tr><tr><td>*</td><td>procedure</td><td>Chemotherapy <span>(Details : {SNOMED CT code '367336001' = 'Chemotherapy', given as 'Chemotherapy'})</span></td><td>in-progress</td><td>false</td><td>id: tpf; name: TPF</td></tr></table></blockquote></div>"
  },
  "contained": [
    {
      "resourceType": "Medication",
      "id": "doce",
      "name": "Docetaxel",
      "code": {
        "coding": [
          {
            "system": "http://snomed.info/sct",
            "code": "108806006"
          }
        ]
      }
    },
    {
      "resourceType": "Medication",
      "id": "cisp",
      "name": "Cisplatin",
      "code": {
        "coding": [
          {
            "system": "http://snomed.info/sct",
            "code": "57066004"
          }
        ]
      }
    },
    {
      "resourceType": "Medication",
      "id": "fluo",
      "name": "5-Fluorouracil",
      "code": {
        "coding": [
          {
            "system": "http://snomed.info/sct",
            "code": "3127006"
          }
        ]
      }
    },
    {
      "resourceType": "Medication",
      "id": "tpf",
      "name": "TPF",
      "product": {
        "ingredient": [
          {
            "item": {
              "reference": "#doce"
            }
          },
          {
            "item": {
              "reference": "#cisp"
            }
          },
          {
            "item": {
              "reference": "#fluo"
            }
          }
        ]
      }
    },
    {
      "resourceType": "Goal",
      "id": "goal",
      "patient": {
        "reference": "Patient/f201",
        "display": "Roel"
      },
      "description": "Elimination of the spenoid bone tumor",
      "status": "in-progress"
    }
  ],
  "patient": {
    "reference": "Patient/f201",
    "display": "Roel"
  },
  "status": "active",
  "concern": [
    {
      "reference": "Condition/f202",
      "display": "Roel's head-neck tumor"
    }
  ],
  "participant": [
    {
      "role": {
        "coding": [
          {
            "system": "http://snomed.info/sct",
            "code": "28995006",
            "display": "Treated with"
          }
        ]
      },
      "member": {
        "reference": "Practitioner/f201",
        "display": "Dokter Bronsig"
      }
    }
  ],
  "goal": [
    {
      "reference": "#goal"
    }
  ],
  "activity": [
    {
      "actionResulting": [
        {
          "reference": "Procedure/f201",
          "display": "Roel's Chemotherapy"
        }
      ],
      "detail": {
        "category": "procedure",
        "code": {
          "coding": [
            {
              "system": "http://snomed.info/sct",
              "code": "367336001",
              "display": "Chemotherapy"
            }
          ]
        },
        "status": "in-progress",
        "prohibited": false,
        "product": {
          "reference": "#tpf"
        }
      }
    }
  ]
}