<?xml version="1.0" encoding="UTF-8"?><svg xmlns="http://www.w3.org/2000/svg" xmlns:xlink="http://www.w3.org/1999/xlink" version="1.1" width="1086.0" height="748.0">  <defs>
    <filter id="shadow1" x="0" y="0" width="200%" height="200%">
      <feOffset result="offOut" in="SourceGraphic" dx="3" dy="3" />
      <feColorMatrix result="matrixOut" in="offOut" type="matrix" values="0.2 0 0 0 0 0 0.2 0 0 0 0 0 0.2 0 0 0 0 0 1 0" />
      <feGaussianBlur result="blurOut" in="matrixOut" stdDeviation="2" />
      <feBlend in="SourceGraphic" in2="blurOut" mode="normal" />
    </filter>
  </defs><rect x="0.0" y="0.0" rx="4" ry="4" width="268.0" height="386.0" filter="url(#shadow1)" style="fill:#f0f8ff;stroke:black;stroke-width:1"/><line x1="0.0" y1="28.0" x2="268.0" y2="28.0" style="stroke:dimgrey;stroke-width:1"/><text x="134.0" y="20.0" fill="black" class="diagram-class-title  diagram-class-resource">Claim<tspan class="diagram-class-title-link"> (<a xlink:href="domainresource.html" class="diagram-class-reference">DomainResource</a>)</tspan></text><text x="6.0" y="42.0" fill="black" class="diagram-class-detail"><a xlink:href="claim-definitions.html#Claim.type"><title>The category of claim this is</title>type</a> : <a xlink:href="datatypes.html#code">code</a> 1..1 « <a xlink:href="valueset-type-link.html"><title>The type or discipline-style of the claim</title>ClaimType</a> »</text><text x="6.0" y="56.0" fill="black" class="diagram-class-detail"><a xlink:href="claim-definitions.html#Claim.identifier"><title>The business identifier for the instance: invoice number, claim number, pre-determination or pre-authorization number</title>identifier</a> : <a xlink:href="datatypes.html#Identifier">Identifier</a> 0..*</text><text x="6.0" y="70.0" fill="black" class="diagram-class-detail"><a xlink:href="claim-definitions.html#Claim.ruleset"><title>The version of the specification on which this instance relies</title>ruleset</a> : <a xlink:href="datatypes.html#Coding">Coding</a> 0..1 « (<a xlink:href="valueset-ruleset.html"><title>The static and dynamic model to which contents conform, may be business version or standard and version.</title>Ruleset Codes</a>) »</text><text x="6.0" y="84.0" fill="black" class="diagram-class-detail"><a xlink:href="claim-definitions.html#Claim.originalRuleset"><title>The version of the specification from which the original instance was created</title>originalRuleset</a> : <a xlink:href="datatypes.html#Coding">Coding</a> 0..1 « (<a xlink:href="valueset-ruleset.html"><title>The static and dynamic model to which contents conform, may be business version or standard and version.</title>Ruleset Codes</a>) »</text><text x="6.0" y="98.0" fill="black" class="diagram-class-detail"><a xlink:href="claim-definitions.html#Claim.created"><title>The date when the enclosed suite of services were performed or completed</title>created</a> : <a xlink:href="datatypes.html#dateTime">dateTime</a> 0..1</text><text x="6.0" y="112.0" fill="black" class="diagram-class-detail"><a xlink:href="claim-definitions.html#Claim.target"><title>Insurer Identifier, typical BIN number (6 digit)</title>target</a> : <a xlink:href="references.html#Reference">Reference</a>(<a xlink:href="organization.html#Organization">Organization</a>) 0..1</text><text x="6.0" y="126.0" fill="black" class="diagram-class-detail"><a xlink:href="claim-definitions.html#Claim.provider"><title>The provider which is responsible for the bill, claim pre-determination, pre-authorization</title>provider</a> : <a xlink:href="references.html#Reference">Reference</a>(<a xlink:href="practitioner.html#Practitioner">Practitioner</a>) 0..1</text><text x="6.0" y="140.0" fill="black" class="diagram-class-detail"><a xlink:href="claim-definitions.html#Claim.organization"><title>The organization which is responsible for the bill, claim pre-determination, pre-authorization</title>organization</a> : <a xlink:href="references.html#Reference">Reference</a>(<a xlink:href="organization.html#Organization">Organization</a>) 0..1</text><text x="6.0" y="154.0" fill="black" class="diagram-class-detail"><a xlink:href="claim-definitions.html#Claim.use"><title>Complete (Bill or Claim), Proposed (Pre-Authorization), Exploratory (Pre-determination)</title>use</a> : <a xlink:href="datatypes.html#code">code</a> 0..1 « <a xlink:href="valueset-use-link.html"><title>Complete, proposed, exploratory, other</title>Use</a> »</text><text x="6.0" y="168.0" fill="black" class="diagram-class-detail"><a xlink:href="claim-definitions.html#Claim.priority"><title>Immediate (STAT), best effort (NORMAL), deferred (DEFER)</title>priority</a> : <a xlink:href="datatypes.html#Coding">Coding</a> 0..1 « (<a xlink:href="valueset-process-priority.html"><title>The timeliness with which processing is required: STAT, normal, Deferred</title>Priority Codes</a>) »</text><text x="6.0" y="182.0" fill="black" class="diagram-class-detail"><a xlink:href="claim-definitions.html#Claim.fundsReserve"><title>In the case of a Pre-Determination/Pre-Authorization the provider may request that funds in the amount of the expected Benefit be reserved (&#39;Patient&#39; or &#39;Provider&#39;) to pay for the Benefits determined on the subsequent claim(s). &#39;None&#39; explicitly indicates no funds reserving is requested</title>fundsReserve</a> : <a xlink:href="datatypes.html#Coding">Coding</a> 0..1 « (<a xlink:href="valueset-fundsreserve.html"><title>For whom funds are to be reserved: (Patient, Provider, None)</title>Funds Reservation Codes</a>) »</text><text x="6.0" y="196.0" fill="black" class="diagram-class-detail"><a xlink:href="claim-definitions.html#Claim.enterer"><title>Person who created the invoice/claim/pre-determination or pre-authorization</title>enterer</a> : <a xlink:href="references.html#Reference">Reference</a>(<a xlink:href="practitioner.html#Practitioner">Practitioner</a>) 0..1</text><text x="6.0" y="210.0" fill="black" class="diagram-class-detail"><a xlink:href="claim-definitions.html#Claim.facility"><title>Facility where the services were provided</title>facility</a> : <a xlink:href="references.html#Reference">Reference</a>(<a xlink:href="location.html#Location">Location</a>) 0..1</text><text x="6.0" y="224.0" fill="black" class="diagram-class-detail"><a xlink:href="claim-definitions.html#Claim.prescription"><title>Prescription to support the dispensing of Pharmacy or Vision products</title>prescription</a> : <a xlink:href="references.html#Reference">Reference</a>(<a xlink:href="medicationprescription.html#MedicationPrescription">MedicationPrescription</a>|</text><text x="26.0" y="238.0" fill="black" class="diagram-class-detail">     <a xlink:href="visionprescription.html#VisionPrescription">VisionPrescription</a>) 0..1</text><text x="6.0" y="252.0" fill="black" class="diagram-class-detail"><a xlink:href="claim-definitions.html#Claim.originalPrescription"><title>Original prescription to support the dispensing of pharmacy services, medications or products</title>originalPrescription</a> : <a xlink:href="references.html#Reference">Reference</a>(<a xlink:href="medicationprescription.html#MedicationPrescription">MedicationPrescription</a>) 0..1</text><text x="6.0" y="266.0" fill="black" class="diagram-class-detail"><a xlink:href="claim-definitions.html#Claim.referral"><title>The referral resource which lists the date, practitioner, reason and other supporting information</title>referral</a> : <a xlink:href="references.html#Reference">Reference</a>(<a xlink:href="referralrequest.html#ReferralRequest">ReferralRequest</a>) 0..1</text><text x="6.0" y="280.0" fill="black" class="diagram-class-detail"><a xlink:href="claim-definitions.html#Claim.condition"><title>List of patient conditions for which care is sought</title>condition</a> : <a xlink:href="datatypes.html#Coding">Coding</a> 0..* « (<a xlink:href="valueset-fm-conditions.html"><title>Patient conditions and symptoms</title>Conditions Codes</a>) »</text><text x="6.0" y="294.0" fill="black" class="diagram-class-detail"><a xlink:href="claim-definitions.html#Claim.patient"><title>Patient Resource</title>patient</a> : <a xlink:href="references.html#Reference">Reference</a>(<a xlink:href="patient.html#Patient">Patient</a>) 1..1</text><text x="6.0" y="308.0" fill="black" class="diagram-class-detail"><a xlink:href="claim-definitions.html#Claim.exception"><title>Factors which may influence the applicability of coverage</title>exception</a> : <a xlink:href="datatypes.html#Coding">Coding</a> 0..* « (<a xlink:href="valueset-exception.html"><title>The eligibility exception codes.</title>Exception Codes</a>) »</text><text x="6.0" y="322.0" fill="black" class="diagram-class-detail"><a xlink:href="claim-definitions.html#Claim.school"><title>Name of school for over-aged dependants</title>school</a> : <a xlink:href="datatypes.html#string">string</a> 0..1</text><text x="6.0" y="336.0" fill="black" class="diagram-class-detail"><a xlink:href="claim-definitions.html#Claim.accident"><title>Date of an accident which these services are addressing</title>accident</a> : <a xlink:href="datatypes.html#date">date</a> 0..1</text><text x="6.0" y="350.0" fill="black" class="diagram-class-detail"><a xlink:href="claim-definitions.html#Claim.accidentType"><title>Type of accident: work, auto, etc</title>accidentType</a> : <a xlink:href="datatypes.html#Coding">Coding</a> 0..1 « <a xlink:href="v3/vs/ActIncidentCode/index.html"><title>Type of accident: work place, auto, etc.</title>ActIncidentCode</a> »</text><text x="6.0" y="364.0" fill="black" class="diagram-class-detail"><a xlink:href="claim-definitions.html#Claim.interventionException"><title>A list of intervention and exception codes which may influence the adjudication of the claim</title>interventionException</a> : <a xlink:href="datatypes.html#Coding">Coding</a> 0..* « (<a xlink:href="valueset-intervention.html"><title>Intervention and exception codes (Pharm)</title>Intervention Codes</a>) »</text><text x="6.0" y="378.0" fill="black" class="diagram-class-detail"><a xlink:href="claim-definitions.html#Claim.additionalMaterials"><title>Code to indicate that Xrays, images, emails, documents, models or attachments are being sent in support of this submission</title>additionalMaterials</a> : <a xlink:href="datatypes.html#Coding">Coding</a> 0..* « (<a xlink:href="valueset-additionalmaterials.html"><title>Code to indicate that Xrays, images, emails, documents, models or attachments are being sent in support of this submission.</title>Additional Material Codes</a>) »</text><rect x="340.0" y="0.0" rx="4" ry="4" width="180.0" height="92.0" filter="url(#shadow1)" style="fill:#f0f8ff;stroke:black;stroke-width:1"/><line x1="340.0" y1="28.0" x2="520.0" y2="28.0" style="stroke:dimgrey;stroke-width:1"/><text x="430.0" y="20.0" fill="black" class="diagram-class-title">Payee</text><text x="346.0" y="42.0" fill="black" class="diagram-class-detail"><a xlink:href="claim-definitions.html#Claim.payee.type"><title>Party to be reimbursed: Subscriber, provider, other</title>type</a> : <a xlink:href="datatypes.html#Coding">Coding</a> 0..1 « (<a xlink:href="valueset-payeetype.html"><title>A code for the party to be reimbursed.</title>Payee type Codes</a>) »</text><text x="346.0" y="56.0" fill="black" class="diagram-class-detail"><a xlink:href="claim-definitions.html#Claim.payee.provider"><title>The provider who is to be reimbursed for the claim (the party to whom any benefit is assigned)</title>provider</a> : <a xlink:href="references.html#Reference">Reference</a>(<a xlink:href="practitioner.html#Practitioner">Practitioner</a>) 0..1</text><text x="346.0" y="70.0" fill="black" class="diagram-class-detail"><a xlink:href="claim-definitions.html#Claim.payee.organization"><title>The organization who is to be reimbursed for the claim (the party to whom any benefit is assigned)</title>organization</a> : <a xlink:href="references.html#Reference">Reference</a>(<a xlink:href="organization.html#Organization">Organization</a>) 0..1</text><text x="346.0" y="84.0" fill="black" class="diagram-class-detail"><a xlink:href="claim-definitions.html#Claim.payee.person"><title>The person other than the subscriber who is to be reimbursed for the claim (the party to whom any benefit is assigned)</title>person</a> : <a xlink:href="references.html#Reference">Reference</a>(<a xlink:href="patient.html#Patient">Patient</a>) 0..1</text><rect x="340.0" y="120.0" rx="4" ry="4" width="176.0" height="64.0" filter="url(#shadow1)" style="fill:#f0f8ff;stroke:black;stroke-width:1"/><line x1="340.0" y1="148.0" x2="516.0" y2="148.0" style="stroke:dimgrey;stroke-width:1"/><text x="428.0" y="140.0" fill="black" class="diagram-class-title">Diagnosis</text><text x="346.0" y="162.0" fill="black" class="diagram-class-detail"><a xlink:href="claim-definitions.html#Claim.diagnosis.sequence"><title>Sequence of diagnosis which serves to order and provide a link</title>sequence</a> : <a xlink:href="datatypes.html#positiveInt">positiveInt</a> 1..1</text><text x="346.0" y="176.0" fill="black" class="diagram-class-detail"><a xlink:href="claim-definitions.html#Claim.diagnosis.diagnosis"><title>The diagnosis</title>diagnosis</a> : <a xlink:href="datatypes.html#Coding">Coding</a> 1..1 « (<a xlink:href="valueset-icd-10.html"><title>ICD10 Diagnostic codes</title>ICD-10 Codes</a>) »</text><rect x="340.0" y="200.0" rx="4" ry="4" width="204.0" height="148.0" filter="url(#shadow1)" style="fill:#f0f8ff;stroke:black;stroke-width:1"/><line x1="340.0" y1="228.0" x2="544.0" y2="228.0" style="stroke:dimgrey;stroke-width:1"/><text x="442.0" y="220.0" fill="black" class="diagram-class-title">Coverage</text><text x="346.0" y="242.0" fill="black" class="diagram-class-detail"><a xlink:href="claim-definitions.html#Claim.coverage.sequence"><title>A service line item</title>sequence</a> : <a xlink:href="datatypes.html#positiveInt">positiveInt</a> 1..1</text><text x="346.0" y="256.0" fill="black" class="diagram-class-detail"><a xlink:href="claim-definitions.html#Claim.coverage.focal"><title>The instance number of the Coverage which is the focus for adjudication. The Coverage against which the claim is to be adjudicated</title>focal</a> : <a xlink:href="datatypes.html#boolean">boolean</a> 1..1</text><text x="346.0" y="270.0" fill="black" class="diagram-class-detail"><a xlink:href="claim-definitions.html#Claim.coverage.coverage"><title>Reference to the program or plan identification, underwriter or payor</title>coverage</a> : <a xlink:href="references.html#Reference">Reference</a>(<a xlink:href="coverage.html#Coverage">Coverage</a>) 1..1</text><text x="346.0" y="284.0" fill="black" class="diagram-class-detail"><a xlink:href="claim-definitions.html#Claim.coverage.businessArrangement"><title>The contract number of a business agreement which describes the terms and conditions</title>businessArrangement</a> : <a xlink:href="datatypes.html#string">string</a> 0..1</text><text x="346.0" y="298.0" fill="black" class="diagram-class-detail"><a xlink:href="claim-definitions.html#Claim.coverage.relationship"><title>The relationship of the patient to the subscriber</title>relationship</a> : <a xlink:href="datatypes.html#Coding">Coding</a> 1..1 « (<a xlink:href="valueset-relationship.html"><title>The code for the relationship of the patient to the subscriber</title>Surface Codes</a>) »</text><text x="346.0" y="312.0" fill="black" class="diagram-class-detail"><a xlink:href="claim-definitions.html#Claim.coverage.preAuthRef"><title>A list of references from the Insurer to which these services pertain</title>preAuthRef</a> : <a xlink:href="datatypes.html#string">string</a> 0..*</text><text x="346.0" y="326.0" fill="black" class="diagram-class-detail"><a xlink:href="claim-definitions.html#Claim.coverage.claimResponse"><title>The Coverages adjudication details</title>claimResponse</a> : <a xlink:href="references.html#Reference">Reference</a>(<a xlink:href="claimresponse.html#ClaimResponse">ClaimResponse</a>) 0..1</text><text x="346.0" y="340.0" fill="black" class="diagram-class-detail"><a xlink:href="claim-definitions.html#Claim.coverage.originalRuleset"><title>The style (standard) and version of the original material which was converted into this resource</title>originalRuleset</a> : <a xlink:href="datatypes.html#Coding">Coding</a> 0..1 « (<a xlink:href="valueset-ruleset.html"><title>The static and dynamic model to which contents conform, may be business version or standard and version.</title>Ruleset Codes</a>) »</text><rect x="20.0" y="400.0" rx="4" ry="4" width="200.0" height="246.0" filter="url(#shadow1)" style="fill:#f0f8ff;stroke:black;stroke-width:1"/><line x1="20.0" y1="428.0" x2="220.0" y2="428.0" style="stroke:dimgrey;stroke-width:1"/><text x="120.0" y="420.0" fill="black" class="diagram-class-title">Items</text><text x="26.0" y="442.0" fill="black" class="diagram-class-detail"><a xlink:href="claim-definitions.html#Claim.item.sequence"><title>A service line number</title>sequence</a> : <a xlink:href="datatypes.html#positiveInt">positiveInt</a> 1..1</text><text x="26.0" y="456.0" fill="black" class="diagram-class-detail"><a xlink:href="claim-definitions.html#Claim.item.type"><title>The type of product or service</title>type</a> : <a xlink:href="datatypes.html#Coding">Coding</a> 1..1 « <a xlink:href="v3/vs/ActInvoiceGroupCode/index.html"><title>Service, Product, Rx Dispense, Rx Compound etc.</title>ActInvoiceGroupCode</a> »</text><text x="26.0" y="470.0" fill="black" class="diagram-class-detail"><a xlink:href="claim-definitions.html#Claim.item.provider"><title>The practitioner who is responsible for the services rendered to the patient</title>provider</a> : <a xlink:href="references.html#Reference">Reference</a>(<a xlink:href="practitioner.html#Practitioner">Practitioner</a>) 0..1</text><text x="26.0" y="484.0" fill="black" class="diagram-class-detail"><a xlink:href="claim-definitions.html#Claim.item.diagnosisLinkId"><title>Diagnosis applicable for this service or product line</title>diagnosisLinkId</a> : <a xlink:href="datatypes.html#positiveInt">positiveInt</a> 0..*</text><text x="26.0" y="498.0" fill="black" class="diagram-class-detail"><a xlink:href="claim-definitions.html#Claim.item.service"><title>If a grouping item then &#39;GROUP&#39; otherwise it is a node therefore a code to indicate the Professional Service or Product supplied</title>service</a> : <a xlink:href="datatypes.html#Coding">Coding</a> 1..1 « (<a xlink:href="valueset-service-uscls.html"><title>Allowable service and product codes</title>USCLS Codes</a>) »</text><text x="26.0" y="512.0" fill="black" class="diagram-class-detail"><a xlink:href="claim-definitions.html#Claim.item.serviceDate"><title>The date when the enclosed suite of services were performed or completed</title>serviceDate</a> : <a xlink:href="datatypes.html#date">date</a> 0..1</text><text x="26.0" y="526.0" fill="black" class="diagram-class-detail"><a xlink:href="claim-definitions.html#Claim.item.quantity"><title>The number of repetitions of a service or product</title>quantity</a> : <a xlink:href="datatypes.html#Quantity">Quantity</a> 0..1</text><text x="26.0" y="540.0" fill="black" class="diagram-class-detail"><a xlink:href="claim-definitions.html#Claim.item.unitPrice"><title>If the item is a node then this is the fee for the product or service, otherwise this is the total of the fees for the children of the group</title>unitPrice</a> : <a xlink:href="datatypes.html#Money">Money</a> 0..1</text><text x="26.0" y="554.0" fill="black" class="diagram-class-detail"><a xlink:href="claim-definitions.html#Claim.item.factor"><title>A real number that represents a multiplier used in determining the overall value of services delivered and/or goods received. The concept of a Factor allows for a discount or surcharge multiplier to be applied to a monetary amount</title>factor</a> : <a xlink:href="datatypes.html#decimal">decimal</a> 0..1</text><text x="26.0" y="568.0" fill="black" class="diagram-class-detail"><a xlink:href="claim-definitions.html#Claim.item.points"><title>An amount that expresses the weighting (based on difficulty, cost and/or resource intensiveness) associated with the good or service delivered. The concept of Points allows for assignment of point values for services and/or goods, such that a monetary amount can be assigned to each point</title>points</a> : <a xlink:href="datatypes.html#decimal">decimal</a> 0..1</text><text x="26.0" y="582.0" fill="black" class="diagram-class-detail"><a xlink:href="claim-definitions.html#Claim.item.net"><title>The quantity times the unit price for an addittional service or product or charge. For example, the formula: unit Quantity * unit Price (Cost per Point) * factor Number  * points = net Amount. Quantity, factor and points are assumed to be 1 if not supplied</title>net</a> : <a xlink:href="datatypes.html#Money">Money</a> 0..1</text><text x="26.0" y="596.0" fill="black" class="diagram-class-detail"><a xlink:href="claim-definitions.html#Claim.item.udi"><title>List of Unique Device Identifiers associated with this line item</title>udi</a> : <a xlink:href="datatypes.html#Coding">Coding</a> 0..1 « (<a xlink:href="valueset-udi.html"><title>The FDA, or other, UDI repository.</title>UDI Codes</a>) »</text><text x="26.0" y="610.0" fill="black" class="diagram-class-detail"><a xlink:href="claim-definitions.html#Claim.item.bodySite"><title>Physical service site on the patient (limb, tooth, etc)</title>bodySite</a> : <a xlink:href="datatypes.html#Coding">Coding</a> 0..1 « (<a xlink:href="valueset-tooth.html"><title>The code for the teeth, quadrant, sextant and arch</title>Surface Codes</a>) »</text><text x="26.0" y="624.0" fill="black" class="diagram-class-detail"><a xlink:href="claim-definitions.html#Claim.item.subSite"><title>A region or surface of the site, eg. limb region or tooth surface(s)</title>subSite</a> : <a xlink:href="datatypes.html#Coding">Coding</a> 0..* « (<a xlink:href="valueset-surface.html"><title>The code for the tooth surface and surface combinations</title>Surface Codes</a>) »</text><text x="26.0" y="638.0" fill="black" class="diagram-class-detail"><a xlink:href="claim-definitions.html#Claim.item.modifier"><title>Item typification or modifiers codes, eg for Oral whether the treatment is cosmetic or associated with TMJ, or an appliance was lost or stolen</title>modifier</a> : <a xlink:href="datatypes.html#Coding">Coding</a> 0..* « (<a xlink:href="valueset-modifiers.html"><title>Item type or modifiers codes, eg for Oral whether the treatment is cosmetic or associated with TMJ, or an appliance was lost or stolen.</title>Modifier type Codes</a>) »</text><rect x="270.0" y="460.0" rx="4" ry="4" width="176.0" height="162.0" filter="url(#shadow1)" style="fill:#f0f8ff;stroke:black;stroke-width:1"/><line x1="270.0" y1="488.0" x2="446.0" y2="488.0" style="stroke:dimgrey;stroke-width:1"/><text x="358.0" y="480.0" fill="black" class="diagram-class-title">Detail</text><text x="276.0" y="502.0" fill="black" class="diagram-class-detail"><a xlink:href="claim-definitions.html#Claim.item.detail.sequence"><title>A service line number</title>sequence</a> : <a xlink:href="datatypes.html#positiveInt">positiveInt</a> 1..1</text><text x="276.0" y="516.0" fill="black" class="diagram-class-detail"><a xlink:href="claim-definitions.html#Claim.item.detail.type"><title>The type of product or service</title>type</a> : <a xlink:href="datatypes.html#Coding">Coding</a> 1..1 « <a xlink:href="v3/vs/ActInvoiceGroupCode/index.html"><title>Service, Product, Rx Dispense, Rx Compound etc.</title>ActInvoiceGroupCode</a> »</text><text x="276.0" y="530.0" fill="black" class="diagram-class-detail"><a xlink:href="claim-definitions.html#Claim.item.detail.service"><title>If a grouping item then &#39;GROUP&#39; otherwise it is a node therefore a code to indicate the Professional Service or Product supplied</title>service</a> : <a xlink:href="datatypes.html#Coding">Coding</a> 1..1 « (<a xlink:href="valueset-service-uscls.html"><title>Allowable service and product codes</title>USCLS Codes</a>) »</text><text x="276.0" y="544.0" fill="black" class="diagram-class-detail"><a xlink:href="claim-definitions.html#Claim.item.detail.quantity"><title>The number of repetitions of a service or product</title>quantity</a> : <a xlink:href="datatypes.html#Quantity">Quantity</a> 0..1</text><text x="276.0" y="558.0" fill="black" class="diagram-class-detail"><a xlink:href="claim-definitions.html#Claim.item.detail.unitPrice"><title>If the item is a node then this is the fee for the product or service, otherwise this is the total of the fees for the children of the group</title>unitPrice</a> : <a xlink:href="datatypes.html#Money">Money</a> 0..1</text><text x="276.0" y="572.0" fill="black" class="diagram-class-detail"><a xlink:href="claim-definitions.html#Claim.item.detail.factor"><title>A real number that represents a multiplier used in determining the overall value of services delivered and/or goods received. The concept of a Factor allows for a discount or surcharge multiplier to be applied to a monetary amount</title>factor</a> : <a xlink:href="datatypes.html#decimal">decimal</a> 0..1</text><text x="276.0" y="586.0" fill="black" class="diagram-class-detail"><a xlink:href="claim-definitions.html#Claim.item.detail.points"><title>An amount that expresses the weighting (based on difficulty, cost and/or resource intensiveness) associated with the good or service delivered. The concept of Points allows for assignment of point values for services and/or goods, such that a monetary amount can be assigned to each point</title>points</a> : <a xlink:href="datatypes.html#decimal">decimal</a> 0..1</text><text x="276.0" y="600.0" fill="black" class="diagram-class-detail"><a xlink:href="claim-definitions.html#Claim.item.detail.net"><title>The quantity times the unit price for an addittional service or product or charge. For example, the formula: unit Quantity * unit Price (Cost per Point) * factor Number  * points = net Amount. Quantity, factor and points are assumed to be 1 if not supplied</title>net</a> : <a xlink:href="datatypes.html#Money">Money</a> 0..1</text><text x="276.0" y="614.0" fill="black" class="diagram-class-detail"><a xlink:href="claim-definitions.html#Claim.item.detail.udi"><title>List of Unique Device Identifiers associated with this line item</title>udi</a> : <a xlink:href="datatypes.html#Coding">Coding</a> 0..1 « (<a xlink:href="valueset-udi.html"><title>The FDA, or other, UDI repository.</title>UDI Codes</a>) »</text><rect x="510.0" y="460.0" rx="4" ry="4" width="176.0" height="162.0" filter="url(#shadow1)" style="fill:#f0f8ff;stroke:black;stroke-width:1"/><line x1="510.0" y1="488.0" x2="686.0" y2="488.0" style="stroke:dimgrey;stroke-width:1"/><text x="598.0" y="480.0" fill="black" class="diagram-class-title">SubDetail</text><text x="516.0" y="502.0" fill="black" class="diagram-class-detail"><a xlink:href="claim-definitions.html#Claim.item.detail.subDetail.sequence"><title>A service line number</title>sequence</a> : <a xlink:href="datatypes.html#positiveInt">positiveInt</a> 1..1</text><text x="516.0" y="516.0" fill="black" class="diagram-class-detail"><a xlink:href="claim-definitions.html#Claim.item.detail.subDetail.type"><title>The type of product or service</title>type</a> : <a xlink:href="datatypes.html#Coding">Coding</a> 1..1 « <a xlink:href="v3/vs/ActInvoiceGroupCode/index.html"><title>Service, Product, Rx Dispense, Rx Compound etc.</title>ActInvoiceGroupCode</a> »</text><text x="516.0" y="530.0" fill="black" class="diagram-class-detail"><a xlink:href="claim-definitions.html#Claim.item.detail.subDetail.service"><title>The fee for an addittional service or product or charge</title>service</a> : <a xlink:href="datatypes.html#Coding">Coding</a> 1..1 « (<a xlink:href="valueset-service-uscls.html"><title>Allowable service and product codes</title>USCLS Codes</a>) »</text><text x="516.0" y="544.0" fill="black" class="diagram-class-detail"><a xlink:href="claim-definitions.html#Claim.item.detail.subDetail.quantity"><title>The number of repetitions of a service or product</title>quantity</a> : <a xlink:href="datatypes.html#Quantity">Quantity</a> 0..1</text><text x="516.0" y="558.0" fill="black" class="diagram-class-detail"><a xlink:href="claim-definitions.html#Claim.item.detail.subDetail.unitPrice"><title>The fee for an addittional service or product or charge</title>unitPrice</a> : <a xlink:href="datatypes.html#Money">Money</a> 0..1</text><text x="516.0" y="572.0" fill="black" class="diagram-class-detail"><a xlink:href="claim-definitions.html#Claim.item.detail.subDetail.factor"><title>A real number that represents a multiplier used in determining the overall value of services delivered and/or goods received. The concept of a Factor allows for a discount or surcharge multiplier to be applied to a monetary amount</title>factor</a> : <a xlink:href="datatypes.html#decimal">decimal</a> 0..1</text><text x="516.0" y="586.0" fill="black" class="diagram-class-detail"><a xlink:href="claim-definitions.html#Claim.item.detail.subDetail.points"><title>An amount that expresses the weighting (based on difficulty, cost and/or resource intensiveness) associated with the good or service delivered. The concept of Points allows for assignment of point values for services and/or goods, such that a monetary amount can be assigned to each point</title>points</a> : <a xlink:href="datatypes.html#decimal">decimal</a> 0..1</text><text x="516.0" y="600.0" fill="black" class="diagram-class-detail"><a xlink:href="claim-definitions.html#Claim.item.detail.subDetail.net"><title>The quantity times the unit price for an addittional service or product or charge. For example, the formula: unit Quantity * unit Price (Cost per Point) * factor Number  * points = net Amount. Quantity, factor and points are assumed to be 1 if not supplied</title>net</a> : <a xlink:href="datatypes.html#Money">Money</a> 0..1</text><text x="516.0" y="614.0" fill="black" class="diagram-class-detail"><a xlink:href="claim-definitions.html#Claim.item.detail.subDetail.udi"><title>List of Unique Device Identifiers associated with this line item</title>udi</a> : <a xlink:href="datatypes.html#Coding">Coding</a> 0..1 « (<a xlink:href="valueset-udi.html"><title>The FDA, or other, UDI repository.</title>UDI Codes</a>) »</text><rect x="270.0" y="640.0" rx="4" ry="4" width="272.0" height="78.0" filter="url(#shadow1)" style="fill:#f0f8ff;stroke:black;stroke-width:1"/><line x1="270.0" y1="668.0" x2="542.0" y2="668.0" style="stroke:dimgrey;stroke-width:1"/><text x="406.0" y="660.0" fill="black" class="diagram-class-title">Prosthesis</text><text x="276.0" y="682.0" fill="black" class="diagram-class-detail"><a xlink:href="claim-definitions.html#Claim.item.prosthesis.initial"><title>Indicates whether this is the initial placement of a fixed prosthesis</title>initial</a> : <a xlink:href="datatypes.html#boolean">boolean</a> 0..1</text><text x="276.0" y="696.0" fill="black" class="diagram-class-detail"><a xlink:href="claim-definitions.html#Claim.item.prosthesis.priorDate"><title>Date of the initial placement</title>priorDate</a> : <a xlink:href="datatypes.html#date">date</a> 0..1</text><text x="276.0" y="710.0" fill="black" class="diagram-class-detail"><a xlink:href="claim-definitions.html#Claim.item.prosthesis.priorMaterial"><title>Material of the prior denture or bridge prosthesis. (Oral)</title>priorMaterial</a> : <a xlink:href="datatypes.html#Coding">Coding</a> 0..1 « (<a xlink:href="valueset-oral-prosthodontic-material.html"><title>Material of the prior denture or bridge prosthesis. (Oral)</title>Oral Prostho Material type Codes</a>) »</text><rect x="280.0" y="360.0" rx="4" ry="4" width="220.0" height="78.0" filter="url(#shadow1)" style="fill:#f0f8ff;stroke:black;stroke-width:1"/><line x1="280.0" y1="388.0" x2="500.0" y2="388.0" style="stroke:dimgrey;stroke-width:1"/><text x="390.0" y="380.0" fill="black" class="diagram-class-title">MissingTeeth</text><text x="286.0" y="402.0" fill="black" class="diagram-class-detail"><a xlink:href="claim-definitions.html#Claim.missingTeeth.tooth"><title>The code identifying which tooth is missing</title>tooth</a> : <a xlink:href="datatypes.html#Coding">Coding</a> 1..1 « (<a xlink:href="valueset-teeth.html"><title>The codes for the teeth, subset of OralSites</title>Teeth Codes</a>) »</text><text x="286.0" y="416.0" fill="black" class="diagram-class-detail"><a xlink:href="claim-definitions.html#Claim.missingTeeth.reason"><title>Missing reason may be: E-extraction, O-other</title>reason</a> : <a xlink:href="datatypes.html#Coding">Coding</a> 0..1 « (<a xlink:href="valueset-missing-tooth-reason.html"><title>Reason codes for the missing teeth</title>Missing Tooth Reason Codes</a>) »</text><text x="286.0" y="430.0" fill="black" class="diagram-class-detail"><a xlink:href="claim-definitions.html#Claim.missingTeeth.extractionDate"><title>The date of the extraction either known from records or patient reported estimate</title>extractionDate</a> : <a xlink:href="datatypes.html#date">date</a> 0..1</text><line x1="268.0" y1="126.45270270270271" x2="340.0" y2="90.69594594594594" style="stroke:navy;stroke-width:1"/><polygon points="268.0,126.45270270270271 274.0,130.4527027027027 280.0,126.45270270270271 274.0,122.45270270270271 268.0,126.45270270270271" style="fill:navy;stroke:navy;stroke-width:1" transform="rotate(-26.409988552914903 268.0 126.45270270270271)"/><rect x="294.0" y="101.0" width="20.0" height="18.0" style="fill:white;stroke:black;stroke-width:0"/><text x="304.0" y="111.0" fill="black" class="diagram-class-linkage"><a xlink:href="claim-definitions.html#Claim.payee"><title>The party to be reimbursed for the services</title>payee</a></text><text x="320.0" y="86.69594594594594" fill="black" class="diagram-class-linkage">0..1</text><line x1="268.0" y1="174.312925170068" x2="340.0" y2="164.2721088435374" style="stroke:navy;stroke-width:1"/><polygon points="268.0,174.312925170068 274.0,178.312925170068 280.0,174.312925170068 274.0,170.312925170068 268.0,174.312925170068" style="fill:navy;stroke:navy;stroke-width:1" transform="rotate(-7.939026141797877 268.0 174.312925170068)"/><rect x="286.0" y="162.0" width="36.0" height="18.0" style="fill:white;stroke:black;stroke-width:0"/><text x="304.0" y="172.0" fill="black" class="diagram-class-linkage"><a xlink:href="claim-definitions.html#Claim.diagnosis"><title>Ordered list of patient diagnosis for which care is sought</title>diagnosis</a></text><text x="320.0" y="160.2721088435374" fill="black" class="diagram-class-linkage">0..*</text><line x1="268.0" y1="228.24025974025972" x2="340.0" y2="247.17532467532467" style="stroke:navy;stroke-width:1"/><polygon points="268.0,228.24025974025972 274.0,232.24025974025972 280.0,228.24025974025972 274.0,224.24025974025972 268.0,228.24025974025972" style="fill:navy;stroke:navy;stroke-width:1" transform="rotate(14.734405767743688 268.0 228.24025974025972)"/><rect x="288.0" y="230.0" width="32.0" height="18.0" style="fill:white;stroke:black;stroke-width:0"/><text x="304.0" y="240.0" fill="black" class="diagram-class-linkage"><a xlink:href="claim-definitions.html#Claim.coverage"><title>Financial instrument by which payment information for health care</title>coverage</a></text><text x="320.0" y="243.17532467532467" fill="black" class="diagram-class-linkage">0..*</text><line x1="446.0" y1="541.0" x2="510.0" y2="541.0" style="stroke:navy;stroke-width:1"/><polygon points="446.0,541.0 452.0,545.0 458.0,541.0 452.0,537.0 446.0,541.0" style="fill:navy;stroke:navy;stroke-width:1" transform="rotate(0.0 446.0 541.0)"/><rect x="460.0" y="534.0" width="36.0" height="18.0" style="fill:white;stroke:black;stroke-width:0"/><text x="478.0" y="544.0" fill="black" class="diagram-class-linkage"><a xlink:href="claim-definitions.html#Claim.item.detail.subDetail"><title>Third tier of goods and services</title>subDetail</a></text><text x="490.0" y="537.0" fill="black" class="diagram-class-linkage">0..*</text><line x1="220.0" y1="530.563025210084" x2="270.0" y2="534.344537815126" style="stroke:navy;stroke-width:1"/><polygon points="220.0,530.563025210084 226.0,534.563025210084 232.0,530.563025210084 226.0,526.563025210084 220.0,530.563025210084" style="fill:navy;stroke:navy;stroke-width:1" transform="rotate(4.325060434738501 220.0 530.563025210084)"/><rect x="233.0" y="525.0" width="24.0" height="18.0" style="fill:white;stroke:black;stroke-width:0"/><text x="245.0" y="535.0" fill="black" class="diagram-class-linkage"><a xlink:href="claim-definitions.html#Claim.item.detail"><title>Second tier of goods and services</title>detail</a></text><text x="250.0" y="530.344537815126" fill="black" class="diagram-class-linkage">0..*</text><line x1="220.0" y1="577.5454545454545" x2="334.5" y2="640.0" style="stroke:navy;stroke-width:1"/><polygon points="220.0,577.5454545454545 226.0,581.5454545454545 232.0,577.5454545454545 226.0,573.5454545454545 220.0,577.5454545454545" style="fill:navy;stroke:navy;stroke-width:1" transform="rotate(28.610459665965237 220.0 577.5454545454545)"/><rect x="257.0" y="601.0" width="40.0" height="18.0" style="fill:white;stroke:black;stroke-width:0"/><text x="277.0" y="611.0" fill="black" class="diagram-class-linkage"><a xlink:href="claim-definitions.html#Claim.item.prosthesis"><title>The materials and placement date of prior fixed prosthesis</title>prosthesis</a></text><text x="334.5" y="636.0" fill="black" class="diagram-class-linkage">0..1</text><line x1="125.8121212121212" y1="386.0" x2="125.2181818181818" y2="400.0" style="stroke:navy;stroke-width:1"/><polygon points="125.8121212121212,386.0 131.8121212121212,390.0 137.8121212121212,386.0 131.8121212121212,382.0 125.8121212121212,386.0" style="fill:navy;stroke:navy;stroke-width:1" transform="rotate(92.42927332349998 125.8121212121212 386.0)"/><rect x="117.0" y="386.0" width="16.0" height="18.0" style="fill:white;stroke:black;stroke-width:0"/><text x="125.0" y="396.0" fill="black" class="diagram-class-linkage"><a xlink:href="claim-definitions.html#Claim.item"><title>First tier of goods and services</title>item</a></text><text x="125.2181818181818" y="396.0" fill="black" class="diagram-class-linkage">0..*</text><line x1="268.0" y1="300.828125" x2="341.5339805825243" y2="360.0" style="stroke:navy;stroke-width:1"/><polygon points="268.0,300.828125 274.0,304.828125 280.0,300.828125 274.0,296.828125 268.0,300.828125" style="fill:navy;stroke:navy;stroke-width:1" transform="rotate(38.82319881739578 268.0 300.828125)"/><rect x="280.0" y="323.0" width="48.0" height="18.0" style="fill:white;stroke:black;stroke-width:0"/><text x="304.0" y="333.0" fill="black" class="diagram-class-linkage"><a xlink:href="claim-definitions.html#Claim.missingTeeth"><title>A list of teeth which would be expected but are not found due to having been previously  extracted or for other reasons</title>missingTeeth</a></text><text x="341.5339805825243" y="356.0" fill="black" class="diagram-class-linkage">0..*</text></svg>