<?xml version="1.0" encoding="UTF-8"?><svg xmlns="http://www.w3.org/2000/svg" xmlns:xlink="http://www.w3.org/1999/xlink" version="1.1" width="1096.0" height="688.0">  <defs>
    <filter id="shadow1" x="0" y="0" width="200%" height="200%">
      <feOffset result="offOut" in="SourceGraphic" dx="3" dy="3" />
      <feColorMatrix result="matrixOut" in="offOut" type="matrix" values="0.2 0 0 0 0 0 0.2 0 0 0 0 0 0.2 0 0 0 0 0 1 0" />
      <feGaussianBlur result="blurOut" in="matrixOut" stdDeviation="2" />
      <feBlend in="SourceGraphic" in2="blurOut" mode="normal" />
    </filter>
  </defs><rect x="240.0" y="0.0" rx="4" ry="4" width="272.0" height="330.0" filter="url(#shadow1)" style="fill:#f0f8ff;stroke:black;stroke-width:1"/><line x1="240.0" y1="28.0" x2="512.0" y2="28.0" style="stroke:dimgrey;stroke-width:1"/><text x="376.0" y="20.0" fill="black" class="diagram-class-title  diagram-class-resource">ClaimResponse<tspan class="diagram-class-title-link"> (<a xlink:href="domainresource.html" class="diagram-class-reference">DomainResource</a>)</tspan></text><text x="246.0" y="42.0" fill="black" class="diagram-class-detail"><a xlink:href="claimresponse-definitions.html#ClaimResponse.identifier"><title>The Response Business Identifier</title>identifier</a> : <a xlink:href="datatypes.html#Identifier">Identifier</a> 0..*</text><text x="246.0" y="56.0" fill="black" class="diagram-class-detail"><a xlink:href="claimresponse-definitions.html#ClaimResponse.request"><title>Original request resource referrence</title>request</a> : <a xlink:href="references.html#Reference">Reference</a>(<a xlink:href="claim.html#Claim">Claim</a>) 0..1</text><text x="246.0" y="70.0" fill="black" class="diagram-class-detail"><a xlink:href="claimresponse-definitions.html#ClaimResponse.ruleset"><title>The version of the style of resource contents. This should be mapped to the allowable profiles for this and supporting resources</title>ruleset</a> : <a xlink:href="datatypes.html#Coding">Coding</a> 0..1 « (<a xlink:href="valueset-ruleset.html"><title>The static and dynamic model to which contents conform, may be business version or standard and version.</title>Ruleset Codes</a>) »</text><text x="246.0" y="84.0" fill="black" class="diagram-class-detail"><a xlink:href="claimresponse-definitions.html#ClaimResponse.originalRuleset"><title>The style (standard) and version of the original material which was converted into this resource</title>originalRuleset</a> : <a xlink:href="datatypes.html#Coding">Coding</a> 0..1 « (<a xlink:href="valueset-ruleset.html"><title>The static and dynamic model to which contents conform, may be business version or standard and version.</title>Ruleset Codes</a>) »</text><text x="246.0" y="98.0" fill="black" class="diagram-class-detail"><a xlink:href="claimresponse-definitions.html#ClaimResponse.created"><title>The date when the enclosed suite of services were performed or completed</title>created</a> : <a xlink:href="datatypes.html#dateTime">dateTime</a> 0..1</text><text x="246.0" y="112.0" fill="black" class="diagram-class-detail"><a xlink:href="claimresponse-definitions.html#ClaimResponse.organization"><title>The Insurer who produced this adjudicated response</title>organization</a> : <a xlink:href="references.html#Reference">Reference</a>(<a xlink:href="organization.html#Organization">Organization</a>) 0..1</text><text x="246.0" y="126.0" fill="black" class="diagram-class-detail"><a xlink:href="claimresponse-definitions.html#ClaimResponse.requestProvider"><title>The practitioner who is responsible for the services rendered to the patient</title>requestProvider</a> : <a xlink:href="references.html#Reference">Reference</a>(<a xlink:href="practitioner.html#Practitioner">Practitioner</a>) 0..1</text><text x="246.0" y="140.0" fill="black" class="diagram-class-detail"><a xlink:href="claimresponse-definitions.html#ClaimResponse.requestOrganization"><title>The organization which is responsible for the services rendered to the patient</title>requestOrganization</a> : <a xlink:href="references.html#Reference">Reference</a>(<a xlink:href="organization.html#Organization">Organization</a>) 0..1</text><text x="246.0" y="154.0" fill="black" class="diagram-class-detail"><a xlink:href="claimresponse-definitions.html#ClaimResponse.outcome"><title>Transaction status: error, complete</title>outcome</a> : <a xlink:href="datatypes.html#code">code</a> 0..1 « <a xlink:href="valueset-remittance-outcome.html"><title>The outcome of the processing.</title>RemittanceOutcome</a> »</text><text x="246.0" y="168.0" fill="black" class="diagram-class-detail"><a xlink:href="claimresponse-definitions.html#ClaimResponse.disposition"><title>A description of the status of the adjudication</title>disposition</a> : <a xlink:href="datatypes.html#string">string</a> 0..1</text><text x="246.0" y="182.0" fill="black" class="diagram-class-detail"><a xlink:href="claimresponse-definitions.html#ClaimResponse.payeeType"><title>Party to be reimbursed: Subscriber, provider, other</title>payeeType</a> : <a xlink:href="datatypes.html#Coding">Coding</a> 0..1 « (<a xlink:href="valueset-payeetype.html"><title>A code for the party to be reimbursed.</title>Payee type Codes</a>) »</text><text x="246.0" y="196.0" fill="black" class="diagram-class-detail"><a xlink:href="claimresponse-definitions.html#ClaimResponse.totalCost"><title>The total cost of the services reported</title>totalCost</a> : <a xlink:href="datatypes.html#Money">Money</a> 0..1</text><text x="246.0" y="210.0" fill="black" class="diagram-class-detail"><a xlink:href="claimresponse-definitions.html#ClaimResponse.unallocDeductable"><title>The amount of deductable applied which was not allocated to any particular service line</title>unallocDeductable</a> : <a xlink:href="datatypes.html#Money">Money</a> 0..1</text><text x="246.0" y="224.0" fill="black" class="diagram-class-detail"><a xlink:href="claimresponse-definitions.html#ClaimResponse.totalBenefit"><title>Total amount of benefit payable (Equal to sum of the Benefit amounts from all detail lines and additions less the Unallocated Deductable)</title>totalBenefit</a> : <a xlink:href="datatypes.html#Money">Money</a> 0..1</text><text x="246.0" y="238.0" fill="black" class="diagram-class-detail"><a xlink:href="claimresponse-definitions.html#ClaimResponse.paymentAdjustment"><title>Adjustment to the payment of this transaction which is not related to adjudication of this transaction</title>paymentAdjustment</a> : <a xlink:href="datatypes.html#Money">Money</a> 0..1</text><text x="246.0" y="252.0" fill="black" class="diagram-class-detail"><a xlink:href="claimresponse-definitions.html#ClaimResponse.paymentAdjustmentReason"><title>Reason for the payment adjustment</title>paymentAdjustmentReason</a> : <a xlink:href="datatypes.html#Coding">Coding</a> 0..1 « <a xlink:href="valueset-adjustment-reason.html"><title>Adjustment reason codes</title>Adjustment Reason Codes</a>+ »</text><text x="246.0" y="266.0" fill="black" class="diagram-class-detail"><a xlink:href="claimresponse-definitions.html#ClaimResponse.paymentDate"><title>Estimated payment data</title>paymentDate</a> : <a xlink:href="datatypes.html#date">date</a> 0..1</text><text x="246.0" y="280.0" fill="black" class="diagram-class-detail"><a xlink:href="claimresponse-definitions.html#ClaimResponse.paymentAmount"><title>Payable less any payment adjustment</title>paymentAmount</a> : <a xlink:href="datatypes.html#Money">Money</a> 0..1</text><text x="246.0" y="294.0" fill="black" class="diagram-class-detail"><a xlink:href="claimresponse-definitions.html#ClaimResponse.paymentRef"><title>Payment identifer</title>paymentRef</a> : <a xlink:href="datatypes.html#Identifier">Identifier</a> 0..1</text><text x="246.0" y="308.0" fill="black" class="diagram-class-detail"><a xlink:href="claimresponse-definitions.html#ClaimResponse.reserved"><title>Status of funds reservation (For provider, for Patient, None)</title>reserved</a> : <a xlink:href="datatypes.html#Coding">Coding</a> 0..1 « (<a xlink:href="valueset-fundsreserve.html"><title>For whom funds are to be reserved: (Patient, Provider, None)</title>Funds Reservation Codes</a>) »</text><text x="246.0" y="322.0" fill="black" class="diagram-class-detail"><a xlink:href="claimresponse-definitions.html#ClaimResponse.form"><title>The form to be used for printing the content</title>form</a> : <a xlink:href="datatypes.html#Coding">Coding</a> 0..1 « <a xlink:href="valueset-forms.html"><title>The forms codes</title>Form Codes</a> »</text><rect x="270.0" y="370.0" rx="4" ry="4" width="140.0" height="64.0" filter="url(#shadow1)" style="fill:#f0f8ff;stroke:black;stroke-width:1"/><line x1="270.0" y1="398.0" x2="410.0" y2="398.0" style="stroke:dimgrey;stroke-width:1"/><text x="340.0" y="390.0" fill="black" class="diagram-class-title">Items</text><text x="276.0" y="412.0" fill="black" class="diagram-class-detail"><a xlink:href="claimresponse-definitions.html#ClaimResponse.item.sequenceLinkId"><title>A service line number</title>sequenceLinkId</a> : <a xlink:href="datatypes.html#positiveInt">positiveInt</a> 1..1</text><text x="276.0" y="426.0" fill="black" class="diagram-class-detail"><a xlink:href="claimresponse-definitions.html#ClaimResponse.item.noteNumber"><title>A list of note references to the notes provided below</title>noteNumber</a> : <a xlink:href="datatypes.html#positiveInt">positiveInt</a> 0..*</text><rect x="20.0" y="370.0" rx="4" ry="4" width="176.0" height="78.0" filter="url(#shadow1)" style="fill:#f0f8ff;stroke:black;stroke-width:1"/><line x1="20.0" y1="398.0" x2="196.0" y2="398.0" style="stroke:dimgrey;stroke-width:1"/><text x="108.0" y="390.0" fill="black" class="diagram-class-title">ItemAdjudication</text><text x="26.0" y="412.0" fill="black" class="diagram-class-detail"><a xlink:href="claimresponse-definitions.html#ClaimResponse.item.adjudication.code"><title>Code indicating: Co-Pay, deductable, elegible, benefit, tax, etc</title>code</a> : <a xlink:href="datatypes.html#Coding">Coding</a> 1..1 « <a xlink:href="valueset-adjudication.html"><title>The adjudication codes</title>Adjudication Codes</a>+ »</text><text x="26.0" y="426.0" fill="black" class="diagram-class-detail"><a xlink:href="claimresponse-definitions.html#ClaimResponse.item.adjudication.amount"><title>Monitory amount associated with the code</title>amount</a> : <a xlink:href="datatypes.html#Money">Money</a> 0..1</text><text x="26.0" y="440.0" fill="black" class="diagram-class-detail"><a xlink:href="claimresponse-definitions.html#ClaimResponse.item.adjudication.value"><title>A non-monetary value for example a percentage. Mutually exclusive to the amount element above</title>value</a> : <a xlink:href="datatypes.html#decimal">decimal</a> 0..1</text><rect x="270.0" y="450.0" rx="4" ry="4" width="140.0" height="50.0" filter="url(#shadow1)" style="fill:#f0f8ff;stroke:black;stroke-width:1"/><line x1="270.0" y1="478.0" x2="410.0" y2="478.0" style="stroke:dimgrey;stroke-width:1"/><text x="340.0" y="470.0" fill="black" class="diagram-class-title">ItemDetail</text><text x="276.0" y="492.0" fill="black" class="diagram-class-detail"><a xlink:href="claimresponse-definitions.html#ClaimResponse.item.detail.sequenceLinkId"><title>A service line number</title>sequenceLinkId</a> : <a xlink:href="datatypes.html#positiveInt">positiveInt</a> 1..1</text><rect x="20.0" y="450.0" rx="4" ry="4" width="176.0" height="78.0" filter="url(#shadow1)" style="fill:#f0f8ff;stroke:black;stroke-width:1"/><line x1="20.0" y1="478.0" x2="196.0" y2="478.0" style="stroke:dimgrey;stroke-width:1"/><text x="108.0" y="470.0" fill="black" class="diagram-class-title">DetailAdjudication</text><text x="26.0" y="492.0" fill="black" class="diagram-class-detail"><a xlink:href="claimresponse-definitions.html#ClaimResponse.item.detail.adjudication.code"><title>Code indicating: Co-Pay, deductable, elegible, benefit, tax, etc</title>code</a> : <a xlink:href="datatypes.html#Coding">Coding</a> 1..1 « <a xlink:href="valueset-adjudication.html"><title>The adjudication codes</title>Adjudication Codes</a>+ »</text><text x="26.0" y="506.0" fill="black" class="diagram-class-detail"><a xlink:href="claimresponse-definitions.html#ClaimResponse.item.detail.adjudication.amount"><title>Monitory amount associated with the code</title>amount</a> : <a xlink:href="datatypes.html#Money">Money</a> 0..1</text><text x="26.0" y="520.0" fill="black" class="diagram-class-detail"><a xlink:href="claimresponse-definitions.html#ClaimResponse.item.detail.adjudication.value"><title>A non-monetary value for example a percentage. Mutually exclusive to the amount element above</title>value</a> : <a xlink:href="datatypes.html#decimal">decimal</a> 0..1</text><rect x="270.0" y="560.0" rx="4" ry="4" width="140.0" height="50.0" filter="url(#shadow1)" style="fill:#f0f8ff;stroke:black;stroke-width:1"/><line x1="270.0" y1="588.0" x2="410.0" y2="588.0" style="stroke:dimgrey;stroke-width:1"/><text x="340.0" y="580.0" fill="black" class="diagram-class-title">SubDetail</text><text x="276.0" y="602.0" fill="black" class="diagram-class-detail"><a xlink:href="claimresponse-definitions.html#ClaimResponse.item.detail.subDetail.sequenceLinkId"><title>A service line number</title>sequenceLinkId</a> : <a xlink:href="datatypes.html#positiveInt">positiveInt</a> 1..1</text><rect x="20.0" y="560.0" rx="4" ry="4" width="176.0" height="78.0" filter="url(#shadow1)" style="fill:#f0f8ff;stroke:black;stroke-width:1"/><line x1="20.0" y1="588.0" x2="196.0" y2="588.0" style="stroke:dimgrey;stroke-width:1"/><text x="108.0" y="580.0" fill="black" class="diagram-class-title">SubdetailAdjudication</text><text x="26.0" y="602.0" fill="black" class="diagram-class-detail"><a xlink:href="claimresponse-definitions.html#ClaimResponse.item.detail.subDetail.adjudication.code"><title>Code indicating: Co-Pay, deductable, elegible, benefit, tax, etc</title>code</a> : <a xlink:href="datatypes.html#Coding">Coding</a> 1..1 « <a xlink:href="valueset-adjudication.html"><title>The adjudication codes</title>Adjudication Codes</a>+ »</text><text x="26.0" y="616.0" fill="black" class="diagram-class-detail"><a xlink:href="claimresponse-definitions.html#ClaimResponse.item.detail.subDetail.adjudication.amount"><title>Monitory amount associated with the code</title>amount</a> : <a xlink:href="datatypes.html#Money">Money</a> 0..1</text><text x="26.0" y="630.0" fill="black" class="diagram-class-detail"><a xlink:href="claimresponse-definitions.html#ClaimResponse.item.detail.subDetail.adjudication.value"><title>A non-monetary value for example a percentage. Mutually exclusive to the amount element above</title>value</a> : <a xlink:href="datatypes.html#decimal">decimal</a> 0..1</text><rect x="520.0" y="120.0" rx="4" ry="4" width="164.0" height="92.0" filter="url(#shadow1)" style="fill:#f0f8ff;stroke:black;stroke-width:1"/><line x1="520.0" y1="148.0" x2="684.0" y2="148.0" style="stroke:dimgrey;stroke-width:1"/><text x="602.0" y="140.0" fill="black" class="diagram-class-title">AddedItem</text><text x="526.0" y="162.0" fill="black" class="diagram-class-detail"><a xlink:href="claimresponse-definitions.html#ClaimResponse.addItem.sequenceLinkId"><title>List of input service items which this service line is intended to replace</title>sequenceLinkId</a> : <a xlink:href="datatypes.html#positiveInt">positiveInt</a> 0..*</text><text x="526.0" y="176.0" fill="black" class="diagram-class-detail"><a xlink:href="claimresponse-definitions.html#ClaimResponse.addItem.service"><title>A code to indicate the Professional Service or Product supplied</title>service</a> : <a xlink:href="datatypes.html#Coding">Coding</a> 1..1 « (<a xlink:href="valueset-service-uscls.html"><title>Allowable service and product codes</title>USCLS Codes</a>) »</text><text x="526.0" y="190.0" fill="black" class="diagram-class-detail"><a xlink:href="claimresponse-definitions.html#ClaimResponse.addItem.fee"><title>The fee charged for the professional service or product.</title>fee</a> : <a xlink:href="datatypes.html#Money">Money</a> 0..1</text><text x="526.0" y="204.0" fill="black" class="diagram-class-detail"><a xlink:href="claimresponse-definitions.html#ClaimResponse.addItem.noteNumberLinkId"><title>A list of note references to the notes provided below</title>noteNumberLinkId</a> : <a xlink:href="datatypes.html#positiveInt">positiveInt</a> 0..*</text><rect x="520.0" y="0.0" rx="4" ry="4" width="176.0" height="78.0" filter="url(#shadow1)" style="fill:#f0f8ff;stroke:black;stroke-width:1"/><line x1="520.0" y1="28.0" x2="696.0" y2="28.0" style="stroke:dimgrey;stroke-width:1"/><text x="608.0" y="20.0" fill="black" class="diagram-class-title">AddedItemAdjudication</text><text x="526.0" y="42.0" fill="black" class="diagram-class-detail"><a xlink:href="claimresponse-definitions.html#ClaimResponse.addItem.adjudication.code"><title>Code indicating: Co-Pay, deductable, elegible, benefit, tax, etc</title>code</a> : <a xlink:href="datatypes.html#Coding">Coding</a> 1..1 « <a xlink:href="valueset-adjudication.html"><title>The adjudication codes</title>Adjudication Codes</a>+ »</text><text x="526.0" y="56.0" fill="black" class="diagram-class-detail"><a xlink:href="claimresponse-definitions.html#ClaimResponse.addItem.adjudication.amount"><title>Monitory amount associated with the code</title>amount</a> : <a xlink:href="datatypes.html#Money">Money</a> 0..1</text><text x="526.0" y="70.0" fill="black" class="diagram-class-detail"><a xlink:href="claimresponse-definitions.html#ClaimResponse.addItem.adjudication.value"><title>A non-monetary value for example a percentage. Mutually exclusive to the amount element above</title>value</a> : <a xlink:href="datatypes.html#decimal">decimal</a> 0..1</text><rect x="520.0" y="260.0" rx="4" ry="4" width="164.0" height="64.0" filter="url(#shadow1)" style="fill:#f0f8ff;stroke:black;stroke-width:1"/><line x1="520.0" y1="288.0" x2="684.0" y2="288.0" style="stroke:dimgrey;stroke-width:1"/><text x="602.0" y="280.0" fill="black" class="diagram-class-title">AddedItemsDetail</text><text x="526.0" y="302.0" fill="black" class="diagram-class-detail"><a xlink:href="claimresponse-definitions.html#ClaimResponse.addItem.detail.service"><title>A code to indicate the Professional Service or Product supplied</title>service</a> : <a xlink:href="datatypes.html#Coding">Coding</a> 1..1 « (<a xlink:href="valueset-service-uscls.html"><title>Allowable service and product codes</title>USCLS Codes</a>) »</text><text x="526.0" y="316.0" fill="black" class="diagram-class-detail"><a xlink:href="claimresponse-definitions.html#ClaimResponse.addItem.detail.fee"><title>The fee charged for the professional service or product.</title>fee</a> : <a xlink:href="datatypes.html#Money">Money</a> 0..1</text><rect x="520.0" y="370.0" rx="4" ry="4" width="176.0" height="78.0" filter="url(#shadow1)" style="fill:#f0f8ff;stroke:black;stroke-width:1"/><line x1="520.0" y1="398.0" x2="696.0" y2="398.0" style="stroke:dimgrey;stroke-width:1"/><text x="608.0" y="390.0" fill="black" class="diagram-class-title">AddedItemDetailAdjudication</text><text x="526.0" y="412.0" fill="black" class="diagram-class-detail"><a xlink:href="claimresponse-definitions.html#ClaimResponse.addItem.detail.adjudication.code"><title>Code indicating: Co-Pay, deductable, elegible, benefit, tax, etc</title>code</a> : <a xlink:href="datatypes.html#Coding">Coding</a> 1..1 « <a xlink:href="valueset-adjudication.html"><title>The adjudication codes</title>Adjudication Codes</a>+ »</text><text x="526.0" y="426.0" fill="black" class="diagram-class-detail"><a xlink:href="claimresponse-definitions.html#ClaimResponse.addItem.detail.adjudication.amount"><title>Monitory amount associated with the code</title>amount</a> : <a xlink:href="datatypes.html#Money">Money</a> 0..1</text><text x="526.0" y="440.0" fill="black" class="diagram-class-detail"><a xlink:href="claimresponse-definitions.html#ClaimResponse.addItem.detail.adjudication.value"><title>A non-monetary value for example a percentage. Mutually exclusive to the amount element above</title>value</a> : <a xlink:href="datatypes.html#decimal">decimal</a> 0..1</text><rect x="20.0" y="0.0" rx="4" ry="4" width="196.0" height="92.0" filter="url(#shadow1)" style="fill:#f0f8ff;stroke:black;stroke-width:1"/><line x1="20.0" y1="28.0" x2="216.0" y2="28.0" style="stroke:dimgrey;stroke-width:1"/><text x="118.0" y="20.0" fill="black" class="diagram-class-title">Errors</text><text x="26.0" y="42.0" fill="black" class="diagram-class-detail"><a xlink:href="claimresponse-definitions.html#ClaimResponse.error.sequenceLinkId"><title>The sequence number of the line item submitted which contains the error. This value is ommitted when the error is elsewhere</title>sequenceLinkId</a> : <a xlink:href="datatypes.html#positiveInt">positiveInt</a> 0..1</text><text x="26.0" y="56.0" fill="black" class="diagram-class-detail"><a xlink:href="claimresponse-definitions.html#ClaimResponse.error.detailSequenceLinkId"><title>The sequence number of the addition within the line item submitted which contains the error. This value is ommitted when the error is not related to an Addition</title>detailSequenceLinkId</a> : <a xlink:href="datatypes.html#positiveInt">positiveInt</a> 0..1</text><text x="26.0" y="70.0" fill="black" class="diagram-class-detail"><a xlink:href="claimresponse-definitions.html#ClaimResponse.error.subdetailSequenceLinkId"><title>The sequence number of the addition within the line item submitted which contains the error. This value is ommitted when the error is not related to an Addition</title>subdetailSequenceLinkId</a> : <a xlink:href="datatypes.html#positiveInt">positiveInt</a> 0..1</text><text x="26.0" y="84.0" fill="black" class="diagram-class-detail"><a xlink:href="claimresponse-definitions.html#ClaimResponse.error.code"><title>An error code,froma specified code system, which details why the claim could not be adjudicated</title>code</a> : <a xlink:href="datatypes.html#Coding">Coding</a> 1..1 « <a xlink:href="valueset-adjudication-error.html"><title>The error codes for adjudication processing</title>Adjudication Error Codes</a> »</text><rect x="40.0" y="110.0" rx="4" ry="4" width="132.0" height="78.0" filter="url(#shadow1)" style="fill:#f0f8ff;stroke:black;stroke-width:1"/><line x1="40.0" y1="138.0" x2="172.0" y2="138.0" style="stroke:dimgrey;stroke-width:1"/><text x="106.0" y="130.0" fill="black" class="diagram-class-title">Notes</text><text x="46.0" y="152.0" fill="black" class="diagram-class-detail"><a xlink:href="claimresponse-definitions.html#ClaimResponse.note.number"><title>An integer associated with each note which may be referred to from each service line item</title>number</a> : <a xlink:href="datatypes.html#positiveInt">positiveInt</a> 0..1</text><text x="46.0" y="166.0" fill="black" class="diagram-class-detail"><a xlink:href="claimresponse-definitions.html#ClaimResponse.note.type"><title>The note purpose: Print/Display</title>type</a> : <a xlink:href="datatypes.html#Coding">Coding</a> 0..1 « <a xlink:href="valueset-note-type.html"><title>The presentation types of notes</title>NoteType</a> »</text><text x="46.0" y="180.0" fill="black" class="diagram-class-detail"><a xlink:href="claimresponse-definitions.html#ClaimResponse.note.text"><title>The note text</title>text</a> : <a xlink:href="datatypes.html#string">string</a> 0..1</text><rect x="0.0" y="200.0" rx="4" ry="4" width="204.0" height="148.0" filter="url(#shadow1)" style="fill:#f0f8ff;stroke:black;stroke-width:1"/><line x1="0.0" y1="228.0" x2="204.0" y2="228.0" style="stroke:dimgrey;stroke-width:1"/><text x="102.0" y="220.0" fill="black" class="diagram-class-title">Coverage</text><text x="6.0" y="242.0" fill="black" class="diagram-class-detail"><a xlink:href="claimresponse-definitions.html#ClaimResponse.coverage.sequence"><title>A service line item</title>sequence</a> : <a xlink:href="datatypes.html#positiveInt">positiveInt</a> 1..1</text><text x="6.0" y="256.0" fill="black" class="diagram-class-detail"><a xlink:href="claimresponse-definitions.html#ClaimResponse.coverage.focal"><title>The instance number of the Coverage which is the focus for adjudication. The Coverage against which the claim is to be adjudicated</title>focal</a> : <a xlink:href="datatypes.html#boolean">boolean</a> 1..1</text><text x="6.0" y="270.0" fill="black" class="diagram-class-detail"><a xlink:href="claimresponse-definitions.html#ClaimResponse.coverage.coverage"><title>Reference to the program or plan identification, underwriter or payor</title>coverage</a> : <a xlink:href="references.html#Reference">Reference</a>(<a xlink:href="coverage.html#Coverage">Coverage</a>) 1..1</text><text x="6.0" y="284.0" fill="black" class="diagram-class-detail"><a xlink:href="claimresponse-definitions.html#ClaimResponse.coverage.businessArrangement"><title>The contract number of a business agreement which describes the terms and conditions</title>businessArrangement</a> : <a xlink:href="datatypes.html#string">string</a> 0..1</text><text x="6.0" y="298.0" fill="black" class="diagram-class-detail"><a xlink:href="claimresponse-definitions.html#ClaimResponse.coverage.relationship"><title>The relationship of the patient to the subscriber</title>relationship</a> : <a xlink:href="datatypes.html#Coding">Coding</a> 1..1 « (<a xlink:href="valueset-relationship.html"><title>The code for the relationship of the patient to the subscriber</title>Surface Codes</a>) »</text><text x="6.0" y="312.0" fill="black" class="diagram-class-detail"><a xlink:href="claimresponse-definitions.html#ClaimResponse.coverage.preAuthRef"><title>A list of references from the Insurer to which these services pertain</title>preAuthRef</a> : <a xlink:href="datatypes.html#string">string</a> 0..*</text><text x="6.0" y="326.0" fill="black" class="diagram-class-detail"><a xlink:href="claimresponse-definitions.html#ClaimResponse.coverage.claimResponse"><title>The Coverages adjudication details</title>claimResponse</a> : <a xlink:href="references.html#Reference">Reference</a>(<a xlink:href="claimresponse.html#ClaimResponse">ClaimResponse</a>) 0..1</text><text x="6.0" y="340.0" fill="black" class="diagram-class-detail"><a xlink:href="claimresponse-definitions.html#ClaimResponse.coverage.originalRuleset"><title>The style (standard) and version of the original material which was converted into this resource</title>originalRuleset</a> : <a xlink:href="datatypes.html#Coding">Coding</a> 0..1 « (<a xlink:href="valueset-ruleset.html"><title>The static and dynamic model to which contents conform, may be business version or standard and version.</title>Ruleset Codes</a>) »</text><line x1="270.0" y1="404.11206896551727" x2="196.0" y2="406.3448275862069" style="stroke:navy;stroke-width:1"/><polygon points="270.0,404.11206896551727 276.0,408.11206896551727 282.0,404.11206896551727 276.0,400.11206896551727 270.0,404.11206896551727" style="fill:navy;stroke:navy;stroke-width:1" transform="rotate(178.27177234950148 270.0 404.11206896551727)"/><rect x="209.0" y="398.0" width="48.0" height="18.0" style="fill:white;stroke:black;stroke-width:0"/><text x="233.0" y="408.0" fill="black" class="diagram-class-linkage"><a xlink:href="claimresponse-definitions.html#ClaimResponse.item.adjudication"><title>The adjudications results</title>adjudication</a></text><text x="211.0" y="402.3448275862069" fill="black" class="diagram-class-linkage">0..*</text><line x1="270.0" y1="479.2241379310345" x2="196.0" y2="483.6896551724138" style="stroke:navy;stroke-width:1"/><polygon points="270.0,479.2241379310345 276.0,483.2241379310345 282.0,479.2241379310345 276.0,475.2241379310345 270.0,479.2241379310345" style="fill:navy;stroke:navy;stroke-width:1" transform="rotate(176.54668374946894 270.0 479.2241379310345)"/><rect x="209.0" y="474.0" width="48.0" height="18.0" style="fill:white;stroke:black;stroke-width:0"/><text x="233.0" y="484.0" fill="black" class="diagram-class-linkage"><a xlink:href="claimresponse-definitions.html#ClaimResponse.item.detail.adjudication"><title>The adjudications results</title>adjudication</a></text><text x="211.0" y="479.6896551724138" fill="black" class="diagram-class-linkage">0..*</text><line x1="270.0" y1="589.2241379310345" x2="196.0" y2="593.6896551724138" style="stroke:navy;stroke-width:1"/><polygon points="270.0,589.2241379310345 276.0,593.2241379310345 282.0,589.2241379310345 276.0,585.2241379310345 270.0,589.2241379310345" style="fill:navy;stroke:navy;stroke-width:1" transform="rotate(176.54668374946894 270.0 589.2241379310345)"/><rect x="209.0" y="584.0" width="48.0" height="18.0" style="fill:white;stroke:black;stroke-width:0"/><text x="233.0" y="594.0" fill="black" class="diagram-class-linkage"><a xlink:href="claimresponse-definitions.html#ClaimResponse.item.detail.subDetail.adjudication"><title>The adjudications results</title>adjudication</a></text><text x="211.0" y="589.6896551724138" fill="black" class="diagram-class-linkage">0..*</text><line x1="340.0" y1="500.0" x2="340.0" y2="560.0" style="stroke:navy;stroke-width:1"/><polygon points="340.0,500.0 346.0,504.0 352.0,500.0 346.0,496.0 340.0,500.0" style="fill:navy;stroke:navy;stroke-width:1" transform="rotate(90.0 340.0 500.0)"/><rect x="322.0" y="523.0" width="36.0" height="18.0" style="fill:white;stroke:black;stroke-width:0"/><text x="340.0" y="533.0" fill="black" class="diagram-class-linkage"><a xlink:href="claimresponse-definitions.html#ClaimResponse.item.detail.subDetail"><title>The third tier service adjudications for submitted services</title>subDetail</a></text><text x="340.0" y="556.0" fill="black" class="diagram-class-linkage">0..*</text><line x1="340.0" y1="434.0" x2="340.0" y2="450.0" style="stroke:navy;stroke-width:1"/><polygon points="340.0,434.0 346.0,438.0 352.0,434.0 346.0,430.0 340.0,434.0" style="fill:navy;stroke:navy;stroke-width:1" transform="rotate(90.0 340.0 434.0)"/><rect x="328.0" y="435.0" width="24.0" height="18.0" style="fill:white;stroke:black;stroke-width:0"/><text x="340.0" y="445.0" fill="black" class="diagram-class-linkage"><a xlink:href="claimresponse-definitions.html#ClaimResponse.item.detail"><title>The second tier service adjudications for submitted services</title>detail</a></text><text x="340.0" y="446.0" fill="black" class="diagram-class-linkage">0..*</text><line x1="350.93670886075955" y1="330.0" x2="344.8607594936709" y2="370.0" style="stroke:navy;stroke-width:1"/><polygon points="350.93670886075955,330.0 356.93670886075955,334.0 362.93670886075955,330.0 356.93670886075955,326.0 350.93670886075955,330.0" style="fill:navy;stroke:navy;stroke-width:1" transform="rotate(98.6371314150708 350.93670886075955 330.0)"/><rect x="339.0" y="343.0" width="16.0" height="18.0" style="fill:white;stroke:black;stroke-width:0"/><text x="347.0" y="353.0" fill="black" class="diagram-class-linkage"><a xlink:href="claimresponse-definitions.html#ClaimResponse.item"><title>The first tier service adjudications for submitted services</title>item</a></text><text x="344.8607594936709" y="366.0" fill="black" class="diagram-class-linkage">0..*</text><line x1="604.1732283464567" y1="120.0" x2="606.1574803149606" y2="78.0" style="stroke:navy;stroke-width:1"/><polygon points="604.1732283464567,120.0 610.1732283464567,124.0 616.1732283464567,120.0 610.1732283464567,116.0 604.1732283464567,120.0" style="fill:navy;stroke:navy;stroke-width:1" transform="rotate(-87.29512401426435 604.1732283464567 120.0)"/><rect x="581.0" y="92.0" width="48.0" height="18.0" style="fill:white;stroke:black;stroke-width:0"/><text x="605.0" y="102.0" fill="black" class="diagram-class-linkage"><a xlink:href="claimresponse-definitions.html#ClaimResponse.addItem.adjudication"><title>The adjudications results</title>adjudication</a></text><text x="606.1574803149606" y="92.0" fill="black" class="diagram-class-linkage">0..*</text><line x1="603.6410256410256" y1="324.0" x2="606.0" y2="370.0" style="stroke:navy;stroke-width:1"/><polygon points="603.6410256410256,324.0 609.6410256410256,328.0 615.6410256410256,324.0 609.6410256410256,320.0 603.6410256410256,324.0" style="fill:navy;stroke:navy;stroke-width:1" transform="rotate(87.06432655357882 603.6410256410256 324.0)"/><rect x="580.0" y="340.0" width="48.0" height="18.0" style="fill:white;stroke:black;stroke-width:0"/><text x="604.0" y="350.0" fill="black" class="diagram-class-linkage"><a xlink:href="claimresponse-definitions.html#ClaimResponse.addItem.detail.adjudication"><title>The adjudications results</title>adjudication</a></text><text x="606.0" y="366.0" fill="black" class="diagram-class-linkage">0..*</text><line x1="602.0" y1="212.0" x2="602.0" y2="260.0" style="stroke:navy;stroke-width:1"/><polygon points="602.0,212.0 608.0,216.0 614.0,212.0 608.0,208.0 602.0,212.0" style="fill:navy;stroke:navy;stroke-width:1" transform="rotate(90.0 602.0 212.0)"/><rect x="590.0" y="229.0" width="24.0" height="18.0" style="fill:white;stroke:black;stroke-width:0"/><text x="602.0" y="239.0" fill="black" class="diagram-class-linkage"><a xlink:href="claimresponse-definitions.html#ClaimResponse.addItem.detail"><title>The second tier service adjudications for payor added services</title>detail</a></text><text x="602.0" y="256.0" fill="black" class="diagram-class-linkage">0..*</text><line x1="512.0" y1="165.60176991150442" x2="520.0" y2="165.63716814159292" style="stroke:navy;stroke-width:1"/><polygon points="512.0,165.60176991150442 518.0,169.60176991150442 524.0,165.60176991150442 518.0,161.60176991150442 512.0,165.60176991150442" style="fill:navy;stroke:navy;stroke-width:1" transform="rotate(0.25351949377208133 512.0 165.60176991150442)"/><rect x="502.0" y="158.0" width="28.0" height="18.0" style="fill:white;stroke:black;stroke-width:0"/><text x="516.0" y="168.0" fill="black" class="diagram-class-linkage"><a xlink:href="claimresponse-definitions.html#ClaimResponse.addItem"><title>The first tier service adjudications for payor added services</title>addItem</a></text><text x="500.0" y="161.63716814159292" fill="black" class="diagram-class-linkage">0..*</text><line x1="240.0" y1="102.27131782945736" x2="216.0" y2="91.2015503875969" style="stroke:navy;stroke-width:1"/><polygon points="240.0,102.27131782945736 246.0,106.27131782945736 252.0,102.27131782945736 246.0,98.27131782945736 240.0,102.27131782945736" style="fill:navy;stroke:navy;stroke-width:1" transform="rotate(-155.2389439391226 240.0 102.27131782945736)"/><rect x="218.0" y="89.0" width="20.0" height="18.0" style="fill:white;stroke:black;stroke-width:0"/><text x="228.0" y="99.0" fill="black" class="diagram-class-linkage"><a xlink:href="claimresponse-definitions.html#ClaimResponse.error"><title>Mutually exclusive with Services Provided (Item)</title>error</a></text><text x="231.0" y="87.2015503875969" fill="black" class="diagram-class-linkage">0..*</text><line x1="240.0" y1="156.94074074074075" x2="172.0" y2="152.91111111111113" style="stroke:navy;stroke-width:1"/><polygon points="240.0,156.94074074074075 246.0,160.94074074074075 252.0,156.94074074074075 246.0,152.94074074074075 240.0,156.94074074074075" style="fill:navy;stroke:navy;stroke-width:1" transform="rotate(-176.60866058020366 240.0 156.94074074074075)"/><rect x="198.0" y="147.0" width="16.0" height="18.0" style="fill:white;stroke:black;stroke-width:0"/><text x="206.0" y="157.0" fill="black" class="diagram-class-linkage"><a xlink:href="claimresponse-definitions.html#ClaimResponse.note"><title>Note text</title>note</a></text><text x="187.0" y="148.91111111111113" fill="black" class="diagram-class-linkage">0..*</text><line x1="240.0" y1="219.10218978102193" x2="204.0" y2="233.4233576642336" style="stroke:navy;stroke-width:1"/><polygon points="240.0,219.10218978102193 246.0,223.10218978102193 252.0,219.10218978102193 246.0,215.10218978102193 240.0,219.10218978102193" style="fill:navy;stroke:navy;stroke-width:1" transform="rotate(158.3068317819438 240.0 219.10218978102193)"/><rect x="206.0" y="219.0" width="32.0" height="18.0" style="fill:white;stroke:black;stroke-width:0"/><text x="222.0" y="229.0" fill="black" class="diagram-class-linkage"><a xlink:href="claimresponse-definitions.html#ClaimResponse.coverage"><title>Financial instrument by which payment information for health care</title>coverage</a></text><text x="219.0" y="229.4233576642336" fill="black" class="diagram-class-linkage">0..*</text></svg>