<?xml version="1.0" encoding="UTF-8"?><svg xmlns="http://www.w3.org/2000/svg" xmlns:xlink="http://www.w3.org/1999/xlink" version="1.1" width="648.0" height="270.0">  <defs>
    <filter id="shadow1" x="0" y="0" width="200%" height="200%">
      <feOffset result="offOut" in="SourceGraphic" dx="3" dy="3" />
      <feColorMatrix result="matrixOut" in="offOut" type="matrix" values="0.2 0 0 0 0 0 0.2 0 0 0 0 0 0.2 0 0 0 0 0 1 0" />
      <feGaussianBlur result="blurOut" in="matrixOut" stdDeviation="2" />
      <feBlend in="SourceGraphic" in2="blurOut" mode="normal" />
    </filter>
  </defs><rect x="0.0" y="0.0" rx="4" ry="4" width="204.0" height="260.0" filter="url(#shadow1)" style="fill:#f0f8ff;stroke:black;stroke-width:1"/><line x1="0.0" y1="28.0" x2="204.0" y2="28.0" style="stroke:dimgrey;stroke-width:1"/><text x="102.0" y="20.0" fill="black" class="diagram-class-title  diagram-class-resource">CommunicationRequest<tspan class="diagram-class-title-link"> (<a xlink:href="domainresource.html" class="diagram-class-reference">DomainResource</a>)</tspan></text><text x="6.0" y="42.0" fill="black" class="diagram-class-detail"><a xlink:href="communicationrequest-definitions.html#CommunicationRequest.identifier"><title>A unique ID of this request for reference purposes. It must be provided if user wants it returned as part of any output, otherwise it will be auto-generated, if needed, by CDS system. Does not need to be the actual ID of the source system</title>identifier</a> : <a xlink:href="datatypes.html#Identifier">Identifier</a> 0..*</text><text x="6.0" y="56.0" fill="black" class="diagram-class-detail"><a xlink:href="communicationrequest-definitions.html#CommunicationRequest.category"><title>The type of message to be sent such as alert, notification, reminder, instruction, etc</title>category</a> : <a xlink:href="datatypes.html#CodeableConcept">CodeableConcept</a> 0..1</text><text x="6.0" y="70.0" fill="black" class="diagram-class-detail"><a xlink:href="communicationrequest-definitions.html#CommunicationRequest.sender"><title>The entity (e.g., person, organization, clinical information system, or device) which is to be the source of the communication</title>sender</a> : <a xlink:href="references.html#Reference">Reference</a>(<a xlink:href="device.html#Device">Device</a>|<a xlink:href="organization.html#Organization">Organization</a>|<a xlink:href="patient.html#Patient">Patient</a>|</text><text x="26.0" y="84.0" fill="black" class="diagram-class-detail">     <a xlink:href="practitioner.html#Practitioner">Practitioner</a>|<a xlink:href="relatedperson.html#RelatedPerson">RelatedPerson</a>) 0..1</text><text x="6.0" y="98.0" fill="black" class="diagram-class-detail"><a xlink:href="communicationrequest-definitions.html#CommunicationRequest.recipient"><title>The entity (e.g., person, organization, clinical information system, or device) which is the intended target of the communication</title>recipient</a> : <a xlink:href="references.html#Reference">Reference</a>(<a xlink:href="device.html#Device">Device</a>|<a xlink:href="organization.html#Organization">Organization</a>|<a xlink:href="patient.html#Patient">Patient</a>|</text><text x="26.0" y="112.0" fill="black" class="diagram-class-detail">     <a xlink:href="practitioner.html#Practitioner">Practitioner</a>|<a xlink:href="relatedperson.html#RelatedPerson">RelatedPerson</a>) 0..*</text><text x="6.0" y="126.0" fill="black" class="diagram-class-detail"><a xlink:href="communicationrequest-definitions.html#CommunicationRequest.medium"><title>The communication medium to be used, e.g., email, fax</title>medium</a> : <a xlink:href="datatypes.html#CodeableConcept">CodeableConcept</a> 0..*</text><text x="6.0" y="140.0" fill="black" class="diagram-class-detail"><a xlink:href="communicationrequest-definitions.html#CommunicationRequest.requester"><title>The responsible person who authorizes this order, e.g., physician. This may be different than the author of the order statement, e.g., clerk, who may have entered the statement into the order entry application</title>requester</a> : <a xlink:href="references.html#Reference">Reference</a>(<a xlink:href="practitioner.html#Practitioner">Practitioner</a>|<a xlink:href="patient.html#Patient">Patient</a>|</text><text x="26.0" y="154.0" fill="black" class="diagram-class-detail">     <a xlink:href="relatedperson.html#RelatedPerson">RelatedPerson</a>) 0..1</text><text x="6.0" y="168.0" fill="black" class="diagram-class-detail"><a xlink:href="communicationrequest-definitions.html#CommunicationRequest.status"><title>The status of the proposal or order (this element modifies the meaning of other elements)</title>status</a> : <a xlink:href="datatypes.html#code">code</a> 0..1 « <a xlink:href="valueset-communication-request-status.html"><title>The status of the communication</title>CommunicationRequestStatus</a> »</text><text x="6.0" y="182.0" fill="black" class="diagram-class-detail"><a xlink:href="communicationrequest-definitions.html#CommunicationRequest.encounter"><title>The encounter within which the communication request was created</title>encounter</a> : <a xlink:href="references.html#Reference">Reference</a>(<a xlink:href="encounter.html#Encounter">Encounter</a>) 0..1</text><text x="6.0" y="196.0" fill="black" class="diagram-class-detail"><a xlink:href="communicationrequest-definitions.html#CommunicationRequest.scheduledTime"><title>The time when this communication is to occur</title>scheduledTime</a> : <a xlink:href="datatypes.html#dateTime">dateTime</a> 0..1</text><text x="6.0" y="210.0" fill="black" class="diagram-class-detail"><a xlink:href="communicationrequest-definitions.html#CommunicationRequest.reason"><title>The reason or justification for the communication request</title>reason</a> : <a xlink:href="datatypes.html#CodeableConcept">CodeableConcept</a> 0..*</text><text x="6.0" y="224.0" fill="black" class="diagram-class-detail"><a xlink:href="communicationrequest-definitions.html#CommunicationRequest.orderedOn"><title>The time when the request was made</title>orderedOn</a> : <a xlink:href="datatypes.html#dateTime">dateTime</a> 0..1</text><text x="6.0" y="238.0" fill="black" class="diagram-class-detail"><a xlink:href="communicationrequest-definitions.html#CommunicationRequest.subject"><title>The patient who is the focus of this communication request</title>subject</a> : <a xlink:href="references.html#Reference">Reference</a>(<a xlink:href="patient.html#Patient">Patient</a>) 0..1</text><text x="6.0" y="252.0" fill="black" class="diagram-class-detail"><a xlink:href="communicationrequest-definitions.html#CommunicationRequest.priority"><title>Characterizes how quickly the proposed act must be initiated. Includes concepts such as stat, urgent, routine</title>priority</a> : <a xlink:href="datatypes.html#CodeableConcept">CodeableConcept</a> 0..1</text><rect x="240.0" y="0.0" rx="4" ry="4" width="208.0" height="50.0" filter="url(#shadow1)" style="fill:#f0f8ff;stroke:black;stroke-width:1"/><line x1="240.0" y1="28.0" x2="448.0" y2="28.0" style="stroke:dimgrey;stroke-width:1"/><text x="344.0" y="20.0" fill="black" class="diagram-class-title">Payload</text><text x="246.0" y="42.0" fill="black" class="diagram-class-detail"><a xlink:href="communicationrequest-definitions.html#CommunicationRequest.payload.content_x_"><title>An individual message part for multi-part messages</title>content[x]</a> : <a xlink:href="datatypes.html#string">string</a>|<a xlink:href="datatypes.html#Attachment">Attachment</a>|<a xlink:href="references.html#Reference">Reference</a>(<a xlink:href="resourcelist.html#Any">Any</a>) 1..1</text><line x1="204.0" y1="85.74380165289257" x2="286.3809523809524" y2="50.0" style="stroke:navy;stroke-width:1"/><polygon points="204.0,85.74380165289257 210.0,89.74380165289257 216.0,85.74380165289257 210.0,81.74380165289257 204.0,85.74380165289257" style="fill:navy;stroke:navy;stroke-width:1" transform="rotate(-23.455264762556578 204.0 85.74380165289257)"/><rect x="231.0" y="60.0" width="28.0" height="18.0" style="fill:white;stroke:black;stroke-width:0"/><text x="245.0" y="70.0" fill="black" class="diagram-class-linkage"><a xlink:href="communicationrequest-definitions.html#CommunicationRequest.payload"><title>Text, attachment(s), or resource(s) to be communicated to the recipient</title>payload</a></text><text x="286.3809523809524" y="64.0" fill="black" class="diagram-class-linkage">0..*</text></svg>