<?xml version="1.0" encoding="UTF-8"?><svg xmlns="http://www.w3.org/2000/svg" xmlns:xlink="http://www.w3.org/1999/xlink" version="1.1" width="824.0" height="396.0">  <defs>
    <filter id="shadow1" x="0" y="0" width="200%" height="200%">
      <feOffset result="offOut" in="SourceGraphic" dx="3" dy="3" />
      <feColorMatrix result="matrixOut" in="offOut" type="matrix" values="0.2 0 0 0 0 0 0.2 0 0 0 0 0 0.2 0 0 0 0 0 1 0" />
      <feGaussianBlur result="blurOut" in="matrixOut" stdDeviation="2" />
      <feBlend in="SourceGraphic" in2="blurOut" mode="normal" />
    </filter>
  </defs><rect x="0.0" y="0.0" rx="4" ry="4" width="256.0" height="204.0" filter="url(#shadow1)" style="fill:#f0f8ff;stroke:black;stroke-width:1"/><line x1="0.0" y1="28.0" x2="256.0" y2="28.0" style="stroke:dimgrey;stroke-width:1"/><text x="128.0" y="20.0" fill="black" class="diagram-class-title  diagram-class-resource">Composition<tspan class="diagram-class-title-link"> (<a xlink:href="domainresource.html" class="diagram-class-reference">DomainResource</a>)</tspan></text><text x="6.0" y="42.0" fill="black" class="diagram-class-detail"><a xlink:href="composition-definitions.html#Composition.identifier"><title>Logical Identifier for the composition, assigned when created. This identifier stays constant as the composition is changed over time</title>identifier</a> : <a xlink:href="datatypes.html#Identifier">Identifier</a> 0..1</text><text x="6.0" y="56.0" fill="black" class="diagram-class-detail"><a xlink:href="composition-definitions.html#Composition.date"><title>The composition editing time, when the composition was last logically changed by the author</title>date</a> : <a xlink:href="datatypes.html#dateTime">dateTime</a> 1..1</text><text x="6.0" y="70.0" fill="black" class="diagram-class-detail"><a xlink:href="composition-definitions.html#Composition.type"><title>Specifies the particular kind of composition (e.g. History and Physical, Discharge Summary, Progress Note). This usually equates to the purpose of making the composition</title>type</a> : <a xlink:href="datatypes.html#CodeableConcept">CodeableConcept</a> 1..1 « <a xlink:href="valueset-doc-typecodes.html"><title>Type of a composition</title>FHIR Document Type Codes</a> »</text><text x="6.0" y="84.0" fill="black" class="diagram-class-detail"><a xlink:href="composition-definitions.html#Composition.class"><title>A categorization for the type of the composition. This may be implied by or derived from the code specified in the Composition Type</title>class</a> : <a xlink:href="datatypes.html#CodeableConcept">CodeableConcept</a> 0..1 « <a xlink:href="valueset-c80-doc-classcodes.html"><title>High-level kind of a clinical document at a macro level</title>Document Class Value Set</a> »</text><text x="6.0" y="98.0" fill="black" class="diagram-class-detail"><a xlink:href="composition-definitions.html#Composition.title"><title>Official human-readable label for the composition</title>title</a> : <a xlink:href="datatypes.html#string">string</a> 0..1</text><text x="6.0" y="112.0" fill="black" class="diagram-class-detail"><a xlink:href="composition-definitions.html#Composition.status"><title>The workflow/clinical status of this composition. The status is a marker for the clinical standing of the document (this element modifies the meaning of other elements)</title>status</a> : <a xlink:href="datatypes.html#code">code</a> 1..1 « <a xlink:href="valueset-composition-status.html"><title>The workflow/clinical status of the composition</title>CompositionStatus</a> »</text><text x="6.0" y="126.0" fill="black" class="diagram-class-detail"><a xlink:href="composition-definitions.html#Composition.confidentiality"><title>The code specifying the level of confidentiality of the Composition (this element modifies the meaning of other elements)</title>confidentiality</a> : <a xlink:href="datatypes.html#code">code</a> 0..1 « <a xlink:href="v3/Confidentiality/index.html"><title>Codes specifying the level of confidentiality of the composition</title>v3 Code System Confidentiality</a> »</text><text x="6.0" y="140.0" fill="black" class="diagram-class-detail"><a xlink:href="composition-definitions.html#Composition.subject"><title>Who or what the composition is about. The composition can be about a person, (patient or healthcare practitioner), a device (I.e. machine) or even a group of subjects (such as a document about a herd of livestock, or a set of patients that share a common exposure)</title>subject</a> : <a xlink:href="references.html#Reference">Reference</a>(<a xlink:href="resourcelist.html#Any">Any</a>) 1..1</text><text x="6.0" y="154.0" fill="black" class="diagram-class-detail"><a xlink:href="composition-definitions.html#Composition.author"><title>Identifies who is responsible for the information in the composition.  (Not necessarily who typed it in.)</title>author</a> : <a xlink:href="references.html#Reference">Reference</a>(<a xlink:href="practitioner.html#Practitioner">Practitioner</a>|<a xlink:href="device.html#Device">Device</a>|<a xlink:href="patient.html#Patient">Patient</a>|</text><text x="26.0" y="168.0" fill="black" class="diagram-class-detail">     <a xlink:href="relatedperson.html#RelatedPerson">RelatedPerson</a>) 1..*</text><text x="6.0" y="182.0" fill="black" class="diagram-class-detail"><a xlink:href="composition-definitions.html#Composition.custodian"><title>Identifies the organization or group who is responsible for ongoing maintenance of and access to the composition/document information</title>custodian</a> : <a xlink:href="references.html#Reference">Reference</a>(<a xlink:href="organization.html#Organization">Organization</a>) 0..1</text><text x="6.0" y="196.0" fill="black" class="diagram-class-detail"><a xlink:href="composition-definitions.html#Composition.encounter"><title>Describes the clinical encounter or type of care this documentation is associated with</title>encounter</a> : <a xlink:href="references.html#Reference">Reference</a>(<a xlink:href="encounter.html#Encounter">Encounter</a>) 0..1</text><rect x="30.0" y="284.0" rx="4" ry="4" width="196.0" height="92.0" filter="url(#shadow1)" style="fill:#f0f8ff;stroke:black;stroke-width:1"/><line x1="30.0" y1="312.0" x2="226.0" y2="312.0" style="stroke:dimgrey;stroke-width:1"/><text x="128.0" y="304.0" fill="black" class="diagram-class-title">Attester</text><text x="36.0" y="326.0" fill="black" class="diagram-class-detail"><a xlink:href="composition-definitions.html#Composition.attester.mode"><title>The type of attestation the authenticator offers</title>mode</a> : <a xlink:href="datatypes.html#code">code</a> 1..* « <a xlink:href="valueset-composition-attestation-mode.html"><title>The way in which a person authenticated a composition</title>CompositionAttestationMode</a> »</text><text x="36.0" y="340.0" fill="black" class="diagram-class-detail"><a xlink:href="composition-definitions.html#Composition.attester.time"><title>When composition was attested by the party</title>time</a> : <a xlink:href="datatypes.html#dateTime">dateTime</a> 0..1</text><text x="36.0" y="354.0" fill="black" class="diagram-class-detail"><a xlink:href="composition-definitions.html#Composition.attester.party"><title>Who attested the composition in the specified way</title>party</a> : <a xlink:href="references.html#Reference">Reference</a>(<a xlink:href="patient.html#Patient">Patient</a>|<a xlink:href="practitioner.html#Practitioner">Practitioner</a>|</text><text x="56.0" y="368.0" fill="black" class="diagram-class-detail">     <a xlink:href="organization.html#Organization">Organization</a>) 0..1</text><rect x="400.0" y="200.0" rx="4" ry="4" width="224.0" height="78.0" filter="url(#shadow1)" style="fill:#f0f8ff;stroke:black;stroke-width:1"/><line x1="400.0" y1="228.0" x2="624.0" y2="228.0" style="stroke:dimgrey;stroke-width:1"/><text x="512.0" y="220.0" fill="black" class="diagram-class-title">Event</text><text x="406.0" y="242.0" fill="black" class="diagram-class-detail"><a xlink:href="composition-definitions.html#Composition.event.code"><title>This list of codes represents the main clinical acts, such as a colonoscopy or an appendectomy, being documented. In some cases, the event is inherent in the typeCode, such as a &quot;History and Physical Report&quot; in which the procedure being documented is necessarily a &quot;History and Physical&quot; act</title>code</a> : <a xlink:href="datatypes.html#CodeableConcept">CodeableConcept</a> 0..* « <a xlink:href="v3/ActCode/index.html"><title>This list of codes represents the main clinical acts being documented</title>v3 Code System ActCode</a> »</text><text x="406.0" y="256.0" fill="black" class="diagram-class-detail"><a xlink:href="composition-definitions.html#Composition.event.period"><title>The period of time covered by the documentation. There is no assertion that the documentation is a complete representation for this period, only that it documents events during this time</title>period</a> : <a xlink:href="datatypes.html#Period">Period</a> 0..1</text><text x="406.0" y="270.0" fill="black" class="diagram-class-detail"><a xlink:href="composition-definitions.html#Composition.event.detail"><title>Full details for the event(s) the composition/documentation consents</title>detail</a> : <a xlink:href="references.html#Reference">Reference</a>(<a xlink:href="resourcelist.html#Any">Any</a>) 0..*</text><rect x="376.0" y="63.0" rx="4" ry="4" width="224.0" height="78.0" filter="url(#shadow1)" style="fill:#f0f8ff;stroke:black;stroke-width:1"/><line x1="376.0" y1="91.0" x2="600.0" y2="91.0" style="stroke:dimgrey;stroke-width:1"/><text x="488.0" y="83.0" fill="black" class="diagram-class-title">Section</text><text x="382.0" y="105.0" fill="black" class="diagram-class-detail"><a xlink:href="composition-definitions.html#Composition.section.title"><title>The label for this particular section.  This will be part of the rendered content for the document, and is often used to build a table of contents</title>title</a> : <a xlink:href="datatypes.html#string">string</a> 0..1</text><text x="382.0" y="119.0" fill="black" class="diagram-class-detail"><a xlink:href="composition-definitions.html#Composition.section.code"><title>A code identifying the kind of content contained within the section. This must be consistent with the section title</title>code</a> : <a xlink:href="datatypes.html#CodeableConcept">CodeableConcept</a> 0..1 « <a xlink:href="valueset-doc-section-codes.html"><title>Classification of a section of a composition / document</title>Document Section Codes</a> »</text><text x="382.0" y="133.0" fill="black" class="diagram-class-detail"><a xlink:href="composition-definitions.html#Composition.section.content"><title>The content (narrative and data entries) associated with the section</title>content</a> : <a xlink:href="references.html#Reference">Reference</a>(<a xlink:href="list.html#List">List</a>) 0..1</text><line x1="128.0" y1="204.0" x2="128.0" y2="284.0" style="stroke:navy;stroke-width:1"/><polygon points="128.0,204.0 134.0,208.0 140.0,204.0 134.0,200.0 128.0,204.0" style="fill:navy;stroke:navy;stroke-width:1" transform="rotate(90.0 128.0 204.0)"/><rect x="112.0" y="237.0" width="32.0" height="18.0" style="fill:white;stroke:black;stroke-width:0"/><text x="128.0" y="247.0" fill="black" class="diagram-class-linkage"><a xlink:href="composition-definitions.html#Composition.attester"><title>A participant who has attested to the accuracy of the composition/document</title>attester</a></text><text x="128.0" y="280.0" fill="black" class="diagram-class-linkage">0..*</text><line x1="256.0" y1="147.66666666666666" x2="402.6861313868613" y2="200.0" style="stroke:navy;stroke-width:1"/><polygon points="256.0,147.66666666666666 262.0,151.66666666666666 268.0,147.66666666666666 262.0,143.66666666666666 256.0,147.66666666666666" style="fill:navy;stroke:navy;stroke-width:1" transform="rotate(19.6349176804148 256.0 147.66666666666666)"/><rect x="319.0" y="166.0" width="20.0" height="18.0" style="fill:white;stroke:black;stroke-width:0"/><text x="329.0" y="176.0" fill="black" class="diagram-class-linkage"><a xlink:href="composition-definitions.html#Composition.event"><title>The clinical service, such as a colonoscopy or an appendectomy, being documented</title>event</a></text><text x="402.6861313868613" y="196.0" fill="black" class="diagram-class-linkage">0..*</text><line x1="600.0" y1="77.0" x2="660.0" y2="77.0" style="stroke:navy;stroke-width:1"/><line x1="660.0" y1="77.0" x2="660.0" y2="127.0" style="stroke:navy;stroke-width:1"/><line x1="660.0" y1="127.0" x2="600.0" y2="127.0" style="stroke:navy;stroke-width:1"/><polygon points="600.0,77.0 606.0,81.0 612.0,77.0 606.0,73.0 600.0,77.0" style="fill:navy;stroke:navy;stroke-width:1" transform="rotate(0.0 600.0 77.0)"/><rect x="646.0" y="95.0" width="28.0" height="18.0" style="fill:white;stroke:black;stroke-width:0"/><text x="660.0" y="105.0" fill="black" class="diagram-class-linkage"><a xlink:href="composition-definitions.html#Composition.section.section"><title>A nested sub-section within this section</title>section</a></text><text x="615.0" y="123.0" fill="black" class="diagram-class-linkage">0..*</text><line x1="256.0" y1="102.0" x2="376.0" y2="102.0" style="stroke:navy;stroke-width:1"/><polygon points="256.0,102.0 262.0,106.0 268.0,102.0 262.0,98.0 256.0,102.0" style="fill:navy;stroke:navy;stroke-width:1" transform="rotate(0.0 256.0 102.0)"/><rect x="302.0" y="95.0" width="28.0" height="18.0" style="fill:white;stroke:black;stroke-width:0"/><text x="316.0" y="105.0" fill="black" class="diagram-class-linkage"><a xlink:href="composition-definitions.html#Composition.section"><title>The root of the sections that make up the composition</title>section</a></text><text x="356.0" y="98.0" fill="black" class="diagram-class-linkage">0..*</text></svg>