{
  "resourceType": "Composition",
  "id": "example",
  "text": {
    "status": "generated",
    "div": "<div>\n      <p>Consultation note for Henry Levin the 7th</p>\n    </div>"
  },
  "identifier": {
    "system": "http://healthintersections.com.au/test",
    "value": "1"
  },
  "date": "2012-01-04T09:10:14Z",
  "type": {
    "coding": [
      {
        "system": "http://loinc.org",
        "code": "11488-4",
        "display": "Consult note"
      }
    ]
  },
  "status": "final",
  "confidentiality": "N",
  "subject": {
    "reference": "Patient/xcda",
    "display": "Henry Levin the 7th"
  },
  "author": [
    {
      "reference": "Practitioner/xcda-author",
      "display": "Harold Hippocrates, MD"
    }
  ],
  "attester": [
    {
      "mode": [
        "legal"
      ],
      "party": {
        "reference": "Practitioner/xcda-author",
        "display": "Harold Hippocrates, MD"
      }
    }
  ],
  "custodian": {
    "reference": "Organization/2.16.840.1.113883.19.5",
    "display": "Good Health Clinic"
  },
  "section": [
    {
      "title": "History of present illness",
      "content": {
        "reference": "List/example"
      }
    }
  ]
}