{
  "resourceType": "ConceptMap",
  "id": "v3-composition-status",
  "text": {
    "status": "generated",
    "div": "<div><h2>v3 map for CompositionStatus (http://hl7.org/fhir/ConceptMap/v3-composition-status)</h2><p>Mapping from <a href=\"valueset-composition-status.html\">http://hl7.org/fhir/ValueSet/composition-status</a> to <a href=\"v3/ActStatus/index.html\">http://hl7.org/fhir/ValueSet/v3-ActStatus</a></p><p>DRAFT. Published on Jul 14, 2015 4:14:24 PM by HL7 (FHIR Project) (<a href=\"http://hl7.org/fhir\">http://hl7.org/fhir</a>, <a href=\"mailto:fhir@lists.hl7.org\">fhir@lists.hl7.org</a>; ). </p><p>v3 Map (ActStatus)</p><br/><table class=\"grid\"><tr><td><b>Source Code</b></td><td><b>Equivalence</b></td><td><b>Destination Code</b></td></tr><tr><td>preliminary (Preliminary)</td><td>equivalent</td><td>active (active)</td></tr><tr><td>final (Final)</td><td>wider</td><td>completed (completed)</td></tr><tr><td>appended (Appended)</td><td>wider</td><td>completed (completed)</td></tr><tr><td>amended (Amended)</td><td>wider</td><td>completed (completed)</td></tr><tr><td>entered-in-error (Entered In Error)</td><td>equivalent</td><td>nullified (nullified)</td></tr></table></div>"
  },
  "url": "http://hl7.org/fhir/ConceptMap/v3-composition-status",
  "name": "v3 map for CompositionStatus",
  "publisher": "HL7 (FHIR Project)",
  "contact": [
    {
      "telecom": [
        {
          "system": "url",
          "value": "http://hl7.org/fhir"
        },
        {
          "system": "email",
          "value": "fhir@lists.hl7.org"
        }
      ]
    }
  ],
  "description": "v3 Map (ActStatus)",
  "status": "draft",
  "date": "2015-07-14T16:14:24+00:00",
  "sourceReference": {
    "reference": "http://hl7.org/fhir/ValueSet/composition-status"
  },
  "targetReference": {
    "reference": "http://hl7.org/fhir/ValueSet/v3-ActStatus"
  },
  "element": [
    {
      "codeSystem": "http://hl7.org/fhir/composition-status",
      "code": "preliminary",
      "target": [
        {
          "codeSystem": "http://hl7.org/fhir/v3/ActStatus",
          "code": "active",
          "equivalence": "equivalent"
        }
      ]
    },
    {
      "codeSystem": "http://hl7.org/fhir/composition-status",
      "code": "final",
      "target": [
        {
          "codeSystem": "http://hl7.org/fhir/v3/ActStatus",
          "code": "completed",
          "equivalence": "wider"
        }
      ]
    },
    {
      "codeSystem": "http://hl7.org/fhir/composition-status",
      "code": "appended",
      "target": [
        {
          "codeSystem": "http://hl7.org/fhir/v3/ActStatus",
          "code": "completed",
          "equivalence": "wider"
        }
      ]
    },
    {
      "codeSystem": "http://hl7.org/fhir/composition-status",
      "code": "amended",
      "target": [
        {
          "codeSystem": "http://hl7.org/fhir/v3/ActStatus",
          "code": "completed",
          "equivalence": "wider"
        }
      ]
    },
    {
      "codeSystem": "http://hl7.org/fhir/composition-status",
      "code": "entered-in-error",
      "target": [
        {
          "codeSystem": "http://hl7.org/fhir/v3/ActStatus",
          "code": "nullified",
          "equivalence": "equivalent"
        }
      ]
    }
  ]
}