{
  "resourceType": "ConceptMap",
  "id": "101",
  "text": {
    "status": "generated",
    "div": "<div><h2>FHIR/v3 Address Use Mapping (256a5231-a2bb-49bd-9fea-f349d428b70d)</h2><p>Mapping from <a href=\"valueset-address-use.html\">http://hl7.org/fhir/address-use</a> to <a href=\"v3/AddressUse/index.html\">http://hl7.org/fhir/v3/AddressUse</a></p><p>DRAFT (not intended for production usage). Published on Jun 13, 2012 by FHIR project team (example) (<a href=\"http://hl7.org/fhir\">http://hl7.org/fhir</a>; ). </p><p>A mapping between the FHIR and V3 AddressUse Code systems</p><br/><table class=\"grid\"><tr><td><b>Source Code</b></td><td><b>Equivalence</b></td><td><b>Destination Code</b></td><td><b>Comments</b></td></tr><tr><td>home (Home)</td><td>equivalent</td><td>H (home address)</td><td/></tr><tr><td>home (Home)</td><td>equivalent</td><td>H (home address)</td><td/></tr><tr><td>work (Work)</td><td>equivalent</td><td>WP (work place)</td><td/></tr><tr><td>temp (Temporary)</td><td>equivalent</td><td>TMP (temporary address)</td><td/></tr><tr><td>old (Old / Incorrect)</td><td>disjoint</td><td>BAD (bad address)</td><td>In the V3 AD, old is handled by the usablePeriod element, but you have to provide a time, there's no simple equivalent of flagging an address as old</td></tr></table></div>"
  },
  "url": "256a5231-a2bb-49bd-9fea-f349d428b70d",
  "version": "20120613",
  "name": "FHIR/v3 Address Use Mapping",
  "publisher": "FHIR project team (example)",
  "contact": [
    {
      "telecom": [
        {
          "system": "url",
          "value": "http://hl7.org/fhir"
        }
      ]
    }
  ],
  "description": "A mapping between the FHIR and V3 AddressUse Code systems",
  "status": "draft",
  "experimental": true,
  "date": "2012-06-13",
  "sourceReference": {
    "reference": "http://hl7.org/fhir/address-use"
  },
  "targetReference": {
    "reference": "http://hl7.org/fhir/v3/AddressUse"
  },
  "element": [
    {
      "codeSystem": "http://hl7.org/fhir/address-use",
      "code": "home",
      "target": [
        {
          "codeSystem": "http://hl7.org/fhir/v3/AddressUse",
          "code": "H",
          "equivalence": "equivalent"
        }
      ]
    },
    {
      "codeSystem": "http://hl7.org/fhir/address-use",
      "code": "home",
      "target": [
        {
          "codeSystem": "http://hl7.org/fhir/v3/AddressUse",
          "code": "H",
          "equivalence": "equivalent"
        }
      ]
    },
    {
      "codeSystem": "http://hl7.org/fhir/address-use",
      "code": "work",
      "target": [
        {
          "codeSystem": "http://hl7.org/fhir/v3/AddressUse",
          "code": "WP",
          "equivalence": "equivalent"
        }
      ]
    },
    {
      "codeSystem": "http://hl7.org/fhir/address-use",
      "code": "temp",
      "target": [
        {
          "codeSystem": "http://hl7.org/fhir/v3/AddressUse",
          "code": "TMP",
          "equivalence": "equivalent"
        }
      ]
    },
    {
      "codeSystem": "http://hl7.org/fhir/address-use",
      "code": "old",
      "target": [
        {
          "codeSystem": "http://hl7.org/fhir/v3/AddressUse",
          "code": "BAD",
          "equivalence": "disjoint",
          "comments": "In the V3 AD, old is handled by the usablePeriod element, but you have to provide a time, there's no simple equivalent of flagging an address as old"
        }
      ]
    }
  ]
}