{
  "resourceType": "Condition",
  "id": "f001",
  "text": {
    "status": "generated",
    "div": "<div><p><b>Generated Narrative with Details</b></p><p><b>id</b>: f001</p><p><b>patient</b>: <a>P. van de Heuvel. Generated Summary: 738472983 (USUAL), ?? (USUAL); Pieter van de Heuvel ; ph: 0648352638(MOBILE), p.heuvel@gmail.com(HOME); MALE; birthDate: Nov 17, 1944; <span>Getrouwd</span>; multipleBirth; active</a></p><p><b>encounter</b>: <a>Generated Summary: v1451 (OFFICIAL); FINISHED; OUTPATIENT; <span>Patient-initiated encounter</span>; 140 min; <span>Heart valve replacement</span>; <span>Non-urgent cardiological admission</span></a></p><p><b>asserter</b>: <a>P. van de Heuvel. Generated Summary: 738472983 (USUAL), ?? (USUAL); Pieter van de Heuvel ; ph: 0648352638(MOBILE), p.heuvel@gmail.com(HOME); MALE; birthDate: Nov 17, 1944; <span>Getrouwd</span>; multipleBirth; active</a></p><p><b>dateAsserted</b>: Oct 5, 2011</p><p><b>code</b>: Heart valve disorder <span>(Details : {SNOMED CT code '368009' = 'Heart valve disease', given as 'Heart valve disorder'})</span></p><p><b>category</b>: diagnosis <span>(Details : {SNOMED CT code '439401001' = 'Diagnosis', given as 'diagnosis'})</span></p><p><b>clinicalStatus</b>: confirmed</p><p><b>severity</b>: Moderate <span>(Details : {SNOMED CT code '6736007' = 'Moderate', given as 'Moderate'})</span></p><p><b>onset</b>: Aug 5, 2011</p><h3>Evidences</h3><table><tr><td>-</td><td><b>Code</b></td></tr><tr><td>*</td><td>Cardiac chest pain <span>(Details : {SNOMED CT code '426396005' = 'Cardiac chest pain', given as 'Cardiac chest pain'})</span></td></tr></table><h3>Locations</h3><table><tr><td>-</td><td><b>Site[x]</b></td></tr><tr><td>*</td><td>heart structure <span>(Details : {SNOMED CT code '40768004' = 'Left thorax', given as 'Left thorax'})</span></td></tr></table></div>"
  },
  "patient": {
    "reference": "Patient/f001",
    "display": "P. van de Heuvel"
  },
  "encounter": {
    "reference": "Encounter/f001"
  },
  "asserter": {
    "reference": "Patient/f001",
    "display": "P. van de Heuvel"
  },
  "dateAsserted": "2011-10-05",
  "code": {
    "coding": [
      {
        "system": "http://snomed.info/sct",
        "code": "368009",
        "display": "Heart valve disorder"
      }
    ]
  },
  "category": {
    "coding": [
      {
        "system": "http://snomed.info/sct",
        "code": "439401001",
        "display": "diagnosis"
      }
    ]
  },
  "clinicalStatus": "confirmed",
  "severity": {
    "coding": [
      {
        "system": "http://snomed.info/sct",
        "code": "6736007",
        "display": "Moderate"
      }
    ]
  },
  "onsetDateTime": "2011-08-05",
  "evidence": [
    {
      "code": {
        "coding": [
          {
            "system": "http://snomed.info/sct",
            "code": "426396005",
            "display": "Cardiac chest pain"
          }
        ]
      }
    }
  ],
  "location": [
    {
      "siteCodeableConcept": {
        "coding": [
          {
            "system": "http://snomed.info/sct",
            "code": "40768004",
            "display": "Left thorax"
          }
        ],
        "text": "heart structure"
      }
    }
  ]
}