<?xml version="1.0" encoding="UTF-8"?>
<sch:schema xmlns:sch="http://purl.oclc.org/dsdl/schematron" queryBinding="xslt2">
  <sch:ns prefix="f" uri="http://hl7.org/fhir"/>
  <sch:ns prefix="h" uri="http://www.w3.org/1999/xhtml"/>
  <!-- 
    This file contains just the constraints for the resource Conformance
    It is provided for documentation purposes. When actually validating,
    always use fhir-invariants.sch (because of the way containment works)
    Alternatively you can use this file to build a smaller version of
    fhir-invariants.sch (the contents are identical; only include those 
    resources relevant to your implementation).
  -->
    <sch:pattern>
      <sch:title>Global</sch:title>
      <sch:rule context="f:*">
        <sch:assert test="@value|f:*|h:div">global-1: All FHIR elements must have a @value or children</sch:assert>
      </sch:rule>
    </sch:pattern>
  <sch:pattern>
    <sch:title>Conformance</sch:title>
    <sch:rule context="f:Conformance">
      <sch:assert test="not(exists(f:contained/f:meta/f:versionId)) and not(exists(f:contained/f:meta/f:lastUpdated))">dom-4: If a resource is contained in another resource, it SHALL NOT have a meta.versionId or a meta.lastUpdated</sch:assert>
      <sch:assert test="not(exists(for $id in f:contained/*/@id return $id[not(ancestor::f:contained/parent::*/descendant::f:reference/@value=concat('#', $id))]))">dom-3: If the resource is contained in another resource, it SHALL be referred to from elsewhere in the resource</sch:assert>
      <sch:assert test="not(parent::f:contained and f:contained)">dom-2: If the resource is contained in another resource, it SHALL NOT contain nested Resources</sch:assert>
      <sch:assert test="not(parent::f:contained and f:text)">dom-1: If the resource is contained in another resource, it SHALL NOT contain any narrative</sch:assert>
    </sch:rule>
    <sch:rule context="f:Conformance/f:text/f:div">
      <sch:assert test="descendant::text()[normalize-space(.)!=''] or descendant::h:img[@src]">txt-2: The narrative SHALL have some non-whitespace content</sch:assert>
      <sch:assert test="not(descendant-or-self::*[not(local-name(.)=('a', 'abbr', 'acronym', 'b', 'big', 'blockquote', 'br', 'caption', 'cite', 'code', 'colgroup', 'dd', 'dfn', 'div', 'dl', 'dt', 'em', 'h1', 'h2', 'h3', 'h4', 'h5', 'h6', 'hr', 'i', 'img', 'li', 'ol', 'p', 'pre', 'q', 'samp', 'small', 'span', 'strong', 'table', 'tbody', 'td', 'tfoot', 'th', 'thead', 'tr', 'tt', 'ul', 'var'))])">txt-1: The narrative SHALL contain only the basic html formatting elements described in chapters 7-11 (except section 4 of chapter 9) and 15 of the HTML 4.0 standard, &lt;a&gt; elements (either name or href), images and internally contained style attributes</sch:assert>
      <sch:assert test="not(descendant-or-self::*/@*[not(name(.)=('abbr', 'accesskey', 'align', 'alt', 'axis', 'bgcolor', 'border', 'cellhalign', 'cellpadding', 'cellspacing', 'cellvalign', 'char', 'charoff', 'charset', 'cite', 'class', 'colspan', 'compact', 'coords', 'dir', 'frame', 'headers', 'height', 'href', 'hreflang', 'hspace', 'id', 'lang', 'longdesc', 'name', 'nowrap', 'rel', 'rev', 'rowspan', 'rules', 'scope', 'shape', 'span', 'src', 'start', 'style', 'summary', 'tabindex', 'title', 'type', 'valign', 'value', 'vspace', 'width'))])">txt-3: The narrative SHALL contain only the basic html formatting attributes described in chapters 7-11 (except section 4 of chapter 9) and 15 of the HTML 4.0 standard, &lt;a&gt; elements (either name or href), images and internally contained style attributes</sch:assert>
    </sch:rule>
    <sch:rule context="f:Conformance">
      <sch:assert test="exists(f:rest) or exists(f:messaging) or exists(f:document)">cnf-1: A Conformance statement SHALL have at least one of rest, messaging or document</sch:assert>
      <sch:assert test="count(f:software | f:implementation | f:description) &gt; 0">cnf-2: A Conformance statement SHALL have at least one of description, software, or implementation</sch:assert>
      <sch:assert test="count(f:messaging)&lt;=1 or not(f:messaging[not(f:endpoint)])">cnf-4: If there is more than one messaging element, endpoint must be specified for each one</sch:assert>
      <sch:assert test="count(f:messaging/f:endpoint)=count(distinct-values(f:messaging/f:endpoint/@value))">cnf-5: The set of end points listed for messaging must be unique</sch:assert>
      <sch:assert test="count(f:document[f:mode='producer'])=count(distinct-values(f:document[f:mode='producer']/f:profile/@value)) and count(f:document[f:mode='consumer'])=count(distinct-values(f:document[f:mode='consumer']/f:profile/@value))">cnf-7: The set of documents must be unique by the combination of profile &amp; mode</sch:assert>
      <sch:assert test="count(f:rest)=count(distinct-values(f:rest/f:mode/@value))">cnf-8: There can only be one REST declaration per mode</sch:assert>
    </sch:rule>
    <sch:rule context="f:Conformance/f:contact/f:telecom">
      <sch:assert test="not(exists(f:value)) or exists(f:system)">cpt-2: A system is required if a value is provided.</sch:assert>
    </sch:rule>
    <sch:rule context="f:Conformance/f:contact/f:telecom/f:period">
      <sch:assert test="not(exists(f:start)) or not(exists(f:end)) or (f:start/@value &lt;= f:end/@value)">per-1: If present, start SHALL have a lower value than end</sch:assert>
    </sch:rule>
    <sch:rule context="f:Conformance/f:profile">
      <sch:assert test="not(starts-with(f:reference/@value, '#')) or exists(ancestor::f:entry/f:resource/f:*/f:contained/f:*[f:id/@value=substring-after(current()/f:reference/@value, '#')]|/*/f:contained/f:*[f:id/@value=substring-after(current()/f:reference/@value, '#')])">ref-1: SHALL have a local reference if the resource is provided inline</sch:assert>
    </sch:rule>
    <sch:rule context="f:Conformance/f:rest">
      <sch:assert test="count(f:query)=count(distinct-values(f:query/f:name/@value))">cnf-10: A given query can only be described once per RESTful mode</sch:assert>
      <sch:assert test="count(f:resource)=count(distinct-values(f:resource/f:type/@value))">cnf-9: A given resource can only be described once per RESTful mode</sch:assert>
    </sch:rule>
    <sch:rule context="f:Conformance/f:rest/f:resource">
      <sch:assert test="count(f:searchParam)=count(distinct-values(f:searchParam/f:name/@value))">cnf-12: Search parameter names must be unique in the context of a resource</sch:assert>
      <sch:assert test="count(f:operation)=count(distinct-values(f:operation/f:code/@value))">cnf-11: Operation codes must be unique in the context of a resource</sch:assert>
    </sch:rule>
    <sch:rule context="f:Conformance/f:rest/f:resource/f:profile">
      <sch:assert test="not(starts-with(f:reference/@value, '#')) or exists(ancestor::f:entry/f:resource/f:*/f:contained/f:*[f:id/@value=substring-after(current()/f:reference/@value, '#')]|/*/f:contained/f:*[f:id/@value=substring-after(current()/f:reference/@value, '#')])">ref-1: SHALL have a local reference if the resource is provided inline</sch:assert>
    </sch:rule>
    <sch:rule context="f:Conformance/f:rest/f:operation/f:definition">
      <sch:assert test="not(starts-with(f:reference/@value, '#')) or exists(ancestor::f:entry/f:resource/f:*/f:contained/f:*[f:id/@value=substring-after(current()/f:reference/@value, '#')]|/*/f:contained/f:*[f:id/@value=substring-after(current()/f:reference/@value, '#')])">ref-1: SHALL have a local reference if the resource is provided inline</sch:assert>
    </sch:rule>
    <sch:rule context="f:Conformance/f:messaging">
      <sch:assert test="exists(f:endpoint) = exists(parent::f:Conformance/f:implementation)">cnf-3: Messaging end point is required (and is only permitted) when statement is for an implementation</sch:assert>
      <sch:assert test="count(f:event[f:mode='sender'])=count(distinct-values(f:event[f:mode='sender']/f:code/@value)) and count(f:event[f:mode='receiver'])=count(distinct-values(f:event[f:mode='receiver']/f:code/@value))">cnf-6: The set of events per messaging endpoint must be unique by the combination of code &amp; mode</sch:assert>
    </sch:rule>
    <sch:rule context="f:Conformance/f:messaging/f:event/f:request">
      <sch:assert test="not(starts-with(f:reference/@value, '#')) or exists(ancestor::f:entry/f:resource/f:*/f:contained/f:*[f:id/@value=substring-after(current()/f:reference/@value, '#')]|/*/f:contained/f:*[f:id/@value=substring-after(current()/f:reference/@value, '#')])">ref-1: SHALL have a local reference if the resource is provided inline</sch:assert>
    </sch:rule>
    <sch:rule context="f:Conformance/f:messaging/f:event/f:response">
      <sch:assert test="not(starts-with(f:reference/@value, '#')) or exists(ancestor::f:entry/f:resource/f:*/f:contained/f:*[f:id/@value=substring-after(current()/f:reference/@value, '#')]|/*/f:contained/f:*[f:id/@value=substring-after(current()/f:reference/@value, '#')])">ref-1: SHALL have a local reference if the resource is provided inline</sch:assert>
    </sch:rule>
    <sch:rule context="f:Conformance/f:document/f:profile">
      <sch:assert test="not(starts-with(f:reference/@value, '#')) or exists(ancestor::f:entry/f:resource/f:*/f:contained/f:*[f:id/@value=substring-after(current()/f:reference/@value, '#')]|/*/f:contained/f:*[f:id/@value=substring-after(current()/f:reference/@value, '#')])">ref-1: SHALL have a local reference if the resource is provided inline</sch:assert>
    </sch:rule>
    </sch:pattern>
</sch:schema>
