<?xml version="1.0" encoding="UTF-8"?>
<sch:schema xmlns:sch="http://purl.oclc.org/dsdl/schematron" queryBinding="xslt2">
  <sch:ns prefix="f" uri="http://hl7.org/fhir"/>
  <sch:ns prefix="h" uri="http://www.w3.org/1999/xhtml"/>
  <sch:pattern>
    <sch:title>DataElement</sch:title>
    <sch:rule context="f:SDCElement">
            <sch:assert test="count(f:identifier) &gt;= 1">identifier: minimum cardinality is 1</sch:assert>
    </sch:rule>
    <sch:rule context="f:SDCElement">
            <sch:assert test="count(f:name) &gt;= 1">name: minimum cardinality is 1</sch:assert>
    </sch:rule>
    <sch:rule context="f:SDCElement">
            <sch:assert test="count(f:specificity) &gt;= 1">specificity: minimum cardinality is 1</sch:assert>
    </sch:rule>
    </sch:pattern>
</sch:schema>
