<?xml version="1.0" encoding="UTF-8"?><svg xmlns="http://www.w3.org/2000/svg" xmlns:xlink="http://www.w3.org/1999/xlink" version="1.1" width="324.0" height="228.0">  <defs>
    <filter id="shadow1" x="0" y="0" width="200%" height="200%">
      <feOffset result="offOut" in="SourceGraphic" dx="3" dy="3" />
      <feColorMatrix result="matrixOut" in="offOut" type="matrix" values="0.2 0 0 0 0 0 0.2 0 0 0 0 0 0.2 0 0 0 0 0 1 0" />
      <feGaussianBlur result="blurOut" in="matrixOut" stdDeviation="2" />
      <feBlend in="SourceGraphic" in2="blurOut" mode="normal" />
    </filter>
  </defs><rect x="0.0" y="0.0" rx="4" ry="4" width="224.0" height="218.0" filter="url(#shadow1)" style="fill:#f0f8ff;stroke:black;stroke-width:1"/><line x1="0.0" y1="28.0" x2="224.0" y2="28.0" style="stroke:dimgrey;stroke-width:1"/><text x="112.0" y="20.0" fill="black" class="diagram-class-title  diagram-class-resource">DeviceUseRequest<tspan class="diagram-class-title-link"> (<a xlink:href="domainresource.html" class="diagram-class-reference">DomainResource</a>)</tspan></text><text x="6.0" y="42.0" fill="black" class="diagram-class-detail"><a xlink:href="deviceuserequest-definitions.html#DeviceUseRequest.bodySite_x_"><title>Indicates the site on the subject&#39;s body where the device should be used ( i.e. the target site)</title>bodySite[x]</a> : <a xlink:href="datatypes.html#CodeableConcept">CodeableConcept</a>|<a xlink:href="references.html#Reference">Reference</a>(<a xlink:href="bodysite.html#BodySite">BodySite</a>) 0..1</text><text x="6.0" y="56.0" fill="black" class="diagram-class-detail"><a xlink:href="deviceuserequest-definitions.html#DeviceUseRequest.status"><title>The status of the request (this element modifies the meaning of other elements)</title>status</a> : <a xlink:href="datatypes.html#code">code</a> 0..1 « <a xlink:href="valueset-device-use-request-status.html"><title>Codes representing the status of the request</title>DeviceUseRequestStatus</a> »</text><text x="6.0" y="70.0" fill="black" class="diagram-class-detail"><a xlink:href="deviceuserequest-definitions.html#DeviceUseRequest.device"><title>The details of the device  to be used</title>device</a> : <a xlink:href="references.html#Reference">Reference</a>(<a xlink:href="device.html#Device">Device</a>) 1..1</text><text x="6.0" y="84.0" fill="black" class="diagram-class-detail"><a xlink:href="deviceuserequest-definitions.html#DeviceUseRequest.encounter"><title>An encounter that provides additional context in which this request is made</title>encounter</a> : <a xlink:href="references.html#Reference">Reference</a>(<a xlink:href="encounter.html#Encounter">Encounter</a>) 0..1</text><text x="6.0" y="98.0" fill="black" class="diagram-class-detail"><a xlink:href="deviceuserequest-definitions.html#DeviceUseRequest.identifier"><title>Identifiers assigned to this order by the orderer or by the receiver</title>identifier</a> : <a xlink:href="datatypes.html#Identifier">Identifier</a> 0..*</text><text x="6.0" y="112.0" fill="black" class="diagram-class-detail"><a xlink:href="deviceuserequest-definitions.html#DeviceUseRequest.indication"><title>Reason or justification for the use of this device</title>indication</a> : <a xlink:href="datatypes.html#CodeableConcept">CodeableConcept</a> 0..*</text><text x="6.0" y="126.0" fill="black" class="diagram-class-detail"><a xlink:href="deviceuserequest-definitions.html#DeviceUseRequest.notes"><title>Details about this request that were not represented at all or sufficiently in one of the attributes provided in a class. These may include for example a comment, an instruction, or a note associated with the statement</title>notes</a> : <a xlink:href="datatypes.html#string">string</a> 0..*</text><text x="6.0" y="140.0" fill="black" class="diagram-class-detail"><a xlink:href="deviceuserequest-definitions.html#DeviceUseRequest.prnReason"><title>The proposed act must be performed if the indicated conditions occur, e.g.., shortness of breath, SpO2 less than x%</title>prnReason</a> : <a xlink:href="datatypes.html#CodeableConcept">CodeableConcept</a> 0..*</text><text x="6.0" y="154.0" fill="black" class="diagram-class-detail"><a xlink:href="deviceuserequest-definitions.html#DeviceUseRequest.orderedOn"><title>The time when the request was made</title>orderedOn</a> : <a xlink:href="datatypes.html#dateTime">dateTime</a> 0..1</text><text x="6.0" y="168.0" fill="black" class="diagram-class-detail"><a xlink:href="deviceuserequest-definitions.html#DeviceUseRequest.recordedOn"><title>The time at which the request was made/recorded</title>recordedOn</a> : <a xlink:href="datatypes.html#dateTime">dateTime</a> 0..1</text><text x="6.0" y="182.0" fill="black" class="diagram-class-detail"><a xlink:href="deviceuserequest-definitions.html#DeviceUseRequest.subject"><title>The patient who will use the device</title>subject</a> : <a xlink:href="references.html#Reference">Reference</a>(<a xlink:href="patient.html#Patient">Patient</a>) 1..1</text><text x="6.0" y="196.0" fill="black" class="diagram-class-detail"><a xlink:href="deviceuserequest-definitions.html#DeviceUseRequest.timing_x_"><title>The timing schedule for the use of the device The Schedule data type allows many different expressions, for example. &quot;Every 8 hours&quot;; &quot;Three times a day&quot;; &quot;1/2 an hour before breakfast for 10 days from 23-Dec 2011:&quot;; &quot;15 Oct 2013, 17 Oct 2013 and 1 Nov 2013&quot;</title>timing[x]</a> : <a xlink:href="datatypes.html#Timing">Timing</a>|<a xlink:href="datatypes.html#Period">Period</a>|<a xlink:href="datatypes.html#dateTime">dateTime</a> 0..1</text><text x="6.0" y="210.0" fill="black" class="diagram-class-detail"><a xlink:href="deviceuserequest-definitions.html#DeviceUseRequest.priority"><title>Characterizes how quickly the  use of device must be initiated. Includes concepts such as stat, urgent, routine</title>priority</a> : <a xlink:href="datatypes.html#code">code</a> 0..1 « <a xlink:href="valueset-device-use-request-priority.html"><title>Codes representing the priority of the request</title>DeviceUseRequestPriority</a> »</text></svg>