{
  "resourceType": "DocumentReference",
  "id": "example",
  "text": {
    "status": "generated",
    "div": "<div><p><b>Generated Narrative with Details</b></p><p><b>id</b>: example</p><p><b>contained</b>: , </p><p><b>masterIdentifier</b>: urn:oid:1.3.6.1.4.1.21367.2005.3.7</p><p><b>subject</b>: <a>Generated Summary: MR = 12345 (USUAL); Henry Levin ; MALE; birthDate: Sep 24, 1932; active</a></p><p><b>type</b>: Outpatient Note <span>(Details : {LOINC code '34108-1' = 'Outpatient Note', given as 'Outpatient Note'})</span></p><p><b>class</b>: History and Physical <span>(Details : {http://ihe.net/xds/connectathon/classCodes code 'History and Physical' = 'History and Physical', given as 'History and Physical'})</span></p><p><b>author</b>: id: a1; Sherry Dopplemeyer ; john.doe@healthcare.example.org, id: a2; Gerald Smitty ; john.doe@healthcare.example.org</p><p><b>created</b>: Dec 24, 2005 9:35:00 AM</p><p><b>indexed</b>: Dec 24, 2005 9:43:41 AM</p><p><b>status</b>: current</p><p><b>description</b>: Physical</p><p><b>confidentiality</b>: Clinical-Staff <span>(Details : {http://ihe.net/xds/connectathon/confidentialityCodes code '1.3.6.1.4.1.21367.2006.7.101' = '1.3.6.1.4.1.21367.2006.7.101', given as 'Clinical-Staff'})</span></p><p><b>content</b>: </p><h3>Contexts</h3><table><tr><td>-</td><td><b>Event</b></td><td><b>Period</b></td><td><b>FacilityType</b></td></tr><tr><td>*</td><td>Arm <span>(Details : {http://ihe.net/xds/connectathon/eventCodes code 'T-D8200' = 'T-D8200', given as 'Arm'})</span></td><td>Dec 23, 2004 8:00:00 AM --&gt; Dec 23, 2004 8:01:00 AM</td><td>Outpatient <span>(Details : {http://www.ihe.net/xds/connectathon/healthcareFacilityTypeCodes code 'Outpatient' = 'Outpatient', given as 'Outpatient'})</span></td></tr></table></div>"
  },
  "contained": [
    {
      "resourceType": "Practitioner",
      "id": "a1",
      "name": {
        "family": [
          "Dopplemeyer"
        ],
        "given": [
          "Sherry"
        ]
      },
      "telecom": [
        {
          "system": "email",
          "value": "john.doe@healthcare.example.org"
        }
      ],
      "practitionerRole": [
        {
          "managingOrganization": {
            "display": "Cleveland Clinic"
          },
          "role": {
            "text": "Primary Surgon"
          },
          "specialty": [
            {
              "text": "Orthopedic"
            }
          ]
        }
      ]
    },
    {
      "resourceType": "Practitioner",
      "id": "a2",
      "name": {
        "family": [
          "Smitty"
        ],
        "given": [
          "Gerald"
        ]
      },
      "telecom": [
        {
          "system": "email",
          "value": "john.doe@healthcare.example.org"
        }
      ],
      "practitionerRole": [
        {
          "managingOrganization": {
            "display": "Cleveland Clinic"
          },
          "role": {
            "text": "Attending"
          },
          "specialty": [
            {
              "text": "Orthopedic"
            }
          ]
        }
      ]
    }
  ],
  "masterIdentifier": {
    "system": "urn:ietf:rfc:3986",
    "value": "urn:oid:1.3.6.1.4.1.21367.2005.3.7"
  },
  "subject": {
    "reference": "Patient/xcda"
  },
  "type": {
    "coding": [
      {
        "system": "http://loinc.org",
        "code": "34108-1",
        "display": "Outpatient Note"
      }
    ]
  },
  "class": {
    "coding": [
      {
        "system": "http://ihe.net/xds/connectathon/classCodes",
        "code": "History and Physical",
        "display": "History and Physical"
      }
    ]
  },
  "author": [
    {
      "reference": "#a1"
    },
    {
      "reference": "#a2"
    }
  ],
  "created": "2005-12-24T09:35:00+11:00",
  "indexed": "2005-12-24T09:43:41+11:00",
  "status": "current",
  "description": "Physical",
  "confidentiality": [
    {
      "coding": [
        {
          "system": "http://ihe.net/xds/connectathon/confidentialityCodes",
          "code": "1.3.6.1.4.1.21367.2006.7.101",
          "display": "Clinical-Staff"
        }
      ]
    }
  ],
  "content": [
    {
      "contentType": "application/hl7-v3+xml",
      "language": "en-US",
      "url": "http://example.org/xds/mhd/Binary/07a6483f-732b-461e-86b6-edb665c45510",
      "size": 3654,
      "hash": "2jmj7l5rSw0yVb/vlWAYkK/YBwk="
    }
  ],
  "context": {
    "event": [
      {
        "coding": [
          {
            "system": "http://ihe.net/xds/connectathon/eventCodes",
            "code": "T-D8200",
            "display": "Arm"
          }
        ]
      }
    ],
    "period": {
      "start": "2004-12-23T08:00:00+11:00",
      "end": "2004-12-23T08:01:00+11:00"
    },
    "facilityType": {
      "coding": [
        {
          "system": "http://www.ihe.net/xds/connectathon/healthcareFacilityTypeCodes",
          "code": "Outpatient",
          "display": "Outpatient"
        }
      ]
    }
  }
}