<?xml version="1.0" encoding="UTF-8"?><svg xmlns="http://www.w3.org/2000/svg" xmlns:xlink="http://www.w3.org/1999/xlink" version="1.1" width="308.0" height="186.0">  <defs>
    <filter id="shadow1" x="0" y="0" width="200%" height="200%">
      <feOffset result="offOut" in="SourceGraphic" dx="3" dy="3" />
      <feColorMatrix result="matrixOut" in="offOut" type="matrix" values="0.2 0 0 0 0 0 0.2 0 0 0 0 0 0.2 0 0 0 0 0 1 0" />
      <feGaussianBlur result="blurOut" in="matrixOut" stdDeviation="2" />
      <feBlend in="SourceGraphic" in2="blurOut" mode="normal" />
    </filter>
  </defs><rect x="0.0" y="0.0" rx="4" ry="4" width="208.0" height="176.0" filter="url(#shadow1)" style="fill:#f0f8ff;stroke:black;stroke-width:1"/><line x1="0.0" y1="28.0" x2="208.0" y2="28.0" style="stroke:dimgrey;stroke-width:1"/><text x="104.0" y="20.0" fill="black" class="diagram-class-title  diagram-class-resource">EligibilityResponse<tspan class="diagram-class-title-link"> (<a xlink:href="domainresource.html" class="diagram-class-reference">DomainResource</a>)</tspan></text><text x="6.0" y="42.0" fill="black" class="diagram-class-detail"><a xlink:href="eligibilityresponse-definitions.html#EligibilityResponse.identifier"><title>The Response Business Identifier</title>identifier</a> : <a xlink:href="datatypes.html#Identifier">Identifier</a> 0..*</text><text x="6.0" y="56.0" fill="black" class="diagram-class-detail"><a xlink:href="eligibilityresponse-definitions.html#EligibilityResponse.request"><title>Original request resource reference</title>request</a> : <a xlink:href="references.html#Reference">Reference</a>(<a xlink:href="eligibilityrequest.html#EligibilityRequest">EligibilityRequest</a>) 0..1</text><text x="6.0" y="70.0" fill="black" class="diagram-class-detail"><a xlink:href="eligibilityresponse-definitions.html#EligibilityResponse.outcome"><title>Transaction status: error, complete</title>outcome</a> : <a xlink:href="datatypes.html#code">code</a> 0..1 « <a xlink:href="valueset-remittance-outcome.html"><title>The outcome of the processing.</title>RemittanceOutcome</a> »</text><text x="6.0" y="84.0" fill="black" class="diagram-class-detail"><a xlink:href="eligibilityresponse-definitions.html#EligibilityResponse.disposition"><title>A description of the status of the adjudication</title>disposition</a> : <a xlink:href="datatypes.html#string">string</a> 0..1</text><text x="6.0" y="98.0" fill="black" class="diagram-class-detail"><a xlink:href="eligibilityresponse-definitions.html#EligibilityResponse.ruleset"><title>The version of the style of resource contents. This should be mapped to the allowable profiles for this and supporting resources</title>ruleset</a> : <a xlink:href="datatypes.html#Coding">Coding</a> 0..1 « (<a xlink:href="valueset-ruleset.html"><title>The static and dynamic model to which contents conform, may be business version or standard and version.</title>Ruleset Codes</a>) »</text><text x="6.0" y="112.0" fill="black" class="diagram-class-detail"><a xlink:href="eligibilityresponse-definitions.html#EligibilityResponse.originalRuleset"><title>The style (standard) and version of the original material which was converted into this resource</title>originalRuleset</a> : <a xlink:href="datatypes.html#Coding">Coding</a> 0..1 « (<a xlink:href="valueset-ruleset.html"><title>The static and dynamic model to which contents conform, may be business version or standard and version.</title>Ruleset Codes</a>) »</text><text x="6.0" y="126.0" fill="black" class="diagram-class-detail"><a xlink:href="eligibilityresponse-definitions.html#EligibilityResponse.created"><title>The date when the enclosed suite of services were performed or completed</title>created</a> : <a xlink:href="datatypes.html#dateTime">dateTime</a> 0..1</text><text x="6.0" y="140.0" fill="black" class="diagram-class-detail"><a xlink:href="eligibilityresponse-definitions.html#EligibilityResponse.organization"><title>The Insurer who produced this adjudicated response</title>organization</a> : <a xlink:href="references.html#Reference">Reference</a>(<a xlink:href="organization.html#Organization">Organization</a>) 0..1</text><text x="6.0" y="154.0" fill="black" class="diagram-class-detail"><a xlink:href="eligibilityresponse-definitions.html#EligibilityResponse.requestProvider"><title>The practitioner who is responsible for the services rendered to the patient</title>requestProvider</a> : <a xlink:href="references.html#Reference">Reference</a>(<a xlink:href="practitioner.html#Practitioner">Practitioner</a>) 0..1</text><text x="6.0" y="168.0" fill="black" class="diagram-class-detail"><a xlink:href="eligibilityresponse-definitions.html#EligibilityResponse.requestOrganization"><title>The organization which is responsible for the services rendered to the patient</title>requestOrganization</a> : <a xlink:href="references.html#Reference">Reference</a>(<a xlink:href="organization.html#Organization">Organization</a>) 0..1</text></svg>