<?xml version="1.0" encoding="UTF-8"?><svg xmlns="http://www.w3.org/2000/svg" xmlns:xlink="http://www.w3.org/1999/xlink" version="1.1" width="672.0" height="186.0">  <defs>
    <filter id="shadow1" x="0" y="0" width="200%" height="200%">
      <feOffset result="offOut" in="SourceGraphic" dx="3" dy="3" />
      <feColorMatrix result="matrixOut" in="offOut" type="matrix" values="0.2 0 0 0 0 0 0.2 0 0 0 0 0 0.2 0 0 0 0 0 1 0" />
      <feGaussianBlur result="blurOut" in="matrixOut" stdDeviation="2" />
      <feBlend in="SourceGraphic" in2="blurOut" mode="normal" />
    </filter>
  </defs><rect x="0.0" y="0.0" rx="4" ry="4" width="216.0" height="176.0" filter="url(#shadow1)" style="fill:#f0f8ff;stroke:black;stroke-width:1"/><line x1="0.0" y1="28.0" x2="216.0" y2="28.0" style="stroke:dimgrey;stroke-width:1"/><text x="108.0" y="20.0" fill="black" class="diagram-class-title  diagram-class-resource">FamilyMemberHistory<tspan class="diagram-class-title-link"> (<a xlink:href="domainresource.html" class="diagram-class-reference">DomainResource</a>)</tspan></text><text x="6.0" y="42.0" fill="black" class="diagram-class-detail"><a xlink:href="familymemberhistory-definitions.html#FamilyMemberHistory.identifier"><title>This records identifiers associated with this family member history record that are defined by business processes and/ or used to refer to it when a direct URL reference to the resource itself is not appropriate (e.g. in CDA documents, or in written / printed documentation)</title>identifier</a> : <a xlink:href="datatypes.html#Identifier">Identifier</a> 0..*</text><text x="6.0" y="56.0" fill="black" class="diagram-class-detail"><a xlink:href="familymemberhistory-definitions.html#FamilyMemberHistory.patient"><title>The person who this history concerns</title>patient</a> : <a xlink:href="references.html#Reference">Reference</a>(<a xlink:href="patient.html#Patient">Patient</a>) 1..1</text><text x="6.0" y="70.0" fill="black" class="diagram-class-detail"><a xlink:href="familymemberhistory-definitions.html#FamilyMemberHistory.date"><title>The date (and possibly time) when the family member history was taken</title>date</a> : <a xlink:href="datatypes.html#dateTime">dateTime</a> 0..1</text><text x="6.0" y="84.0" fill="black" class="diagram-class-detail"><a xlink:href="familymemberhistory-definitions.html#FamilyMemberHistory.name"><title>This will either be a name or a description.  E.g. &quot;Aunt Susan&quot;, &quot;my cousin with the red hair&quot;</title>name</a> : <a xlink:href="datatypes.html#string">string</a> 0..1</text><text x="6.0" y="98.0" fill="black" class="diagram-class-detail"><a xlink:href="familymemberhistory-definitions.html#FamilyMemberHistory.relationship"><title>The type of relationship this person has to the patient (father, mother, brother etc.)</title>relationship</a> : <a xlink:href="datatypes.html#CodeableConcept">CodeableConcept</a> 1..1 « <a xlink:href="v3/vs/FamilyMember/index.html"><title>The nature of the relationship between the patient and the related person being described in the family member history</title>FamilyMember</a> »</text><text x="6.0" y="112.0" fill="black" class="diagram-class-detail"><a xlink:href="familymemberhistory-definitions.html#FamilyMemberHistory.gender"><title>Administrative Gender - the gender that the relative is considered to have for administration and record keeping purposes</title>gender</a> : <a xlink:href="datatypes.html#code">code</a> 0..1 « <a xlink:href="valueset-administrative-gender.html"><title>The gender of a person used for administrative purposes</title>AdministrativeGender</a> »</text><text x="6.0" y="126.0" fill="black" class="diagram-class-detail"><a xlink:href="familymemberhistory-definitions.html#FamilyMemberHistory.born_x_"><title>The actual or approximate date of birth of the relative</title>born[x]</a> : <a xlink:href="datatypes.html#Period">Period</a>|<a xlink:href="datatypes.html#date">date</a>|<a xlink:href="datatypes.html#string">string</a> 0..1</text><text x="6.0" y="140.0" fill="black" class="diagram-class-detail"><a xlink:href="familymemberhistory-definitions.html#FamilyMemberHistory.age_x_"><title>The actual or approximate age of the relative at the time the family member history is recorded</title>age[x]</a> : <a xlink:href="datatypes.html#Age">Age</a>|<a xlink:href="datatypes.html#Range">Range</a>|<a xlink:href="datatypes.html#string">string</a> 0..1</text><text x="6.0" y="154.0" fill="black" class="diagram-class-detail"><a xlink:href="familymemberhistory-definitions.html#FamilyMemberHistory.deceased_x_"><title>The actual or approximate age of the relative at the time the family member history is recorded</title>deceased[x]</a> : <a xlink:href="datatypes.html#boolean">boolean</a>|<a xlink:href="datatypes.html#Age">Age</a>|<a xlink:href="datatypes.html#Range">Range</a>|<a xlink:href="datatypes.html#date">date</a>|<a xlink:href="datatypes.html#string">string</a> 0..1</text><text x="6.0" y="168.0" fill="black" class="diagram-class-detail"><a xlink:href="familymemberhistory-definitions.html#FamilyMemberHistory.note"><title>This property allows a non condition-specific note to the made about the related person. Ideally, the note would be in the condition property, but this is not always possible</title>note</a> : <a xlink:href="datatypes.html#string">string</a> 0..1</text><rect x="336.0" y="42.0" rx="4" ry="4" width="136.0" height="92.0" filter="url(#shadow1)" style="fill:#f0f8ff;stroke:black;stroke-width:1"/><line x1="336.0" y1="70.0" x2="472.0" y2="70.0" style="stroke:dimgrey;stroke-width:1"/><text x="404.0" y="62.0" fill="black" class="diagram-class-title">Condition</text><text x="342.0" y="84.0" fill="black" class="diagram-class-detail"><a xlink:href="familymemberhistory-definitions.html#FamilyMemberHistory.condition.type"><title>The actual condition specified. Could be a coded condition (like MI or Diabetes) or a less specific string like &#39;cancer&#39; depending on how much is known about the condition and the capabilities of the creating system</title>type</a> : <a xlink:href="datatypes.html#CodeableConcept">CodeableConcept</a> 1..1</text><text x="342.0" y="98.0" fill="black" class="diagram-class-detail"><a xlink:href="familymemberhistory-definitions.html#FamilyMemberHistory.condition.outcome"><title>Indicates what happened as a result of this condition.  If the condition resulted in death, deceased date is captured on the relation</title>outcome</a> : <a xlink:href="datatypes.html#CodeableConcept">CodeableConcept</a> 0..1</text><text x="342.0" y="112.0" fill="black" class="diagram-class-detail"><a xlink:href="familymemberhistory-definitions.html#FamilyMemberHistory.condition.onset_x_"><title>Either the age of onset, range of approximate age or descriptive string can be recorded.  For conditions with multiple occurrences, this describes the first known occurrence</title>onset[x]</a> : <a xlink:href="datatypes.html#Age">Age</a>|<a xlink:href="datatypes.html#Range">Range</a>|<a xlink:href="datatypes.html#string">string</a> 0..1</text><text x="342.0" y="126.0" fill="black" class="diagram-class-detail"><a xlink:href="familymemberhistory-definitions.html#FamilyMemberHistory.condition.note"><title>An area where general notes can be placed about this specific condition</title>note</a> : <a xlink:href="datatypes.html#string">string</a> 0..1</text><line x1="216.0" y1="88.0" x2="336.0" y2="88.0" style="stroke:navy;stroke-width:1"/><polygon points="216.0,88.0 222.0,92.0 228.0,88.0 222.0,84.0 216.0,88.0" style="fill:navy;stroke:navy;stroke-width:1" transform="rotate(0.0 216.0 88.0)"/><rect x="258.0" y="81.0" width="36.0" height="18.0" style="fill:white;stroke:black;stroke-width:0"/><text x="276.0" y="91.0" fill="black" class="diagram-class-linkage"><a xlink:href="familymemberhistory-definitions.html#FamilyMemberHistory.condition"><title>The significant Conditions (or condition) that the family member had. This is a repeating section to allow a system to represent more than one condition per resource, though there is nothing stopping multiple resources - one per condition</title>condition</a></text><text x="316.0" y="84.0" fill="black" class="diagram-class-linkage">0..*</text></svg>