<?xml version="1.0" encoding="UTF-8"?><svg xmlns="http://www.w3.org/2000/svg" xmlns:xlink="http://www.w3.org/1999/xlink" version="1.1" width="732.0" height="158.0">  <defs>
    <filter id="shadow1" x="0" y="0" width="200%" height="200%">
      <feOffset result="offOut" in="SourceGraphic" dx="3" dy="3" />
      <feColorMatrix result="matrixOut" in="offOut" type="matrix" values="0.2 0 0 0 0 0 0.2 0 0 0 0 0 0.2 0 0 0 0 0 1 0" />
      <feGaussianBlur result="blurOut" in="matrixOut" stdDeviation="2" />
      <feBlend in="SourceGraphic" in2="blurOut" mode="normal" />
    </filter>
  </defs><rect x="0.0" y="0.0" rx="4" ry="4" width="188.0" height="148.0" filter="url(#shadow1)" style="fill:#f0f8ff;stroke:black;stroke-width:1"/><line x1="0.0" y1="28.0" x2="188.0" y2="28.0" style="stroke:dimgrey;stroke-width:1"/><text x="94.0" y="20.0" fill="black" class="diagram-class-title  diagram-class-resource">Group<tspan class="diagram-class-title-link"> (<a xlink:href="domainresource.html" class="diagram-class-reference">DomainResource</a>)</tspan></text><text x="6.0" y="42.0" fill="black" class="diagram-class-detail"><a xlink:href="group-definitions.html#Group.identifier"><title>A unique business identifier for this group</title>identifier</a> : <a xlink:href="datatypes.html#Identifier">Identifier</a> 0..1</text><text x="6.0" y="56.0" fill="black" class="diagram-class-detail"><a xlink:href="group-definitions.html#Group.type"><title>Identifies the broad classification of the kind of resources the group includes</title>type</a> : <a xlink:href="datatypes.html#code">code</a> 1..1 « <a xlink:href="valueset-group-type.html"><title>Types of resources that are part of group</title>GroupType</a> »</text><text x="6.0" y="70.0" fill="black" class="diagram-class-detail"><a xlink:href="group-definitions.html#Group.actual"><title>If true, indicates that the resource refers to a specific group of real individuals.  If false, the group defines a set of intended individuals</title>actual</a> : <a xlink:href="datatypes.html#boolean">boolean</a> 1..1</text><text x="6.0" y="84.0" fill="black" class="diagram-class-detail"><a xlink:href="group-definitions.html#Group.code"><title>Provides a specific type of resource the group includes.  E.g. &quot;cow&quot;, &quot;syringe&quot;, etc</title>code</a> : <a xlink:href="datatypes.html#CodeableConcept">CodeableConcept</a> 0..1</text><text x="6.0" y="98.0" fill="black" class="diagram-class-detail"><a xlink:href="group-definitions.html#Group.name"><title>A label assigned to the group for human identification and communication</title>name</a> : <a xlink:href="datatypes.html#string">string</a> 0..1</text><text x="6.0" y="112.0" fill="black" class="diagram-class-detail"><a xlink:href="group-definitions.html#Group.quantity"><title>A count of the number of resource instances that are part of the group</title>quantity</a> : <a xlink:href="datatypes.html#unsignedInt">unsignedInt</a> 0..1</text><text x="6.0" y="126.0" fill="black" class="diagram-class-detail"><a xlink:href="group-definitions.html#Group.member"><title>Identifies the resource instances that are members of the group</title>member</a> : <a xlink:href="references.html#Reference">Reference</a>(<a xlink:href="patient.html#Patient">Patient</a>|<a xlink:href="practitioner.html#Practitioner">Practitioner</a>|<a xlink:href="device.html#Device">Device</a>|</text><text x="26.0" y="140.0" fill="black" class="diagram-class-detail">     <a xlink:href="medication.html#Medication">Medication</a>|<a xlink:href="substance.html#Substance">Substance</a>) 0..*</text><rect x="308.0" y="35.0" rx="4" ry="4" width="224.0" height="78.0" filter="url(#shadow1)" style="fill:#f0f8ff;stroke:black;stroke-width:1"/><line x1="308.0" y1="63.0" x2="532.0" y2="63.0" style="stroke:dimgrey;stroke-width:1"/><text x="420.0" y="55.0" fill="black" class="diagram-class-title">Characteristic</text><text x="314.0" y="77.0" fill="black" class="diagram-class-detail"><a xlink:href="group-definitions.html#Group.characteristic.code"><title>A code that identifies the kind of trait being asserted</title>code</a> : <a xlink:href="datatypes.html#CodeableConcept">CodeableConcept</a> 1..1</text><text x="314.0" y="91.0" fill="black" class="diagram-class-detail"><a xlink:href="group-definitions.html#Group.characteristic.value_x_"><title>The value of the trait that holds (or does not hold - see &#39;exclude&#39;) for members of the group</title>value[x]</a> : <a xlink:href="datatypes.html#CodeableConcept">CodeableConcept</a>|<a xlink:href="datatypes.html#boolean">boolean</a>|<a xlink:href="datatypes.html#Quantity">Quantity</a>|<a xlink:href="datatypes.html#Range">Range</a> 1..1</text><text x="314.0" y="105.0" fill="black" class="diagram-class-detail"><a xlink:href="group-definitions.html#Group.characteristic.exclude"><title>If true, indicates the characteristic is one that is NOT held by members of the group (this element modifies the meaning of other elements)</title>exclude</a> : <a xlink:href="datatypes.html#boolean">boolean</a> 1..1</text><line x1="188.0" y1="74.0" x2="308.0" y2="74.0" style="stroke:navy;stroke-width:1"/><polygon points="188.0,74.0 194.0,78.0 200.0,74.0 194.0,70.0 188.0,74.0" style="fill:navy;stroke:navy;stroke-width:1" transform="rotate(0.0 188.0 74.0)"/><rect x="220.0" y="67.0" width="56.0" height="18.0" style="fill:white;stroke:black;stroke-width:0"/><text x="248.0" y="77.0" fill="black" class="diagram-class-linkage"><a xlink:href="group-definitions.html#Group.characteristic"><title>Identifies the traits shared by members of the group</title>characteristic</a></text><text x="288.0" y="70.0" fill="black" class="diagram-class-linkage">0..*</text></svg>