{
  "resourceType": "StructureDefinition",
  "id": "Identifier",
  "text": {
    "status": "generated",
    "div": "<div><table style=\"border: 0px; font-size: 11px; font-family: verdana; vertical-align: top;\" cellpadding=\"0\" border=\"0\" cellspacing=\"0\"><tr style=\"border: 1px #F0F0F0 solid; font-size: 11px; font-family: verdana; vertical-align: top;\"><th style=\"vertical-align: top; text-align : left; background-color: white; padding:0px 4px 0px 4px\" class=\"heirarchy\"><a title=\"The logical name of the element\" href=\"formats.html#table\">Name</a></th><th style=\"vertical-align: top; text-align : left; background-color: white; padding:0px 4px 0px 4px\" class=\"heirarchy\"><a title=\"Information about the use of the element\" href=\"formats.html#table\">Flags</a></th><th style=\"vertical-align: top; text-align : left; background-color: white; padding:0px 4px 0px 4px\" class=\"heirarchy\"><a title=\"Minimum and Maximum # of times the the element can appear in the instance\" href=\"formats.html#table\">Card.</a></th><th style=\"width: 100px\" class=\"heirarchy\"><a title=\"Reference to the type of the element\" href=\"formats.html#table\">Type</a></th><th style=\"vertical-align: top; text-align : left; background-color: white; padding:0px 4px 0px 4px\" class=\"heirarchy\"><a title=\"Additional information about the element\" href=\"formats.html#table\">Description &amp; Constraints</a><span style=\"float: right\"><a title=\"Legend for this format\" href=\"formats.html#table\"><img style=\"background-color: inherit\" alt=\"doco\" src=\"help16.png\"/></a></span></th></tr><tr style=\"border: 0px; padding:0px; vertical-align: top; background-color: white;\"><td style=\"vertical-align: top; text-align : left; background-color: white; padding:0px 4px 0px 4px; white-space: nowrap; background-image: url(data: image/png;base64,iVBORw0KGgoAAAANSUhEUgAAAyAAAAACCAYAAACg/LjIAAAAL0lEQVR42u3XsQ0AQAgCQHdl/xn8jxvYWB3JlTR0VJLa+OltBwAAYP6EEQAAgCsPVYVAgIJrA/sAAAAASUVORK5CYII=)\" class=\"heirarchy\"><img style=\"background-color: inherit\" alt=\".\" class=\"heirarchy\" src=\"data: image/png;base64,\"/><img title=\"Element\" style=\"background-color: white; background-color: inherit\" alt=\".\" class=\"heirarchy\" src=\"data: image/png;base64,\"/> <a title=\"Identifier : A technical identifier - identifies some entity uniquely and unambiguously.\" href=\"datatypes-definitions.html#Identifier\">Identifier</a><a name=\"Identifier\"> </a></td><td style=\"vertical-align: top; text-align : left; background-color: white; padding:0px 4px 0px 4px\" class=\"heirarchy\"/><td style=\"vertical-align: top; text-align : left; background-color: white; padding:0px 4px 0px 4px\" class=\"heirarchy\"></td><td style=\"vertical-align: top; text-align : left; background-color: white; padding:0px 4px 0px 4px\" class=\"heirarchy\"><a href=\"element.html\">Element</a></td><td style=\"vertical-align: top; text-align : left; background-color: white; padding:0px 4px 0px 4px\" class=\"heirarchy\">An identifier intended for computation</td></tr>\r\n<tr style=\"border: 0px; padding:0px; vertical-align: top; background-color: white;\"><td style=\"vertical-align: top; text-align : left; background-color: white; padding:0px 4px 0px 4px; white-space: nowrap; background-image: url(data: image/png;base64,iVBORw0KGgoAAAANSUhEUgAAAyAAAAACCAYAAACg/LjIAAAAL0lEQVR42u3XsQ0AQAgCQHdl/xn8jxvYWB3JlTR0VJLa+OltBwAAYP6EEQAAgCsPVYVAgIJrA/sAAAAASUVORK5CYII=)\" class=\"heirarchy\"><img style=\"background-color: inherit\" alt=\".\" class=\"heirarchy\" src=\"data: image/png;base64,\"/><img style=\"background-color: inherit\" alt=\".\" class=\"heirarchy\" src=\"data: image/png;base64,\"/><img title=\"Primitive Data Type\" style=\"background-color: white; background-color: inherit\" alt=\".\" class=\"heirarchy\" src=\"data: image/png;base64,\"/> <a title=\"Identifier.use : The purpose of this identifier.\" href=\"datatypes-definitions.html#Identifier.use\">use</a><a name=\"Identifier.use\"> </a></td><td style=\"vertical-align: top; text-align : left; background-color: white; padding:0px 4px 0px 4px\" class=\"heirarchy\"><span title=\"This element is a modifier element\">?!</span></td><td style=\"vertical-align: top; text-align : left; background-color: white; padding:0px 4px 0px 4px\" class=\"heirarchy\">0..1</td><td style=\"vertical-align: top; text-align : left; background-color: white; padding:0px 4px 0px 4px\" class=\"heirarchy\"><a href=\"datatypes.html#code\">code</a></td><td style=\"vertical-align: top; text-align : left; background-color: white; padding:0px 4px 0px 4px\" class=\"heirarchy\">usual | official | temp | secondary (If known)<br/><a title=\"Identifies the purpose for this identifier, if known\" href=\"valueset-identifier-use.html\">IdentifierUse</a> (<a title=\"To be conformant, instances of this element SHALL include a code from the specified value set\" href=\"terminologies.html#required\">Required</a>)</td></tr>\r\n<tr style=\"border: 0px; padding:0px; vertical-align: top; background-color: white;\"><td style=\"vertical-align: top; text-align : left; background-color: white; padding:0px 4px 0px 4px; white-space: nowrap; background-image: url(data: image/png;base64,iVBORw0KGgoAAAANSUhEUgAAAyAAAAACCAYAAACg/LjIAAAAL0lEQVR42u3XsQ0AQAgCQHdl/xn8jxvYWB3JlTR0VJLa+OltBwAAYP6EEQAAgCsPVYVAgIJrA/sAAAAASUVORK5CYII=)\" class=\"heirarchy\"><img style=\"background-color: inherit\" alt=\".\" class=\"heirarchy\" src=\"data: image/png;base64,\"/><img style=\"background-color: inherit\" alt=\".\" class=\"heirarchy\" src=\"data: image/png;base64,\"/><img title=\"Data Type\" style=\"background-color: white; background-color: inherit\" alt=\".\" class=\"heirarchy\" src=\"data: image/png;base64,\"/> <a title=\"Identifier.type : A coded type for the identifier that can be used to determine which identifier to use for a specific purpose.\" href=\"datatypes-definitions.html#Identifier.type\">type</a><a name=\"Identifier.type\"> </a></td><td style=\"vertical-align: top; text-align : left; background-color: white; padding:0px 4px 0px 4px\" class=\"heirarchy\"/><td style=\"vertical-align: top; text-align : left; background-color: white; padding:0px 4px 0px 4px\" class=\"heirarchy\">0..1</td><td style=\"vertical-align: top; text-align : left; background-color: white; padding:0px 4px 0px 4px\" class=\"heirarchy\"><a href=\"datatypes.html#CodeableConcept\">CodeableConcept</a></td><td style=\"vertical-align: top; text-align : left; background-color: white; padding:0px 4px 0px 4px\" class=\"heirarchy\">Description of identifier<br/><a title=\"A coded type for an identifier that can be used to determine which identifier to use for a specific purpose\" href=\"valueset-identifier-type.html\">Identifier Type Codes</a> (<a title=\"To be conformant, instances of this element SHALL include a code from the specified value set if any of the codes within the value set can apply to the concept being communicated.  If the valueset does not cover the concept (based on human review), alternate codings (or, data type allowing, text) may be included instead.\" href=\"terminologies.html#extensible\">Extensible</a>)</td></tr>\r\n<tr style=\"border: 0px; padding:0px; vertical-align: top; background-color: white;\"><td style=\"vertical-align: top; text-align : left; background-color: white; padding:0px 4px 0px 4px; white-space: nowrap; background-image: url(data: image/png;base64,iVBORw0KGgoAAAANSUhEUgAAAyAAAAACCAYAAACg/LjIAAAAL0lEQVR42u3XsQ0AQAgCQHdl/xn8jxvYWB3JlTR0VJLa+OltBwAAYP6EEQAAgCsPVYVAgIJrA/sAAAAASUVORK5CYII=)\" class=\"heirarchy\"><img style=\"background-color: inherit\" alt=\".\" class=\"heirarchy\" src=\"data: image/png;base64,\"/><img style=\"background-color: inherit\" alt=\".\" class=\"heirarchy\" src=\"data: image/png;base64,\"/><img title=\"Primitive Data Type\" style=\"background-color: white; background-color: inherit\" alt=\".\" class=\"heirarchy\" src=\"data: image/png;base64,\"/> <a title=\"Identifier.system : Establishes the namespace in which set of possible id values is unique.\" href=\"datatypes-definitions.html#Identifier.system\">system</a><a name=\"Identifier.system\"> </a></td><td style=\"vertical-align: top; text-align : left; background-color: white; padding:0px 4px 0px 4px\" class=\"heirarchy\"/><td style=\"vertical-align: top; text-align : left; background-color: white; padding:0px 4px 0px 4px\" class=\"heirarchy\">0..1</td><td style=\"vertical-align: top; text-align : left; background-color: white; padding:0px 4px 0px 4px\" class=\"heirarchy\"><a href=\"datatypes.html#uri\">uri</a></td><td style=\"vertical-align: top; text-align : left; background-color: white; padding:0px 4px 0px 4px\" class=\"heirarchy\">The namespace for the identifier</td></tr>\r\n<tr style=\"border: 0px; padding:0px; vertical-align: top; background-color: white;\"><td style=\"vertical-align: top; text-align : left; background-color: white; padding:0px 4px 0px 4px; white-space: nowrap; background-image: url(data: image/png;base64,iVBORw0KGgoAAAANSUhEUgAAAyAAAAACCAYAAACg/LjIAAAAL0lEQVR42u3XsQ0AQAgCQHdl/xn8jxvYWB3JlTR0VJLa+OltBwAAYP6EEQAAgCsPVYVAgIJrA/sAAAAASUVORK5CYII=)\" class=\"heirarchy\"><img style=\"background-color: inherit\" alt=\".\" class=\"heirarchy\" src=\"data: image/png;base64,\"/><img style=\"background-color: inherit\" alt=\".\" class=\"heirarchy\" src=\"data: image/png;base64,\"/><img title=\"Primitive Data Type\" style=\"background-color: white; background-color: inherit\" alt=\".\" class=\"heirarchy\" src=\"data: image/png;base64,\"/> <a title=\"Identifier.value : The portion of the identifier typically displayed to the user and which is unique within the context of the system.\" href=\"datatypes-definitions.html#Identifier.value\">value</a><a name=\"Identifier.value\"> </a></td><td style=\"vertical-align: top; text-align : left; background-color: white; padding:0px 4px 0px 4px\" class=\"heirarchy\"/><td style=\"vertical-align: top; text-align : left; background-color: white; padding:0px 4px 0px 4px\" class=\"heirarchy\">0..1</td><td style=\"vertical-align: top; text-align : left; background-color: white; padding:0px 4px 0px 4px\" class=\"heirarchy\"><a href=\"datatypes.html#string\">string</a></td><td style=\"vertical-align: top; text-align : left; background-color: white; padding:0px 4px 0px 4px\" class=\"heirarchy\">The value that is unique</td></tr>\r\n<tr style=\"border: 0px; padding:0px; vertical-align: top; background-color: white;\"><td style=\"vertical-align: top; text-align : left; background-color: white; padding:0px 4px 0px 4px; white-space: nowrap; background-image: url(data: image/png;base64,iVBORw0KGgoAAAANSUhEUgAAAyAAAAACCAYAAACg/LjIAAAAL0lEQVR42u3XsQ0AQAgCQHdl/xn8jxvYWB3JlTR0VJLa+OltBwAAYP6EEQAAgCsPVYVAgIJrA/sAAAAASUVORK5CYII=)\" class=\"heirarchy\"><img style=\"background-color: inherit\" alt=\".\" class=\"heirarchy\" src=\"data: image/png;base64,\"/><img style=\"background-color: inherit\" alt=\".\" class=\"heirarchy\" src=\"data: image/png;base64,\"/><img title=\"Data Type\" style=\"background-color: white; background-color: inherit\" alt=\".\" class=\"heirarchy\" src=\"data: image/png;base64,\"/> <a title=\"Identifier.period : Time period during which identifier is/was valid for use.\" href=\"datatypes-definitions.html#Identifier.period\">period</a><a name=\"Identifier.period\"> </a></td><td style=\"vertical-align: top; text-align : left; background-color: white; padding:0px 4px 0px 4px\" class=\"heirarchy\"/><td style=\"vertical-align: top; text-align : left; background-color: white; padding:0px 4px 0px 4px\" class=\"heirarchy\">0..1</td><td style=\"vertical-align: top; text-align : left; background-color: white; padding:0px 4px 0px 4px\" class=\"heirarchy\"><a href=\"datatypes.html#Period\">Period</a></td><td style=\"vertical-align: top; text-align : left; background-color: white; padding:0px 4px 0px 4px\" class=\"heirarchy\">Time period when id is/was valid for use</td></tr>\r\n<tr style=\"border: 0px; padding:0px; vertical-align: top; background-color: white;\"><td style=\"vertical-align: top; text-align : left; background-color: white; padding:0px 4px 0px 4px; white-space: nowrap; background-image: url(data: image/png;base64,iVBORw0KGgoAAAANSUhEUgAAAyAAAAACCAYAAACg/LjIAAAAI0lEQVR42u3QIQEAAAACIL/6/4MvTAQOkLYBAAB4kAAAANwMad9AqkRjgNAAAAAASUVORK5CYII=)\" class=\"heirarchy\"><img style=\"background-color: inherit\" alt=\".\" class=\"heirarchy\" src=\"data: image/png;base64,\"/><img style=\"background-color: inherit\" alt=\".\" class=\"heirarchy\" src=\"data: image/png;base64,\"/><img title=\"Reference to another Resource\" style=\"background-color: white; background-color: inherit\" alt=\".\" class=\"heirarchy\" src=\"data: image/png;base64,\"/> <a title=\"Identifier.assigner : Organization that issued/manages the identifier.\" href=\"datatypes-definitions.html#Identifier.assigner\">assigner</a><a name=\"Identifier.assigner\"> </a></td><td style=\"vertical-align: top; text-align : left; background-color: white; padding:0px 4px 0px 4px\" class=\"heirarchy\"/><td style=\"vertical-align: top; text-align : left; background-color: white; padding:0px 4px 0px 4px\" class=\"heirarchy\">0..1</td><td style=\"vertical-align: top; text-align : left; background-color: white; padding:0px 4px 0px 4px\" class=\"heirarchy\"><a href=\"organization.html\">Organization</a></td><td style=\"vertical-align: top; text-align : left; background-color: white; padding:0px 4px 0px 4px\" class=\"heirarchy\">Organization that issued id (may be just text)</td></tr>\r\n</table></div>"
  },
  "url": "http://hl7.org/fhir/StructureDefinition/Identifier",
  "name": "Identifier",
  "publisher": "HL7 FHIR Standard",
  "contact": [
    {
      "telecom": [
        {
          "system": "url",
          "value": "http://hl7.org/fhir"
        }
      ]
    }
  ],
  "description": "Base StructureDefinition for Identifier Resource",
  "requirements": "Need to be able to identify things with confidence and be sure that the identification is not subject to misinterpretation.",
  "status": "draft",
  "date": "2015-07-14T16:14:24+00:00",
  "mapping": [
    {
      "identity": "v2",
      "uri": "http://hl7.org/v2",
      "name": "HL7 v2"
    },
    {
      "identity": "rim",
      "uri": "http://hl7.org/v3",
      "name": "RIM"
    },
    {
      "identity": "servd",
      "uri": "http://www.omg.org/spec/ServD/1.0/",
      "name": "ServD"
    }
  ],
  "kind": "datatype",
  "abstract": false,
  "base": "http://hl7.org/fhir/StructureDefinition/Element",
  "snapshot": {
    "element": [
      {
        "path": "Identifier",
        "short": "An identifier intended for computation",
        "definition": "A technical identifier - identifies some entity uniquely and unambiguously.",
        "requirements": "Need to be able to identify things with confidence and be sure that the identification is not subject to misinterpretation.",
        "min": 1,
        "max": "1",
        "type": [
          {
            "code": "Element"
          }
        ],
        "mapping": [
          {
            "identity": "v2",
            "map": "CX / EI (occasionally, more often EI maps to a resource id or a URL)"
          },
          {
            "identity": "rim",
            "map": "II - see see identifier pattern at http://wiki.hl7.org/index.php?title=Common_Design_Patterns#Identifier_Pattern for relevant discussion. The Identifier class is a little looser than the v3 type II because it allows URIs as well as registered OIDs or GUIDs.  Also maps to Role[classCode=IDENT]"
          },
          {
            "identity": "servd",
            "map": "Identifier"
          }
        ]
      },
      {
        "path": "Identifier.id",
        "representation": [
          "xmlAttr"
        ],
        "short": "xml:id (or equivalent in JSON)",
        "definition": "unique id for the element within a resource (for internal references).",
        "min": 0,
        "max": "1",
        "type": [
          {
            "code": "id"
          }
        ],
        "mapping": [
          {
            "identity": "rim",
            "map": "n/a"
          }
        ]
      },
      {
        "path": "Identifier.extension",
        "short": "Additional Content defined by implementations",
        "definition": "May be used to represent additional information that is not part of the basic definition of the element. In order to make the use of extensions safe and manageable, there is a strict set of governance  applied to the definition and use of extensions. Though any implementer is allowed to define an extension, there is a set of requirements that SHALL be met as part of the definition of the extension.",
        "comments": "There can be no stigma associated with the use of extensions by any application, project, or standard - regardless of the institution or jurisdiction that uses or defines the extensions.  The use of extensions is what allows the FHIR specification to retain a core level of simplicity for everyone.",
        "alias": [
          "extensions",
          "user content"
        ],
        "min": 0,
        "max": "*",
        "type": [
          {
            "code": "Extension"
          }
        ],
        "mapping": [
          {
            "identity": "rim",
            "map": "n/a"
          }
        ]
      },
      {
        "path": "Identifier.use",
        "short": "usual | official | temp | secondary (If known)",
        "definition": "The purpose of this identifier.",
        "comments": "This is labeled as \"Is Modifier\" because applications should not mistake a temporary id for a permanent one. Applications can assume that an identifier is permanent unless it explicitly says that it is temporary.",
        "requirements": "Allows the appropriate identifier for a particular context of use to be selected from among a set of identifiers.",
        "min": 0,
        "max": "1",
        "type": [
          {
            "code": "code"
          }
        ],
        "isModifier": true,
        "binding": {
          "strength": "required",
          "description": "Identifies the purpose for this identifier, if known",
          "valueSetReference": {
            "reference": "http://hl7.org/fhir/ValueSet/identifier-use"
          }
        },
        "mapping": [
          {
            "identity": "v2",
            "map": "N/A"
          },
          {
            "identity": "rim",
            "map": "Role.code or implied by context"
          }
        ]
      },
      {
        "path": "Identifier.type",
        "short": "Description of identifier",
        "definition": "A coded type for the identifier that can be used to determine which identifier to use for a specific purpose.",
        "comments": "Where the system is known, a type is unnecessary because the type is always part of the system definition. However systems often need to handle identifiers where the system is not known. There is not a 1:1 relationship between type and system, since many different systems have the same type.",
        "requirements": "Allows users to make use of identifiers when the identifier system is not known.",
        "min": 0,
        "max": "1",
        "type": [
          {
            "code": "CodeableConcept"
          }
        ],
        "binding": {
          "strength": "extensible",
          "description": "A coded type for an identifier that can be used to determine which identifier to use for a specific purpose",
          "valueSetReference": {
            "reference": "http://hl7.org/fhir/ValueSet/identifier-type"
          }
        },
        "mapping": [
          {
            "identity": "v2",
            "map": "CX.5"
          },
          {
            "identity": "rim",
            "map": "Role.code or implied by context"
          }
        ]
      },
      {
        "path": "Identifier.system",
        "short": "The namespace for the identifier",
        "definition": "Establishes the namespace in which set of possible id values is unique.",
        "requirements": "There are many sequences of identifiers.  To perform matching, we need to know what sequence we're dealing with. The system identifies a particular sequence or set of unique identifiers.",
        "min": 0,
        "max": "1",
        "type": [
          {
            "code": "uri"
          }
        ],
        "exampleUri": "http://www.acme.com/identifiers/patient or urn:ietf:rfc:3986 if the id itself is a full uri",
        "mapping": [
          {
            "identity": "v2",
            "map": "CX.4 / EI-2-4"
          },
          {
            "identity": "rim",
            "map": "II.root or Role.id.root"
          },
          {
            "identity": "servd",
            "map": "./IdentifierType"
          }
        ]
      },
      {
        "path": "Identifier.value",
        "short": "The value that is unique",
        "definition": "The portion of the identifier typically displayed to the user and which is unique within the context of the system.",
        "comments": "If the value is a full URI, then the system SHALL be urn:ietf:rfc:3986.",
        "min": 0,
        "max": "1",
        "type": [
          {
            "code": "string"
          }
        ],
        "exampleString": "123456",
        "mapping": [
          {
            "identity": "v2",
            "map": "CX.1 / EI.1"
          },
          {
            "identity": "rim",
            "map": "II.extension or II.root if system indicates OID or GUID (Or Role.id.extension or root)"
          },
          {
            "identity": "servd",
            "map": "./Value"
          }
        ]
      },
      {
        "path": "Identifier.period",
        "short": "Time period when id is/was valid for use",
        "definition": "Time period during which identifier is/was valid for use.",
        "min": 0,
        "max": "1",
        "type": [
          {
            "code": "Period"
          }
        ],
        "mapping": [
          {
            "identity": "v2",
            "map": "CX.7 + CX.8"
          },
          {
            "identity": "rim",
            "map": "Role.effectiveTime or implied by context"
          },
          {
            "identity": "servd",
            "map": "./StartDate and ./EndDate"
          }
        ]
      },
      {
        "path": "Identifier.assigner",
        "short": "Organization that issued id (may be just text)",
        "definition": "Organization that issued/manages the identifier.",
        "comments": "The reference may be just a text description of the assigner.",
        "min": 0,
        "max": "1",
        "type": [
          {
            "code": "Reference",
            "profile": [
              "http://hl7.org/fhir/StructureDefinition/Organization"
            ]
          }
        ],
        "mapping": [
          {
            "identity": "v2",
            "map": "CX.4 / (CX.4,CX.9,CX.10)"
          },
          {
            "identity": "rim",
            "map": "II.assigningAuthorityName but note that this is an improper use by the definition of the field.  Also Role.scoper"
          },
          {
            "identity": "servd",
            "map": "./IdentifierIssuingAuthority"
          }
        ]
      }
    ]
  },
  "differential": {
    "element": [
      {
        "path": "Identifier",
        "short": "An identifier intended for computation",
        "definition": "A technical identifier - identifies some entity uniquely and unambiguously.",
        "requirements": "Need to be able to identify things with confidence and be sure that the identification is not subject to misinterpretation.",
        "min": 1,
        "max": "1",
        "type": [
          {
            "code": "Element"
          }
        ],
        "mapping": [
          {
            "identity": "v2",
            "map": "CX / EI (occasionally, more often EI maps to a resource id or a URL)"
          },
          {
            "identity": "rim",
            "map": "II - see see identifier pattern at http://wiki.hl7.org/index.php?title=Common_Design_Patterns#Identifier_Pattern for relevant discussion. The Identifier class is a little looser than the v3 type II because it allows URIs as well as registered OIDs or GUIDs.  Also maps to Role[classCode=IDENT]"
          },
          {
            "identity": "servd",
            "map": "Identifier"
          }
        ]
      },
      {
        "path": "Identifier.use",
        "short": "usual | official | temp | secondary (If known)",
        "definition": "The purpose of this identifier.",
        "comments": "This is labeled as \"Is Modifier\" because applications should not mistake a temporary id for a permanent one. Applications can assume that an identifier is permanent unless it explicitly says that it is temporary.",
        "requirements": "Allows the appropriate identifier for a particular context of use to be selected from among a set of identifiers.",
        "min": 0,
        "max": "1",
        "type": [
          {
            "code": "code"
          }
        ],
        "isModifier": true,
        "binding": {
          "strength": "required",
          "description": "Identifies the purpose for this identifier, if known",
          "valueSetReference": {
            "reference": "http://hl7.org/fhir/ValueSet/identifier-use"
          }
        },
        "mapping": [
          {
            "identity": "v2",
            "map": "N/A"
          },
          {
            "identity": "rim",
            "map": "Role.code or implied by context"
          }
        ]
      },
      {
        "path": "Identifier.type",
        "short": "Description of identifier",
        "definition": "A coded type for the identifier that can be used to determine which identifier to use for a specific purpose.",
        "comments": "Where the system is known, a type is unnecessary because the type is always part of the system definition. However systems often need to handle identifiers where the system is not known. There is not a 1:1 relationship between type and system, since many different systems have the same type.",
        "requirements": "Allows users to make use of identifiers when the identifier system is not known.",
        "min": 0,
        "max": "1",
        "type": [
          {
            "code": "CodeableConcept"
          }
        ],
        "binding": {
          "strength": "extensible",
          "description": "A coded type for an identifier that can be used to determine which identifier to use for a specific purpose",
          "valueSetReference": {
            "reference": "http://hl7.org/fhir/ValueSet/identifier-type"
          }
        },
        "mapping": [
          {
            "identity": "v2",
            "map": "CX.5"
          },
          {
            "identity": "rim",
            "map": "Role.code or implied by context"
          }
        ]
      },
      {
        "path": "Identifier.system",
        "short": "The namespace for the identifier",
        "definition": "Establishes the namespace in which set of possible id values is unique.",
        "requirements": "There are many sequences of identifiers.  To perform matching, we need to know what sequence we're dealing with. The system identifies a particular sequence or set of unique identifiers.",
        "min": 0,
        "max": "1",
        "type": [
          {
            "code": "uri"
          }
        ],
        "exampleUri": "http://www.acme.com/identifiers/patient or urn:ietf:rfc:3986 if the id itself is a full uri",
        "mapping": [
          {
            "identity": "v2",
            "map": "CX.4 / EI-2-4"
          },
          {
            "identity": "rim",
            "map": "II.root or Role.id.root"
          },
          {
            "identity": "servd",
            "map": "./IdentifierType"
          }
        ]
      },
      {
        "path": "Identifier.value",
        "short": "The value that is unique",
        "definition": "The portion of the identifier typically displayed to the user and which is unique within the context of the system.",
        "comments": "If the value is a full URI, then the system SHALL be urn:ietf:rfc:3986.",
        "min": 0,
        "max": "1",
        "type": [
          {
            "code": "string"
          }
        ],
        "exampleString": "123456",
        "mapping": [
          {
            "identity": "v2",
            "map": "CX.1 / EI.1"
          },
          {
            "identity": "rim",
            "map": "II.extension or II.root if system indicates OID or GUID (Or Role.id.extension or root)"
          },
          {
            "identity": "servd",
            "map": "./Value"
          }
        ]
      },
      {
        "path": "Identifier.period",
        "short": "Time period when id is/was valid for use",
        "definition": "Time period during which identifier is/was valid for use.",
        "min": 0,
        "max": "1",
        "type": [
          {
            "code": "Period"
          }
        ],
        "mapping": [
          {
            "identity": "v2",
            "map": "CX.7 + CX.8"
          },
          {
            "identity": "rim",
            "map": "Role.effectiveTime or implied by context"
          },
          {
            "identity": "servd",
            "map": "./StartDate and ./EndDate"
          }
        ]
      },
      {
        "path": "Identifier.assigner",
        "short": "Organization that issued id (may be just text)",
        "definition": "Organization that issued/manages the identifier.",
        "comments": "The reference may be just a text description of the assigner.",
        "min": 0,
        "max": "1",
        "type": [
          {
            "code": "Reference",
            "profile": [
              "http://hl7.org/fhir/StructureDefinition/Organization"
            ]
          }
        ],
        "mapping": [
          {
            "identity": "v2",
            "map": "CX.4 / (CX.4,CX.9,CX.10)"
          },
          {
            "identity": "rim",
            "map": "II.assigningAuthorityName but note that this is an improper use by the definition of the field.  Also Role.scoper"
          },
          {
            "identity": "servd",
            "map": "./IdentifierIssuingAuthority"
          }
        ]
      }
    ]
  }
}