<?xml version="1.0" encoding="UTF-8"?><svg xmlns="http://www.w3.org/2000/svg" xmlns:xlink="http://www.w3.org/1999/xlink" version="1.1" width="1130.0" height="214.0">  <defs>
    <filter id="shadow1" x="0" y="0" width="200%" height="200%">
      <feOffset result="offOut" in="SourceGraphic" dx="3" dy="3" />
      <feColorMatrix result="matrixOut" in="offOut" type="matrix" values="0.2 0 0 0 0 0 0.2 0 0 0 0 0 0.2 0 0 0 0 0 1 0" />
      <feGaussianBlur result="blurOut" in="matrixOut" stdDeviation="2" />
      <feBlend in="SourceGraphic" in2="blurOut" mode="normal" />
    </filter>
  </defs><rect x="300.0" y="0.0" rx="4" ry="4" width="236.0" height="106.0" filter="url(#shadow1)" style="fill:#f0f8ff;stroke:black;stroke-width:1"/><line x1="300.0" y1="28.0" x2="536.0" y2="28.0" style="stroke:dimgrey;stroke-width:1"/><text x="418.0" y="20.0" fill="black" class="diagram-class-title  diagram-class-resource">Medication<tspan class="diagram-class-title-link"> (<a xlink:href="domainresource.html" class="diagram-class-reference">DomainResource</a>)</tspan></text><text x="306.0" y="42.0" fill="black" class="diagram-class-detail"><a xlink:href="medication-definitions.html#Medication.name"><title>The common/commercial name of the medication absent information such as strength, form, etc.  E.g. Acetaminophen, Tylenol 3, etc.  The fully coordinated name is communicated as the display of Medication.code</title>name</a> : <a xlink:href="datatypes.html#string">string</a> 0..1</text><text x="306.0" y="56.0" fill="black" class="diagram-class-detail"><a xlink:href="medication-definitions.html#Medication.code"><title>A code (or set of codes) that identify this medication.   Usage note: This could be a standard drug code such as a drug regulator code, RxNorm code, SNOMED CT code, etc. It could also be a local formulary code, optionally with translations to the standard drug codes</title>code</a> : <a xlink:href="datatypes.html#CodeableConcept">CodeableConcept</a> 0..1 « (<a xlink:href="valueset-medication-codes.html"><title>A code that defines the type of a medication</title>Snomed Medication Codes</a>) »</text><text x="306.0" y="70.0" fill="black" class="diagram-class-detail"><a xlink:href="medication-definitions.html#Medication.isBrand"><title>Set to true if the item is attributable to a specific manufacturer (even if we don&#39;t know who that is)</title>isBrand</a> : <a xlink:href="datatypes.html#boolean">boolean</a> 0..1</text><text x="306.0" y="84.0" fill="black" class="diagram-class-detail"><a xlink:href="medication-definitions.html#Medication.manufacturer"><title>Describes the details of the manufacturer</title>manufacturer</a> : <a xlink:href="references.html#Reference">Reference</a>(<a xlink:href="organization.html#Organization">Organization</a>) 0..1</text><text x="306.0" y="98.0" fill="black" class="diagram-class-detail"><a xlink:href="medication-definitions.html#Medication.kind"><title>Medications are either a single administrable product or a package that contains one or more products</title>kind</a> : <a xlink:href="datatypes.html#code">code</a> 0..1 « <a xlink:href="valueset-medication-kind.html"><title>Whether the medication is a product or a package</title>MedicationKind</a> »</text><rect x="630.0" y="20.0" rx="4" ry="4" width="224.0" height="50.0" filter="url(#shadow1)" style="fill:#f0f8ff;stroke:black;stroke-width:1"/><line x1="630.0" y1="48.0" x2="854.0" y2="48.0" style="stroke:dimgrey;stroke-width:1"/><text x="742.0" y="40.0" fill="black" class="diagram-class-title">Product</text><text x="636.0" y="62.0" fill="black" class="diagram-class-detail"><a xlink:href="medication-definitions.html#Medication.product.form"><title>Describes the form of the item.  Powder; tables; carton</title>form</a> : <a xlink:href="datatypes.html#CodeableConcept">CodeableConcept</a> 0..1 « (<a xlink:href="valueset-medication-form-codes.html"><title>The form of a medication</title>SNOMED CT Form Codes</a>) »</text><rect x="650.0" y="120.0" rx="4" ry="4" width="180.0" height="64.0" filter="url(#shadow1)" style="fill:#f0f8ff;stroke:black;stroke-width:1"/><line x1="650.0" y1="148.0" x2="830.0" y2="148.0" style="stroke:dimgrey;stroke-width:1"/><text x="740.0" y="140.0" fill="black" class="diagram-class-title">Ingredient</text><text x="656.0" y="162.0" fill="black" class="diagram-class-detail"><a xlink:href="medication-definitions.html#Medication.product.ingredient.item"><title>The actual ingredient - either a substance (simple ingredient) or another medication</title>item</a> : <a xlink:href="references.html#Reference">Reference</a>(<a xlink:href="substance.html#Substance">Substance</a>|<a xlink:href="medication.html#Medication">Medication</a>) 1..1</text><text x="656.0" y="176.0" fill="black" class="diagram-class-detail"><a xlink:href="medication-definitions.html#Medication.product.ingredient.amount"><title>Specifies how many (or how much) of the items there are in this Medication.  E.g. 250 mg per tablet</title>amount</a> : <a xlink:href="datatypes.html#Ratio">Ratio</a> 0..1</text><rect x="450.0" y="120.0" rx="4" ry="4" width="128.0" height="64.0" filter="url(#shadow1)" style="fill:#f0f8ff;stroke:black;stroke-width:1"/><line x1="450.0" y1="148.0" x2="578.0" y2="148.0" style="stroke:dimgrey;stroke-width:1"/><text x="514.0" y="140.0" fill="black" class="diagram-class-title">Batch</text><text x="456.0" y="162.0" fill="black" class="diagram-class-detail"><a xlink:href="medication-definitions.html#Medication.product.batch.lotNumber"><title>The assigned lot number of a batch of the specified product</title>lotNumber</a> : <a xlink:href="datatypes.html#string">string</a> 0..1</text><text x="456.0" y="176.0" fill="black" class="diagram-class-detail"><a xlink:href="medication-definitions.html#Medication.product.batch.expirationDate"><title>When this specific batch of product will expire</title>expirationDate</a> : <a xlink:href="datatypes.html#dateTime">dateTime</a> 0..1</text><rect x="0.0" y="20.0" rx="4" ry="4" width="244.0" height="50.0" filter="url(#shadow1)" style="fill:#f0f8ff;stroke:black;stroke-width:1"/><line x1="0.0" y1="48.0" x2="244.0" y2="48.0" style="stroke:dimgrey;stroke-width:1"/><text x="122.0" y="40.0" fill="black" class="diagram-class-title">Package</text><text x="6.0" y="62.0" fill="black" class="diagram-class-detail"><a xlink:href="medication-definitions.html#Medication.package.container"><title>The kind of container that this package comes as</title>container</a> : <a xlink:href="datatypes.html#CodeableConcept">CodeableConcept</a> 0..1 « (<a xlink:href="valueset-medication-package-form-codes.html"><title>Kind of container a medication package is packaged in</title>SNOMED CT Form Codes</a>) »</text><rect x="40.0" y="120.0" rx="4" ry="4" width="140.0" height="64.0" filter="url(#shadow1)" style="fill:#f0f8ff;stroke:black;stroke-width:1"/><line x1="40.0" y1="148.0" x2="180.0" y2="148.0" style="stroke:dimgrey;stroke-width:1"/><text x="110.0" y="140.0" fill="black" class="diagram-class-title">Content</text><text x="46.0" y="162.0" fill="black" class="diagram-class-detail"><a xlink:href="medication-definitions.html#Medication.package.content.item"><title>Identifies one of the items in the package</title>item</a> : <a xlink:href="references.html#Reference">Reference</a>(<a xlink:href="medication.html#Medication">Medication</a>) 1..1</text><text x="46.0" y="176.0" fill="black" class="diagram-class-detail"><a xlink:href="medication-definitions.html#Medication.package.content.amount"><title>The amount of the product that is in the package</title>amount</a> : <a xlink:href="datatypes.html#Quantity">Quantity</a> 0..1</text><line x1="741.5327102803739" y1="70.0" x2="740.5981308411215" y2="120.0" style="stroke:navy;stroke-width:1"/><polygon points="741.5327102803739,70.0 747.5327102803739,74.0 753.5327102803739,70.0 747.5327102803739,66.0 741.5327102803739,70.0" style="fill:navy;stroke:navy;stroke-width:1" transform="rotate(91.07082445478702 741.5327102803739 70.0)"/><rect x="721.0" y="88.0" width="40.0" height="18.0" style="fill:white;stroke:black;stroke-width:0"/><text x="741.0" y="98.0" fill="black" class="diagram-class-linkage"><a xlink:href="medication-definitions.html#Medication.product.ingredient"><title>Identifies a particular constituent of interest in the product</title>ingredient</a></text><text x="740.5981308411215" y="116.0" fill="black" class="diagram-class-linkage">0..*</text><line x1="688.7289719626168" y1="70.0" x2="578.0" y2="121.96491228070175" style="stroke:navy;stroke-width:1"/><polygon points="688.7289719626168,70.0 694.7289719626168,74.0 700.7289719626168,70.0 694.7289719626168,66.0 688.7289719626168,70.0" style="fill:navy;stroke:navy;stroke-width:1" transform="rotate(154.85941709648384 688.7289719626168 70.0)"/><rect x="623.0" y="88.0" width="20.0" height="18.0" style="fill:white;stroke:black;stroke-width:0"/><text x="633.0" y="98.0" fill="black" class="diagram-class-linkage"><a xlink:href="medication-definitions.html#Medication.product.batch"><title>Information about a group of medication produced or packaged from one production run</title>batch</a></text><text x="593.0" y="117.96491228070175" fill="black" class="diagram-class-linkage">0..*</text><line x1="536.0" y1="50.08641975308642" x2="630.0" y2="47.76543209876543" style="stroke:navy;stroke-width:1"/><polygon points="536.0,50.08641975308642 542.0,54.08641975308642 548.0,50.08641975308642 542.0,46.08641975308642 536.0,50.08641975308642" style="fill:navy;stroke:navy;stroke-width:1" transform="rotate(-1.414423211402155 536.0 50.08641975308642)"/><rect x="569.0" y="41.0" width="28.0" height="18.0" style="fill:white;stroke:black;stroke-width:0"/><text x="583.0" y="51.0" fill="black" class="diagram-class-linkage"><a xlink:href="medication-definitions.html#Medication.product"><title>Information that only applies to products (not packages)</title>product</a></text><text x="610.0" y="43.76543209876543" fill="black" class="diagram-class-linkage">0..1</text><line x1="119.19626168224299" y1="70.0" x2="113.58878504672897" y2="120.0" style="stroke:navy;stroke-width:1"/><polygon points="119.19626168224299,70.0 125.19626168224299,74.0 131.196261682243,70.0 125.19626168224299,66.0 119.19626168224299,70.0" style="fill:navy;stroke:navy;stroke-width:1" transform="rotate(96.39895662736893 119.19626168224299 70.0)"/><rect x="102.0" y="88.0" width="28.0" height="18.0" style="fill:white;stroke:black;stroke-width:0"/><text x="116.0" y="98.0" fill="black" class="diagram-class-linkage"><a xlink:href="medication-definitions.html#Medication.package.content"><title>A set of components that go to make up the described item</title>content</a></text><text x="113.58878504672897" y="116.0" fill="black" class="diagram-class-linkage">0..*</text><line x1="300.0" y1="49.81081081081081" x2="244.0" y2="48.2972972972973" style="stroke:navy;stroke-width:1"/><polygon points="300.0,49.81081081081081 306.0,53.81081081081081 312.0,49.81081081081081 306.0,45.81081081081081 300.0,49.81081081081081" style="fill:navy;stroke:navy;stroke-width:1" transform="rotate(-178.45184230102205 300.0 49.81081081081081)"/><rect x="258.0" y="42.0" width="28.0" height="18.0" style="fill:white;stroke:black;stroke-width:0"/><text x="272.0" y="52.0" fill="black" class="diagram-class-linkage"><a xlink:href="medication-definitions.html#Medication.package"><title>Information that only applies to packages (not products)</title>package</a></text><text x="259.0" y="44.2972972972973" fill="black" class="diagram-class-linkage">0..1</text></svg>