{
  "resourceType": "Medication",
  "id": "medexample017",
  "text": {
    "status": "generated",
    "div": "<div><p><b>Generated Narrative with Details</b></p><p><b>id</b>: medexample017</p><p><b>name</b>: Gentamycin </p><p><b>code</b>: Gentamicin sulfate 80mg/100ml infusion (product) <span>(Details : {SNOMED CT code '389245004' = 'Gentamicin sulfate 80mg/100mL infusion', given as 'Gentamicin sulfate 80mg/100ml infusion (product)'})</span></p><p><b>isBrand</b>: false</p><p><b>kind</b>: product</p><h3>Products</h3><table><tr><td>-</td><td><b>Form</b></td></tr><tr><td>*</td><td>Parenteral dosage form product <span>(Details : {SNOMED CT code '440132002' = 'Parenteral dosage form product (product)', given as 'Parenteral dosage form product'})</span></td></tr></table></div>"
  },
  "name": "Gentamycin ",
  "code": {
    "coding": [
      {
        "system": "http://snomed.info/sct",
        "code": "389245004",
        "display": "Gentamicin sulfate 80mg/100ml infusion (product)"
      }
    ]
  },
  "isBrand": false,
  "kind": "product",
  "product": {
    "form": {
      "coding": [
        {
          "system": "http://snomed.info/sct",
          "code": "440132002",
          "display": "Parenteral dosage form product"
        }
      ]
    }
  }
}