{
  "resourceType": "ConceptMap",
  "id": "v3-medication-prescription-status",
  "text": {
    "status": "generated",
    "div": "<div><h2>v3 map for MedicationPrescriptionStatus (http://hl7.org/fhir/ConceptMap/v3-medication-prescription-status)</h2><p>Mapping from <a href=\"valueset-medication-prescription-status.html\">http://hl7.org/fhir/ValueSet/medication-prescription-status</a> to <a href=\"v3/ActStatus/index.html\">http://hl7.org/fhir/ValueSet/v3-ActStatus</a></p><p>DRAFT. Published on Jul 14, 2015 4:14:24 PM by HL7 (FHIR Project) (<a href=\"http://hl7.org/fhir\">http://hl7.org/fhir</a>, <a href=\"mailto:fhir@lists.hl7.org\">fhir@lists.hl7.org</a>; ). </p><p>v3 Map (ActStatus)</p><br/><table class=\"grid\"><tr><td><b>Source Code</b></td><td><b>Equivalence</b></td><td><b>Destination Code</b></td></tr><tr><td>active (Active)</td><td>equal</td><td>active (active)</td></tr><tr><td>on-hold (On Hold)</td><td>equal</td><td>suspended (suspended)</td></tr><tr><td>completed (Completed)</td><td>equal</td><td>completed (completed)</td></tr><tr><td>entered-in-error (Entered In Error)</td><td>equal</td><td>nullified (nullified)</td></tr><tr><td>stopped (Stopped)</td><td>equal</td><td>aborted (aborted)</td></tr><tr><td>superseded (Superseded)</td><td>equal</td><td>obsolete (obsolete)</td></tr><tr><td>draft (Draft)</td><td>equal</td><td>new (new)</td></tr></table></div>"
  },
  "url": "http://hl7.org/fhir/ConceptMap/v3-medication-prescription-status",
  "name": "v3 map for MedicationPrescriptionStatus",
  "publisher": "HL7 (FHIR Project)",
  "contact": [
    {
      "telecom": [
        {
          "system": "url",
          "value": "http://hl7.org/fhir"
        },
        {
          "system": "email",
          "value": "fhir@lists.hl7.org"
        }
      ]
    }
  ],
  "description": "v3 Map (ActStatus)",
  "status": "draft",
  "date": "2015-07-14T16:14:24+00:00",
  "sourceReference": {
    "reference": "http://hl7.org/fhir/ValueSet/medication-prescription-status"
  },
  "targetReference": {
    "reference": "http://hl7.org/fhir/ValueSet/v3-ActStatus"
  },
  "element": [
    {
      "codeSystem": "http://hl7.org/fhir/medication-prescription-status",
      "code": "active",
      "target": [
        {
          "codeSystem": "http://hl7.org/fhir/v3/ActStatus",
          "code": "active",
          "equivalence": "equal"
        }
      ]
    },
    {
      "codeSystem": "http://hl7.org/fhir/medication-prescription-status",
      "code": "on-hold",
      "target": [
        {
          "codeSystem": "http://hl7.org/fhir/v3/ActStatus",
          "code": "suspended",
          "equivalence": "equal"
        }
      ]
    },
    {
      "codeSystem": "http://hl7.org/fhir/medication-prescription-status",
      "code": "completed",
      "target": [
        {
          "codeSystem": "http://hl7.org/fhir/v3/ActStatus",
          "code": "completed",
          "equivalence": "equal"
        }
      ]
    },
    {
      "codeSystem": "http://hl7.org/fhir/medication-prescription-status",
      "code": "entered-in-error",
      "target": [
        {
          "codeSystem": "http://hl7.org/fhir/v3/ActStatus",
          "code": "nullified",
          "equivalence": "equal"
        }
      ]
    },
    {
      "codeSystem": "http://hl7.org/fhir/medication-prescription-status",
      "code": "stopped",
      "target": [
        {
          "codeSystem": "http://hl7.org/fhir/v3/ActStatus",
          "code": "aborted",
          "equivalence": "equal"
        }
      ]
    },
    {
      "codeSystem": "http://hl7.org/fhir/medication-prescription-status",
      "code": "superseded",
      "target": [
        {
          "codeSystem": "http://hl7.org/fhir/v3/ActStatus",
          "code": "obsolete",
          "equivalence": "equal"
        }
      ]
    },
    {
      "codeSystem": "http://hl7.org/fhir/medication-prescription-status",
      "code": "draft",
      "target": [
        {
          "codeSystem": "http://hl7.org/fhir/v3/ActStatus",
          "code": "new",
          "equivalence": "equal"
        }
      ]
    }
  ]
}