{
  "resourceType": "MedicationPrescription",
  "id": "medrx003",
  "text": {
    "status": "generated",
    "div": "<div><p><b>Generated Narrative with Details</b></p><p><b>id</b>: medrx003</p><p><b>identifier</b>: 12345 (OFFICIAL)</p><p><b>dateWritten</b>: Jan 15, 2015</p><p><b>status</b>: active</p><p><b>patient</b>: <a>Eve Everywoman. Generated Summary: 738472983 (USUAL), ?? (USUAL); Pieter van de Heuvel ; ph: 0648352638(MOBILE), p.heuvel@gmail.com(HOME); MALE; birthDate: Nov 17, 1944; <span>Getrouwd</span>; multipleBirth; active</a></p><p><b>prescriber</b>: <a>Patrick Pump. Generated Summary: 874635264 (OFFICIAL), 567IUI51C154 (USUAL); Simone Heps (OFFICIAL); ph: 020556936(WORK), S.M.Heps@bmc.nl(WORK), fax: 0205669283(WORK); FEMALE; birthDate: Nov 7, 1971</a></p><p><b>encounter</b>: <a>encounter who leads to this priscription. Generated Summary: v3251 (OFFICIAL); FINISHED; OUTPATIENT; <span>Patient-initiated encounter</span>; 140 min; <span>Partial lobectomy of lung</span>; <span>Urgent</span></a></p><p><b>reason</b>: Asthma <span>(Details : {SNOMED CT code '195967001' = 'Asthma (disorder)', given as 'Asthma'})</span></p><p><b>medication</b>: <a>prescribed medication</a></p><blockquote><p><b>dosageInstruction</b></p><p><b>text</b>: Take 1 tablet twice daily for 3 days</p><p><b>additionalInstructions</b>: With or after food <span>(Details : {SNOMED CT code '311504000' = 'With or after food (qualifier value)', given as 'With or after food'})</span></p><p><b>scheduled</b>: Events: Mar 1, 2015, Duration 3days, Do 2 per 1 days</p><p><b>site</b>: Entire oral cavity <span>(Details : {SNOMED CT code '181220002' = 'Mouth', given as 'Entire oral cavity'})</span></p><p><b>route</b>: Oral Route <span>(Details : {SNOMED CT code '26643006' = 'Oral route (qualifier value)', given as 'Oral Route'})</span></p><p><b>dose</b>: 1 TAB<span> (Details: http://hl7.org/fhir/v3/orderableDrugForm code TAB = 'Tablet')</span></p></blockquote><blockquote><p><b>dosageInstruction</b></p><p><b>text</b>: Take 2 tablet twice daily for 3 days</p><p><b>additionalInstructions</b>: With or after food <span>(Details : {SNOMED CT code '311504000' = 'With or after food (qualifier value)', given as 'With or after food'})</span></p><p><b>scheduled</b>: Events: Mar 4, 2015, Duration 3days, Do 2 per 1 days</p><p><b>site</b>: Entire oral cavity <span>(Details : {SNOMED CT code '181220002' = 'Mouth', given as 'Entire oral cavity'})</span></p><p><b>route</b>: Oral Route <span>(Details : {SNOMED CT code '26643006' = 'Oral route (qualifier value)', given as 'Oral Route'})</span></p><p><b>dose</b>: 2 TAB<span> (Details: http://hl7.org/fhir/v3/orderableDrugForm code TAB = 'Tablet')</span></p></blockquote><blockquote><p><b>dosageInstruction</b></p><p><b>text</b>: Take 3 tablet twice daily for 3 days</p><p><b>additionalInstructions</b>: With or after food <span>(Details : {SNOMED CT code '311504000' = 'With or after food (qualifier value)', given as 'With or after food'})</span></p><p><b>scheduled</b>: Events: Mar 7, 2015, Duration 3days, Do 2 per 1 days</p><p><b>site</b>: Entire oral cavity <span>(Details : {SNOMED CT code '181220002' = 'Mouth', given as 'Entire oral cavity'})</span></p><p><b>route</b>: Oral Route <span>(Details : {SNOMED CT code '26643006' = 'Oral route (qualifier value)', given as 'Oral Route'})</span></p><p><b>dose</b>: 3 TAB<span> (Details: http://hl7.org/fhir/v3/orderableDrugForm code TAB = 'Tablet')</span></p></blockquote></div>"
  },
  "identifier": [
    {
      "use": "official",
      "system": "http://www.bmc.nl/portal/prescriptions",
      "value": "12345"
    }
  ],
  "dateWritten": "2015-01-15",
  "status": "active",
  "patient": {
    "reference": "Patient/f001",
    "display": "Eve Everywoman"
  },
  "prescriber": {
    "reference": "Practitioner/f007",
    "display": "Patrick Pump"
  },
  "encounter": {
    "reference": "Encounter/f002",
    "display": "encounter who leads to this priscription"
  },
  "reasonCodeableConcept": {
    "coding": [
      {
        "system": "http://snomed.info/sct",
        "code": "195967001",
        "display": "Asthma"
      }
    ]
  },
  "medicationReference": {
    "reference": "Medication/MedicationExample11",
    "display": "prescribed medication"
  },
  "dosageInstruction": [
    {
      "text": "Take 1 tablet twice daily for 3 days",
      "additionalInstructions": {
        "coding": [
          {
            "system": "http://snomed.info/sct",
            "code": "311504000",
            "display": "With or after food"
          }
        ]
      },
      "scheduledTiming": {
        "event": [
          "2015-03-01"
        ],
        "repeat": {
          "duration": 3,
          "durationUnits": "d",
          "frequency": 2,
          "period": 1,
          "periodUnits": "d"
        }
      },
      "site": {
        "coding": [
          {
            "system": "http://snomed.info/sct",
            "code": "181220002",
            "display": "Entire oral cavity"
          }
        ]
      },
      "route": {
        "coding": [
          {
            "system": "http://snomed.info/sct",
            "code": "26643006",
            "display": "Oral Route"
          }
        ]
      },
      "doseQuantity": {
        "value": 1,
        "system": "http://hl7.org/fhir/v3/orderableDrugForm",
        "code": "TAB"
      }
    },
    {
      "text": "Take 2 tablet twice daily for 3 days",
      "additionalInstructions": {
        "coding": [
          {
            "system": "http://snomed.info/sct",
            "code": "311504000",
            "display": "With or after food"
          }
        ]
      },
      "scheduledTiming": {
        "event": [
          "2015-03-04"
        ],
        "repeat": {
          "duration": 3,
          "durationUnits": "d",
          "frequency": 2,
          "period": 1,
          "periodUnits": "d"
        }
      },
      "site": {
        "coding": [
          {
            "system": "http://snomed.info/sct",
            "code": "181220002",
            "display": "Entire oral cavity"
          }
        ]
      },
      "route": {
        "coding": [
          {
            "system": "http://snomed.info/sct",
            "code": "26643006",
            "display": "Oral Route"
          }
        ]
      },
      "doseQuantity": {
        "value": 2,
        "system": "http://hl7.org/fhir/v3/orderableDrugForm",
        "code": "TAB"
      }
    },
    {
      "text": "Take 3 tablet twice daily for 3 days",
      "additionalInstructions": {
        "coding": [
          {
            "system": "http://snomed.info/sct",
            "code": "311504000",
            "display": "With or after food"
          }
        ]
      },
      "scheduledTiming": {
        "event": [
          "2015-03-07"
        ],
        "repeat": {
          "duration": 3,
          "durationUnits": "d",
          "frequency": 2,
          "period": 1,
          "periodUnits": "d"
        }
      },
      "site": {
        "coding": [
          {
            "system": "http://snomed.info/sct",
            "code": "181220002",
            "display": "Entire oral cavity"
          }
        ]
      },
      "route": {
        "coding": [
          {
            "system": "http://snomed.info/sct",
            "code": "26643006",
            "display": "Oral Route"
          }
        ]
      },
      "doseQuantity": {
        "value": 3,
        "system": "http://hl7.org/fhir/v3/orderableDrugForm",
        "code": "TAB"
      }
    }
  ]
}