{
  "resourceType": "StructureDefinition",
  "id": "medicationadministration-qicore-qicore-medicationadministration",
  "text": {
    "status": "generated",
    "div": "<div>to do</div>"
  },
  "url": "http://hl7.org/fhir/StructureDefinition/medicationadministration-qicore-qicore-medicationadministration",
  "name": "QICore-MedicationAdministration",
  "publisher": "Health Level Seven International (Clinical Quality Information - QI-Core)",
  "contact": [
    {
      "telecom": [
        {
          "system": "url",
          "value": "http://hl7.org/special/committees/CQI"
        }
      ]
    }
  ],
  "description": "Profile of MedicationAdministration for decision support/quality metrics. Defines the core set of elements and extensions for quality rule and measure authors.",
  "status": "draft",
  "date": "2015-02-27",
  "kind": "resource",
  "constrainedType": "MedicationAdministration",
  "abstract": false,
  "base": "http://hl7.org/fhir/StructureDefinition/MedicationAdministration",
  "snapshot": {
    "element": [
      {
        "path": "MedicationAdministration",
        "name": "QICore-MedicationAdministration",
        "short": "Administration of medication to a patient",
        "definition": "Describes the event of a patient consuming or otherwise being administered a medication.  This may be as simple as swallowing a tablet or it may be a long running infusion.\r\rRelated resources tie this event to the authorizing prescription, and the specific encounter between patient and health care practitioner.",
        "min": 1,
        "max": "1",
        "type": [
          {
            "code": "MedicationAdministration"
          }
        ],
        "mapping": [
          {
            "identity": "rim",
            "map": "SubstanceAdministration"
          }
        ]
      },
      {
        "path": "MedicationAdministration.id",
        "short": "Logical id of this artifact",
        "definition": "The logical id of the resource, as used in the url for the resource. Once assigned, this value never changes.",
        "comments": "The only time that a resource does not have an id is when it is being submitted to the server using a create operation. Bundles always have an id, though it is usually a generated UUID.",
        "min": 0,
        "max": "1",
        "type": [
          {
            "code": "id"
          }
        ]
      },
      {
        "path": "MedicationAdministration.meta",
        "short": "Metadata about the resource",
        "definition": "The metadata about the resource. This is content that is maintained by the infrastructure. Changes to the content may not always be associated with version changes to the resource.",
        "min": 0,
        "max": "1",
        "type": [
          {
            "code": "Meta"
          }
        ]
      },
      {
        "path": "MedicationAdministration.implicitRules",
        "short": "A set of rules under which this content was created",
        "definition": "A reference to a set of rules that were followed when the resource was constructed, and which must be understood when processing the content.",
        "comments": "Asserting this rule set restricts the content to be only understood by a limited set of trading partners. This inherently limits the usefulness of the data in the long term. However the existing health eco-system is highly fractured, and not yet ready to define, collect, and exchange data in a generally computable sense. Wherever possible, implementers and/or specification writers should avoid using this element as much as possible.",
        "min": 0,
        "max": "1",
        "type": [
          {
            "code": "uri"
          }
        ],
        "isModifier": true
      },
      {
        "path": "MedicationAdministration.language",
        "short": "Language of the resource content",
        "definition": "The base language in which the resource is written.",
        "comments": "Language is provided to support indexing and accessibility (typically, services such as text to speech use the language tag). The html language tag in the narrative applies  to the narrative. The language tag on the resource may be used to specify the language of other presentations generated from the data in the resource\n\nNot all the content has to be in the base language. The Resource.language should not be assumed to apply to the narrative automatically. If a language is specified, it should it also be specified on the div element in the html (see rules in HTML5 for information about the relationship between xml:lang and the html lang attribute).",
        "min": 0,
        "max": "1",
        "type": [
          {
            "code": "code"
          }
        ],
        "binding": {
          "strength": "required",
          "description": "A human language",
          "valueSetUri": "http://tools.ietf.org/html/bcp47"
        }
      },
      {
        "path": "MedicationAdministration.text",
        "short": "Text summary of the resource, for human interpretation",
        "definition": "A human-readable narrative that contains a summary of the resource, and may be used to represent the content of the resource to a human. The narrative need not encode all the structured data, but is required to contain sufficient detail to make it \"clinically safe\" for a human to just read the narrative. Resource definitions may define what content should be represented in the narrative to ensure clinical safety.",
        "comments": "Contained resources do not have narrative. Resources that are not contained SHOULD have a narrative.",
        "alias": [
          "narrative",
          "html",
          "xhtml",
          "display"
        ],
        "min": 0,
        "max": "1",
        "type": [
          {
            "code": "Narrative"
          }
        ],
        "condition": [
          "dom-1"
        ],
        "mapping": [
          {
            "identity": "rim",
            "map": "Act.text?"
          }
        ]
      },
      {
        "path": "MedicationAdministration.contained",
        "short": "Contained, inline Resources",
        "definition": "These resources do not have an independent existence apart from the resource that contains them - they cannot be identified independently, and nor can they have their own independent transaction scope.",
        "comments": "This should never be done when the content can be identified properly, as once identification is lost, it is extremely difficult (and context dependent) to restore it again.",
        "alias": [
          "inline resources",
          "anonymous resources",
          "contained resources"
        ],
        "min": 0,
        "max": "*",
        "type": [
          {
            "code": "Resource"
          }
        ],
        "mapping": [
          {
            "identity": "rim",
            "map": "N/A"
          }
        ]
      },
      {
        "path": "MedicationAdministration.extension",
        "short": "Additional Content defined by implementations",
        "definition": "May be used to represent additional information that is not part of the basic definition of the resource. In order to make the use of extensions safe and manageable, there is a strict set of governance  applied to the definition and use of extensions. Though any implementer is allowed to define an extension, there is a set of requirements that SHALL be met as part of the definition of the extension.",
        "comments": "There can be no stigma associated with the use of extensions by any application, project, or standard - regardless of the institution or jurisdiction that uses or defines the extensions.  The use of extensions is what allows the FHIR specification to retain a core level of simplicity for everyone.",
        "alias": [
          "extensions",
          "user content"
        ],
        "min": 0,
        "max": "*",
        "type": [
          {
            "code": "Extension"
          }
        ],
        "mapping": [
          {
            "identity": "rim",
            "map": "N/A"
          }
        ]
      },
      {
        "path": "MedicationAdministration.modifierExtension",
        "short": "Extensions that cannot be ignored",
        "definition": "May be used to represent additional information that is not part of the basic definition of the resource, and that modifies the understanding of the element that contains it. Usually modifier elements provide negation or qualification. In order to make the use of extensions safe and manageable, there is a strict set of governance applied to the definition and use of extensions. Though any implementer is allowed to define an extension, there is a set of requirements that SHALL be met as part of the definition of the extension. Applications processing a resource are required to check for modifier extensions.",
        "comments": "There can be no stigma associated with the use of extensions by any application, project, or standard - regardless of the institution or jurisdiction that uses or defines the extensions.  The use of extensions is what allows the FHIR specification to retain a core level of simplicity for everyone.",
        "alias": [
          "extensions",
          "user content"
        ],
        "min": 0,
        "max": "*",
        "type": [
          {
            "code": "Extension"
          }
        ],
        "isModifier": true,
        "mapping": [
          {
            "identity": "rim",
            "map": "N/A"
          }
        ]
      },
      {
        "path": "MedicationAdministration.identifier",
        "short": "External identifier",
        "definition": "External identifier - FHIR will generate its own internal IDs (probably URLs) which do not need to be explicitly managed by the resource.  The identifier here is one that would be used by another non-FHIR system - for example an automated medication pump would provide a record each time it operated; an administration while the patient was off the ward might be made with a different system and entered after the event.  Particularly important if these records have to be updated.",
        "min": 0,
        "max": "*",
        "type": [
          {
            "code": "Identifier"
          }
        ],
        "mapping": [
          {
            "identity": "v2",
            "map": "RXA-25-Administered Barcode Identifier? (V2 def'n of RXA-25 refers to the 'give' occurrence; appears not to discuss 'administer' cardinality which would seem to be 0..*)"
          },
          {
            "identity": "rim",
            "map": "id"
          }
        ]
      },
      {
        "path": "MedicationAdministration.status",
        "short": "in-progress | on-hold | completed | entered-in-error | stopped",
        "definition": "Will generally be set to show that the administration has been completed.  For some long running administrations such as infusions it is possible for an administration to be started but not completed or it may be paused while some other process is under way.",
        "min": 1,
        "max": "1",
        "type": [
          {
            "code": "code"
          }
        ],
        "mustSupport": true,
        "isModifier": true,
        "binding": {
          "strength": "required",
          "description": "A set of codes indicating the current status of a MedicationAdministration",
          "valueSetReference": {
            "reference": "http://hl7.org/fhir/ValueSet/medication-admin-status"
          }
        },
        "mapping": [
          {
            "identity": "v2",
            "map": "RXA-20-Completion Status"
          },
          {
            "identity": "rim",
            "map": "statusCode"
          }
        ]
      },
      {
        "path": "MedicationAdministration.patient",
        "short": "Who received medication?",
        "definition": "The person or animal to whom the medication was given.",
        "min": 1,
        "max": "1",
        "type": [
          {
            "code": "Reference",
            "profile": [
              "http://hl7.org/fhir/StructureDefinition/patient-qicore-qicore-patient"
            ]
          }
        ],
        "mustSupport": true,
        "mapping": [
          {
            "identity": "v2",
            "map": "PID-3-Patient ID List"
          },
          {
            "identity": "rim",
            "map": "subject->Patient"
          }
        ]
      },
      {
        "path": "MedicationAdministration.practitioner",
        "short": "Who administered substance?",
        "definition": "The individual who was responsible for giving the medication to the patient.",
        "min": 0,
        "max": "1",
        "type": [
          {
            "code": "Reference",
            "profile": [
              "http://hl7.org/fhir/StructureDefinition/practitioner-qicore-qicore-practitioner"
            ]
          }
        ],
        "mapping": [
          {
            "identity": "v2",
            "map": "RXA-10-Administering Provider / PRT-5-Participation Person: PRT-4-Participation='AP' (RXA-10 is deprecated)"
          },
          {
            "identity": "rim",
            "map": "performer->Role"
          }
        ]
      },
      {
        "path": "MedicationAdministration.encounter",
        "short": "Encounter administered as part of",
        "definition": "The visit or admission the or other contact between patient and health care provider the medication administration was performed as part of.",
        "min": 0,
        "max": "1",
        "type": [
          {
            "code": "Reference",
            "profile": [
              "http://hl7.org/fhir/StructureDefinition/encounter-qicore-qicore-encounter"
            ]
          }
        ],
        "mustSupport": true,
        "mapping": [
          {
            "identity": "v2",
            "map": "PV1-19-Visit Number"
          },
          {
            "identity": "rim",
            "map": "component->EncounterEvent"
          }
        ]
      },
      {
        "path": "MedicationAdministration.prescription",
        "short": "Order administration performed against",
        "definition": "The original request, instruction or authority to perform the administration.",
        "min": 0,
        "max": "1",
        "type": [
          {
            "code": "Reference",
            "profile": [
              "http://hl7.org/fhir/StructureDefinition/medicationprescription-qicore-qicore-medicationprescription"
            ]
          }
        ],
        "mapping": [
          {
            "identity": "v2",
            "map": "ORC-3-Filler Order Number / ORC-2-Placer Order Number"
          },
          {
            "identity": "rim",
            "map": "InFullfillmentOf->SubstanceAdministration"
          }
        ]
      },
      {
        "path": "MedicationAdministration.wasNotGiven",
        "short": "True if medication not administered",
        "definition": "Set this to true if the record is saying that the medication was NOT administered.",
        "min": 0,
        "max": "1",
        "type": [
          {
            "code": "boolean"
          }
        ],
        "meaningWhenMissing": "If this is missing, then the medication was administered",
        "mustSupport": true,
        "isModifier": true,
        "mapping": [
          {
            "identity": "v2",
            "map": "RXA-20-Completion Status='NA'"
          },
          {
            "identity": "rim",
            "map": "actionNegationInd"
          }
        ]
      },
      {
        "path": "MedicationAdministration.reasonNotGiven",
        "short": "Reason administration not performed",
        "definition": "A code indicating why the administration was not performed.",
        "min": 0,
        "max": "*",
        "type": [
          {
            "code": "CodeableConcept"
          }
        ],
        "condition": [
          "mad-2"
        ],
        "constraint": [
          {
            "key": "mad-2",
            "severity": "error",
            "human": "Reason not given is only permitted if wasNotGiven is true",
            "xpath": "not(exists(f:reasonNotGiven) and f:wasNotGiven/@value='false')"
          }
        ],
        "mustSupport": true,
        "binding": {
          "strength": "example",
          "description": "A set of codes indicating the reason why the MedicationAdministration is negated.",
          "valueSetReference": {
            "reference": "http://hl7.org/fhir/ValueSet/reason-medication-not-given-codes"
          }
        },
        "mapping": [
          {
            "identity": "v2",
            "map": "RXA-9-Administration Notes:RXA-20-Completion Status='NA'"
          },
          {
            "identity": "rim",
            "map": "Reason->Observation->Value"
          }
        ]
      },
      {
        "path": "MedicationAdministration.reasonGiven",
        "short": "Reason administration performed",
        "definition": "A code indicating why the medication was given.",
        "min": 0,
        "max": "*",
        "type": [
          {
            "code": "CodeableConcept"
          }
        ],
        "condition": [
          "mad-3"
        ],
        "constraint": [
          {
            "key": "mad-3",
            "severity": "error",
            "human": "Reason given is only permitted if wasNotGiven is false",
            "xpath": "not(exists(f:reasonGiven) and f:wasNotGiven/@value='true')"
          }
        ],
        "mustSupport": true,
        "binding": {
          "strength": "example",
          "description": "A set of codes indicating the reason why the MedicationAdministration was made.",
          "valueSetReference": {
            "reference": "http://hl7.org/fhir/ValueSet/reason-medication-given-codes"
          }
        }
      },
      {
        "path": "MedicationAdministration.effectiveTime[x]",
        "short": "Start and end time of administration",
        "definition": "An interval of time during which the administration took place (or did not take place, when the 'notGiven' attribute is true).  For many administrations, such as swallowing a tablet the use of dateTime is more appropriate.",
        "min": 1,
        "max": "1",
        "type": [
          {
            "code": "dateTime"
          },
          {
            "code": "Period"
          }
        ],
        "mustSupport": true,
        "mapping": [
          {
            "identity": "v2",
            "map": "RXA-3-Date/Time Start of Administration / RXA-4-Date/Time End of Administration"
          },
          {
            "identity": "rim",
            "map": "effectiveTime"
          }
        ]
      },
      {
        "path": "MedicationAdministration.medication[x]",
        "short": "What was administered?",
        "definition": "Identifies the medication that was administered. This is either a link to a resource representing the details of the medication or a simple attribute carrying a code that identifies the medication from a known list of medications.",
        "comments": "If only a code is specified, then it needs to be a code for a specific product.  If more information is required, then the use of the medication resource is recommended.\r\rNote: do not use Medication.name to describe the administered medication. When the only available information is a text description of the medication, Medication.code.text should be used.",
        "min": 1,
        "max": "1",
        "type": [
          {
            "code": "CodeableConcept"
          },
          {
            "code": "Reference",
            "profile": [
              "http://hl7.org/fhir/StructureDefinition/medication-qicore-qicore-medication"
            ]
          }
        ],
        "mustSupport": true,
        "mapping": [
          {
            "identity": "v2",
            "map": "RXA-5-Administered Code"
          },
          {
            "identity": "rim",
            "map": "Consumeable->AdministerableMedication"
          }
        ]
      },
      {
        "path": "MedicationAdministration.device",
        "short": "Device used to administer",
        "definition": "The device used in administering the medication to the patient.  E.g. a particular infusion pump.",
        "min": 0,
        "max": "*",
        "type": [
          {
            "code": "Reference",
            "profile": [
              "http://hl7.org/fhir/StructureDefinition/device-qicore-qicore-device"
            ]
          }
        ],
        "mapping": [
          {
            "identity": "v2",
            "map": "PRT-10-Participation Device"
          },
          {
            "identity": "rim",
            "map": "device->Access  OR device->AssignedDevice"
          }
        ]
      },
      {
        "path": "MedicationAdministration.note",
        "short": "Information about the administration",
        "definition": "Extra information about the medication administration that is not conveyed by the other attributes.",
        "min": 0,
        "max": "1",
        "type": [
          {
            "code": "string"
          }
        ]
      },
      {
        "path": "MedicationAdministration.dosage",
        "short": "Details of how medication was taken",
        "definition": "Indicates how the medication is/was used by the patient.",
        "min": 0,
        "max": "1",
        "type": [
          {
            "code": "BackboneElement"
          }
        ],
        "constraint": [
          {
            "key": "mad-1",
            "severity": "error",
            "human": "SHALL have at least one of dosage.quantity and dosage.rate",
            "xpath": "exists(f:quantity) or exists(f:rate)"
          }
        ],
        "mapping": [
          {
            "identity": "rim",
            "map": "component->SubstanceAdministrationEvent"
          }
        ]
      },
      {
        "path": "MedicationAdministration.dosage.id",
        "representation": [
          "xmlAttr"
        ],
        "short": "xml:id (or equivalent in JSON)",
        "definition": "unique id for the element within a resource (for internal references).",
        "min": 0,
        "max": "1",
        "type": [
          {
            "code": "id"
          }
        ],
        "mapping": [
          {
            "identity": "rim",
            "map": "n/a"
          }
        ]
      },
      {
        "path": "MedicationAdministration.dosage.extension",
        "short": "Additional Content defined by implementations",
        "definition": "May be used to represent additional information that is not part of the basic definition of the element. In order to make the use of extensions safe and manageable, there is a strict set of governance  applied to the definition and use of extensions. Though any implementer is allowed to define an extension, there is a set of requirements that SHALL be met as part of the definition of the extension.",
        "comments": "There can be no stigma associated with the use of extensions by any application, project, or standard - regardless of the institution or jurisdiction that uses or defines the extensions.  The use of extensions is what allows the FHIR specification to retain a core level of simplicity for everyone.",
        "alias": [
          "extensions",
          "user content"
        ],
        "min": 0,
        "max": "*",
        "type": [
          {
            "code": "Extension"
          }
        ],
        "mapping": [
          {
            "identity": "rim",
            "map": "n/a"
          }
        ]
      },
      {
        "path": "MedicationAdministration.dosage.modifierExtension",
        "short": "Extensions that cannot be ignored",
        "definition": "May be used to represent additional information that is not part of the basic definition of the element, and that modifies the understanding of the element that contains it. Usually modifier elements provide negation or qualification. In order to make the use of extensions safe and manageable, there is a strict set of governance applied to the definition and use of extensions. Though any implementer is allowed to define an extension, there is a set of requirements that SHALL be met as part of the definition of the extension. Applications processing a resource are required to check for modifier extensions.",
        "comments": "There can be no stigma associated with the use of extensions by any application, project, or standard - regardless of the institution or jurisdiction that uses or defines the extensions.  The use of extensions is what allows the FHIR specification to retain a core level of simplicity for everyone.",
        "alias": [
          "extensions",
          "user content",
          "modifiers"
        ],
        "min": 0,
        "max": "*",
        "type": [
          {
            "code": "Extension"
          }
        ],
        "isModifier": true,
        "mapping": [
          {
            "identity": "rim",
            "map": "N/A"
          }
        ]
      },
      {
        "path": "MedicationAdministration.dosage.text",
        "short": "Dosage Instructions",
        "definition": "Free text dosage instructions can be used for cases where the instructions are too complex to code. When coded instructions are present, the free text instructions may still be present for display to humans taking or administering the medication.",
        "min": 0,
        "max": "1",
        "type": [
          {
            "code": "string"
          }
        ]
      },
      {
        "path": "MedicationAdministration.dosage.site",
        "short": "Body site administered to",
        "definition": "A coded specification of the anatomic site where the medication first entered the body.  E.g. \"left arm\".",
        "min": 0,
        "max": "1",
        "type": [
          {
            "code": "CodeableConcept"
          }
        ],
        "binding": {
          "strength": "example",
          "description": "A coded concept describing the site location the medicine enters into or onto the body",
          "valueSetReference": {
            "reference": "http://hl7.org/fhir/ValueSet/approach-site-codes"
          }
        },
        "mapping": [
          {
            "identity": "v2",
            "map": "RXR-2-Administration Site"
          },
          {
            "identity": "rim",
            "map": "approachSiteCode"
          }
        ]
      },
      {
        "path": "MedicationAdministration.dosage.route",
        "short": "Path of substance into body",
        "definition": "A code specifying the route or physiological path of administration of a therapeutic agent into or onto the patient.   E.g. topical, intravenous, etc.",
        "min": 0,
        "max": "1",
        "type": [
          {
            "code": "CodeableConcept"
          }
        ],
        "mustSupport": true,
        "binding": {
          "strength": "example",
          "description": "A coded concept describing the route or physiological path of administration of a therapeutic agent into or onto the body of a subject",
          "valueSetReference": {
            "reference": "http://hl7.org/fhir/ValueSet/route-codes"
          }
        },
        "mapping": [
          {
            "identity": "v2",
            "map": "RXR-1-Route"
          },
          {
            "identity": "rim",
            "map": "routeCode"
          }
        ]
      },
      {
        "path": "MedicationAdministration.dosage.method",
        "short": "How drug was administered",
        "definition": "A coded value indicating the method by which the medication was introduced into or onto the body. Most commonly used for injections.  Examples:  Slow Push; Deep IV.\r\rTerminologies used often pre-coordinate this term with the route and or form of administration.",
        "min": 0,
        "max": "1",
        "type": [
          {
            "code": "CodeableConcept"
          }
        ],
        "binding": {
          "strength": "example",
          "description": "A coded concept describing the technique by which the medicine is administered",
          "valueSetReference": {
            "reference": "http://hl7.org/fhir/ValueSet/administration-method-codes"
          }
        },
        "mapping": [
          {
            "identity": "v2",
            "map": "RXR-4-Administration Method"
          },
          {
            "identity": "rim",
            "map": "methodCode"
          }
        ]
      },
      {
        "path": "MedicationAdministration.dosage.quantity",
        "short": "Amount administered in one dose",
        "definition": "The amount of the medication given at one administration event.   Use this value when the administration is essentially an instantaneous event such as a swallowing a tablet or giving an injection.",
        "comments": "If the administration is not instantaneous (rate is present or timing has a duration), this can be specified to convey the total amount administered over period of time of a single administration (as indicated by schedule).",
        "min": 0,
        "max": "1",
        "type": [
          {
            "code": "Quantity"
          }
        ],
        "mustSupport": true,
        "mapping": [
          {
            "identity": "v2",
            "map": "RXA-6-Administered Amount / RXA-7.1-Administered Units.code / RXA-7.3-Administered Units.name of coding system (uri<->code system mapping required)"
          },
          {
            "identity": "rim",
            "map": "doseQuantity"
          }
        ]
      },
      {
        "path": "MedicationAdministration.dosage.rate",
        "short": "Dose quantity per unit of time",
        "definition": "Identifies the speed with which the medication was introduced into the patient. Typically the rate for an infusion e.g. 200ml in 2 hours.  May also be expressed as a rate per unit of time such as 100ml per hour - the duration is then not specified, or is specified in the quantity.",
        "comments": "If the rate changes over time, each change should be captured as a distinct \"dosage\" repetition.  This element should *not* be used to convey an average rate.",
        "min": 0,
        "max": "1",
        "type": [
          {
            "code": "Ratio"
          }
        ],
        "mapping": [
          {
            "identity": "v2",
            "map": "RXA-12-Administered Per (Time Unit)"
          },
          {
            "identity": "rim",
            "map": "rateQuantity"
          }
        ]
      }
    ]
  },
  "differential": {
    "element": [
      {
        "path": "MedicationAdministration",
        "name": "QICore-MedicationAdministration",
        "min": 1,
        "max": "1",
        "type": [
          {
            "code": "MedicationAdministration"
          }
        ]
      },
      {
        "path": "MedicationAdministration.status",
        "mustSupport": true
      },
      {
        "path": "MedicationAdministration.patient",
        "type": [
          {
            "code": "Reference",
            "profile": [
              "http://hl7.org/fhir/StructureDefinition/patient-qicore-qicore-patient"
            ]
          }
        ],
        "mustSupport": true
      },
      {
        "path": "MedicationAdministration.practitioner",
        "type": [
          {
            "code": "Reference",
            "profile": [
              "http://hl7.org/fhir/StructureDefinition/practitioner-qicore-qicore-practitioner"
            ]
          }
        ]
      },
      {
        "path": "MedicationAdministration.encounter",
        "type": [
          {
            "code": "Reference",
            "profile": [
              "http://hl7.org/fhir/StructureDefinition/encounter-qicore-qicore-encounter"
            ]
          }
        ],
        "mustSupport": true
      },
      {
        "path": "MedicationAdministration.prescription",
        "type": [
          {
            "code": "Reference",
            "profile": [
              "http://hl7.org/fhir/StructureDefinition/medicationprescription-qicore-qicore-medicationprescription"
            ]
          }
        ]
      },
      {
        "path": "MedicationAdministration.wasNotGiven",
        "mustSupport": true
      },
      {
        "path": "MedicationAdministration.reasonNotGiven",
        "mustSupport": true
      },
      {
        "path": "MedicationAdministration.reasonGiven",
        "mustSupport": true
      },
      {
        "path": "MedicationAdministration.effectiveTime[x]",
        "mustSupport": true
      },
      {
        "path": "MedicationAdministration.medication[x]",
        "type": [
          {
            "code": "CodeableConcept"
          },
          {
            "code": "Reference",
            "profile": [
              "http://hl7.org/fhir/StructureDefinition/medication-qicore-qicore-medication"
            ]
          }
        ],
        "mustSupport": true
      },
      {
        "path": "MedicationAdministration.device",
        "type": [
          {
            "code": "Reference",
            "profile": [
              "http://hl7.org/fhir/StructureDefinition/device-qicore-qicore-device"
            ]
          }
        ]
      },
      {
        "path": "MedicationAdministration.dosage"
      },
      {
        "path": "MedicationAdministration.dosage.route",
        "mustSupport": true
      },
      {
        "path": "MedicationAdministration.dosage.quantity",
        "mustSupport": true
      }
    ]
  }
}