{
  "resourceType": "MedicationDispense",
  "id": "meddisp001",
  "text": {
    "status": "generated",
    "div": "<div><p><b>Generated Narrative with Details</b></p><p><b>id</b>: meddisp001</p><p><b>status</b>: completed</p><p><b>patient</b>: <a>Generated Summary: MR = 12345 (USUAL); Peter James Chalmers (OFFICIAL), Jim ; -unknown-(HOME), ph: (03) 5555 6473(WORK); MALE; birthDate: Dec 25, 1974; active</a></p><p><b>dispenser</b>: <a>Generated Summary: 23; Adam Careful </a></p><p><b>authorizingPrescription</b>: <a>MedicationPrescription/medicationprescriptionexample2</a></p><p><b>type</b>: First Fill - Part Fill <span>(Details : {http:hl7.org/fhir code 'FFP' = 'FFP', given as 'First Fill - Part Fill'})</span></p><p><b>quantity</b>: 90 Tablet<span> (Details: http://unitsofmeasure.org code tbl = 'tbl')</span></p><p><b>daysSupply</b>: 90 Day<span> (Details: http://unitsofmeasure.org code D = 'D')</span></p><p><b>medication</b>: <a>prescribed medication</a></p><p><b>whenPrepared</b>: Mar 1, 2015 4:20:00 PM</p><p><b>whenHandedOver</b>: Mar 1, 2015 5:15:00 PM</p><h3>DosageInstructions</h3><table><tr><td>-</td><td><b>AdditionalInstructions</b></td><td><b>Schedule[x]</b></td><td><b>Site</b></td><td><b>Route</b></td><td><b>Dose[x]</b></td></tr><tr><td>*</td><td>With or after food <span>(Details : {SNOMED CT code '311504000' = 'With or after food (qualifier value)', given as 'With or after food'})</span></td><td>Do Once per 1 days</td><td>Entire oral cavity <span>(Details : {SNOMED CT code '181220002' = 'Mouth', given as 'Entire oral cavity'})</span></td><td>Oral Route <span>(Details : {SNOMED CT code '26643006' = 'Oral route (qualifier value)', given as 'Oral Route'})</span></td><td>1 tbl<span> (Details: http://unitsofmeasure.org code tbl = 'tbl')</span></td></tr></table></div>"
  },
  "status": "completed",
  "patient": {
    "reference": "Patient/example"
  },
  "dispenser": {
    "reference": "Practitioner/example"
  },
  "authorizingPrescription": [
    {
      "reference": "MedicationPrescription/medicationprescriptionexample2"
    }
  ],
  "type": {
    "coding": [
      {
        "system": "http:hl7.org/fhir",
        "code": "FFP",
        "display": "First Fill - Part Fill"
      }
    ]
  },
  "quantity": {
    "value": 90,
    "units": "Tablet",
    "system": "http://unitsofmeasure.org",
    "code": "tbl"
  },
  "daysSupply": {
    "value": 90,
    "units": "Day",
    "system": "http://unitsofmeasure.org",
    "code": "D"
  },
  "medicationReference": {
    "reference": "Medication/MedicationExample5",
    "display": "prescribed medication"
  },
  "whenPrepared": "2015-03-01T16:20:00Z",
  "whenHandedOver": "2015-03-01T17:15:00Z",
  "dosageInstruction": [
    {
      "additionalInstructions": {
        "coding": [
          {
            "system": "http://snomed.info/sct",
            "code": "311504000",
            "display": "With or after food"
          }
        ]
      },
      "scheduleTiming": {
        "repeat": {
          "frequency": 1,
          "period": 1,
          "periodUnits": "d"
        }
      },
      "site": {
        "coding": [
          {
            "system": "http://snomed.info/sct",
            "code": "181220002",
            "display": "Entire oral cavity"
          }
        ]
      },
      "route": {
        "coding": [
          {
            "system": "http://snomed.info/sct",
            "code": "26643006",
            "display": "Oral Route"
          }
        ]
      },
      "doseQuantity": {
        "value": 1,
        "units": "tbl",
        "system": "http://unitsofmeasure.org",
        "code": "tbl"
      }
    }
  ]
}