<?xml version="1.0" encoding="UTF-8"?><svg xmlns="http://www.w3.org/2000/svg" xmlns:xlink="http://www.w3.org/1999/xlink" version="1.1" width="1000.0" height="335.0">  <defs>
    <filter id="shadow1" x="0" y="0" width="200%" height="200%">
      <feOffset result="offOut" in="SourceGraphic" dx="3" dy="3" />
      <feColorMatrix result="matrixOut" in="offOut" type="matrix" values="0.2 0 0 0 0 0 0.2 0 0 0 0 0 0.2 0 0 0 0 0 1 0" />
      <feGaussianBlur result="blurOut" in="matrixOut" stdDeviation="2" />
      <feBlend in="SourceGraphic" in2="blurOut" mode="normal" />
    </filter>
  </defs><rect x="0.0" y="0.0" rx="4" ry="4" width="264.0" height="232.0" filter="url(#shadow1)" style="fill:#f0f8ff;stroke:black;stroke-width:1"/><line x1="0.0" y1="28.0" x2="264.0" y2="28.0" style="stroke:dimgrey;stroke-width:1"/><text x="132.0" y="20.0" fill="black" class="diagram-class-title  diagram-class-resource">MedicationDispense<tspan class="diagram-class-title-link"> (<a xlink:href="domainresource.html" class="diagram-class-reference">DomainResource</a>)</tspan></text><text x="6.0" y="42.0" fill="black" class="diagram-class-detail"><a xlink:href="medicationdispense-definitions.html#MedicationDispense.identifier"><title>Identifier assigned by the dispensing facility - this is an identifier assigned outside FHIR</title>identifier</a> : <a xlink:href="datatypes.html#Identifier">Identifier</a> 0..1</text><text x="6.0" y="56.0" fill="black" class="diagram-class-detail"><a xlink:href="medicationdispense-definitions.html#MedicationDispense.status"><title>A code specifying the state of the set of dispense events (this element modifies the meaning of other elements)</title>status</a> : <a xlink:href="datatypes.html#code">code</a> 0..1 « <a xlink:href="valueset-medication-dispense-status.html"><title>A code specifying the state of the dispense event.</title>MedicationDispenseStatus</a> »</text><text x="6.0" y="70.0" fill="black" class="diagram-class-detail"><a xlink:href="medicationdispense-definitions.html#MedicationDispense.patient"><title>A link to a resource representing the person to whom the medication will be given</title>patient</a> : <a xlink:href="references.html#Reference">Reference</a>(<a xlink:href="patient.html#Patient">Patient</a>) 0..1</text><text x="6.0" y="84.0" fill="black" class="diagram-class-detail"><a xlink:href="medicationdispense-definitions.html#MedicationDispense.dispenser"><title>The individual responsible for dispensing the medication</title>dispenser</a> : <a xlink:href="references.html#Reference">Reference</a>(<a xlink:href="practitioner.html#Practitioner">Practitioner</a>) 0..1</text><text x="6.0" y="98.0" fill="black" class="diagram-class-detail"><a xlink:href="medicationdispense-definitions.html#MedicationDispense.authorizingPrescription"><title>Indicates the medication order that is being dispensed against</title>authorizingPrescription</a> : <a xlink:href="references.html#Reference">Reference</a>(<a xlink:href="medicationprescription.html#MedicationPrescription">MedicationPrescription</a>) 0..*</text><text x="6.0" y="112.0" fill="black" class="diagram-class-detail"><a xlink:href="medicationdispense-definitions.html#MedicationDispense.type"><title>Indicates the type of dispensing event that is performed. Examples include: Trial Fill, Completion of Trial, Partial Fill, Emergency Fill, Samples, etc</title>type</a> : <a xlink:href="datatypes.html#CodeableConcept">CodeableConcept</a> 0..1 « (<a xlink:href="v3/vs/ActPharmacySupplyType/index.html"><title>Indicates the type of dispensing event that is performed. Examples include: Trial Fill, Completion of Trial, Partial Fill, Emergency Fill, Samples, etc.</title>ActPharmacySupplyType</a>) »</text><text x="6.0" y="126.0" fill="black" class="diagram-class-detail"><a xlink:href="medicationdispense-definitions.html#MedicationDispense.quantity"><title>The amount of medication that has been dispensed. Includes unit of measure</title>quantity</a> : <a xlink:href="datatypes.html#Quantity">Quantity</a> 0..1</text><text x="6.0" y="140.0" fill="black" class="diagram-class-detail"><a xlink:href="medicationdispense-definitions.html#MedicationDispense.daysSupply"><title>The amount of medication expressed as a timing amount</title>daysSupply</a> : <a xlink:href="datatypes.html#Quantity">Quantity</a> 0..1</text><text x="6.0" y="154.0" fill="black" class="diagram-class-detail"><a xlink:href="medicationdispense-definitions.html#MedicationDispense.medication_x_"><title>Identifies the medication being administered. This is either a link to a resource representing the details of the medication or a simple attribute carrying a code that identifies the medication from a known list of medications</title>medication[x]</a> : <a xlink:href="datatypes.html#CodeableConcept">CodeableConcept</a>|<a xlink:href="references.html#Reference">Reference</a>(<a xlink:href="medication.html#Medication">Medication</a>) 1..1</text><text x="6.0" y="168.0" fill="black" class="diagram-class-detail"><a xlink:href="medicationdispense-definitions.html#MedicationDispense.whenPrepared"><title>The time when the dispensed product was packaged and reviewed</title>whenPrepared</a> : <a xlink:href="datatypes.html#dateTime">dateTime</a> 0..1</text><text x="6.0" y="182.0" fill="black" class="diagram-class-detail"><a xlink:href="medicationdispense-definitions.html#MedicationDispense.whenHandedOver"><title>The time the dispensed product was provided to the patient or their representative</title>whenHandedOver</a> : <a xlink:href="datatypes.html#dateTime">dateTime</a> 0..1</text><text x="6.0" y="196.0" fill="black" class="diagram-class-detail"><a xlink:href="medicationdispense-definitions.html#MedicationDispense.destination"><title>Identification of the facility/location where the medication was shipped to, as part of the dispense event</title>destination</a> : <a xlink:href="references.html#Reference">Reference</a>(<a xlink:href="location.html#Location">Location</a>) 0..1</text><text x="6.0" y="210.0" fill="black" class="diagram-class-detail"><a xlink:href="medicationdispense-definitions.html#MedicationDispense.receiver"><title>Identifies the person who picked up the medication.  This will usually be a patient or their carer, but some cases exist where it can be a healthcare professional</title>receiver</a> : <a xlink:href="references.html#Reference">Reference</a>(<a xlink:href="patient.html#Patient">Patient</a>|<a xlink:href="practitioner.html#Practitioner">Practitioner</a>) 0..*</text><text x="6.0" y="224.0" fill="black" class="diagram-class-detail"><a xlink:href="medicationdispense-definitions.html#MedicationDispense.note"><title>Extra information about the dispense that could not be conveyed in the other attributes</title>note</a> : <a xlink:href="datatypes.html#string">string</a> 0..1</text><rect x="384.0" y="28.0" rx="4" ry="4" width="416.0" height="176.0" filter="url(#shadow1)" style="fill:#f0f8ff;stroke:black;stroke-width:1"/><line x1="384.0" y1="56.0" x2="800.0" y2="56.0" style="stroke:dimgrey;stroke-width:1"/><text x="592.0" y="48.0" fill="black" class="diagram-class-title">DosageInstruction</text><text x="390.0" y="70.0" fill="black" class="diagram-class-detail"><a xlink:href="medicationdispense-definitions.html#MedicationDispense.dosageInstruction.text"><title>Free text dosage instructions can be used for cases where the instructions are too complex to code. When coded instructions are present, the free text instructions may still be present for display to humans taking or administering the medication</title>text</a> : <a xlink:href="datatypes.html#string">string</a> 0..1</text><text x="390.0" y="84.0" fill="black" class="diagram-class-detail"><a xlink:href="medicationdispense-definitions.html#MedicationDispense.dosageInstruction.additionalInstructions"><title>Additional instructions such as &quot;Swallow with plenty of water&quot; which may or may not be coded</title>additionalInstructions</a> : <a xlink:href="datatypes.html#CodeableConcept">CodeableConcept</a> 0..1</text><text x="390.0" y="98.0" fill="black" class="diagram-class-detail"><a xlink:href="medicationdispense-definitions.html#MedicationDispense.dosageInstruction.schedule_x_"><title>The timing schedule for giving the medication to the patient.  The Schedule data type allows many different expressions, for example.  &quot;Every  8 hours&quot;; &quot;Three times a day&quot;; &quot;1/2 an hour before breakfast for 10 days from 23-Dec 2011:&quot;;  &quot;15 Oct 2013, 17 Oct 2013 and 1 Nov 2013&quot;</title>schedule[x]</a> : <a xlink:href="datatypes.html#dateTime">dateTime</a>|<a xlink:href="datatypes.html#Period">Period</a>|<a xlink:href="datatypes.html#Timing">Timing</a> 0..1</text><text x="390.0" y="112.0" fill="black" class="diagram-class-detail"><a xlink:href="medicationdispense-definitions.html#MedicationDispense.dosageInstruction.asNeeded_x_"><title>If set to true or if specified as a CodeableConcept, indicates that the medication is only taken when needed within the specified schedule rather than at every scheduled dose.  If a CodeableConcept is present, it indicates the pre-condition for taking the Medication</title>asNeeded[x]</a> : <a xlink:href="datatypes.html#boolean">boolean</a>|<a xlink:href="datatypes.html#CodeableConcept">CodeableConcept</a> 0..1</text><text x="390.0" y="126.0" fill="black" class="diagram-class-detail"><a xlink:href="medicationdispense-definitions.html#MedicationDispense.dosageInstruction.site"><title>A coded specification of the anatomic site where the medication first enters the body</title>site</a> : <a xlink:href="datatypes.html#CodeableConcept">CodeableConcept</a> 0..1 « (<a xlink:href="valueset-approach-site-codes.html"><title>A coded concept describing the site location the medicine enters into or onto the body</title>SNOMED CT Anatomical Structure for Administration Site Codes</a>) »</text><text x="390.0" y="140.0" fill="black" class="diagram-class-detail"><a xlink:href="medicationdispense-definitions.html#MedicationDispense.dosageInstruction.route"><title>A code specifying the route or physiological path of administration of a therapeutic agent into or onto a subject</title>route</a> : <a xlink:href="datatypes.html#CodeableConcept">CodeableConcept</a> 0..1 « (<a xlink:href="valueset-route-codes.html"><title>A coded concept describing the route or physiological path of administration of a therapeutic agent into or onto the body of a subject</title>SNOMED CT Route Codes</a>) »</text><text x="390.0" y="154.0" fill="black" class="diagram-class-detail"><a xlink:href="medicationdispense-definitions.html#MedicationDispense.dosageInstruction.method"><title>A coded value indicating the method by which the medication is introduced into or onto the body. Most commonly used for injections.  Examples:  Slow Push; Deep IV.Terminologies used often pre-coordinate this term with the route and or form of administration</title>method</a> : <a xlink:href="datatypes.html#CodeableConcept">CodeableConcept</a> 0..1 « (<a xlink:href="valueset-administration-method-codes.html"><title>A coded concept describing the technique by which the medicine is administered</title>SNOMED CT Introduction (procedure) for Administration Method Codes</a>) »</text><text x="390.0" y="168.0" fill="black" class="diagram-class-detail"><a xlink:href="medicationdispense-definitions.html#MedicationDispense.dosageInstruction.dose_x_"><title>The amount of therapeutic or other substance given at one administration event</title>dose[x]</a> : <a xlink:href="datatypes.html#Range">Range</a>|<a xlink:href="datatypes.html#Quantity">Quantity</a> 0..1</text><text x="390.0" y="182.0" fill="black" class="diagram-class-detail"><a xlink:href="medicationdispense-definitions.html#MedicationDispense.dosageInstruction.rate"><title>Identifies the speed with which the substance is introduced into the subject. Typically the rate for an infusion. 200ml in 2 hours</title>rate</a> : <a xlink:href="datatypes.html#Ratio">Ratio</a> 0..1</text><text x="390.0" y="196.0" fill="black" class="diagram-class-detail"><a xlink:href="medicationdispense-definitions.html#MedicationDispense.dosageInstruction.maxDosePerPeriod"><title>The maximum total quantity of a therapeutic substance that may be administered to a subject over the period of time,  e.g. 1000mg in 24 hours</title>maxDosePerPeriod</a> : <a xlink:href="datatypes.html#Ratio">Ratio</a> 0..1</text><rect x="384.0" y="237.0" rx="4" ry="4" width="280.0" height="78.0" filter="url(#shadow1)" style="fill:#f0f8ff;stroke:black;stroke-width:1"/><line x1="384.0" y1="265.0" x2="664.0" y2="265.0" style="stroke:dimgrey;stroke-width:1"/><text x="524.0" y="257.0" fill="black" class="diagram-class-title">Substitution</text><text x="390.0" y="279.0" fill="black" class="diagram-class-detail"><a xlink:href="medicationdispense-definitions.html#MedicationDispense.substitution.type"><title>A code signifying whether a different drug was dispensed from what was prescribed</title>type</a> : <a xlink:href="datatypes.html#CodeableConcept">CodeableConcept</a> 1..1 « (<a xlink:href="v3/vs/ActSubstanceAdminSubstitutionCode/index.html"><title>A coded concept describing whether a different medicinal product may be dispensed other than the product as specified exactly in the prescription</title>ActSubstanceAdminSubstitutionCode</a>) »</text><text x="390.0" y="293.0" fill="black" class="diagram-class-detail"><a xlink:href="medicationdispense-definitions.html#MedicationDispense.substitution.reason"><title>Indicates the reason for the substitution of (or lack of substitution) from what was prescribed</title>reason</a> : <a xlink:href="datatypes.html#CodeableConcept">CodeableConcept</a> 0..* « (<a xlink:href="v3/vs/SubstanceAdminSubstitutionReason/index.html"><title>A coded concept describing the reason that a different medication should (or should not) be substituted from what was prescribed</title>SubstanceAdminSubstitutionReason</a>) »</text><text x="390.0" y="307.0" fill="black" class="diagram-class-detail"><a xlink:href="medicationdispense-definitions.html#MedicationDispense.substitution.responsibleParty"><title>The person or organization that has primary responsibility for the substitution</title>responsibleParty</a> : <a xlink:href="references.html#Reference">Reference</a>(<a xlink:href="practitioner.html#Practitioner">Practitioner</a>) 0..*</text><line x1="264.0" y1="116.0" x2="384.0" y2="116.0" style="stroke:navy;stroke-width:1"/><polygon points="264.0,116.0 270.0,120.0 276.0,116.0 270.0,112.0 264.0,116.0" style="fill:navy;stroke:navy;stroke-width:1" transform="rotate(0.0 264.0 116.0)"/><rect x="290.0" y="109.0" width="68.0" height="18.0" style="fill:white;stroke:black;stroke-width:0"/><text x="324.0" y="119.0" fill="black" class="diagram-class-linkage"><a xlink:href="medicationdispense-definitions.html#MedicationDispense.dosageInstruction"><title>Indicates how the medication is to be used by the patient</title>dosageInstruction</a></text><text x="364.0" y="112.0" fill="black" class="diagram-class-linkage">0..*</text><line x1="264.0" y1="169.87755102040816" x2="428.45" y2="237.0" style="stroke:navy;stroke-width:1"/><polygon points="264.0,169.87755102040816 270.0,173.87755102040816 276.0,169.87755102040816 270.0,165.87755102040816 264.0,169.87755102040816" style="fill:navy;stroke:navy;stroke-width:1" transform="rotate(22.203478532057396 264.0 169.87755102040816)"/><rect x="322.0" y="196.0" width="48.0" height="18.0" style="fill:white;stroke:black;stroke-width:0"/><text x="346.0" y="206.0" fill="black" class="diagram-class-linkage"><a xlink:href="medicationdispense-definitions.html#MedicationDispense.substitution"><title>Indicates whether or not substitution was made as part of the dispense.  In some cases substitution will be expected but doesn&#39;t happen, in other cases substitution is not expected but does happen.  This block explains what substitition did or did not happen and why</title>substitution</a></text><text x="428.45" y="233.0" fill="black" class="diagram-class-linkage">0..1</text></svg>