{
  "resourceType": "MedicationPrescription",
  "id": "medrx004",
  "text": {
    "status": "generated",
    "div": "<div><p><b>Generated Narrative with Details</b></p><p><b>id</b>: medrx004</p><p><b>identifier</b>: 12345 (OFFICIAL)</p><p><b>dateWritten</b>: Jan 15, 2015</p><p><b>status</b>: active</p><p><b>patient</b>: <a>Eve Everywoman. Generated Summary: 738472983 (USUAL), ?? (USUAL); Pieter van de Heuvel ; ph: 0648352638(MOBILE), p.heuvel@gmail.com(HOME); MALE; birthDate: Nov 17, 1944; <span>Getrouwd</span>; multipleBirth; active</a></p><p><b>prescriber</b>: <a>Patrick Pump. Generated Summary: 874635264 (OFFICIAL), 567IUI51C154 (USUAL); Simone Heps (OFFICIAL); ph: 020556936(WORK), S.M.Heps@bmc.nl(WORK), fax: 0205669283(WORK); FEMALE; birthDate: Nov 7, 1971</a></p><p><b>encounter</b>: <a>encounter who leads to this priscription. Generated Summary: v3251 (OFFICIAL); FINISHED; OUTPATIENT; <span>Patient-initiated encounter</span>; 140 min; <span>Partial lobectomy of lung</span>; <span>Urgent</span></a></p><p><b>reason</b>: Asthma <span>(Details : {SNOMED CT code '195967001' = 'Asthma (disorder)', given as 'Asthma'})</span></p><p><b>medication</b>: <a>prescribed medication</a></p><h3>DosageInstructions</h3><table><tr><td>-</td><td><b>Text</b></td><td><b>Scheduled[x]</b></td><td><b>AsNeeded[x]</b></td><td><b>Route</b></td><td><b>Dose[x]</b></td></tr><tr><td>*</td><td>Use 2 puffs twice daily as needed</td><td>Duration 3days, Do 2 per 1 days</td><td>true</td><td>Inhalation <span>(Details : {SNOMED CT code '422237004' = 'Inhalation - unit of product usage (qualifier value)', given as 'Inhalation'})</span></td><td>2 415215001<span> (Details: SNOMED CT code 415215001 = 'Puff - unit of product usage (qualifier value)')</span></td></tr></table></div>"
  },
  "identifier": [
    {
      "use": "official",
      "system": "http://www.bmc.nl/portal/prescriptions",
      "value": "12345"
    }
  ],
  "dateWritten": "2015-01-15",
  "status": "active",
  "patient": {
    "reference": "Patient/f001",
    "display": "Eve Everywoman"
  },
  "prescriber": {
    "reference": "Practitioner/f007",
    "display": "Patrick Pump"
  },
  "encounter": {
    "reference": "Encounter/f002",
    "display": "encounter who leads to this priscription"
  },
  "reasonCodeableConcept": {
    "coding": [
      {
        "system": "http://snomed.info/sct",
        "code": "195967001",
        "display": "Asthma"
      }
    ]
  },
  "medicationReference": {
    "reference": "Medication/MedicationExample12",
    "display": "prescribed medication"
  },
  "dosageInstruction": [
    {
      "text": "Use 2 puffs twice daily as needed",
      "scheduledTiming": {
        "repeat": {
          "duration": 3,
          "durationUnits": "d",
          "frequency": 2,
          "period": 1,
          "periodUnits": "d"
        }
      },
      "asNeededBoolean": true,
      "route": {
        "coding": [
          {
            "system": "http://snomed.info/sct",
            "code": "422237004",
            "display": "Inhalation"
          }
        ]
      },
      "doseQuantity": {
        "value": 2,
        "system": "http://snomed.info/sct",
        "code": "415215001"
      }
    }
  ]
}