{
  "resourceType": "NutritionOrder",
  "id": "enteralbolus",
  "text": {
    "status": "generated",
    "div": "<div><p><b>Generated Narrative with Details</b></p><p><b>id</b>: enteralbolus</p><p><b>patient</b>: <a>Peter Chalmers. Generated Summary: MR = 12345 (USUAL); Peter James Chalmers (OFFICIAL), Jim ; -unknown-(HOME), ph: (03) 5555 6473(WORK); MALE; birthDate: Dec 25, 1974; active</a></p><p><b>orderer</b>: <a>Dr Adam Careful. Generated Summary: 23; Adam Careful </a></p><p><b>identifier</b>: 123</p><p><b>encounter</b>: <a>Inpatient. Generated Summary: INPROGRESS; INPATIENT</a></p><p><b>dateTime</b>: Sep 17, 2014</p><p><b>status</b>: active</p><p><b>allergyIntolerance</b>: <a>Cashew Nuts. Generated Summary: 49476534; recordedDate: Oct 9, 2014 2:58:00 PM; ????; <span>Cashew nuts</span>; CONFIRMED; HIGH; IMMUNE; FOOD; lastOccurence: Jun 1, 2012</a></p><p><b>foodPreferenceModifier</b>: dairy-free <span>(Details : {http://hl7.org/fhir/diet code 'dairy-free' = 'dairy-free)</span></p><p><b>excludeFoodModifier</b>: Cashew Nut <span>(Details : {SNOMED CT code '227493005' = 'Cashew nut (substance)', given as 'Cashew Nut'})</span></p><blockquote><p><b>enteralFormula</b></p><p><b>baseFormulaType</b>: Adult high protein formula <span>(Details : {http://usextension/snomed.info/sct code '659311000124118' = '659311000124118', given as 'Adult high protein formula'})</span></p><p><b>baseFormulaProductName</b>: Acme High Protein Formula</p><p><b>additiveType</b>: Modular lipid enteral formula component <span>(Details : {http://hl7.org/fhir/entformula-additive code 'lipid' = 'Modular lipid enteral formula component', given as 'Modular lipid enteral formula component'})</span></p><p><b>additiveProductName</b>: Acme Lipid Additive</p><p><b>caloricDensity</b>: 1.5 calories per milliliter<span> (Details: http://unitsofmeasure.org code cal/mL = 'cal/mL')</span></p><p><b>routeofAdministration</b>: Instillation, gastrostomy tube <span>(Details : {http://hl7.org/fhir/v3/RouteOfAdministration code 'GT' = 'Instillation, gastrostomy tube', given as 'Instillation, gastrostomy tube'})</span></p><h3>Administrations</h3><table><tr><td>-</td><td><b>Schedule</b></td><td><b>Quantity</b></td></tr><tr><td>*</td><td>Starting Sep 17, 2014 4:00:00 PM, Do Once per 4 hours</td><td>240 milliliters<span> (Details: http://unitsofmeasure.org code mL = 'mL')</span></td></tr></table><p><b>maxVolumeToDeliver</b>: 1440 milliliter/day<span> (Details: http://unitsofmeasure.org code mL/d = 'mL/d')</span></p><p><b>administrationInstruction</b>: 240 mls every 4hrs </p></blockquote></div>"
  },
  "patient": {
    "reference": "Patient/example",
    "display": "Peter Chalmers"
  },
  "orderer": {
    "reference": "Practitioner/example",
    "display": "Dr Adam Careful"
  },
  "identifier": [
    {
      "system": "http://www.acme.org/nutritionorders",
      "value": "123"
    }
  ],
  "encounter": {
    "reference": "Encounter/example",
    "display": "Inpatient"
  },
  "dateTime": "2014-09-17",
  "status": "active",
  "allergyIntolerance": [
    {
      "reference": "AllergyIntolerance/example",
      "display": "Cashew Nuts"
    }
  ],
  "foodPreferenceModifier": [
    {
      "coding": [
        {
          "system": "http://hl7.org/fhir/diet",
          "code": "dairy-free"
        }
      ]
    }
  ],
  "excludeFoodModifier": [
    {
      "coding": [
        {
          "system": "http://snomed.info/sct",
          "version": "20140730",
          "code": "227493005",
          "display": "Cashew Nut"
        }
      ]
    }
  ],
  "enteralFormula": {
    "baseFormulaType": {
      "coding": [
        {
          "system": "http://usextension/snomed.info/sct",
          "code": "659311000124118",
          "display": "Adult high protein formula"
        }
      ]
    },
    "baseFormulaProductName": "Acme High Protein Formula",
    "additiveType": {
      "coding": [
        {
          "system": "http://hl7.org/fhir/entformula-additive",
          "code": "lipid",
          "display": "Modular lipid enteral formula component"
        }
      ]
    },
    "additiveProductName": "Acme Lipid Additive",
    "caloricDensity": {
      "value": 1.5,
      "units": "calories per milliliter",
      "system": "http://unitsofmeasure.org",
      "code": "cal/mL"
    },
    "routeofAdministration": {
      "coding": [
        {
          "system": "http://hl7.org/fhir/v3/RouteOfAdministration",
          "code": "GT",
          "display": "Instillation, gastrostomy tube"
        }
      ]
    },
    "administration": [
      {
        "schedule": {
          "repeat": {
            "boundsPeriod": {
              "start": "2014-09-17T16:00:00Z"
            },
            "frequency": 1,
            "period": 4,
            "periodUnits": "h"
          }
        },
        "quantity": {
          "value": 240,
          "units": "milliliters",
          "system": "http://unitsofmeasure.org",
          "code": "mL"
        }
      }
    ],
    "maxVolumeToDeliver": {
      "value": 1440,
      "units": "milliliter/day",
      "system": "http://unitsofmeasure.org",
      "code": "mL/d"
    },
    "administrationInstruction": "240 mls every 4hrs "
  }
}