{
  "resourceType": "NutritionOrder",
  "id": "fiberrestricteddiet",
  "text": {
    "status": "generated",
    "div": "<div><p><b>Generated Narrative with Details</b></p><p><b>id</b>: fiberrestricteddiet</p><p><b>patient</b>: <a>Peter Chalmers. Generated Summary: MR = 12345 (USUAL); Peter James Chalmers (OFFICIAL), Jim ; -unknown-(HOME), ph: (03) 5555 6473(WORK); MALE; birthDate: Dec 25, 1974; active</a></p><p><b>orderer</b>: <a>Dr Adam Careful. Generated Summary: 23; Adam Careful </a></p><p><b>identifier</b>: 123</p><p><b>encounter</b>: <a>Inpatient. Generated Summary: INPROGRESS; INPATIENT</a></p><p><b>dateTime</b>: Sep 17, 2014</p><p><b>status</b>: active</p><p><b>allergyIntolerance</b>: <a>Cashew Nuts. Generated Summary: 49476534; recordedDate: Oct 9, 2014 2:58:00 PM; ????; <span>Cashew nuts</span>; CONFIRMED; HIGH; IMMUNE; FOOD; lastOccurence: Jun 1, 2012</a></p><p><b>foodPreferenceModifier</b>: dairy-free <span>(Details : {http://hl7.org/fhir/diet code 'dairy-free' = 'dairy-free)</span></p><p><b>excludeFoodModifier</b>: Cashew Nut <span>(Details : {SNOMED CT code '227493005' = 'Cashew nut (substance)', given as 'Cashew Nut'})</span></p><blockquote><p><b>oralDiet</b></p><p><b>type</b>: Fiber restricted diet <span>(Details : {SNOMED CT code '15108003' = 'Restricted fiber diet (finding)', given as 'Restricted fiber diet'}; {http://goodhealthhospital.org/diet-type-codes code '1000' = '1000', given as 'Fiber restricted'})</span>, Low fat diet <span>(Details : {SNOMED CT code '16208003' = 'Low fat diet (finding)', given as 'Low fat diet'}; {http://goodhealthhospital.org/diet-type-codes code '1100' = '1100', given as 'Low Fat'})</span></p><p><b>schedule</b>: Starting Feb 10, 2015, Do 3 per 1 days</p><h3>Nutrients</h3><table><tr><td>-</td><td><b>Modifier</b></td><td><b>Amount</b></td></tr><tr><td>*</td><td>Fat <span>(Details : {SNOMED CT code '256674009' = 'Fat (substance)', given as 'Fat'})</span></td><td>50 grams<span> (Details: http://unitsofmeasure.org code g = 'g')</span></td></tr></table></blockquote></div>"
  },
  "patient": {
    "reference": "Patient/example",
    "display": "Peter Chalmers"
  },
  "orderer": {
    "reference": "Practitioner/example",
    "display": "Dr Adam Careful"
  },
  "identifier": [
    {
      "system": "http://goodhealthhospital.org/nutrition-orders",
      "value": "123"
    }
  ],
  "encounter": {
    "reference": "Encounter/example",
    "display": "Inpatient"
  },
  "dateTime": "2014-09-17",
  "status": "active",
  "allergyIntolerance": [
    {
      "reference": "AllergyIntolerance/example",
      "display": "Cashew Nuts"
    }
  ],
  "foodPreferenceModifier": [
    {
      "coding": [
        {
          "system": "http://hl7.org/fhir/diet",
          "code": "dairy-free"
        }
      ]
    }
  ],
  "excludeFoodModifier": [
    {
      "coding": [
        {
          "system": "http://snomed.info/sct",
          "version": "20140730",
          "code": "227493005",
          "display": "Cashew Nut"
        }
      ]
    }
  ],
  "oralDiet": {
    "type": [
      {
        "coding": [
          {
            "system": "http://snomed.info/sct",
            "code": "15108003",
            "display": "Restricted fiber diet"
          },
          {
            "system": "http://goodhealthhospital.org/diet-type-codes",
            "code": "1000",
            "display": "Fiber restricted"
          }
        ],
        "text": "Fiber restricted diet"
      },
      {
        "coding": [
          {
            "system": "http://snomed.info/sct",
            "code": "16208003",
            "display": "Low fat diet"
          },
          {
            "system": "http://goodhealthhospital.org/diet-type-codes",
            "code": "1100",
            "display": "Low Fat"
          }
        ],
        "text": "Low fat diet"
      }
    ],
    "schedule": [
      {
        "repeat": {
          "boundsPeriod": {
            "start": "2015-02-10"
          },
          "frequency": 3,
          "period": 1,
          "periodUnits": "d"
        }
      }
    ],
    "nutrient": [
      {
        "modifier": {
          "coding": [
            {
              "system": "http://snomed.info/sct",
              "code": "256674009",
              "display": "Fat"
            }
          ]
        },
        "amount": {
          "value": 50,
          "units": "grams",
          "system": "http://unitsofmeasure.org",
          "code": "g"
        }
      }
    ]
  }
}