<?xml version="1.0" encoding="UTF-8"?><svg xmlns="http://www.w3.org/2000/svg" xmlns:xlink="http://www.w3.org/1999/xlink" version="1.1" width="644.0" height="172.0">  <defs>
    <filter id="shadow1" x="0" y="0" width="200%" height="200%">
      <feOffset result="offOut" in="SourceGraphic" dx="3" dy="3" />
      <feColorMatrix result="matrixOut" in="offOut" type="matrix" values="0.2 0 0 0 0 0 0.2 0 0 0 0 0 0.2 0 0 0 0 0 1 0" />
      <feGaussianBlur result="blurOut" in="matrixOut" stdDeviation="2" />
      <feBlend in="SourceGraphic" in2="blurOut" mode="normal" />
    </filter>
  </defs><rect x="0.0" y="0.0" rx="4" ry="4" width="208.0" height="162.0" filter="url(#shadow1)" style="fill:#f0f8ff;stroke:black;stroke-width:1"/><line x1="0.0" y1="28.0" x2="208.0" y2="28.0" style="stroke:dimgrey;stroke-width:1"/><text x="104.0" y="20.0" fill="black" class="diagram-class-title  diagram-class-resource">Order<tspan class="diagram-class-title-link"> (<a xlink:href="domainresource.html" class="diagram-class-reference">DomainResource</a>)</tspan></text><text x="6.0" y="42.0" fill="black" class="diagram-class-detail"><a xlink:href="order-definitions.html#Order.identifier"><title>Identifiers assigned to this order by the orderer or by the receiver</title>identifier</a> : <a xlink:href="datatypes.html#Identifier">Identifier</a> 0..*</text><text x="6.0" y="56.0" fill="black" class="diagram-class-detail"><a xlink:href="order-definitions.html#Order.date"><title>When the order was made</title>date</a> : <a xlink:href="datatypes.html#dateTime">dateTime</a> 0..1</text><text x="6.0" y="70.0" fill="black" class="diagram-class-detail"><a xlink:href="order-definitions.html#Order.subject"><title>Patient this order is about</title>subject</a> : <a xlink:href="references.html#Reference">Reference</a>(<a xlink:href="patient.html#Patient">Patient</a>|<a xlink:href="group.html#Group">Group</a>|<a xlink:href="device.html#Device">Device</a>|<a xlink:href="substance.html#Substance">Substance</a>) 0..1</text><text x="6.0" y="98.0" fill="black" class="diagram-class-detail"><a xlink:href="order-definitions.html#Order.source"><title>Who initiated the order</title>source</a> : <a xlink:href="references.html#Reference">Reference</a>(<a xlink:href="practitioner.html#Practitioner">Practitioner</a>|<a xlink:href="organization.html#Organization">Organization</a>) 0..1</text><text x="6.0" y="112.0" fill="black" class="diagram-class-detail"><a xlink:href="order-definitions.html#Order.target"><title>Who is intended to fulfill the order</title>target</a> : <a xlink:href="references.html#Reference">Reference</a>(<a xlink:href="organization.html#Organization">Organization</a>|<a xlink:href="device.html#Device">Device</a>|</text><text x="26.0" y="126.0" fill="black" class="diagram-class-detail">     <a xlink:href="practitioner.html#Practitioner">Practitioner</a>) 0..1</text><text x="6.0" y="140.0" fill="black" class="diagram-class-detail"><a xlink:href="order-definitions.html#Order.reason_x_"><title>Text - why the order was made</title>reason[x]</a> : <a xlink:href="datatypes.html#CodeableConcept">CodeableConcept</a>|<a xlink:href="references.html#Reference">Reference</a>(<a xlink:href="resourcelist.html#Any">Any</a>) 0..1</text><text x="6.0" y="154.0" fill="black" class="diagram-class-detail"><a xlink:href="order-definitions.html#Order.detail"><title>What action is being ordered</title>detail</a> : <a xlink:href="references.html#Reference">Reference</a>(<a xlink:href="resourcelist.html#Any">Any</a>) 1..*</text><rect x="328.0" y="49.0" rx="4" ry="4" width="116.0" height="64.0" filter="url(#shadow1)" style="fill:#f0f8ff;stroke:black;stroke-width:1"/><line x1="328.0" y1="77.0" x2="444.0" y2="77.0" style="stroke:dimgrey;stroke-width:1"/><text x="386.0" y="69.0" fill="black" class="diagram-class-title">When</text><text x="334.0" y="91.0" fill="black" class="diagram-class-detail"><a xlink:href="order-definitions.html#Order.when.code"><title>Code specifies when request should be done. The code may simply be a priority code</title>code</a> : <a xlink:href="datatypes.html#CodeableConcept">CodeableConcept</a> 0..1</text><text x="334.0" y="105.0" fill="black" class="diagram-class-detail"><a xlink:href="order-definitions.html#Order.when.schedule"><title>A formal schedule</title>schedule</a> : <a xlink:href="datatypes.html#Timing">Timing</a> 0..1</text><line x1="208.0" y1="81.0" x2="328.0" y2="81.0" style="stroke:navy;stroke-width:1"/><polygon points="208.0,81.0 214.0,85.0 220.0,81.0 214.0,77.0 208.0,81.0" style="fill:navy;stroke:navy;stroke-width:1" transform="rotate(0.0 208.0 81.0)"/><rect x="260.0" y="74.0" width="16.0" height="18.0" style="fill:white;stroke:black;stroke-width:0"/><text x="268.0" y="84.0" fill="black" class="diagram-class-linkage"><a xlink:href="order-definitions.html#Order.when"><title>When order should be fulfilled</title>when</a></text><text x="308.0" y="77.0" fill="black" class="diagram-class-linkage">0..1</text></svg>