{
  "resourceType": "SearchParameter",
  "id": "organization-extensions-Organization-alias",
  "url": "http://hl7.org/fhir/SearchParameter/organization-extensions-Organization-alias",
  "name": "alias",
  "type": "string",
  "description": "Include Organizations that contain the provided alias",
  "xpath": "f:Organization/f:extension{http://hl7/f:org/fhir/StructureDefinition/organization-alias}"
}