<?xml version="1.0" encoding="UTF-8"?><svg xmlns="http://www.w3.org/2000/svg" xmlns:xlink="http://www.w3.org/1999/xlink" version="1.1" width="464.0" height="98.0">  <defs>
    <filter id="shadow1" x="0" y="0" width="200%" height="200%">
      <feOffset result="offOut" in="SourceGraphic" dx="3" dy="3" />
      <feColorMatrix result="matrixOut" in="offOut" type="matrix" values="0.2 0 0 0 0 0 0.2 0 0 0 0 0 0.2 0 0 0 0 0 1 0" />
      <feGaussianBlur result="blurOut" in="matrixOut" stdDeviation="2" />
      <feBlend in="SourceGraphic" in2="blurOut" mode="normal" />
    </filter>
  </defs><rect x="0.0" y="0.0" rx="4" ry="4" width="116.0" height="36.0" filter="url(#shadow1)" style="fill:#f0f8ff;stroke:black;stroke-width:1"/><line x1="0.0" y1="28.0" x2="116.0" y2="28.0" style="stroke:dimgrey;stroke-width:1"/><text x="58.0" y="20.0" fill="black" class="diagram-class-title  diagram-class-resource">Parameters<tspan class="diagram-class-title-link"> (<a xlink:href="resource.html" class="diagram-class-reference">Resource</a>)</tspan></text><rect x="160.0" y="0.0" rx="4" ry="4" width="104.0" height="78.0" filter="url(#shadow1)" style="fill:#f0f8ff;stroke:black;stroke-width:1"/><line x1="160.0" y1="28.0" x2="264.0" y2="28.0" style="stroke:dimgrey;stroke-width:1"/><text x="212.0" y="20.0" fill="black" class="diagram-class-title">Parameter</text><text x="166.0" y="42.0" fill="black" class="diagram-class-detail"><a xlink:href="parameters-definitions.html#Parameters.parameter.name"><title>The name of the parameter (reference to the operation definition)</title>name</a> : <a xlink:href="datatypes.html#string">string</a> 1..1</text><text x="166.0" y="56.0" fill="black" class="diagram-class-detail"><a xlink:href="parameters-definitions.html#Parameters.parameter.value_x_"><title>If the parameter is a data type</title>value[x]</a> : <a xlink:href="datatypes.html#open">*</a> 0..1</text><text x="166.0" y="70.0" fill="black" class="diagram-class-detail"><a xlink:href="parameters-definitions.html#Parameters.parameter.resource"><title>If the parameter is a whole resource</title>resource</a> : <a xlink:href="resource.html#Resource">Resource</a> 0..1</text><line x1="264.0" y1="14.0" x2="324.0" y2="14.0" style="stroke:navy;stroke-width:1"/><line x1="324.0" y1="14.0" x2="324.0" y2="64.0" style="stroke:navy;stroke-width:1"/><line x1="324.0" y1="64.0" x2="264.0" y2="64.0" style="stroke:navy;stroke-width:1"/><polygon points="264.0,14.0 270.0,18.0 276.0,14.0 270.0,10.0 264.0,14.0" style="fill:navy;stroke:navy;stroke-width:1" transform="rotate(0.0 264.0 14.0)"/><rect x="316.0" y="32.0" width="16.0" height="18.0" style="fill:white;stroke:black;stroke-width:0"/><text x="324.0" y="42.0" fill="black" class="diagram-class-linkage"><a xlink:href="parameters-definitions.html#Parameters.parameter.part"><title>A named part of a parameter. In many implementation context, a set of named parts is known as a &quot;Tuple&quot;</title>part</a></text><text x="279.0" y="60.0" fill="black" class="diagram-class-linkage">0..*</text><line x1="116.0" y1="25.909090909090907" x2="160.0" y2="31.909090909090907" style="stroke:navy;stroke-width:1"/><polygon points="116.0,25.909090909090907 122.0,29.909090909090907 128.0,25.909090909090907 122.0,21.909090909090907 116.0,25.909090909090907" style="fill:navy;stroke:navy;stroke-width:1" transform="rotate(7.765166018425334 116.0 25.909090909090907)"/><rect x="120.0" y="21.0" width="36.0" height="18.0" style="fill:white;stroke:black;stroke-width:0"/><text x="138.0" y="31.0" fill="black" class="diagram-class-linkage"><a xlink:href="parameters-definitions.html#Parameters.parameter"><title>A parameter passed to or received from the operation</title>parameter</a></text><text x="140.0" y="27.909090909090907" fill="black" class="diagram-class-linkage">0..*</text></svg>