{
  "resourceType": "StructureDefinition",
  "id": "Period",
  "text": {
    "status": "generated",
    "div": "<div><table style=\"border: 0px; font-size: 11px; font-family: verdana; vertical-align: top;\" cellpadding=\"0\" border=\"0\" cellspacing=\"0\"><tr style=\"border: 1px #F0F0F0 solid; font-size: 11px; font-family: verdana; vertical-align: top;\"><th style=\"vertical-align: top; text-align : left; background-color: white; padding:0px 4px 0px 4px\" class=\"heirarchy\"><a title=\"The logical name of the element\" href=\"formats.html#table\">Name</a></th><th style=\"vertical-align: top; text-align : left; background-color: white; padding:0px 4px 0px 4px\" class=\"heirarchy\"><a title=\"Information about the use of the element\" href=\"formats.html#table\">Flags</a></th><th style=\"vertical-align: top; text-align : left; background-color: white; padding:0px 4px 0px 4px\" class=\"heirarchy\"><a title=\"Minimum and Maximum # of times the the element can appear in the instance\" href=\"formats.html#table\">Card.</a></th><th style=\"width: 100px\" class=\"heirarchy\"><a title=\"Reference to the type of the element\" href=\"formats.html#table\">Type</a></th><th style=\"vertical-align: top; text-align : left; background-color: white; padding:0px 4px 0px 4px\" class=\"heirarchy\"><a title=\"Additional information about the element\" href=\"formats.html#table\">Description &amp; Constraints</a><span style=\"float: right\"><a title=\"Legend for this format\" href=\"formats.html#table\"><img style=\"background-color: inherit\" alt=\"doco\" src=\"help16.png\"/></a></span></th></tr><tr style=\"border: 0px; padding:0px; vertical-align: top; background-color: white;\"><td style=\"vertical-align: top; text-align : left; background-color: white; padding:0px 4px 0px 4px; white-space: nowrap; background-image: url(data: image/png;base64,iVBORw0KGgoAAAANSUhEUgAAAyAAAAACCAYAAACg/LjIAAAAL0lEQVR42u3XsQ0AQAgCQHdl/xn8jxvYWB3JlTR0VJLa+OltBwAAYP6EEQAAgCsPVYVAgIJrA/sAAAAASUVORK5CYII=)\" class=\"heirarchy\"><img style=\"background-color: inherit\" alt=\".\" class=\"heirarchy\" src=\"data: image/png;base64,\"/><img title=\"Element\" style=\"background-color: white; background-color: inherit\" alt=\".\" class=\"heirarchy\" src=\"data: image/png;base64,\"/> <a title=\"Period : A time period defined by a start and end date and optionally time.\" href=\"datatypes-definitions.html#Period\">Period</a><a name=\"Period\"> </a></td><td style=\"vertical-align: top; text-align : left; background-color: white; padding:0px 4px 0px 4px\" class=\"heirarchy\"><span title=\"This element has or is affected by some invariants\">I</span></td><td style=\"vertical-align: top; text-align : left; background-color: white; padding:0px 4px 0px 4px\" class=\"heirarchy\"></td><td style=\"vertical-align: top; text-align : left; background-color: white; padding:0px 4px 0px 4px\" class=\"heirarchy\"><a href=\"element.html\">Element</a></td><td style=\"vertical-align: top; text-align : left; background-color: white; padding:0px 4px 0px 4px\" class=\"heirarchy\">Time range defined by start and end date/time<br/><span title=\"per-1\" style=\"font-style: italic\">If present, start SHALL have a lower value than end</span></td></tr>\r\n<tr style=\"border: 0px; padding:0px; vertical-align: top; background-color: white;\"><td style=\"vertical-align: top; text-align : left; background-color: white; padding:0px 4px 0px 4px; white-space: nowrap; background-image: url(data: image/png;base64,iVBORw0KGgoAAAANSUhEUgAAAyAAAAACCAYAAACg/LjIAAAAL0lEQVR42u3XsQ0AQAgCQHdl/xn8jxvYWB3JlTR0VJLa+OltBwAAYP6EEQAAgCsPVYVAgIJrA/sAAAAASUVORK5CYII=)\" class=\"heirarchy\"><img style=\"background-color: inherit\" alt=\".\" class=\"heirarchy\" src=\"data: image/png;base64,\"/><img style=\"background-color: inherit\" alt=\".\" class=\"heirarchy\" src=\"data: image/png;base64,\"/><img title=\"Primitive Data Type\" style=\"background-color: white; background-color: inherit\" alt=\".\" class=\"heirarchy\" src=\"data: image/png;base64,\"/> <a title=\"Period.start : The start of the period. The boundary is inclusive.\" href=\"datatypes-definitions.html#Period.start\">start</a><a name=\"Period.start\"> </a></td><td style=\"vertical-align: top; text-align : left; background-color: white; padding:0px 4px 0px 4px\" class=\"heirarchy\"><span title=\"This element has or is affected by some invariants\">I</span></td><td style=\"vertical-align: top; text-align : left; background-color: white; padding:0px 4px 0px 4px\" class=\"heirarchy\">0..1</td><td style=\"vertical-align: top; text-align : left; background-color: white; padding:0px 4px 0px 4px\" class=\"heirarchy\"><a href=\"datatypes.html#dateTime\">dateTime</a></td><td style=\"vertical-align: top; text-align : left; background-color: white; padding:0px 4px 0px 4px\" class=\"heirarchy\">Starting time with inclusive boundary</td></tr>\r\n<tr style=\"border: 0px; padding:0px; vertical-align: top; background-color: white;\"><td style=\"vertical-align: top; text-align : left; background-color: white; padding:0px 4px 0px 4px; white-space: nowrap; background-image: url(data: image/png;base64,iVBORw0KGgoAAAANSUhEUgAAAyAAAAACCAYAAACg/LjIAAAAI0lEQVR42u3QIQEAAAACIL/6/4MvTAQOkLYBAAB4kAAAANwMad9AqkRjgNAAAAAASUVORK5CYII=)\" class=\"heirarchy\"><img style=\"background-color: inherit\" alt=\".\" class=\"heirarchy\" src=\"data: image/png;base64,\"/><img style=\"background-color: inherit\" alt=\".\" class=\"heirarchy\" src=\"data: image/png;base64,\"/><img title=\"Primitive Data Type\" style=\"background-color: white; background-color: inherit\" alt=\".\" class=\"heirarchy\" src=\"data: image/png;base64,\"/> <a title=\"Period.end : The end of the period. If the end of the period is missing, it means that the period is ongoing.\" href=\"datatypes-definitions.html#Period.end\">end</a><a name=\"Period.end\"> </a></td><td style=\"vertical-align: top; text-align : left; background-color: white; padding:0px 4px 0px 4px\" class=\"heirarchy\"><span title=\"This element has or is affected by some invariants\">I</span></td><td style=\"vertical-align: top; text-align : left; background-color: white; padding:0px 4px 0px 4px\" class=\"heirarchy\">0..1</td><td style=\"vertical-align: top; text-align : left; background-color: white; padding:0px 4px 0px 4px\" class=\"heirarchy\"><a href=\"datatypes.html#dateTime\">dateTime</a></td><td style=\"vertical-align: top; text-align : left; background-color: white; padding:0px 4px 0px 4px\" class=\"heirarchy\">End time with inclusive boundary, if not ongoing</td></tr>\r\n</table></div>"
  },
  "url": "http://hl7.org/fhir/StructureDefinition/Period",
  "name": "Period",
  "publisher": "HL7 FHIR Standard",
  "contact": [
    {
      "telecom": [
        {
          "system": "url",
          "value": "http://hl7.org/fhir"
        }
      ]
    }
  ],
  "description": "Base StructureDefinition for Period Resource",
  "status": "draft",
  "date": "2015-07-14T16:14:24+00:00",
  "mapping": [
    {
      "identity": "v2",
      "uri": "http://hl7.org/v2",
      "name": "HL7 v2"
    },
    {
      "identity": "rim",
      "uri": "http://hl7.org/v3",
      "name": "RIM"
    }
  ],
  "kind": "datatype",
  "abstract": false,
  "base": "http://hl7.org/fhir/StructureDefinition/Element",
  "snapshot": {
    "element": [
      {
        "path": "Period",
        "short": "Time range defined by start and end date/time",
        "definition": "A time period defined by a start and end date and optionally time.",
        "comments": "This is not a duration - that's a measure of time (a separate type), but a duration that occurs at a fixed value of time. A Period specifies a range of time; the context of use will specify whether the entire range applies (e.g. \"the patient was an inpatient of the hospital for this time range\") or one value from the range applies (e.g. \"give to the patient between these two times\"). If a duration might be required, specify the type as Interval|Duration.",
        "min": 1,
        "max": "1",
        "type": [
          {
            "code": "Element"
          }
        ],
        "constraint": [
          {
            "key": "per-1",
            "severity": "error",
            "human": "If present, start SHALL have a lower value than end",
            "xpath": "not(exists(f:start)) or not(exists(f:end)) or (f:start/@value <= f:end/@value)"
          }
        ],
        "mapping": [
          {
            "identity": "v2",
            "map": "DR"
          },
          {
            "identity": "rim",
            "map": "IVL<TS>[lowClosed=\"true\" and highClosed=\"true\"] or URG<TS>[lowClosed=\"true\" and highClosed=\"true\"]"
          }
        ]
      },
      {
        "path": "Period.id",
        "representation": [
          "xmlAttr"
        ],
        "short": "xml:id (or equivalent in JSON)",
        "definition": "unique id for the element within a resource (for internal references).",
        "min": 0,
        "max": "1",
        "type": [
          {
            "code": "id"
          }
        ],
        "mapping": [
          {
            "identity": "rim",
            "map": "n/a"
          }
        ]
      },
      {
        "path": "Period.extension",
        "short": "Additional Content defined by implementations",
        "definition": "May be used to represent additional information that is not part of the basic definition of the element. In order to make the use of extensions safe and manageable, there is a strict set of governance  applied to the definition and use of extensions. Though any implementer is allowed to define an extension, there is a set of requirements that SHALL be met as part of the definition of the extension.",
        "comments": "There can be no stigma associated with the use of extensions by any application, project, or standard - regardless of the institution or jurisdiction that uses or defines the extensions.  The use of extensions is what allows the FHIR specification to retain a core level of simplicity for everyone.",
        "alias": [
          "extensions",
          "user content"
        ],
        "min": 0,
        "max": "*",
        "type": [
          {
            "code": "Extension"
          }
        ],
        "mapping": [
          {
            "identity": "rim",
            "map": "n/a"
          }
        ]
      },
      {
        "path": "Period.start",
        "short": "Starting time with inclusive boundary",
        "definition": "The start of the period. The boundary is inclusive.",
        "comments": "If the low element is missing, the meaning is that the low boundary is not known.",
        "min": 0,
        "max": "1",
        "type": [
          {
            "code": "dateTime"
          }
        ],
        "condition": [
          "per-1"
        ],
        "mapping": [
          {
            "identity": "v2",
            "map": "DR.1"
          },
          {
            "identity": "rim",
            "map": "./low"
          }
        ]
      },
      {
        "path": "Period.end",
        "short": "End time with inclusive boundary, if not ongoing",
        "definition": "The end of the period. If the end of the period is missing, it means that the period is ongoing.",
        "comments": "The high value includes any matching date/time. i.e. 2012-02-03T10:00:00 is in a period that has a end value of 2012-02-03.",
        "min": 0,
        "max": "1",
        "type": [
          {
            "code": "dateTime"
          }
        ],
        "meaningWhenMissing": "If the end of the period is missing, it means that the period is ongoing",
        "condition": [
          "per-1"
        ],
        "mapping": [
          {
            "identity": "v2",
            "map": "DR.2"
          },
          {
            "identity": "rim",
            "map": "./high"
          }
        ]
      }
    ]
  },
  "differential": {
    "element": [
      {
        "path": "Period",
        "short": "Time range defined by start and end date/time",
        "definition": "A time period defined by a start and end date and optionally time.",
        "comments": "This is not a duration - that's a measure of time (a separate type), but a duration that occurs at a fixed value of time. A Period specifies a range of time; the context of use will specify whether the entire range applies (e.g. \"the patient was an inpatient of the hospital for this time range\") or one value from the range applies (e.g. \"give to the patient between these two times\"). If a duration might be required, specify the type as Interval|Duration.",
        "min": 1,
        "max": "1",
        "type": [
          {
            "code": "Element"
          }
        ],
        "constraint": [
          {
            "key": "per-1",
            "severity": "error",
            "human": "If present, start SHALL have a lower value than end",
            "xpath": "not(exists(f:start)) or not(exists(f:end)) or (f:start/@value <= f:end/@value)"
          }
        ],
        "mapping": [
          {
            "identity": "v2",
            "map": "DR"
          },
          {
            "identity": "rim",
            "map": "IVL<TS>[lowClosed=\"true\" and highClosed=\"true\"] or URG<TS>[lowClosed=\"true\" and highClosed=\"true\"]"
          }
        ]
      },
      {
        "path": "Period.start",
        "short": "Starting time with inclusive boundary",
        "definition": "The start of the period. The boundary is inclusive.",
        "comments": "If the low element is missing, the meaning is that the low boundary is not known.",
        "min": 0,
        "max": "1",
        "type": [
          {
            "code": "dateTime"
          }
        ],
        "condition": [
          "per-1"
        ],
        "mapping": [
          {
            "identity": "v2",
            "map": "DR.1"
          },
          {
            "identity": "rim",
            "map": "./low"
          }
        ]
      },
      {
        "path": "Period.end",
        "short": "End time with inclusive boundary, if not ongoing",
        "definition": "The end of the period. If the end of the period is missing, it means that the period is ongoing.",
        "comments": "The high value includes any matching date/time. i.e. 2012-02-03T10:00:00 is in a period that has a end value of 2012-02-03.",
        "min": 0,
        "max": "1",
        "type": [
          {
            "code": "dateTime"
          }
        ],
        "meaningWhenMissing": "If the end of the period is missing, it means that the period is ongoing",
        "condition": [
          "per-1"
        ],
        "mapping": [
          {
            "identity": "v2",
            "map": "DR.2"
          },
          {
            "identity": "rim",
            "map": "./high"
          }
        ]
      }
    ]
  }
}