{
  "resourceType": "Practitioner",
  "id": "f005",
  "text": {
    "status": "generated",
    "div": "<div><p><b>Generated Narrative with Details</b></p><p><b>id</b>: f005</p><p><b>identifier</b>: 118265112 (OFFICIAL), 191REW8WE916 (USUAL)</p><p><b>name</b>: Langeveld Anne (OFFICIAL)</p><p><b>telecom</b>: ph: 0205563847(WORK), a.langeveld@bmc.nl(WORK), fax: 0205668916(WORK)</p><p><b>address</b>: Galapagosweg 9 Amsterdam 1105 AZ NLD (WORK)</p><p><b>gender</b>: female</p><p><b>birthDate</b>: Mar 11, 1959</p><h3>PractitionerRoles</h3><table><tr><td>-</td><td><b>ManagingOrganization</b></td><td><b>Role</b></td><td><b>Specialty</b></td></tr><tr><td>*</td><td><a>BMC. Generated Summary: 91654 (OFFICIAL), 17-0112278 (USUAL); name: Burgers University Medical Center; <span>University Medical Hospital</span>; ph: 022-655 2300(WORK)</a></td><td>Care role <span>(Details : {urn:oid:2.16.840.1.113883.2.4.15.111 code '01.000' = '01.000', given as 'Arts'})</span></td><td>specialization <span>(Details : {urn:oid:2.16.840.1.113883.2.4.15.111 code '01.018' = '01.018', given as 'Keel- neus- en oorarts'})</span></td></tr></table><p><b>communication</b>: France <span>(Details : {urn:oid:2.16.840.1.113883.6.121 code 'fr' = 'fr', given as 'France'})</span></p></div>"
  },
  "identifier": [
    {
      "use": "official",
      "system": "urn:oid:2.16.528.1.1007.3.1",
      "value": "118265112"
    },
    {
      "use": "usual",
      "system": "urn:oid:2.16.840.1.113883.2.4.6.3",
      "value": "191REW8WE916"
    }
  ],
  "name": {
    "use": "official",
    "family": [
      "Anne"
    ],
    "given": [
      "Langeveld"
    ],
    "suffix": [
      "MD"
    ]
  },
  "telecom": [
    {
      "system": "phone",
      "value": "0205563847",
      "use": "work"
    },
    {
      "system": "email",
      "value": "a.langeveld@bmc.nl",
      "use": "work"
    },
    {
      "system": "fax",
      "value": "0205668916",
      "use": "work"
    }
  ],
  "address": [
    {
      "use": "work",
      "line": [
        "Galapagosweg 9"
      ],
      "city": "Amsterdam",
      "postalCode": "1105 AZ",
      "country": "NLD"
    }
  ],
  "gender": "female",
  "birthDate": "1959-03-11",
  "practitionerRole": [
    {
      "managingOrganization": {
        "reference": "Organization/f001",
        "display": "BMC"
      },
      "role": {
        "coding": [
          {
            "system": "urn:oid:2.16.840.1.113883.2.4.15.111",
            "code": "01.000",
            "display": "Arts"
          }
        ],
        "text": "Care role"
      },
      "specialty": [
        {
          "coding": [
            {
              "system": "urn:oid:2.16.840.1.113883.2.4.15.111",
              "code": "01.018",
              "display": "Keel- neus- en oorarts"
            }
          ],
          "text": "specialization"
        }
      ]
    }
  ],
  "communication": [
    {
      "coding": [
        {
          "system": "urn:oid:2.16.840.1.113883.6.121",
          "code": "fr",
          "display": "France"
        }
      ]
    }
  ]
}