{
  "resourceType": "SearchParameter",
  "id": "questionnaire-extensions-Questionnaire-category",
  "url": "http://hl7.org/fhir/SearchParameter/questionnaire-extensions-Questionnaire-category",
  "name": "category",
  "type": "token",
  "description": "Code categorizing the questionnaire",
  "xpath": "f:Questionnaire/f:extension{http://hl7/f:org/fhir/StructureDefinition/questionnaire-category}"
}