{
  "resourceType": "StructureDefinition",
  "id": "Range",
  "text": {
    "status": "generated",
    "div": "<div><table style=\"border: 0px; font-size: 11px; font-family: verdana; vertical-align: top;\" cellpadding=\"0\" border=\"0\" cellspacing=\"0\"><tr style=\"border: 1px #F0F0F0 solid; font-size: 11px; font-family: verdana; vertical-align: top;\"><th style=\"vertical-align: top; text-align : left; background-color: white; padding:0px 4px 0px 4px\" class=\"heirarchy\"><a title=\"The logical name of the element\" href=\"formats.html#table\">Name</a></th><th style=\"vertical-align: top; text-align : left; background-color: white; padding:0px 4px 0px 4px\" class=\"heirarchy\"><a title=\"Information about the use of the element\" href=\"formats.html#table\">Flags</a></th><th style=\"vertical-align: top; text-align : left; background-color: white; padding:0px 4px 0px 4px\" class=\"heirarchy\"><a title=\"Minimum and Maximum # of times the the element can appear in the instance\" href=\"formats.html#table\">Card.</a></th><th style=\"width: 100px\" class=\"heirarchy\"><a title=\"Reference to the type of the element\" href=\"formats.html#table\">Type</a></th><th style=\"vertical-align: top; text-align : left; background-color: white; padding:0px 4px 0px 4px\" class=\"heirarchy\"><a title=\"Additional information about the element\" href=\"formats.html#table\">Description &amp; Constraints</a><span style=\"float: right\"><a title=\"Legend for this format\" href=\"formats.html#table\"><img style=\"background-color: inherit\" alt=\"doco\" src=\"help16.png\"/></a></span></th></tr><tr style=\"border: 0px; padding:0px; vertical-align: top; background-color: white;\"><td style=\"vertical-align: top; text-align : left; background-color: white; padding:0px 4px 0px 4px; white-space: nowrap; background-image: url(data: image/png;base64,iVBORw0KGgoAAAANSUhEUgAAAyAAAAACCAYAAACg/LjIAAAAL0lEQVR42u3XsQ0AQAgCQHdl/xn8jxvYWB3JlTR0VJLa+OltBwAAYP6EEQAAgCsPVYVAgIJrA/sAAAAASUVORK5CYII=)\" class=\"heirarchy\"><img style=\"background-color: inherit\" alt=\".\" class=\"heirarchy\" src=\"data: image/png;base64,\"/><img title=\"Element\" style=\"background-color: white; background-color: inherit\" alt=\".\" class=\"heirarchy\" src=\"data: image/png;base64,\"/> <a title=\"Range : A set of ordered Quantities defined by a low and high limit.\" href=\"datatypes-definitions.html#Range\">Range</a><a name=\"Range\"> </a></td><td style=\"vertical-align: top; text-align : left; background-color: white; padding:0px 4px 0px 4px\" class=\"heirarchy\"><span title=\"This element has or is affected by some invariants\">I</span></td><td style=\"vertical-align: top; text-align : left; background-color: white; padding:0px 4px 0px 4px\" class=\"heirarchy\"></td><td style=\"vertical-align: top; text-align : left; background-color: white; padding:0px 4px 0px 4px\" class=\"heirarchy\"><a href=\"element.html\">Element</a></td><td style=\"vertical-align: top; text-align : left; background-color: white; padding:0px 4px 0px 4px\" class=\"heirarchy\">Set of values bounded by low and high<br/><span title=\"rng-2\" style=\"font-style: italic\">If present, low SHALL have a lower value than high</span><br/><span title=\"rng-3\" style=\"font-style: italic\">Quantity values cannot have a comparator when used in a Range</span></td></tr>\r\n<tr style=\"border: 0px; padding:0px; vertical-align: top; background-color: white;\"><td style=\"vertical-align: top; text-align : left; background-color: white; padding:0px 4px 0px 4px; white-space: nowrap; background-image: url(data: image/png;base64,iVBORw0KGgoAAAANSUhEUgAAAyAAAAACCAYAAACg/LjIAAAAL0lEQVR42u3XsQ0AQAgCQHdl/xn8jxvYWB3JlTR0VJLa+OltBwAAYP6EEQAAgCsPVYVAgIJrA/sAAAAASUVORK5CYII=)\" class=\"heirarchy\"><img style=\"background-color: inherit\" alt=\".\" class=\"heirarchy\" src=\"data: image/png;base64,\"/><img style=\"background-color: inherit\" alt=\".\" class=\"heirarchy\" src=\"data: image/png;base64,\"/><img title=\"Data Type\" style=\"background-color: white; background-color: inherit\" alt=\".\" class=\"heirarchy\" src=\"data: image/png;base64,\"/> <a title=\"Range.low : The low limit. The boundary is inclusive.\" href=\"datatypes-definitions.html#Range.low\">low</a><a name=\"Range.low\"> </a></td><td style=\"vertical-align: top; text-align : left; background-color: white; padding:0px 4px 0px 4px\" class=\"heirarchy\"><span title=\"This element has or is affected by some invariants\">I</span></td><td style=\"vertical-align: top; text-align : left; background-color: white; padding:0px 4px 0px 4px\" class=\"heirarchy\">0..1</td><td style=\"vertical-align: top; text-align : left; background-color: white; padding:0px 4px 0px 4px\" class=\"heirarchy\"><a href=\"datatypes.html#Quantity\">Quantity</a></td><td style=\"vertical-align: top; text-align : left; background-color: white; padding:0px 4px 0px 4px\" class=\"heirarchy\">Low limit</td></tr>\r\n<tr style=\"border: 0px; padding:0px; vertical-align: top; background-color: white;\"><td style=\"vertical-align: top; text-align : left; background-color: white; padding:0px 4px 0px 4px; white-space: nowrap; background-image: url(data: image/png;base64,iVBORw0KGgoAAAANSUhEUgAAAyAAAAACCAYAAACg/LjIAAAAI0lEQVR42u3QIQEAAAACIL/6/4MvTAQOkLYBAAB4kAAAANwMad9AqkRjgNAAAAAASUVORK5CYII=)\" class=\"heirarchy\"><img style=\"background-color: inherit\" alt=\".\" class=\"heirarchy\" src=\"data: image/png;base64,\"/><img style=\"background-color: inherit\" alt=\".\" class=\"heirarchy\" src=\"data: image/png;base64,\"/><img title=\"Data Type\" style=\"background-color: white; background-color: inherit\" alt=\".\" class=\"heirarchy\" src=\"data: image/png;base64,\"/> <a title=\"Range.high : The high limit. The boundary is inclusive.\" href=\"datatypes-definitions.html#Range.high\">high</a><a name=\"Range.high\"> </a></td><td style=\"vertical-align: top; text-align : left; background-color: white; padding:0px 4px 0px 4px\" class=\"heirarchy\"><span title=\"This element has or is affected by some invariants\">I</span></td><td style=\"vertical-align: top; text-align : left; background-color: white; padding:0px 4px 0px 4px\" class=\"heirarchy\">0..1</td><td style=\"vertical-align: top; text-align : left; background-color: white; padding:0px 4px 0px 4px\" class=\"heirarchy\"><a href=\"datatypes.html#Quantity\">Quantity</a></td><td style=\"vertical-align: top; text-align : left; background-color: white; padding:0px 4px 0px 4px\" class=\"heirarchy\">High limit</td></tr>\r\n</table></div>"
  },
  "url": "http://hl7.org/fhir/StructureDefinition/Range",
  "name": "Range",
  "publisher": "HL7 FHIR Standard",
  "contact": [
    {
      "telecom": [
        {
          "system": "url",
          "value": "http://hl7.org/fhir"
        }
      ]
    }
  ],
  "description": "Base StructureDefinition for Range Resource",
  "requirements": "Need to be able to specify ranges of values.",
  "status": "draft",
  "date": "2015-07-14T16:14:24+00:00",
  "mapping": [
    {
      "identity": "v2",
      "uri": "http://hl7.org/v2",
      "name": "HL7 v2"
    },
    {
      "identity": "rim",
      "uri": "http://hl7.org/v3",
      "name": "RIM"
    }
  ],
  "kind": "datatype",
  "abstract": false,
  "base": "http://hl7.org/fhir/StructureDefinition/Element",
  "snapshot": {
    "element": [
      {
        "path": "Range",
        "short": "Set of values bounded by low and high",
        "definition": "A set of ordered Quantities defined by a low and high limit.",
        "comments": "The stated low and high value are assumed to have arbitrarily high precision when it comes to determining which values are in the range. I.e. 1.99 is not in the range 2 -> 3.",
        "requirements": "Need to be able to specify ranges of values.",
        "min": 1,
        "max": "1",
        "type": [
          {
            "code": "Element"
          }
        ],
        "constraint": [
          {
            "key": "rng-2",
            "severity": "error",
            "human": "If present, low SHALL have a lower value than high",
            "xpath": "not(exists(f:low/f:value/@value)) or not(exists(f:high/f:value/@value)) or (number(f:low/f:value/@value) <= number(f:high/f:value/@value))"
          },
          {
            "key": "rng-3",
            "severity": "error",
            "human": "Quantity values cannot have a comparator when used in a Range",
            "xpath": "not(exists(f:low/f:comparator) or exists(f:high/f:comparator))"
          }
        ],
        "mapping": [
          {
            "identity": "v2",
            "map": "NR and also possibly SN (but see also quantity)"
          },
          {
            "identity": "rim",
            "map": "IVL<QTY[not(type=\"TS\")]> [lowClosed=\"true\" and highClosed=\"true\"]or URG<QTY[not(type=\"TS\")]>"
          }
        ]
      },
      {
        "path": "Range.id",
        "representation": [
          "xmlAttr"
        ],
        "short": "xml:id (or equivalent in JSON)",
        "definition": "unique id for the element within a resource (for internal references).",
        "min": 0,
        "max": "1",
        "type": [
          {
            "code": "id"
          }
        ],
        "mapping": [
          {
            "identity": "rim",
            "map": "n/a"
          }
        ]
      },
      {
        "path": "Range.extension",
        "short": "Additional Content defined by implementations",
        "definition": "May be used to represent additional information that is not part of the basic definition of the element. In order to make the use of extensions safe and manageable, there is a strict set of governance  applied to the definition and use of extensions. Though any implementer is allowed to define an extension, there is a set of requirements that SHALL be met as part of the definition of the extension.",
        "comments": "There can be no stigma associated with the use of extensions by any application, project, or standard - regardless of the institution or jurisdiction that uses or defines the extensions.  The use of extensions is what allows the FHIR specification to retain a core level of simplicity for everyone.",
        "alias": [
          "extensions",
          "user content"
        ],
        "min": 0,
        "max": "*",
        "type": [
          {
            "code": "Extension"
          }
        ],
        "mapping": [
          {
            "identity": "rim",
            "map": "n/a"
          }
        ]
      },
      {
        "path": "Range.low",
        "short": "Low limit",
        "definition": "The low limit. The boundary is inclusive.",
        "comments": "If the low element is missing, the low boundary is not known.",
        "min": 0,
        "max": "1",
        "type": [
          {
            "code": "Quantity"
          }
        ],
        "condition": [
          "rng-2",
          "rng-3"
        ],
        "mapping": [
          {
            "identity": "v2",
            "map": "NR.1"
          },
          {
            "identity": "rim",
            "map": "./low"
          }
        ]
      },
      {
        "path": "Range.high",
        "short": "High limit",
        "definition": "The high limit. The boundary is inclusive.",
        "comments": "If the high element is missing, the high boundary is not known.",
        "min": 0,
        "max": "1",
        "type": [
          {
            "code": "Quantity"
          }
        ],
        "condition": [
          "rng-2",
          "rng-3"
        ],
        "mapping": [
          {
            "identity": "v2",
            "map": "NR.2"
          },
          {
            "identity": "rim",
            "map": "./high"
          }
        ]
      }
    ]
  },
  "differential": {
    "element": [
      {
        "path": "Range",
        "short": "Set of values bounded by low and high",
        "definition": "A set of ordered Quantities defined by a low and high limit.",
        "comments": "The stated low and high value are assumed to have arbitrarily high precision when it comes to determining which values are in the range. I.e. 1.99 is not in the range 2 -> 3.",
        "requirements": "Need to be able to specify ranges of values.",
        "min": 1,
        "max": "1",
        "type": [
          {
            "code": "Element"
          }
        ],
        "constraint": [
          {
            "key": "rng-2",
            "severity": "error",
            "human": "If present, low SHALL have a lower value than high",
            "xpath": "not(exists(f:low/f:value/@value)) or not(exists(f:high/f:value/@value)) or (number(f:low/f:value/@value) <= number(f:high/f:value/@value))"
          },
          {
            "key": "rng-3",
            "severity": "error",
            "human": "Quantity values cannot have a comparator when used in a Range",
            "xpath": "not(exists(f:low/f:comparator) or exists(f:high/f:comparator))"
          }
        ],
        "mapping": [
          {
            "identity": "v2",
            "map": "NR and also possibly SN (but see also quantity)"
          },
          {
            "identity": "rim",
            "map": "IVL<QTY[not(type=\"TS\")]> [lowClosed=\"true\" and highClosed=\"true\"]or URG<QTY[not(type=\"TS\")]>"
          }
        ]
      },
      {
        "path": "Range.low",
        "short": "Low limit",
        "definition": "The low limit. The boundary is inclusive.",
        "comments": "If the low element is missing, the low boundary is not known.",
        "min": 0,
        "max": "1",
        "type": [
          {
            "code": "Quantity"
          }
        ],
        "condition": [
          "rng-2",
          "rng-3"
        ],
        "mapping": [
          {
            "identity": "v2",
            "map": "NR.1"
          },
          {
            "identity": "rim",
            "map": "./low"
          }
        ]
      },
      {
        "path": "Range.high",
        "short": "High limit",
        "definition": "The high limit. The boundary is inclusive.",
        "comments": "If the high element is missing, the high boundary is not known.",
        "min": 0,
        "max": "1",
        "type": [
          {
            "code": "Quantity"
          }
        ],
        "condition": [
          "rng-2",
          "rng-3"
        ],
        "mapping": [
          {
            "identity": "v2",
            "map": "NR.2"
          },
          {
            "identity": "rim",
            "map": "./high"
          }
        ]
      }
    ]
  }
}