<?xml version="1.0" encoding="UTF-8"?><svg xmlns="http://www.w3.org/2000/svg" xmlns:xlink="http://www.w3.org/1999/xlink" version="1.1" width="360.0" height="186.0">  <defs>
    <filter id="shadow1" x="0" y="0" width="200%" height="200%">
      <feOffset result="offOut" in="SourceGraphic" dx="3" dy="3" />
      <feColorMatrix result="matrixOut" in="offOut" type="matrix" values="0.2 0 0 0 0 0 0.2 0 0 0 0 0 0.2 0 0 0 0 0 1 0" />
      <feGaussianBlur result="blurOut" in="matrixOut" stdDeviation="2" />
      <feBlend in="SourceGraphic" in2="blurOut" mode="normal" />
    </filter>
  </defs><rect x="0.0" y="0.0" rx="4" ry="4" width="260.0" height="176.0" filter="url(#shadow1)" style="fill:#f0f8ff;stroke:black;stroke-width:1"/><line x1="0.0" y1="28.0" x2="260.0" y2="28.0" style="stroke:dimgrey;stroke-width:1"/><text x="130.0" y="20.0" fill="black" class="diagram-class-title  diagram-class-resource">RelatedPerson<tspan class="diagram-class-title-link"> (<a xlink:href="domainresource.html" class="diagram-class-reference">DomainResource</a>)</tspan></text><text x="6.0" y="42.0" fill="black" class="diagram-class-detail"><a xlink:href="relatedperson-definitions.html#RelatedPerson.identifier"><title>Identifier for a person within a particular scope</title>identifier</a> : <a xlink:href="datatypes.html#Identifier">Identifier</a> 0..*</text><text x="6.0" y="56.0" fill="black" class="diagram-class-detail"><a xlink:href="relatedperson-definitions.html#RelatedPerson.patient"><title>The patient this person is related to</title>patient</a> : <a xlink:href="references.html#Reference">Reference</a>(<a xlink:href="patient.html#Patient">Patient</a>) 1..1</text><text x="6.0" y="70.0" fill="black" class="diagram-class-detail"><a xlink:href="relatedperson-definitions.html#RelatedPerson.relationship"><title>The nature of the relationship between a patient and the related person</title>relationship</a> : <a xlink:href="datatypes.html#CodeableConcept">CodeableConcept</a> 0..1 « <a xlink:href="valueset-relatedperson-relationshiptype.html"><title>The nature of the relationship between a patient and the related person</title>PatientRelationshipType</a> »</text><text x="6.0" y="84.0" fill="black" class="diagram-class-detail"><a xlink:href="relatedperson-definitions.html#RelatedPerson.name"><title>A name associated with the person</title>name</a> : <a xlink:href="datatypes.html#HumanName">HumanName</a> 0..1</text><text x="6.0" y="98.0" fill="black" class="diagram-class-detail"><a xlink:href="relatedperson-definitions.html#RelatedPerson.telecom"><title>A contact detail for the person, e.g. a telephone number or an email address</title>telecom</a> : <a xlink:href="datatypes.html#ContactPoint">ContactPoint</a> 0..*</text><text x="6.0" y="112.0" fill="black" class="diagram-class-detail"><a xlink:href="relatedperson-definitions.html#RelatedPerson.gender"><title>Administrative Gender - the gender that the person is considered to have for administration and record keeping purposes</title>gender</a> : <a xlink:href="datatypes.html#code">code</a> 0..1 « <a xlink:href="valueset-administrative-gender.html"><title>The gender of a person used for administrative purposes</title>AdministrativeGender</a> »</text><text x="6.0" y="126.0" fill="black" class="diagram-class-detail"><a xlink:href="relatedperson-definitions.html#RelatedPerson.birthDate"><title>The date on which the related person was born</title>birthDate</a> : <a xlink:href="datatypes.html#date">date</a> 0..1</text><text x="6.0" y="140.0" fill="black" class="diagram-class-detail"><a xlink:href="relatedperson-definitions.html#RelatedPerson.address"><title>Address where the related person can be contacted or visited</title>address</a> : <a xlink:href="datatypes.html#Address">Address</a> 0..1</text><text x="6.0" y="154.0" fill="black" class="diagram-class-detail"><a xlink:href="relatedperson-definitions.html#RelatedPerson.photo"><title>Image of the person</title>photo</a> : <a xlink:href="datatypes.html#Attachment">Attachment</a> 0..*</text><text x="6.0" y="168.0" fill="black" class="diagram-class-detail"><a xlink:href="relatedperson-definitions.html#RelatedPerson.period"><title>The period of time that this relationship is considered to be valid. If there are no dates defined, then the interval is unknown</title>period</a> : <a xlink:href="datatypes.html#Period">Period</a> 0..1</text></svg>