<?xml version="1.0" encoding="UTF-8"?><svg xmlns="http://www.w3.org/2000/svg" xmlns:xlink="http://www.w3.org/1999/xlink" version="1.1" width="916.0" height="98.0">  <defs>
    <filter id="shadow1" x="0" y="0" width="200%" height="200%">
      <feOffset result="offOut" in="SourceGraphic" dx="3" dy="3" />
      <feColorMatrix result="matrixOut" in="offOut" type="matrix" values="0.2 0 0 0 0 0 0.2 0 0 0 0 0 0.2 0 0 0 0 0 1 0" />
      <feGaussianBlur result="blurOut" in="matrixOut" stdDeviation="2" />
      <feBlend in="SourceGraphic" in2="blurOut" mode="normal" />
    </filter>
  </defs><rect x="240.0" y="0.0" rx="4" ry="4" width="200.0" height="78.0" filter="url(#shadow1)" style="fill:#f0f8ff;stroke:black;stroke-width:1"/><line x1="240.0" y1="28.0" x2="440.0" y2="28.0" style="stroke:dimgrey;stroke-width:1"/><text x="340.0" y="20.0" fill="black" class="diagram-class-title  diagram-class-resource">Substance<tspan class="diagram-class-title-link"> (<a xlink:href="domainresource.html" class="diagram-class-reference">DomainResource</a>)</tspan></text><text x="246.0" y="42.0" fill="black" class="diagram-class-detail"><a xlink:href="substance-definitions.html#Substance.identifier"><title>Unique identifier for the substance</title>identifier</a> : <a xlink:href="datatypes.html#Identifier">Identifier</a> 0..*</text><text x="246.0" y="56.0" fill="black" class="diagram-class-detail"><a xlink:href="substance-definitions.html#Substance.type"><title>A code (or set of codes) that identify this substance</title>type</a> : <a xlink:href="datatypes.html#CodeableConcept">CodeableConcept</a> 1..1 « (<a xlink:href="valueset-substance-type.html"><title>Type of the substance</title>Substance Type</a>) »</text><text x="246.0" y="70.0" fill="black" class="diagram-class-detail"><a xlink:href="substance-definitions.html#Substance.description"><title>A description of the substance - its appearance, handling requirements, and other usage notes</title>description</a> : <a xlink:href="datatypes.html#string">string</a> 0..1</text><rect x="0.0" y="0.0" rx="4" ry="4" width="120.0" height="78.0" filter="url(#shadow1)" style="fill:#f0f8ff;stroke:black;stroke-width:1"/><line x1="0.0" y1="28.0" x2="120.0" y2="28.0" style="stroke:dimgrey;stroke-width:1"/><text x="60.0" y="20.0" fill="black" class="diagram-class-title">Instance</text><text x="6.0" y="42.0" fill="black" class="diagram-class-detail"><a xlink:href="substance-definitions.html#Substance.instance.identifier"><title>Identifier associated with the package/container (usually a label affixed directly)</title>identifier</a> : <a xlink:href="datatypes.html#Identifier">Identifier</a> 0..1</text><text x="6.0" y="56.0" fill="black" class="diagram-class-detail"><a xlink:href="substance-definitions.html#Substance.instance.expiry"><title>When the substance is no longer valid to use. For some substances, a single arbitrary date is used for expiry</title>expiry</a> : <a xlink:href="datatypes.html#dateTime">dateTime</a> 0..1</text><text x="6.0" y="70.0" fill="black" class="diagram-class-detail"><a xlink:href="substance-definitions.html#Substance.instance.quantity"><title>The amount of the substance</title>quantity</a> : <a xlink:href="datatypes.html#Quantity">Quantity</a> 0..1</text><rect x="560.0" y="7.0" rx="4" ry="4" width="156.0" height="64.0" filter="url(#shadow1)" style="fill:#f0f8ff;stroke:black;stroke-width:1"/><line x1="560.0" y1="35.0" x2="716.0" y2="35.0" style="stroke:dimgrey;stroke-width:1"/><text x="638.0" y="27.0" fill="black" class="diagram-class-title">Ingredient</text><text x="566.0" y="49.0" fill="black" class="diagram-class-detail"><a xlink:href="substance-definitions.html#Substance.ingredient.quantity"><title>The amount of the ingredient in the substance - a concentration ratio</title>quantity</a> : <a xlink:href="datatypes.html#Ratio">Ratio</a> 0..1</text><text x="566.0" y="63.0" fill="black" class="diagram-class-detail"><a xlink:href="substance-definitions.html#Substance.ingredient.substance"><title>Another substance that is a component of this substance</title>substance</a> : <a xlink:href="references.html#Reference">Reference</a>(<a xlink:href="substance.html#Substance">Substance</a>) 1..1</text><line x1="240.0" y1="39.0" x2="120.0" y2="39.0" style="stroke:navy;stroke-width:1"/><polygon points="240.0,39.0 246.0,43.0 252.0,39.0 246.0,35.0 240.0,39.0" style="fill:navy;stroke:navy;stroke-width:1" transform="rotate(180.0 240.0 39.0)"/><rect x="164.0" y="32.0" width="32.0" height="18.0" style="fill:white;stroke:black;stroke-width:0"/><text x="180.0" y="42.0" fill="black" class="diagram-class-linkage"><a xlink:href="substance-definitions.html#Substance.instance"><title>Substance may be used to describe a kind of substance, or a specific package/container of the substance: an instance</title>instance</a></text><text x="135.0" y="35.0" fill="black" class="diagram-class-linkage">0..*</text><line x1="440.0" y1="39.0" x2="560.0" y2="39.0" style="stroke:navy;stroke-width:1"/><polygon points="440.0,39.0 446.0,43.0 452.0,39.0 446.0,35.0 440.0,39.0" style="fill:navy;stroke:navy;stroke-width:1" transform="rotate(0.0 440.0 39.0)"/><rect x="480.0" y="32.0" width="40.0" height="18.0" style="fill:white;stroke:black;stroke-width:0"/><text x="500.0" y="42.0" fill="black" class="diagram-class-linkage"><a xlink:href="substance-definitions.html#Substance.ingredient"><title>A substance can be composed of other substances</title>ingredient</a></text><text x="540.0" y="35.0" fill="black" class="diagram-class-linkage">0..*</text></svg>