{
  "resourceType": "ValueSet",
  "id": "subscription-status",
  "meta": {
    "lastUpdated": "2015-07-14T16:14:24.220+00:00",
    "profile": [
      "http://hl7.org/fhir/StructureDefinition/valueset-shareable-definition"
    ]
  },
  "text": {
    "status": "generated",
    "div": "<div><h2>SubscriptionStatus</h2><p>The status of a subscription</p><p>This value set has an inline code system http://hl7.org/fhir/subscription-status, which defines the following codes:</p><table class=\"codes\"><tr><td><b>Code</b></td><td><b>Display</b></td><td><b>Definition</b></td></tr><tr><td>requested<a name=\"requested\"> </a></td><td>Requested</td><td>The client has requested the subscription, and the server has not yet set it up</td></tr><tr><td>active<a name=\"active\"> </a></td><td>Active</td><td>The subscription is active</td></tr><tr><td>error<a name=\"error\"> </a></td><td>Error</td><td>The server has an error executing the notification</td></tr><tr><td>off<a name=\"off\"> </a></td><td>Off</td><td>Too many errors have occurred or the subscription has expired</td></tr></table></div>"
  },
  "extension": [
    {
      "url": "http://hl7.org/fhir/StructureDefinition/valueset-oid",
      "valueUri": "2.16.840.1.113883.4.642.2.381"
    }
  ],
  "url": "http://hl7.org/fhir/ValueSet/subscription-status",
  "version": "0.5.0",
  "name": "SubscriptionStatus",
  "publisher": "HL7 (FHIR Project)",
  "contact": [
    {
      "telecom": [
        {
          "system": "url",
          "value": "http://hl7.org/fhir"
        },
        {
          "system": "email",
          "value": "fhir@lists.hl7.org"
        }
      ]
    }
  ],
  "description": "The status of a subscription",
  "status": "draft",
  "experimental": false,
  "date": "2015-07-14T16:14:24+00:00",
  "define": {
    "extension": [
      {
        "url": "http://hl7.org/fhir/StructureDefinition/valueset-oid",
        "valueUri": "urn:oid:2.16.840.1.113883.4.642.1.381"
      }
    ],
    "system": "http://hl7.org/fhir/subscription-status",
    "version": "0.5.0",
    "caseSensitive": true,
    "concept": [
      {
        "code": "requested",
        "display": "Requested",
        "definition": "The client has requested the subscription, and the server has not yet set it up"
      },
      {
        "code": "active",
        "display": "Active",
        "definition": "The subscription is active"
      },
      {
        "code": "error",
        "display": "Error",
        "definition": "The server has an error executing the notification"
      },
      {
        "code": "off",
        "display": "Off",
        "definition": "Too many errors have occurred or the subscription has expired"
      }
    ]
  }
}