{
  "resourceType": "ValueSet",
  "id": "object-lifecycle",
  "meta": {
    "lastUpdated": "2015-07-14T16:14:24.220+00:00",
    "profile": [
      "http://hl7.org/fhir/StructureDefinition/valueset-shareable-definition"
    ]
  },
  "text": {
    "status": "generated",
    "div": "<div><h2>AuditEventObjectLifecycle</h2><p>Identifier for the data life-cycle stage for the object</p><p>This value set has an inline code system http://hl7.org/fhir/object-lifecycle, which defines the following codes:</p><table class=\"codes\"><tr><td><b>Code</b></td><td><b>Display</b></td><td><b>Definition</b></td></tr><tr><td>1<a name=\"1\"> </a></td><td>Origination / Creation</td><td>Origination / Creation</td></tr><tr><td>2<a name=\"2\"> </a></td><td>Import / Copy from original</td><td>Import / Copy from original</td></tr><tr><td>3<a name=\"3\"> </a></td><td>Amendment</td><td>Amendment</td></tr><tr><td>4<a name=\"4\"> </a></td><td>Verification</td><td>Verification</td></tr><tr><td>5<a name=\"5\"> </a></td><td>Translation</td><td>Translation</td></tr><tr><td>6<a name=\"6\"> </a></td><td>Access / Use</td><td>Access / Use</td></tr><tr><td>7<a name=\"7\"> </a></td><td>De-identification</td><td>De-identification</td></tr><tr><td>8<a name=\"8\"> </a></td><td>Aggregation, summarization, derivation</td><td>Aggregation, summarization, derivation</td></tr><tr><td>9<a name=\"9\"> </a></td><td>Report</td><td>Report</td></tr><tr><td>10<a name=\"10\"> </a></td><td>Export / Copy to target</td><td>Export / Copy to target</td></tr><tr><td>11<a name=\"11\"> </a></td><td>Disclosure</td><td>Disclosure</td></tr><tr><td>12<a name=\"12\"> </a></td><td>Receipt of disclosure</td><td>Receipt of disclosure</td></tr><tr><td>13<a name=\"13\"> </a></td><td>Archiving</td><td>Archiving</td></tr><tr><td>14<a name=\"14\"> </a></td><td>Logical deletion</td><td>Logical deletion</td></tr><tr><td>15<a name=\"15\"> </a></td><td>Permanent erasure / Physical destruction</td><td>Permanent erasure / Physical destruction</td></tr></table></div>"
  },
  "extension": [
    {
      "url": "http://hl7.org/fhir/StructureDefinition/valueset-oid",
      "valueUri": "2.16.840.1.113883.4.642.2.1481"
    }
  ],
  "url": "http://hl7.org/fhir/ValueSet/object-lifecycle",
  "version": "0.5.0",
  "name": "AuditEventObjectLifecycle",
  "publisher": "HL7 (FHIR Project)",
  "contact": [
    {
      "telecom": [
        {
          "system": "url",
          "value": "http://hl7.org/fhir"
        },
        {
          "system": "email",
          "value": "fhir@lists.hl7.org"
        }
      ]
    }
  ],
  "description": "Identifier for the data life-cycle stage for the object",
  "status": "draft",
  "experimental": false,
  "date": "2015-07-14T16:14:24+00:00",
  "define": {
    "extension": [
      {
        "url": "http://hl7.org/fhir/StructureDefinition/valueset-oid",
        "valueUri": "urn:oid:2.16.840.1.113883.4.642.1.1481"
      }
    ],
    "system": "http://hl7.org/fhir/object-lifecycle",
    "version": "0.5.0",
    "caseSensitive": true,
    "concept": [
      {
        "code": "1",
        "display": "Origination / Creation",
        "definition": "Origination / Creation"
      },
      {
        "code": "2",
        "display": "Import / Copy from original",
        "definition": "Import / Copy from original"
      },
      {
        "code": "3",
        "display": "Amendment",
        "definition": "Amendment"
      },
      {
        "code": "4",
        "display": "Verification",
        "definition": "Verification"
      },
      {
        "code": "5",
        "display": "Translation",
        "definition": "Translation"
      },
      {
        "code": "6",
        "display": "Access / Use",
        "definition": "Access / Use"
      },
      {
        "code": "7",
        "display": "De-identification",
        "definition": "De-identification"
      },
      {
        "code": "8",
        "display": "Aggregation, summarization, derivation",
        "definition": "Aggregation, summarization, derivation"
      },
      {
        "code": "9",
        "display": "Report",
        "definition": "Report"
      },
      {
        "code": "10",
        "display": "Export / Copy to target",
        "definition": "Export / Copy to target"
      },
      {
        "code": "11",
        "display": "Disclosure",
        "definition": "Disclosure"
      },
      {
        "code": "12",
        "display": "Receipt of disclosure",
        "definition": "Receipt of disclosure"
      },
      {
        "code": "13",
        "display": "Archiving",
        "definition": "Archiving"
      },
      {
        "code": "14",
        "display": "Logical deletion",
        "definition": "Logical deletion"
      },
      {
        "code": "15",
        "display": "Permanent erasure / Physical destruction",
        "definition": "Permanent erasure / Physical destruction"
      }
    ]
  }
}