{
  "resourceType": "ValueSet",
  "id": "practitioner-hspc-addressUse",
  "meta": {
    "lastUpdated": "2015-07-14T16:14:24.220+00:00",
    "profile": [
      "http://hl7.org/fhir/StructureDefinition/valueset-shareable-definition"
    ]
  },
  "text": {
    "status": "generated",
    "div": "<div><h2>HSPC Address Use</h2><p>A set of codes that describe the manner in which an addressed is used.</p><p>This value set has an inline code system Intermountain Healthcare HDD, which defines the following codes:</p><table class=\"codes\"><tr><td><b>Code</b></td><td><b>Display</b></td><td><b>Definition</b></td></tr><tr><td>15053040<a name=\"15053040\"> </a></td><td>Permanent</td><td>A place of permanent physical residence.</td></tr><tr><td>50450836<a name=\"50450836\"> </a></td><td>Primary office</td><td>An office, work, or business location that represents where the most work time is spent..</td></tr></table><p>In addition, this value set includes codes defined in other code systems, using the following rules:</p><ul><li>Include these codes as defined in <a href=\"v3/AddressUse/index.html\">http://hl7.org/fhir/v3/AddressUse</a><table><tr><td><b>Code</b></td><td><b>Display</b></td></tr><tr><td>BAD</td><td>Bad address</td><td>Description: A flag indicating that the address is bad, in fact, useless.</td></tr><tr><td>PHYS</td><td>Physical visit address</td><td>Description: Used primarily to visit an address.</td></tr><tr><td>PST</td><td>Postal address</td><td>Description: Used to send mail.</td></tr><tr><td>HP</td><td>Primary home</td><td>Description: The primary home, to reach a person after business hours.</td></tr><tr><td>PUB</td><td>Public</td><td>Description: Indicates a work place address or telecommunication address that is a 'standard' address which may reach a reception service, mail-room, or other intermediary prior to the target entity.</td></tr><tr><td>TMP</td><td>Temporary address</td><td>Description: A temporary address, may be good for visit or mailing. Note that an address history can provide more detailed information.</td></tr><tr><td>HV</td><td>Vacation home</td><td>Description: A vacation home, to reach a person while on vacation.</td></tr><tr><td>WP</td><td>Work place</td><td>Description: An office address. First choice for business related contacts during business hours.</td></tr><tr><td>H</td><td>Home address</td><td>Description: A communication address at a home, attempted contacts for business purposes might intrude privacy and chances are one will contact family or other household members instead of the person one wishes to call. Typically used with urgent cases, or if no other contacts are available.</td></tr><tr><td>DIR</td><td>Direct address</td><td>Description: Indicates a work place address or telecommunication address that reaches the individual or organization directly without intermediaries. For phones, often referred to as a 'private line'.</td></tr><tr><td>CONF</td><td>Confidential address</td><td>Description: Indicates that the address is considered sensitive and should only be shared or published in accordance with organizational controls governing patient demographic information with increased sensitivity. Uses of Addresses.   Lloyd to supply more complete description.</td></tr></table></li></ul></div>"
  },
  "extension": [
    {
      "url": "http://hl7.org/fhir/StructureDefinition/valueset-oid",
      "valueUri": "2.16.840.1.113883.4.642.2.0"
    }
  ],
  "url": "http://hl7.org/fhir/ValueSet/practitioner-hspc-addressUse",
  "version": "0.5.0",
  "name": "HSPC Address Use",
  "publisher": "HSPC",
  "contact": [
    {
      "telecom": [
        {
          "system": "url",
          "value": "http://healthcaresoa.org"
        }
      ]
    }
  ],
  "description": "A set of codes that describe the manner in which an addressed is used.",
  "status": "draft",
  "experimental": true,
  "date": "2015-07-14T16:14:24+00:00",
  "define": {
    "system": "Intermountain Healthcare HDD",
    "caseSensitive": true,
    "concept": [
      {
        "code": "15053040",
        "display": "Permanent",
        "definition": "A place of permanent physical residence."
      },
      {
        "code": "50450836",
        "display": "Primary office",
        "definition": "An office, work, or business location that represents where the most work time is spent.."
      }
    ]
  },
  "compose": {
    "include": [
      {
        "system": "http://hl7.org/fhir/v3/AddressUse",
        "concept": [
          {
            "code": "BAD",
            "display": "Bad address"
          },
          {
            "code": "PHYS",
            "display": "Physical visit address"
          },
          {
            "code": "PST",
            "display": "Postal address"
          },
          {
            "code": "HP",
            "display": "Primary home"
          },
          {
            "code": "PUB",
            "display": "Public"
          },
          {
            "code": "TMP",
            "display": "Temporary address"
          },
          {
            "code": "HV",
            "display": "Vacation home"
          },
          {
            "code": "WP",
            "display": "Work place"
          },
          {
            "code": "H",
            "display": "Home address"
          },
          {
            "code": "DIR",
            "display": "Direct address"
          },
          {
            "code": "CONF",
            "display": "Confidential address"
          }
        ]
      }
    ]
  }
}