{
  "resourceType": "ValueSet",
  "id": "qicore-encounter-condition-role",
  "meta": {
    "lastUpdated": "2015-07-14T16:14:24.220+00:00",
    "profile": [
      "http://hl7.org/fhir/StructureDefinition/valueset-shareable-definition"
    ]
  },
  "text": {
    "status": "generated",
    "div": "<div><p>This value set contains 27 concepts</p><table class=\"codes\"><tr><td><b>Code</b></td><td><b>System</b></td><td><b>Display</b></td></tr><tr><td>148006</td><td>http://snomed.info/sct</td><td>Preliminary diagnosis (contextual qualifier) (qualifier value)</td></tr><tr><td>5558000</td><td>http://snomed.info/sct</td><td>Working diagnosis (contextual qualifier) (qualifier value)</td></tr><tr><td>5605004</td><td>http://snomed.info/sct</td><td>Autopsy diagnosis (contextual qualifier) (qualifier value)</td></tr><tr><td>8319008</td><td>http://snomed.info/sct</td><td>Principal diagnosis (contextual qualifier) (qualifier value)</td></tr><tr><td>14657009</td><td>http://snomed.info/sct</td><td>Established diagnosis (contextual qualifier) (qualifier value)</td></tr><tr><td>15874002</td><td>http://snomed.info/sct</td><td>Revised diagnosis (contextual qualifier) (qualifier value)</td></tr><tr><td>16100001</td><td>http://snomed.info/sct</td><td>Death diagnosis (contextual qualifier) (qualifier value)</td></tr><tr><td>24508002</td><td>http://snomed.info/sct</td><td>Cytology diagnosis (contextual qualifier) (qualifier value)</td></tr><tr><td>25163005</td><td>http://snomed.info/sct</td><td>X-ray diagnosis (contextual qualifier) (qualifier value)</td></tr><tr><td>39154008</td><td>http://snomed.info/sct</td><td>Clinical diagnosis</td></tr><tr><td>46159000</td><td>http://snomed.info/sct</td><td>Laboratory diagnosis (contextual qualifier) (qualifier value)</td></tr><tr><td>47965005</td><td>http://snomed.info/sct</td><td>Differential diagnosis (contextual qualifier) (qualifier value)</td></tr><tr><td>48318009</td><td>http://snomed.info/sct</td><td>Prior diagnosis (contextual qualifier) (qualifier value)</td></tr><tr><td>52870002</td><td>http://snomed.info/sct</td><td>Admitting diagnosis (contextual qualifier) (qualifier value)</td></tr><tr><td>85097005</td><td>http://snomed.info/sct</td><td>Secondary diagnosis (contextual qualifier) (qualifier value)</td></tr><tr><td>88101002</td><td>http://snomed.info/sct</td><td>Pathology diagnosis (contextual qualifier) (qualifier value)</td></tr><tr><td>89100005</td><td>http://snomed.info/sct</td><td>Final diagnosis (discharge) (contextual qualifier) (qualifier value)</td></tr><tr><td>103330002</td><td>http://snomed.info/sct</td><td>No diagnosis (contextual qualifier) (qualifier value)</td></tr><tr><td>406520001</td><td>http://snomed.info/sct</td><td>Preoperative diagnosis (qualifier value)</td></tr><tr><td>406521002</td><td>http://snomed.info/sct</td><td>Postoperative diagnosis (qualifier value)</td></tr><tr><td>406522009</td><td>http://snomed.info/sct</td><td>Transfer diagnosis (qualifier value)</td></tr><tr><td>406523004</td><td>http://snomed.info/sct</td><td>Referral diagnosis (qualifier value)</td></tr><tr><td>406525006</td><td>http://snomed.info/sct</td><td>Suggested billing diagnosis (qualifier value)</td></tr><tr><td>406526007</td><td>http://snomed.info/sct</td><td>Transfer admissions diagnosis (qualifier value)</td></tr><tr><td>416400009</td><td>http://snomed.info/sct</td><td>Palpatory diagnosis (qualifier value)</td></tr><tr><td>416932001</td><td>http://snomed.info/sct</td><td>Segmental diagnosis (qualifier value)</td></tr><tr><td>703529000</td><td>http://snomed.info/sct</td><td>Morphologic diagnosis (qualifier value)</td></tr></table></div>"
  },
  "extension": [
    {
      "url": "http://hl7.org/fhir/StructureDefinition/valueset-oid",
      "valueUri": "2.16.840.1.113883.4.642.2.0"
    }
  ],
  "url": "http://hl7.org/fhir/ValueSet/qicore-encounter-condition-role",
  "version": "0.5.0",
  "name": "SNOMED CT Qualifier For Type of Diagnosis Codes",
  "publisher": "Health Level Seven, Inc. - CQI WG",
  "contact": [
    {
      "telecom": [
        {
          "system": "url",
          "value": "http://hl7.org/special/committees/CQI"
        }
      ]
    }
  ],
  "description": "Value Set Contents (Expansion) for SNOMED CT Qualifier For Type of Diagnosis Codes at Tue, Jul 14, 2015 16:16+0000",
  "copyright": "This value set includes content from SNOMED CT, which is copyright © 2002+ International Health Terminology Standards Development Organisation (IHTSDO), and distributed by agreement between IHTSDO and HL7. Implementer use of SNOMED CT is not covered by this agreement",
  "status": "draft",
  "experimental": true,
  "date": "2015-07-14T16:14:24+00:00",
  "expansion": {
    "extension": [
      {
        "url": "http://hl7.org/fhir/StructureDefinition/valueset-expansionSource",
        "valueReference": {
          "reference": "ValueSet/valueset-qicore-encounter-condition-role"
        }
      },
      {
        "url": "http://hl7.org/fhir/StructureDefinition/valueset-unclosed",
        "valueBoolean": true
      }
    ],
    "identifier": "urn:uuid:20399ff5-b23b-4e0f-9c0b-8c82c2760c16",
    "timestamp": "2015-07-03T23:51:38Z",
    "contains": [
      {
        "system": "http://snomed.info/sct",
        "code": "148006",
        "display": "Preliminary diagnosis (contextual qualifier) (qualifier value)"
      },
      {
        "system": "http://snomed.info/sct",
        "code": "5558000",
        "display": "Working diagnosis (contextual qualifier) (qualifier value)"
      },
      {
        "system": "http://snomed.info/sct",
        "code": "5605004",
        "display": "Autopsy diagnosis (contextual qualifier) (qualifier value)"
      },
      {
        "system": "http://snomed.info/sct",
        "code": "8319008",
        "display": "Principal diagnosis (contextual qualifier) (qualifier value)"
      },
      {
        "system": "http://snomed.info/sct",
        "code": "14657009",
        "display": "Established diagnosis (contextual qualifier) (qualifier value)"
      },
      {
        "system": "http://snomed.info/sct",
        "code": "15874002",
        "display": "Revised diagnosis (contextual qualifier) (qualifier value)"
      },
      {
        "system": "http://snomed.info/sct",
        "code": "16100001",
        "display": "Death diagnosis (contextual qualifier) (qualifier value)"
      },
      {
        "system": "http://snomed.info/sct",
        "code": "24508002",
        "display": "Cytology diagnosis (contextual qualifier) (qualifier value)"
      },
      {
        "system": "http://snomed.info/sct",
        "code": "25163005",
        "display": "X-ray diagnosis (contextual qualifier) (qualifier value)"
      },
      {
        "system": "http://snomed.info/sct",
        "code": "39154008",
        "display": "Clinical diagnosis"
      },
      {
        "system": "http://snomed.info/sct",
        "code": "46159000",
        "display": "Laboratory diagnosis (contextual qualifier) (qualifier value)"
      },
      {
        "system": "http://snomed.info/sct",
        "code": "47965005",
        "display": "Differential diagnosis (contextual qualifier) (qualifier value)"
      },
      {
        "system": "http://snomed.info/sct",
        "code": "48318009",
        "display": "Prior diagnosis (contextual qualifier) (qualifier value)"
      },
      {
        "system": "http://snomed.info/sct",
        "code": "52870002",
        "display": "Admitting diagnosis (contextual qualifier) (qualifier value)"
      },
      {
        "system": "http://snomed.info/sct",
        "code": "85097005",
        "display": "Secondary diagnosis (contextual qualifier) (qualifier value)"
      },
      {
        "system": "http://snomed.info/sct",
        "code": "88101002",
        "display": "Pathology diagnosis (contextual qualifier) (qualifier value)"
      },
      {
        "system": "http://snomed.info/sct",
        "code": "89100005",
        "display": "Final diagnosis (discharge) (contextual qualifier) (qualifier value)"
      },
      {
        "system": "http://snomed.info/sct",
        "code": "103330002",
        "display": "No diagnosis (contextual qualifier) (qualifier value)"
      },
      {
        "system": "http://snomed.info/sct",
        "code": "406520001",
        "display": "Preoperative diagnosis (qualifier value)"
      },
      {
        "system": "http://snomed.info/sct",
        "code": "406521002",
        "display": "Postoperative diagnosis (qualifier value)"
      },
      {
        "system": "http://snomed.info/sct",
        "code": "406522009",
        "display": "Transfer diagnosis (qualifier value)"
      },
      {
        "system": "http://snomed.info/sct",
        "code": "406523004",
        "display": "Referral diagnosis (qualifier value)"
      },
      {
        "system": "http://snomed.info/sct",
        "code": "406525006",
        "display": "Suggested billing diagnosis (qualifier value)"
      },
      {
        "system": "http://snomed.info/sct",
        "code": "406526007",
        "display": "Transfer admissions diagnosis (qualifier value)"
      },
      {
        "system": "http://snomed.info/sct",
        "code": "416400009",
        "display": "Palpatory diagnosis (qualifier value)"
      },
      {
        "system": "http://snomed.info/sct",
        "code": "416932001",
        "display": "Segmental diagnosis (qualifier value)"
      },
      {
        "system": "http://snomed.info/sct",
        "code": "703529000",
        "display": "Morphologic diagnosis (qualifier value)"
      }
    ]
  }
}