{
  "resourceType": "ValueSet",
  "id": "icd-10",
  "meta": {
    "lastUpdated": "2015-07-14T16:14:24.220+00:00",
    "profile": [
      "http://hl7.org/fhir/StructureDefinition/valueset-shareable-definition"
    ]
  },
  "text": {
    "status": "generated",
    "div": "<div><h2>ICD-10 Codes</h2><p>This value set includes sample ICD-10 codes.</p><p><b>Copyright Statement:</b> This is an example set</p><p>This value set includes codes defined in other code systems, using the following rules:</p><ul><li>Include these codes as defined in http://hl7.org/fhir/icd-10<table><tr><td><b>Code</b></td><td><b>Display</b></td></tr><tr><td>123456</td><td/><td/></tr><tr><td>987654</td><td/><td/></tr><tr><td>123987</td><td/><td/></tr><tr><td>112233</td><td/><td/></tr><tr><td>997755</td><td/><td/></tr><tr><td>321789</td><td/><td/></tr></table></li></ul></div>"
  },
  "extension": [
    {
      "url": "http://hl7.org/fhir/StructureDefinition/valueset-oid",
      "valueUri": "2.16.840.1.113883.4.642.2.450"
    }
  ],
  "url": "http://hl7.org/fhir/ValueSet/icd-10",
  "version": "0.5.0",
  "name": "ICD-10 Codes",
  "publisher": "Financial Management",
  "contact": [
    {
      "telecom": [
        {
          "system": "url",
          "value": "http://hl7.org/fhir"
        }
      ]
    }
  ],
  "description": "This value set includes sample ICD-10 codes.",
  "copyright": "This is an example set",
  "status": "draft",
  "experimental": true,
  "date": "2015-07-14T16:14:24+00:00",
  "compose": {
    "include": [
      {
        "system": "http://hl7.org/fhir/icd-10",
        "concept": [
          {
            "code": "123456"
          },
          {
            "code": "987654"
          },
          {
            "code": "123987"
          },
          {
            "code": "112233"
          },
          {
            "code": "997755"
          },
          {
            "code": "321789"
          }
        ]
      }
    ]
  }
}