{
  "resourceType": "ValueSet",
  "id": "max-deg-invasion-bowel",
  "meta": {
    "lastUpdated": "2015-07-14T16:14:24.220+00:00",
    "profile": [
      "http://hl7.org/fhir/StructureDefinition/valueset-shareable-definition"
    ]
  },
  "text": {
    "status": "generated",
    "div": "<div><h2>MaxDegreeInvasionBowelWall</h2><p>A code that indicates the maximum degree of local invasion into or through the bowel wall</p><p>This value set has an inline code system http://hl7.org/fhir/max-deg-invasion-bowel, which defines the following codes:</p><table class=\"codes\"><tr><td><b>Code</b></td><td><b>Display</b></td><td><b>Definition</b></td></tr><tr><td>pT1<a name=\"pT1\"> </a></td><td>pT1 Tumour invades submucosa</td><td/></tr><tr><td>pT2<a name=\"pT2\"> </a></td><td>pT2 Tumour invades muscularis propria</td><td/></tr><tr><td>pT3<a name=\"pT3\"> </a></td><td>pT3 Tumour invades through muscularis propria into pericolorectal tissues</td><td/></tr><tr><td>pT4a<a name=\"pT4a\"> </a></td><td>pT4a Tumour penetrates to the surface of the visceral peritoneum</td><td/></tr><tr><td>pT4b<a name=\"pT4b\"> </a></td><td>pT4b Tumour directly invades or is adherent to other organs or structures</td><td/></tr></table></div>"
  },
  "extension": [
    {
      "url": "http://hl7.org/fhir/StructureDefinition/valueset-oid",
      "valueUri": "2.16.840.1.113883.4.642.2.0"
    }
  ],
  "url": "http://hl7.org/fhir/ValueSet/max-deg-invasion-bowel",
  "version": "0.5.0",
  "name": "MaxDegreeInvasionBowelWall",
  "publisher": "HL7 (FHIR Project)",
  "contact": [
    {
      "telecom": [
        {
          "system": "url",
          "value": "http://hl7.org/fhir"
        },
        {
          "system": "email",
          "value": "fhir@lists.hl7.org"
        }
      ]
    }
  ],
  "description": "A code that indicates the maximum degree of local invasion into or through the bowel wall",
  "status": "draft",
  "experimental": false,
  "date": "2015-07-14T16:14:24+00:00",
  "define": {
    "system": "http://hl7.org/fhir/max-deg-invasion-bowel",
    "version": "0.5.0",
    "caseSensitive": true,
    "concept": [
      {
        "code": "pT1",
        "display": "pT1 Tumour invades submucosa"
      },
      {
        "code": "pT2",
        "display": "pT2 Tumour invades muscularis propria"
      },
      {
        "code": "pT3",
        "display": "pT3 Tumour invades through muscularis propria into pericolorectal tissues"
      },
      {
        "code": "pT4a",
        "display": "pT4a Tumour penetrates to the surface of the visceral peritoneum"
      },
      {
        "code": "pT4b",
        "display": "pT4b Tumour directly invades or is adherent to other organs or structures"
      }
    ]
  }
}