{
  "resourceType": "ValueSet",
  "id": "daf-encounter-dischargedisposition",
  "meta": {
    "lastUpdated": "2015-07-14T16:14:24.220+00:00",
    "profile": [
      "http://hl7.org/fhir/StructureDefinition/valueset-shareable-definition"
    ]
  },
  "text": {
    "status": "generated",
    "div": "<div><h2>DAF Encounter Discharge Disposition</h2><p>Discharge Disposition - NUBC manual UB-04, UB form locator 17</p><p>This value set includes codes defined in other code systems, using the following rules:</p><ul><li>Include all codes defined in http://www.nubc.org/patient-discharge</li></ul></div>"
  },
  "extension": [
    {
      "url": "http://hl7.org/fhir/StructureDefinition/valueset-oid",
      "valueUri": "2.16.840.1.113883.4.642.2.0"
    }
  ],
  "url": "http://hl7.org/fhir/ValueSet/daf-encounter-dischargedisposition",
  "version": "0.5.0",
  "name": "DAF Encounter Discharge Disposition",
  "publisher": "FHIR Project team",
  "contact": [
    {
      "telecom": [
        {
          "system": "url",
          "value": "http://hl7.org/fhir"
        }
      ]
    }
  ],
  "description": "Discharge Disposition - NUBC manual UB-04, UB form locator 17",
  "status": "draft",
  "experimental": true,
  "date": "2015-07-14T16:14:24+00:00",
  "compose": {
    "include": [
      {
        "system": "http://www.nubc.org/patient-discharge"
      }
    ]
  }
}