{
  "resourceType": "ValueSet",
  "id": "contract-actorrole",
  "meta": {
    "lastUpdated": "2015-07-14T16:14:24.220+00:00",
    "profile": [
      "http://hl7.org/fhir/StructureDefinition/valueset-shareable-definition"
    ]
  },
  "text": {
    "status": "generated",
    "div": "<div><h2>Contract Actor Role Codes</h2><p>This value set includes sample Contract Actor Role codes.</p><p><b>Copyright Statement:</b> This is an example set</p><p>This value set has an inline code system http://www.hl7.org/fhir/contractactorrole, which defines the following codes:</p><table class=\"codes\"><tr><td><b>Code</b></td><td><b>Definition</b></td></tr><tr><td>practitioner<a name=\"practitioner\"> </a></td><td/></tr><tr><td>patient<a name=\"patient\"> </a></td><td/></tr></table></div>"
  },
  "extension": [
    {
      "url": "http://hl7.org/fhir/StructureDefinition/valueset-oid",
      "valueUri": "2.16.840.1.113883.4.642.2.1555"
    }
  ],
  "url": "http://hl7.org/fhir/ValueSet/contract-actorrole",
  "version": "0.5.0",
  "name": "Contract Actor Role Codes",
  "publisher": "CBCC",
  "contact": [
    {
      "telecom": [
        {
          "system": "url",
          "value": "http://hl7.org/fhir"
        }
      ]
    }
  ],
  "description": "This value set includes sample Contract Actor Role codes.",
  "copyright": "This is an example set",
  "status": "draft",
  "experimental": true,
  "date": "2015-07-14T16:14:24+00:00",
  "define": {
    "extension": [
      {
        "url": "http://hl7.org/fhir/StructureDefinition/valueset-oid",
        "valueUri": "urn:oid:2.16.840.1.113883.4.642.1.1555"
      }
    ],
    "system": "http://www.hl7.org/fhir/contractactorrole",
    "caseSensitive": true,
    "concept": [
      {
        "code": "practitioner"
      },
      {
        "code": "patient"
      }
    ]
  }
}