{
  "resourceType": "ValueSet",
  "id": "tumour-site",
  "meta": {
    "lastUpdated": "2015-07-14T16:14:24.220+00:00",
    "profile": [
      "http://hl7.org/fhir/StructureDefinition/valueset-shareable-definition"
    ]
  },
  "text": {
    "status": "generated",
    "div": "<div><h2>TumourSite</h2><p>A code that indicates the site of the tumour</p><p>This value set has an inline code system http://hl7.org/fhir/tumour-site, which defines the following codes:</p><table class=\"codes\"><tr><td><b>Code</b></td><td><b>Display</b></td><td><b>Definition</b></td></tr><tr><td>caecum<a name=\"caecum\"> </a></td><td>Caecum</td><td/></tr><tr><td>ascending_colon<a name=\"ascending_colon\"> </a></td><td>Ascending colon</td><td/></tr><tr><td>hepatic_flexure<a name=\"hepatic_flexure\"> </a></td><td>Hepatic flexure</td><td/></tr><tr><td>transverse_colon<a name=\"transverse_colon\"> </a></td><td>Transverse colon</td><td/></tr><tr><td>splenic_flexure<a name=\"splenic_flexure\"> </a></td><td>Splenic flexure</td><td/></tr><tr><td>descending_colon<a name=\"descending_colon\"> </a></td><td>Descending colon</td><td/></tr><tr><td>sigmoid_colon<a name=\"sigmoid_colon\"> </a></td><td>Sigmoid colon</td><td/></tr><tr><td>rectosigmoid_junction<a name=\"rectosigmoid_junction\"> </a></td><td>Rectosigmoid juction</td><td/></tr><tr><td>rectum<a name=\"rectum\"> </a></td><td>Rectum</td><td/></tr></table></div>"
  },
  "extension": [
    {
      "url": "http://hl7.org/fhir/StructureDefinition/valueset-oid",
      "valueUri": "2.16.840.1.113883.4.642.2.0"
    }
  ],
  "url": "http://hl7.org/fhir/ValueSet/tumour-site",
  "version": "0.5.0",
  "name": "TumourSite",
  "publisher": "HL7 (FHIR Project)",
  "contact": [
    {
      "telecom": [
        {
          "system": "url",
          "value": "http://hl7.org/fhir"
        },
        {
          "system": "email",
          "value": "fhir@lists.hl7.org"
        }
      ]
    }
  ],
  "description": "A code that indicates the site of the tumour",
  "status": "draft",
  "experimental": false,
  "date": "2015-07-14T16:14:24+00:00",
  "define": {
    "system": "http://hl7.org/fhir/tumour-site",
    "version": "0.5.0",
    "caseSensitive": true,
    "concept": [
      {
        "code": "caecum",
        "display": "Caecum"
      },
      {
        "code": "ascending_colon",
        "display": "Ascending colon"
      },
      {
        "code": "hepatic_flexure",
        "display": "Hepatic flexure"
      },
      {
        "code": "transverse_colon",
        "display": "Transverse colon"
      },
      {
        "code": "splenic_flexure",
        "display": "Splenic flexure"
      },
      {
        "code": "descending_colon",
        "display": "Descending colon"
      },
      {
        "code": "sigmoid_colon",
        "display": "Sigmoid colon"
      },
      {
        "code": "rectosigmoid_junction",
        "display": "Rectosigmoid juction"
      },
      {
        "code": "rectum",
        "display": "Rectum"
      }
    ]
  }
}