{
  "resourceType": "ValueSet",
  "id": "subscription-tag",
  "meta": {
    "lastUpdated": "2015-07-14T16:14:24.220+00:00",
    "profile": [
      "http://hl7.org/fhir/StructureDefinition/valueset-shareable-definition"
    ]
  },
  "text": {
    "status": "generated",
    "div": "<div><h2>SubscriptionTag</h2><p>Tags to put on a resource after subscriptions sent</p><p>This value set has an inline code system http://hl7.org/fhir/subscription-tag, which defines the following codes:</p><table class=\"codes\"><tr><td><b>Code</b></td><td><b>Display</b></td><td><b>Definition</b></td></tr><tr><td>queued<a name=\"queued\"> </a></td><td>Queued</td><td>The message has been queued for processing on a destination systems</td></tr><tr><td>delivered<a name=\"delivered\"> </a></td><td>Delivered</td><td>The message has been delivered to it's intended recipient</td></tr></table></div>"
  },
  "extension": [
    {
      "url": "http://hl7.org/fhir/StructureDefinition/valueset-oid",
      "valueUri": "2.16.840.1.113883.4.642.2.0"
    }
  ],
  "url": "http://hl7.org/fhir/ValueSet/subscription-tag",
  "version": "0.5.0",
  "name": "SubscriptionTag",
  "publisher": "HL7 (FHIR Project)",
  "contact": [
    {
      "telecom": [
        {
          "system": "url",
          "value": "http://hl7.org/fhir"
        },
        {
          "system": "email",
          "value": "fhir@lists.hl7.org"
        }
      ]
    }
  ],
  "description": "Tags to put on a resource after subscriptions sent",
  "status": "draft",
  "experimental": false,
  "date": "2015-07-14T16:14:24+00:00",
  "define": {
    "extension": [
      {
        "url": "http://hl7.org/fhir/StructureDefinition/valueset-oid",
        "valueUri": "urn:oid:2.16.840.1.113883.4.642.1.0"
      }
    ],
    "system": "http://hl7.org/fhir/subscription-tag",
    "version": "0.5.0",
    "caseSensitive": true,
    "concept": [
      {
        "code": "queued",
        "display": "Queued",
        "definition": "The message has been queued for processing on a destination systems"
      },
      {
        "code": "delivered",
        "display": "Delivered",
        "definition": "The message has been delivered to it's intended recipient"
      }
    ]
  }
}