{
  "resourceType": "ValueSet",
  "id": "lymph-nodes",
  "meta": {
    "lastUpdated": "2015-07-14T16:14:24.220+00:00",
    "profile": [
      "http://hl7.org/fhir/StructureDefinition/valueset-shareable-definition"
    ]
  },
  "text": {
    "status": "generated",
    "div": "<div><h2>LymphNodes</h2><p>A code that indicates if lymph nodes were received</p><p>This value set has an inline code system http://hl7.org/fhir/lymph-nodes, which defines the following codes:</p><table class=\"codes\"><tr><td><b>Code</b></td><td><b>Display</b></td><td><b>Definition</b></td></tr><tr><td>not_received<a name=\"not_received\"> </a></td><td>Not received</td><td/></tr><tr><td>received<a name=\"received\"> </a></td><td>Received</td><td/></tr></table></div>"
  },
  "extension": [
    {
      "url": "http://hl7.org/fhir/StructureDefinition/valueset-oid",
      "valueUri": "2.16.840.1.113883.4.642.2.0"
    }
  ],
  "url": "http://hl7.org/fhir/ValueSet/lymph-nodes",
  "version": "0.5.0",
  "name": "LymphNodes",
  "publisher": "HL7 (FHIR Project)",
  "contact": [
    {
      "telecom": [
        {
          "system": "url",
          "value": "http://hl7.org/fhir"
        },
        {
          "system": "email",
          "value": "fhir@lists.hl7.org"
        }
      ]
    }
  ],
  "description": "A code that indicates if lymph nodes were received",
  "status": "draft",
  "experimental": false,
  "date": "2015-07-14T16:14:24+00:00",
  "define": {
    "system": "http://hl7.org/fhir/lymph-nodes",
    "version": "0.5.0",
    "caseSensitive": true,
    "concept": [
      {
        "code": "not_received",
        "display": "Not received"
      },
      {
        "code": "received",
        "display": "Received"
      }
    ]
  }
}