{
  "resourceType": "ValueSet",
  "id": "intactness-of-mesorectum",
  "meta": {
    "lastUpdated": "2015-07-14T16:14:24.220+00:00",
    "profile": [
      "http://hl7.org/fhir/StructureDefinition/valueset-shareable-definition"
    ]
  },
  "text": {
    "status": "generated",
    "div": "<div><h2>IntactnessOfMesorectum</h2><p>A code that indicates the intactness of the mesorectum</p><p>This value set has an inline code system http://hl7.org/fhir/intactness-of-mesorectum, which defines the following codes:</p><table class=\"codes\"><tr><td><b>Code</b></td><td><b>Display</b></td><td><b>Definition</b></td></tr><tr><td>incomplete-grade1<a name=\"incomplete-grade1\"> </a></td><td>Incomplete (grade 1)</td><td/></tr><tr><td>nearly_complete_grade2<a name=\"nearly_complete_grade2\"> </a></td><td>Nearly complete (grade 2)</td><td/></tr><tr><td>complete_grade3<a name=\"complete_grade3\"> </a></td><td>Complete (grade 3)</td><td/></tr></table></div>"
  },
  "extension": [
    {
      "url": "http://hl7.org/fhir/StructureDefinition/valueset-oid",
      "valueUri": "2.16.840.1.113883.4.642.2.0"
    }
  ],
  "url": "http://hl7.org/fhir/ValueSet/intactness-of-mesorectum",
  "version": "0.5.0",
  "name": "IntactnessOfMesorectum",
  "publisher": "HL7 (FHIR Project)",
  "contact": [
    {
      "telecom": [
        {
          "system": "url",
          "value": "http://hl7.org/fhir"
        },
        {
          "system": "email",
          "value": "fhir@lists.hl7.org"
        }
      ]
    }
  ],
  "description": "A code that indicates the intactness of the mesorectum",
  "status": "draft",
  "experimental": false,
  "date": "2015-07-14T16:14:24+00:00",
  "define": {
    "system": "http://hl7.org/fhir/intactness-of-mesorectum",
    "version": "0.5.0",
    "caseSensitive": true,
    "concept": [
      {
        "code": "incomplete-grade1",
        "display": "Incomplete (grade 1)"
      },
      {
        "code": "nearly_complete_grade2",
        "display": "Nearly complete (grade 2)"
      },
      {
        "code": "complete_grade3",
        "display": "Complete (grade 3)"
      }
    ]
  }
}