{
  "resourceType": "ValueSet",
  "id": "procedure-request-priority",
  "meta": {
    "lastUpdated": "2015-07-14T16:14:24.220+00:00",
    "profile": [
      "http://hl7.org/fhir/StructureDefinition/valueset-shareable-definition"
    ]
  },
  "text": {
    "status": "generated",
    "div": "<div><h2>ProcedureRequestPriority</h2><p>The priority of the request</p><p>This value set has an inline code system http://hl7.org/fhir/procedure-request-priority, which defines the following codes:</p><table class=\"codes\"><tr><td><b>Code</b></td><td><b>Display</b></td><td><b>Definition</b></td></tr><tr><td>routine<a name=\"routine\"> </a></td><td>Routine</td><td>The request has a normal priority.</td></tr><tr><td>urgent<a name=\"urgent\"> </a></td><td>Urgent</td><td>The request should be done urgently.</td></tr><tr><td>stat<a name=\"stat\"> </a></td><td>Stat</td><td>The request is time-critical.</td></tr><tr><td>asap<a name=\"asap\"> </a></td><td>Asap</td><td>The request should be acted on as soon as possible.</td></tr></table></div>"
  },
  "extension": [
    {
      "url": "http://hl7.org/fhir/StructureDefinition/valueset-oid",
      "valueUri": "2.16.840.1.113883.4.642.2.502"
    }
  ],
  "url": "http://hl7.org/fhir/ValueSet/procedure-request-priority",
  "version": "0.5.0",
  "name": "ProcedureRequestPriority",
  "publisher": "HL7 (FHIR Project)",
  "contact": [
    {
      "telecom": [
        {
          "system": "url",
          "value": "http://hl7.org/fhir"
        },
        {
          "system": "email",
          "value": "fhir@lists.hl7.org"
        }
      ]
    }
  ],
  "description": "The priority of the request",
  "status": "draft",
  "experimental": false,
  "date": "2015-07-14T16:14:24+00:00",
  "define": {
    "extension": [
      {
        "url": "http://hl7.org/fhir/StructureDefinition/valueset-oid",
        "valueUri": "urn:oid:2.16.840.1.113883.4.642.1.502"
      }
    ],
    "system": "http://hl7.org/fhir/procedure-request-priority",
    "version": "0.5.0",
    "caseSensitive": true,
    "concept": [
      {
        "code": "routine",
        "display": "Routine",
        "definition": "The request has a normal priority."
      },
      {
        "code": "urgent",
        "display": "Urgent",
        "definition": "The request should be done urgently."
      },
      {
        "code": "stat",
        "display": "Stat",
        "definition": "The request is time-critical."
      },
      {
        "code": "asap",
        "display": "Asap",
        "definition": "The request should be acted on as soon as possible."
      }
    ]
  }
}