{
  "resourceType": "ValueSet",
  "id": "filter-operator",
  "meta": {
    "lastUpdated": "2015-07-14T16:14:24.220+00:00",
    "profile": [
      "http://hl7.org/fhir/StructureDefinition/valueset-shareable-definition"
    ]
  },
  "text": {
    "status": "generated",
    "div": "<div><h2>FilterOperator</h2><p>The kind of operation to perform as a part of a property based filter</p><p>This value set has an inline code system http://hl7.org/fhir/filter-operator, which defines the following codes:</p><table class=\"codes\"><tr><td><b>Code</b></td><td><b>Display</b></td><td><b>Definition</b></td></tr><tr><td>=<a name=\".61\"> </a></td><td>Equals</td><td>The specified property of the code equals the provided value</td></tr><tr><td>is-a<a name=\"is-a\"> </a></td><td>Is A (by subsumption)</td><td>Includes all concept ids that have a transitive is-a relationship with the concept Id provided as the value, including the provided concept itself</td></tr><tr><td>is-not-a<a name=\"is-not-a\"> </a></td><td>Not (Is A) (by subsumption)</td><td>The specified property of the code does not have an is-a relationship with the provided value</td></tr><tr><td>regex<a name=\"regex\"> </a></td><td>Regular Expression</td><td>The specified property of the code  matches the regex specified in the provided value</td></tr><tr><td>in<a name=\"in\"> </a></td><td>In Set</td><td>The specified property of the code is in the set of codes or concepts specified in the provided value (comma separated list)</td></tr><tr><td>not-in<a name=\"not-in\"> </a></td><td>Not in Set</td><td>The specified property of the code is not in the set of codes or concepts specified in the provided value (comma separated list)</td></tr></table></div>"
  },
  "extension": [
    {
      "url": "http://hl7.org/fhir/StructureDefinition/valueset-oid",
      "valueUri": "2.16.840.1.113883.4.642.2.177"
    }
  ],
  "url": "http://hl7.org/fhir/ValueSet/filter-operator",
  "version": "0.5.0",
  "name": "FilterOperator",
  "publisher": "HL7 (FHIR Project)",
  "contact": [
    {
      "telecom": [
        {
          "system": "url",
          "value": "http://hl7.org/fhir"
        },
        {
          "system": "email",
          "value": "fhir@lists.hl7.org"
        }
      ]
    }
  ],
  "description": "The kind of operation to perform as a part of a property based filter",
  "status": "draft",
  "experimental": false,
  "date": "2015-07-14T16:14:24+00:00",
  "define": {
    "extension": [
      {
        "url": "http://hl7.org/fhir/StructureDefinition/valueset-oid",
        "valueUri": "urn:oid:2.16.840.1.113883.4.642.1.177"
      }
    ],
    "system": "http://hl7.org/fhir/filter-operator",
    "version": "0.5.0",
    "caseSensitive": true,
    "concept": [
      {
        "code": "=",
        "display": "Equals",
        "definition": "The specified property of the code equals the provided value"
      },
      {
        "code": "is-a",
        "display": "Is A (by subsumption)",
        "definition": "Includes all concept ids that have a transitive is-a relationship with the concept Id provided as the value, including the provided concept itself"
      },
      {
        "code": "is-not-a",
        "display": "Not (Is A) (by subsumption)",
        "definition": "The specified property of the code does not have an is-a relationship with the provided value"
      },
      {
        "code": "regex",
        "display": "Regular Expression",
        "definition": "The specified property of the code  matches the regex specified in the provided value"
      },
      {
        "code": "in",
        "display": "In Set",
        "definition": "The specified property of the code is in the set of codes or concepts specified in the provided value (comma separated list)"
      },
      {
        "code": "not-in",
        "display": "Not in Set",
        "definition": "The specified property of the code is not in the set of codes or concepts specified in the provided value (comma separated list)"
      }
    ]
  }
}