{
  "resourceType": "ValueSet",
  "id": "operation-parameter-type",
  "meta": {
    "lastUpdated": "2015-07-14T16:14:24.220+00:00",
    "profile": [
      "http://hl7.org/fhir/StructureDefinition/valueset-shareable-definition"
    ]
  },
  "text": {
    "status": "generated",
    "div": "<div><h2>Parameter Types used in Operation Definitions</h2><p>Parameter Types used in Operation Definitions</p><p>This value set includes codes defined in other code systems, using the following rules:</p><ul><li>Import all the codes that are part of <a href=\"valueset-search-param-type.html\">http://hl7.org/fhir/ValueSet/search-param-type</a></li><li>Import all the codes that are part of <a href=\"valueset-defined-types.html\">http://hl7.org/fhir/ValueSet/defined-types</a></li></ul></div>"
  },
  "extension": [
    {
      "url": "http://hl7.org/fhir/StructureDefinition/valueset-oid",
      "valueUri": "2.16.840.1.113883.4.642.2.410"
    }
  ],
  "url": "http://hl7.org/fhir/ValueSet/operation-parameter-type",
  "version": "0.5.0",
  "name": "Parameter Types used in Operation Definitions",
  "publisher": "HL7, Inc. FHIR project",
  "contact": [
    {
      "telecom": [
        {
          "system": "url",
          "value": "http://hl7.org/fhir"
        },
        {
          "system": "email",
          "value": "fhir@lists.hl7.org"
        }
      ]
    }
  ],
  "description": "Parameter Types used in Operation Definitions",
  "status": "draft",
  "experimental": true,
  "extensible": false,
  "date": "2014-07-22",
  "compose": {
    "import": [
      "http://hl7.org/fhir/ValueSet/search-param-type",
      "http://hl7.org/fhir/ValueSet/defined-types"
    ]
  }
}