{
  "resourceType": "ValueSet",
  "id": "structure-definition-kind",
  "meta": {
    "lastUpdated": "2015-07-14T16:14:24.220+00:00",
    "profile": [
      "http://hl7.org/fhir/StructureDefinition/valueset-shareable-definition"
    ]
  },
  "text": {
    "status": "generated",
    "div": "<div><h2>StructureDefinitionKind</h2><p>Defines the type of structure that a definition is describing</p><p>This value set has an inline code system http://hl7.org/fhir/structure-definition-kind, which defines the following codes:</p><table class=\"codes\"><tr><td><b>Code</b></td><td><b>Display</b></td><td><b>Definition</b></td></tr><tr><td>datatype<a name=\"datatype\"> </a></td><td>Data Type</td><td>A data type - either a primitive or complex structure that defines a set of data elements. These can be used throughout Resource and extension definitions</td></tr><tr><td>resource<a name=\"resource\"> </a></td><td>Resource</td><td>A resource defined by the FHIR specification</td></tr></table></div>"
  },
  "extension": [
    {
      "url": "http://hl7.org/fhir/StructureDefinition/valueset-oid",
      "valueUri": "2.16.840.1.113883.4.642.2.0"
    }
  ],
  "url": "http://hl7.org/fhir/ValueSet/structure-definition-kind",
  "version": "0.5.0",
  "name": "StructureDefinitionKind",
  "publisher": "HL7 (FHIR Project)",
  "contact": [
    {
      "telecom": [
        {
          "system": "url",
          "value": "http://hl7.org/fhir"
        },
        {
          "system": "email",
          "value": "fhir@lists.hl7.org"
        }
      ]
    }
  ],
  "description": "Defines the type of structure that a definition is describing",
  "status": "draft",
  "experimental": false,
  "date": "2015-07-14T16:14:24+00:00",
  "define": {
    "extension": [
      {
        "url": "http://hl7.org/fhir/StructureDefinition/valueset-oid",
        "valueUri": "urn:oid:2.16.840.1.113883.4.642.1.0"
      }
    ],
    "system": "http://hl7.org/fhir/structure-definition-kind",
    "version": "0.5.0",
    "caseSensitive": true,
    "concept": [
      {
        "code": "datatype",
        "display": "Data Type",
        "definition": "A data type - either a primitive or complex structure that defines a set of data elements. These can be used throughout Resource and extension definitions"
      },
      {
        "code": "resource",
        "display": "Resource",
        "definition": "A resource defined by the FHIR specification"
      }
    ]
  }
}