{
  "resourceType": "ValueSet",
  "id": "tumour-stage-n",
  "meta": {
    "lastUpdated": "2015-07-14T16:14:24.220+00:00",
    "profile": [
      "http://hl7.org/fhir/StructureDefinition/valueset-shareable-definition"
    ]
  },
  "text": {
    "status": "generated",
    "div": "<div><h2>TumourStageN</h2><p>A code that records tumour stage N</p><p>This value set has an inline code system http://hl7.org/fhir/tumour-stage-n, which defines the following codes:</p><table class=\"codes\"><tr><td><b>Code</b></td><td><b>Display</b></td><td><b>Definition</b></td></tr><tr><td>nx<a name=\"nx\"> </a></td><td>NX Regional lymph nodes cannot be assessed</td><td/></tr><tr><td>n0<a name=\"n0\"> </a></td><td>N0 No regional lymph node metastasis</td><td/></tr><tr><td>n1<a name=\"n1\"> </a></td><td>N1 Metastasis in 1-3 regional lymph nodes</td><td/></tr><tr><td>n1a<a name=\"n1a\"> </a></td><td>N1a Metastasis in one regional lymph node</td><td/></tr><tr><td>n1b<a name=\"n1b\"> </a></td><td>N1b Metastasis in 2-3 regional lymph nodes</td><td/></tr><tr><td>n1c<a name=\"n1c\"> </a></td><td>N1c Tumour deposit(s) in the subserosa, mesentery, or nonperitonealised pericolic or perirectal tissues without regional nodal metastasis</td><td/></tr><tr><td>n2<a name=\"n2\"> </a></td><td>N2 Metastasis in 4 or more regional lymph nodes</td><td/></tr><tr><td>n2a<a name=\"n2a\"> </a></td><td>N2a Metastasis in 4-6 regional lymph nodes</td><td/></tr><tr><td>n2b<a name=\"n2b\"> </a></td><td>N2b Metastasis in 7 or more regional lymph nodes</td><td/></tr></table></div>"
  },
  "extension": [
    {
      "url": "http://hl7.org/fhir/StructureDefinition/valueset-oid",
      "valueUri": "2.16.840.1.113883.4.642.2.0"
    }
  ],
  "url": "http://hl7.org/fhir/ValueSet/tumour-stage-n",
  "version": "0.5.0",
  "name": "TumourStageN",
  "publisher": "HL7 (FHIR Project)",
  "contact": [
    {
      "telecom": [
        {
          "system": "url",
          "value": "http://hl7.org/fhir"
        },
        {
          "system": "email",
          "value": "fhir@lists.hl7.org"
        }
      ]
    }
  ],
  "description": "A code that records tumour stage N",
  "status": "draft",
  "experimental": false,
  "date": "2015-07-14T16:14:24+00:00",
  "define": {
    "system": "http://hl7.org/fhir/tumour-stage-n",
    "version": "0.5.0",
    "caseSensitive": true,
    "concept": [
      {
        "code": "nx",
        "display": "NX Regional lymph nodes cannot be assessed"
      },
      {
        "code": "n0",
        "display": "N0 No regional lymph node metastasis"
      },
      {
        "code": "n1",
        "display": "N1 Metastasis in 1-3 regional lymph nodes"
      },
      {
        "code": "n1a",
        "display": "N1a Metastasis in one regional lymph node"
      },
      {
        "code": "n1b",
        "display": "N1b Metastasis in 2-3 regional lymph nodes"
      },
      {
        "code": "n1c",
        "display": "N1c Tumour deposit(s) in the subserosa, mesentery, or nonperitonealised pericolic or perirectal tissues without regional nodal metastasis"
      },
      {
        "code": "n2",
        "display": "N2 Metastasis in 4 or more regional lymph nodes"
      },
      {
        "code": "n2a",
        "display": "N2a Metastasis in 4-6 regional lymph nodes"
      },
      {
        "code": "n2b",
        "display": "N2b Metastasis in 7 or more regional lymph nodes"
      }
    ]
  }
}