{
  "resourceType": "ValueSet",
  "id": "clinical-impression-status",
  "meta": {
    "lastUpdated": "2015-07-14T16:14:24.220+00:00",
    "profile": [
      "http://hl7.org/fhir/StructureDefinition/valueset-shareable-definition"
    ]
  },
  "text": {
    "status": "generated",
    "div": "<div><h2>ClinicalImpressionStatus</h2><p>The workflow state of a clinical impression</p><p>This value set has an inline code system http://hl7.org/fhir/clinical-impression-status, which defines the following codes:</p><table class=\"codes\"><tr><td><b>Code</b></td><td><b>Display</b></td><td><b>Definition</b></td></tr><tr><td>in-progress<a name=\"in-progress\"> </a></td><td>In progress</td><td>The assessment is still on-going and results are not yet final.</td></tr><tr><td>completed<a name=\"completed\"> </a></td><td>Completed</td><td>The assessment is done and the results are final</td></tr><tr><td>entered-in-error<a name=\"entered-in-error\"> </a></td><td>Entered in Error</td><td>This assessment was never actually done and the record is erroneous (e.g. Wrong patient)</td></tr></table></div>"
  },
  "extension": [
    {
      "url": "http://hl7.org/fhir/StructureDefinition/valueset-oid",
      "valueUri": "2.16.840.1.113883.4.642.2.2023"
    }
  ],
  "url": "http://hl7.org/fhir/ValueSet/clinical-impression-status",
  "version": "0.5.0",
  "name": "ClinicalImpressionStatus",
  "publisher": "HL7 (FHIR Project)",
  "contact": [
    {
      "telecom": [
        {
          "system": "url",
          "value": "http://hl7.org/fhir"
        },
        {
          "system": "email",
          "value": "fhir@lists.hl7.org"
        }
      ]
    }
  ],
  "description": "The workflow state of a clinical impression",
  "status": "draft",
  "experimental": false,
  "date": "2015-07-14T16:14:24+00:00",
  "define": {
    "extension": [
      {
        "url": "http://hl7.org/fhir/StructureDefinition/valueset-oid",
        "valueUri": "urn:oid:2.16.840.1.113883.4.642.1.2023"
      }
    ],
    "system": "http://hl7.org/fhir/clinical-impression-status",
    "version": "0.5.0",
    "caseSensitive": true,
    "concept": [
      {
        "code": "in-progress",
        "display": "In progress",
        "definition": "The assessment is still on-going and results are not yet final."
      },
      {
        "code": "completed",
        "display": "Completed",
        "definition": "The assessment is done and the results are final"
      },
      {
        "code": "entered-in-error",
        "display": "Entered in Error",
        "definition": "This assessment was never actually done and the record is erroneous (e.g. Wrong patient)"
      }
    ]
  }
}