{
  "resourceType": "ValueSet",
  "id": "observation-genomicpanel",
  "meta": {
    "lastUpdated": "2015-07-14T16:14:24.220+00:00",
    "profile": [
      "http://hl7.org/fhir/StructureDefinition/valueset-shareable-definition"
    ]
  },
  "text": {
    "status": "generated",
    "div": "<div><h2>Genomic Observation Panel</h2><p>This value set defines the set ofLOINcs for genomic panels </p><p><b>Copyright Statement:</b> blah blah blah</p><p>This value set includes codes defined in other code systems, using the following rules:</p><ul><li>Include these codes as defined in http://loinc.org<table><tr><td><b>Code</b></td><td><b>Display</b></td></tr><tr><td>21665-5</td><td>EGFR gene mutations found [Identifier] in Blood or Tissue by Molecular genetics method Nominal</td><td/></tr><tr><td>21636-6</td><td>BRCA1 gene mutations found [Identifier] in Blood or Tissue by Molecular genetics method Nominal</td><td/></tr></table></li></ul></div>"
  },
  "extension": [
    {
      "url": "http://hl7.org/fhir/StructureDefinition/valueset-oid",
      "valueUri": "2.16.840.1.113883.4.642.2.0"
    }
  ],
  "url": "http://hl7.org/fhir/ValueSet/observation-genomicpanel",
  "version": "0.5.0",
  "name": "Genomic Observation Panel",
  "publisher": "HL7 International - Orders and Observations WG",
  "contact": [
    {
      "telecom": [
        {
          "system": "url",
          "value": "http://hl7.org/fhir"
        }
      ]
    }
  ],
  "description": "This value set defines the set ofLOINcs for genomic panels ",
  "copyright": "blah blah blah",
  "status": "draft",
  "experimental": true,
  "date": "2015-07-14T16:14:24+00:00",
  "compose": {
    "include": [
      {
        "system": "http://loinc.org",
        "version": "2.52",
        "concept": [
          {
            "code": "21665-5"
          },
          {
            "code": "21636-6"
          }
        ]
      }
    ]
  }
}