{
  "resourceType": "ValueSet",
  "id": "list-DAFMedListCode",
  "meta": {
    "lastUpdated": "2015-07-14T16:14:24.220+00:00",
    "profile": [
      "http://hl7.org/fhir/StructureDefinition/valueset-shareable-definition"
    ]
  },
  "text": {
    "status": "generated",
    "div": "<div><h2>DAF Medication List Codes</h2><p>This value set indicates the allowed Medication list values in list.code. The vocabulary selected for this value set aligns with the C-CDA section codes.</p><p><b>Copyright Statement:</b> This content from LOINC&reg; is copyright &copy; 1995 Regenstrief Institute, Inc. and the LOINC Committee, and available at no cost under the license at http://loinc.org/terms-of-use</p><p>This value set includes codes defined in other code systems, using the following rules:</p><ul><li>Include these codes as defined in http://loinc.org<table><tr><td><b>Code</b></td><td><b>Display</b></td></tr><tr><td>42346-7</td><td>Medications on admission (narrative)</td><td/></tr><tr><td>10160-0</td><td>History of medication use Narrative</td><td/></tr><tr><td>75311-1</td><td>Discharge medications Narrative</td><td/></tr></table></li></ul></div>"
  },
  "extension": [
    {
      "url": "http://hl7.org/fhir/StructureDefinition/valueset-oid",
      "valueUri": "2.16.840.1.113883.4.642.2.0"
    }
  ],
  "url": "http://hl7.org/fhir/ValueSet/list-DAFMedListCode",
  "version": "0.5.0",
  "name": "DAF Medication List Codes",
  "publisher": "Data Access Framework (DAF) design team",
  "contact": [
    {
      "telecom": [
        {
          "system": "url",
          "value": "http://hl7.org/fhir"
        }
      ]
    }
  ],
  "description": "This value set indicates the allowed Medication list values in list.code. The vocabulary selected for this value set aligns with the C-CDA section codes.",
  "copyright": "This content from LOINC® is copyright © 1995 Regenstrief Institute, Inc. and the LOINC Committee, and available at no cost under the license at http://loinc.org/terms-of-use",
  "status": "active",
  "experimental": true,
  "date": "2015-07-14T16:14:24+00:00",
  "compose": {
    "include": [
      {
        "system": "http://loinc.org",
        "concept": [
          {
            "code": "42346-7"
          },
          {
            "code": "10160-0"
          },
          {
            "code": "75311-1"
          }
        ]
      }
    ]
  }
}