{
  "resourceType": "ValueSet",
  "id": "kras",
  "meta": {
    "lastUpdated": "2015-07-14T16:14:24.220+00:00",
    "profile": [
      "http://hl7.org/fhir/StructureDefinition/valueset-shareable-definition"
    ]
  },
  "text": {
    "status": "generated",
    "div": "<div><h2>Kras</h2><p>A code that indicates the KRAS gene mutation (codons 12 and 13)</p><p>This value set has an inline code system http://hl7.org/fhir/kras, which defines the following codes:</p><table class=\"codes\"><tr><td><b>Code</b></td><td><b>Display</b></td><td><b>Definition</b></td></tr><tr><td>mutated<a name=\"mutated\"> </a></td><td>Mutated</td><td/></tr><tr><td>wild_type<a name=\"wild_type\"> </a></td><td>Wild type</td><td/></tr><tr><td>not_tested<a name=\"not_tested\"> </a></td><td>Not tested</td><td/></tr></table></div>"
  },
  "extension": [
    {
      "url": "http://hl7.org/fhir/StructureDefinition/valueset-oid",
      "valueUri": "2.16.840.1.113883.4.642.2.0"
    }
  ],
  "url": "http://hl7.org/fhir/ValueSet/kras",
  "version": "0.5.0",
  "name": "Kras",
  "publisher": "HL7 (FHIR Project)",
  "contact": [
    {
      "telecom": [
        {
          "system": "url",
          "value": "http://hl7.org/fhir"
        },
        {
          "system": "email",
          "value": "fhir@lists.hl7.org"
        }
      ]
    }
  ],
  "description": "A code that indicates the KRAS gene mutation (codons 12 and 13)",
  "status": "draft",
  "experimental": false,
  "date": "2015-07-14T16:14:24+00:00",
  "define": {
    "system": "http://hl7.org/fhir/kras",
    "version": "0.5.0",
    "caseSensitive": true,
    "concept": [
      {
        "code": "mutated",
        "display": "Mutated"
      },
      {
        "code": "wild_type",
        "display": "Wild type"
      },
      {
        "code": "not_tested",
        "display": "Not tested"
      }
    ]
  }
}