{
  "resourceType": "ValueSet",
  "id": "transaction-mode",
  "meta": {
    "lastUpdated": "2015-07-14T16:14:24.220+00:00",
    "profile": [
      "http://hl7.org/fhir/StructureDefinition/valueset-shareable-definition"
    ]
  },
  "text": {
    "status": "generated",
    "div": "<div><h2>TransactionMode</h2><p>A code that indicates how transactions are supported</p><p>This value set has an inline code system http://hl7.org/fhir/transaction-mode, which defines the following codes:</p><table class=\"codes\"><tr><td><b>Code</b></td><td><b>Display</b></td><td><b>Definition</b></td></tr><tr><td>not-supported<a name=\"not-supported\"> </a></td><td>None</td><td>Neither Batch or Transaction supported</td></tr><tr><td>batch<a name=\"batch\"> </a></td><td>Batches supported</td><td>Batches supported</td></tr><tr><td>transaction<a name=\"transaction\"> </a></td><td>Transactions Supported</td><td>Transactions Supported</td></tr><tr><td>both<a name=\"both\"> </a></td><td>Batches &amp; Transactions</td><td>Both Batches and Transactions Supported</td></tr></table></div>"
  },
  "extension": [
    {
      "url": "http://hl7.org/fhir/StructureDefinition/valueset-oid",
      "valueUri": "2.16.840.1.113883.4.642.2.0"
    }
  ],
  "url": "http://hl7.org/fhir/ValueSet/transaction-mode",
  "version": "0.5.0",
  "name": "TransactionMode",
  "publisher": "HL7 (FHIR Project)",
  "contact": [
    {
      "telecom": [
        {
          "system": "url",
          "value": "http://hl7.org/fhir"
        },
        {
          "system": "email",
          "value": "fhir@lists.hl7.org"
        }
      ]
    }
  ],
  "description": "A code that indicates how transactions are supported",
  "status": "draft",
  "experimental": false,
  "date": "2015-07-14T16:14:24+00:00",
  "define": {
    "extension": [
      {
        "url": "http://hl7.org/fhir/StructureDefinition/valueset-oid",
        "valueUri": "urn:oid:2.16.840.1.113883.4.642.1.0"
      }
    ],
    "system": "http://hl7.org/fhir/transaction-mode",
    "version": "0.5.0",
    "caseSensitive": true,
    "concept": [
      {
        "code": "not-supported",
        "display": "None",
        "definition": "Neither Batch or Transaction supported"
      },
      {
        "code": "batch",
        "display": "Batches supported",
        "definition": "Batches supported"
      },
      {
        "code": "transaction",
        "display": "Transactions Supported",
        "definition": "Transactions Supported"
      },
      {
        "code": "both",
        "display": "Batches & Transactions",
        "definition": "Both Batches and Transactions Supported"
      }
    ]
  }
}