{
  "resourceType": "ValueSet",
  "id": "age-units",
  "meta": {
    "lastUpdated": "2015-07-14T16:14:24.220+00:00",
    "profile": [
      "http://hl7.org/fhir/StructureDefinition/valueset-shareable-definition"
    ]
  },
  "text": {
    "status": "extensions",
    "div": "<div><h2>AgeUnits</h2><p>A valueSet of UCUM codes for representing age value units</p><p>This value set includes codes defined in other code systems, using the following rules:</p><ul><li>Include these codes as defined in http://unitsofmeasure.org<table><tr><td><b>Code</b></td><td><b>Display</b></td><td><b>Definition</b></td></tr><tr><td>min</td><td>Minute</td><td>Minute</td></tr><tr><td>h</td><td>Hour</td><td>Hour</td></tr><tr><td>d</td><td>Day</td><td>Day</td></tr><tr><td>wk</td><td>Week</td><td>Week</td></tr><tr><td>mo</td><td>Month</td><td>Month</td></tr><tr><td>a</td><td>Year</td><td>Year</td></tr></table></li></ul></div>"
  },
  "extension": [
    {
      "url": "http://hl7.org/fhir/StructureDefinition/valueset-oid",
      "valueUri": "2.16.840.1.113883.4.642.2.2151"
    }
  ],
  "url": "http://hl7.org/fhir/ValueSet/age-units",
  "version": "0.5.0",
  "name": "AgeUnits",
  "publisher": "HL7 (FHIR Project)",
  "contact": [
    {
      "telecom": [
        {
          "system": "url",
          "value": "http://hl7.org/fhir"
        },
        {
          "system": "email",
          "value": "fhir@lists.hl7.org"
        }
      ]
    }
  ],
  "description": "A valueSet of UCUM codes for representing age value units",
  "status": "draft",
  "experimental": false,
  "date": "2015-07-14T16:14:24+00:00",
  "compose": {
    "include": [
      {
        "system": "http://unitsofmeasure.org",
        "concept": [
          {
            "extension": [
              {
                "url": "http://hl7.org/fhir/StructureDefinition/valueset-definition",
                "valueString": "Minute"
              }
            ],
            "code": "min",
            "display": "Minute"
          },
          {
            "extension": [
              {
                "url": "http://hl7.org/fhir/StructureDefinition/valueset-definition",
                "valueString": "Hour"
              }
            ],
            "code": "h",
            "display": "Hour"
          },
          {
            "extension": [
              {
                "url": "http://hl7.org/fhir/StructureDefinition/valueset-definition",
                "valueString": "Day"
              }
            ],
            "code": "d",
            "display": "Day"
          },
          {
            "extension": [
              {
                "url": "http://hl7.org/fhir/StructureDefinition/valueset-definition",
                "valueString": "Week"
              }
            ],
            "code": "wk",
            "display": "Week"
          },
          {
            "extension": [
              {
                "url": "http://hl7.org/fhir/StructureDefinition/valueset-definition",
                "valueString": "Month"
              }
            ],
            "code": "mo",
            "display": "Month"
          },
          {
            "extension": [
              {
                "url": "http://hl7.org/fhir/StructureDefinition/valueset-definition",
                "valueString": "Year"
              }
            ],
            "code": "a",
            "display": "Year"
          }
        ]
      }
    ]
  }
}