{
  "resourceType": "ValueSet",
  "id": "contract-term-type",
  "meta": {
    "lastUpdated": "2015-07-14T16:14:24.220+00:00",
    "profile": [
      "http://hl7.org/fhir/StructureDefinition/valueset-shareable-definition"
    ]
  },
  "text": {
    "status": "generated",
    "div": "<div><h2>Contract Term Type Codes</h2><p>This value set includes sample Contract Term Type codes.</p><p><b>Copyright Statement:</b> This is an example set</p><p>This value set has an inline code system http://hl7.org/fhir/contracttermtypecodes, which defines the following codes:</p><table class=\"codes\"><tr><td><b>Code</b></td><td><b>Definition</b></td></tr><tr><td>OralHealth<a name=\"OralHealth\"> </a></td><td/></tr><tr><td>Vision<a name=\"Vision\"> </a></td><td/></tr></table></div>"
  },
  "extension": [
    {
      "url": "http://hl7.org/fhir/StructureDefinition/valueset-oid",
      "valueUri": "2.16.840.1.113883.4.642.2.442"
    }
  ],
  "url": "http://hl7.org/fhir/ValueSet/contract-term-type",
  "version": "0.5.0",
  "name": "Contract Term Type Codes",
  "publisher": "Financial Management",
  "contact": [
    {
      "telecom": [
        {
          "system": "url",
          "value": "http://hl7.org/fhir"
        }
      ]
    }
  ],
  "description": "This value set includes sample Contract Term Type codes.",
  "copyright": "This is an example set",
  "status": "draft",
  "experimental": true,
  "date": "2015-07-14T16:14:24+00:00",
  "define": {
    "extension": [
      {
        "url": "http://hl7.org/fhir/StructureDefinition/valueset-oid",
        "valueUri": "urn:oid:2.16.840.1.113883.4.642.1.442"
      }
    ],
    "system": "http://hl7.org/fhir/contracttermtypecodes",
    "caseSensitive": true,
    "concept": [
      {
        "code": "OralHealth"
      },
      {
        "code": "Vision"
      }
    ]
  }
}