{
  "resourceType": "ValueSet",
  "id": "contraindication-severity",
  "meta": {
    "lastUpdated": "2015-07-14T16:14:24.220+00:00",
    "profile": [
      "http://hl7.org/fhir/StructureDefinition/valueset-shareable-definition"
    ]
  },
  "text": {
    "status": "extensions",
    "div": "<div><h2>ContraindicationSeverity</h2><p>Indicates the potential degree of impact of the identified issue on the patient</p><p>This value set includes codes defined in other code systems, using the following rules:</p><ul><li>Include these codes as defined in High<table><tr><td><b>Code</b></td><td><b>Display</b></td><td><b>Definition</b></td></tr><tr><td>high</td><td/><td>Indicates the condition may be life-threatening or has the potential to cause permanent injury</td></tr></table></li><li>Include these codes as defined in Moderate<table><tr><td><b>Code</b></td><td><b>Display</b></td><td><b>Definition</b></td></tr><tr><td>moderate</td><td/><td>Indicates the condition may result in noticable adverse adverse consequences but is unlikely to be life-threatening or cause permanent injury</td></tr></table></li><li>Include these codes as defined in Low<table><tr><td><b>Code</b></td><td><b>Display</b></td><td><b>Definition</b></td></tr><tr><td>low</td><td/><td>Indicates the condition may result in some adverse consequences but is unlikely to substantially affect the situation of the subjec</td></tr></table></li></ul></div>"
  },
  "extension": [
    {
      "url": "http://hl7.org/fhir/StructureDefinition/valueset-oid",
      "valueUri": "2.16.840.1.113883.4.642.2.413"
    }
  ],
  "url": "http://hl7.org/fhir/ValueSet/contraindication-severity",
  "version": "0.5.0",
  "name": "ContraindicationSeverity",
  "publisher": "HL7 (FHIR Project)",
  "contact": [
    {
      "telecom": [
        {
          "system": "url",
          "value": "http://hl7.org/fhir"
        },
        {
          "system": "email",
          "value": "fhir@lists.hl7.org"
        }
      ]
    }
  ],
  "description": "Indicates the potential degree of impact of the identified issue on the patient",
  "status": "draft",
  "experimental": false,
  "date": "2015-07-14T16:14:24+00:00",
  "compose": {
    "include": [
      {
        "system": "High",
        "concept": [
          {
            "extension": [
              {
                "url": "http://hl7.org/fhir/StructureDefinition/valueset-definition",
                "valueString": "Indicates the condition may be life-threatening or has the potential to cause permanent injury"
              }
            ],
            "code": "high"
          }
        ]
      },
      {
        "system": "Moderate",
        "concept": [
          {
            "extension": [
              {
                "url": "http://hl7.org/fhir/StructureDefinition/valueset-definition",
                "valueString": "Indicates the condition may result in noticable adverse adverse consequences but is unlikely to be life-threatening or cause permanent injury"
              }
            ],
            "code": "moderate"
          }
        ]
      },
      {
        "system": "Low",
        "concept": [
          {
            "extension": [
              {
                "url": "http://hl7.org/fhir/StructureDefinition/valueset-definition",
                "valueString": "Indicates the condition may result in some adverse consequences but is unlikely to substantially affect the situation of the subjec"
              }
            ],
            "code": "low"
          }
        ]
      }
    ]
  }
}