{
  "resourceType": "ValueSet",
  "id": "practitioner-hspc-telecomUse",
  "meta": {
    "lastUpdated": "2015-07-14T16:14:24.220+00:00",
    "profile": [
      "http://hl7.org/fhir/StructureDefinition/valueset-shareable-definition"
    ]
  },
  "text": {
    "status": "generated",
    "div": "<div><h2>HSPC Telecom Use</h2><p>A set of values that describe the type of system the telecom value belongs to.</p><p>This value set has an inline code system Intermountain Health Care HDD, which defines the following codes:</p><table class=\"codes\"><tr><td><b>Code</b></td><td><b>Display</b></td><td><b>Definition</b></td></tr><tr><td>492<a name=\"492\"> </a></td><td>fax</td><td>Method of communication which uses telephone lines to send and receive printed documents between facsimile devices.</td></tr><tr><td>526850934<a name=\"526850934\"> </a></td><td>Uniform Resource Locator</td><td>A reference that specifies the location of a resource on a computer network.</td></tr></table><p>In addition, this value set includes codes defined in other code systems, using the following rules:</p><ul><li>Include these codes as defined in <a href=\"v3/AddressUse/index.html\">http://hl7.org/fhir/v3/AddressUse</a><table><tr><td><b>Code</b></td><td><b>Display</b></td></tr><tr><td>EC</td><td>emergency contact</td><td>Description: A contact specifically designated to be used for emergencies. This is the first choice in emergencies, independent of any other use codes.</td></tr><tr><td>MC</td><td>mobile contact</td><td>Description: A telecommunication device that moves and stays with its owner. May have characteristics of all other use codes, suitable for urgent matters, not the first choice for routine business.</td></tr><tr><td>PG</td><td>pager</td><td>Description: A paging device suitable to solicit a callback or to leave a very short message.</td></tr></table></li></ul></div>"
  },
  "extension": [
    {
      "url": "http://hl7.org/fhir/StructureDefinition/valueset-oid",
      "valueUri": "2.16.840.1.113883.4.642.2.0"
    }
  ],
  "url": "http://hl7.org/fhir/ValueSet/practitioner-hspc-telecomUse",
  "version": "0.5.0",
  "name": "HSPC Telecom Use",
  "publisher": "HSPC",
  "contact": [
    {
      "telecom": [
        {
          "system": "url",
          "value": "http://healthcaresoa.org"
        }
      ]
    }
  ],
  "description": "A set of values that describe the type of system the telecom value belongs to.",
  "status": "draft",
  "experimental": true,
  "date": "2015-07-14T16:14:24+00:00",
  "define": {
    "system": "Intermountain Health Care HDD",
    "caseSensitive": true,
    "concept": [
      {
        "code": "492",
        "display": "fax",
        "definition": "Method of communication which uses telephone lines to send and receive printed documents between facsimile devices."
      },
      {
        "code": "526850934",
        "display": "Uniform Resource Locator",
        "definition": "A reference that specifies the location of a resource on a computer network."
      }
    ]
  },
  "compose": {
    "include": [
      {
        "system": "http://hl7.org/fhir/v3/AddressUse",
        "concept": [
          {
            "code": "EC",
            "display": "emergency contact"
          },
          {
            "code": "MC",
            "display": "mobile contact"
          },
          {
            "code": "PG",
            "display": "pager"
          }
        ]
      }
    ]
  }
}