{
  "resourceType": "ValueSet",
  "id": "relationship",
  "meta": {
    "lastUpdated": "2015-07-14T16:14:24.220+00:00",
    "profile": [
      "http://hl7.org/fhir/StructureDefinition/valueset-shareable-definition"
    ]
  },
  "text": {
    "status": "generated",
    "div": "<div><h2>Surface Codes</h2><p>This value set includes the Patient to subscriber relationship codes.</p><p><b>Copyright Statement:</b> This is an example set</p><p>This value set has an inline code system http://hl7.org/fhir/relationship, which defines the following codes:</p><table class=\"codes\"><tr><td><b>Code</b></td><td><b>Definition</b></td></tr><tr><td>1<a name=\"1\"> </a></td><td/></tr><tr><td>2<a name=\"2\"> </a></td><td/></tr><tr><td>3<a name=\"3\"> </a></td><td/></tr><tr><td>4<a name=\"4\"> </a></td><td/></tr><tr><td>5<a name=\"5\"> </a></td><td/></tr></table></div>"
  },
  "extension": [
    {
      "url": "http://hl7.org/fhir/StructureDefinition/valueset-oid",
      "valueUri": "2.16.840.1.113883.4.642.2.457"
    }
  ],
  "url": "http://hl7.org/fhir/ValueSet/relationship",
  "version": "0.5.0",
  "name": "Surface Codes",
  "publisher": "FHIR Project team",
  "contact": [
    {
      "telecom": [
        {
          "system": "url",
          "value": "http://hl7.org/fhir"
        }
      ]
    }
  ],
  "description": "This value set includes the Patient to subscriber relationship codes.",
  "copyright": "This is an example set",
  "status": "draft",
  "experimental": true,
  "date": "2015-07-14T16:14:24+00:00",
  "define": {
    "extension": [
      {
        "url": "http://hl7.org/fhir/StructureDefinition/valueset-oid",
        "valueUri": "urn:oid:2.16.840.1.113883.4.642.1.457"
      }
    ],
    "system": "http://hl7.org/fhir/relationship",
    "caseSensitive": true,
    "concept": [
      {
        "code": "1"
      },
      {
        "code": "2"
      },
      {
        "code": "3"
      },
      {
        "code": "4"
      },
      {
        "code": "5"
      }
    ]
  }
}