{
  "resourceType": "ValueSet",
  "id": "observation-hspc-findings",
  "meta": {
    "lastUpdated": "2015-07-14T16:14:24.220+00:00",
    "profile": [
      "http://hl7.org/fhir/StructureDefinition/valueset-shareable-definition"
    ]
  },
  "text": {
    "status": "generated",
    "div": "<div><p>This value set contains 195 concepts</p><table class=\"codes\"><tr><td><b>Code</b></td><td><b>System</b></td><td><b>Display</b></td></tr><tr><td>1250004</td><td>http://snomed.info/sct</td><td>Decreased (qualifier value)</td></tr><tr><td>2667000</td><td>http://snomed.info/sct</td><td>Absent (qualifier value)</td></tr><tr><td>10828004</td><td>http://snomed.info/sct</td><td>Positive (qualifier value)</td></tr><tr><td>17511009</td><td>http://snomed.info/sct</td><td>Normal absence (qualifier value)</td></tr><tr><td>17621005</td><td>http://snomed.info/sct</td><td>Normal (qualifier value)</td></tr><tr><td>18043004</td><td>http://snomed.info/sct</td><td>Thin (qualifier value)</td></tr><tr><td>18307000</td><td>http://snomed.info/sct</td><td>Altered (qualifier value)</td></tr><tr><td>20572008</td><td>http://snomed.info/sct</td><td>Good (qualifier value)</td></tr><tr><td>30714006</td><td>http://snomed.info/sct</td><td>Resistant (qualifier value)</td></tr><tr><td>35105006</td><td>http://snomed.info/sct</td><td>Augmented</td></tr><tr><td>40885006</td><td>http://snomed.info/sct</td><td>Variant (qualifier value)</td></tr><tr><td>41277001</td><td>http://snomed.info/sct</td><td>Lacking (qualifier value)</td></tr><tr><td>42425007</td><td>http://snomed.info/sct</td><td>Equivocal (qualifier value)</td></tr><tr><td>43261007</td><td>http://snomed.info/sct</td><td>Abnormal presence of (qualifier value)</td></tr><tr><td>46651001</td><td>http://snomed.info/sct</td><td>Isolated (qualifier value)</td></tr><tr><td>47492008</td><td>http://snomed.info/sct</td><td>Not seen (qualifier value)</td></tr><tr><td>52101004</td><td>http://snomed.info/sct</td><td>Present (qualifier value)</td></tr><tr><td>54328002</td><td>http://snomed.info/sct</td><td>Indifferent (qualifier value)</td></tr><tr><td>56116003</td><td>http://snomed.info/sct</td><td>Patent (qualifier value)</td></tr><tr><td>62482003</td><td>http://snomed.info/sct</td><td>Low (qualifier value)</td></tr><tr><td>71978007</td><td>http://snomed.info/sct</td><td>Inadequate (qualifier value)</td></tr><tr><td>75540009</td><td>http://snomed.info/sct</td><td>High (qualifier value)</td></tr><tr><td>82334004</td><td>http://snomed.info/sct</td><td>Indeterminate (qualifier value)</td></tr><tr><td>83185005</td><td>http://snomed.info/sct</td><td>Sensitive (qualifier value)</td></tr><tr><td>84496004</td><td>http://snomed.info/sct</td><td>Microscopic (qualifier value)</td></tr><tr><td>88323005</td><td>http://snomed.info/sct</td><td>Adequate (qualifier value)</td></tr><tr><td>131196009</td><td>http://snomed.info/sct</td><td>Susceptible (qualifier value)</td></tr><tr><td>134223000</td><td>http://snomed.info/sct</td><td>Narrow (qualifier value)</td></tr><tr><td>255358001</td><td>http://snomed.info/sct</td><td>Rapid (qualifier value)</td></tr><tr><td>255359009</td><td>http://snomed.info/sct</td><td>Reducible (qualifier value)</td></tr><tr><td>255361000</td><td>http://snomed.info/sct</td><td>Slow (qualifier value)</td></tr><tr><td>255507004</td><td>http://snomed.info/sct</td><td>Small (qualifier value)</td></tr><tr><td>255509001</td><td>http://snomed.info/sct</td><td>Large (qualifier value)</td></tr><tr><td>255510006</td><td>http://snomed.info/sct</td><td>Slight (qualifier value)</td></tr><tr><td>255511005</td><td>http://snomed.info/sct</td><td>Long (qualifier value)</td></tr><tr><td>255587001</td><td>http://snomed.info/sct</td><td>Peak (qualifier value)</td></tr><tr><td>255588006</td><td>http://snomed.info/sct</td><td>Trough (qualifier value)</td></tr><tr><td>257390007</td><td>http://snomed.info/sct</td><td>Static (qualifier value)</td></tr><tr><td>258262008</td><td>http://snomed.info/sct</td><td>Very large (qualifier value)</td></tr><tr><td>260347006</td><td>http://snomed.info/sct</td><td>Present + out of ++++ (qualifier value)</td></tr><tr><td>260348001</td><td>http://snomed.info/sct</td><td>Present ++ out of ++++ (qualifier value)</td></tr><tr><td>260349009</td><td>http://snomed.info/sct</td><td>Present +++ out of ++++ (qualifier value)</td></tr><tr><td>260350009</td><td>http://snomed.info/sct</td><td>Present ++++ out of ++++ (qualifier value)</td></tr><tr><td>260351008</td><td>http://snomed.info/sct</td><td>Just noticeable (qualifier value)</td></tr><tr><td>260352001</td><td>http://snomed.info/sct</td><td>Marginate (qualifier value)</td></tr><tr><td>260353006</td><td>http://snomed.info/sct</td><td>Nothing at all (qualifier value)</td></tr><tr><td>260354000</td><td>http://snomed.info/sct</td><td>Moderate number (qualifier value)</td></tr><tr><td>260355004</td><td>http://snomed.info/sct</td><td>Moderate peak (qualifier value)</td></tr><tr><td>260356003</td><td>http://snomed.info/sct</td><td>Moderately resistant (qualifier value)</td></tr><tr><td>260357007</td><td>http://snomed.info/sct</td><td>Moderately susceptible (qualifier value)</td></tr><tr><td>260358002</td><td>http://snomed.info/sct</td><td>Very (qualifier value)</td></tr><tr><td>260359005</td><td>http://snomed.info/sct</td><td>Very heavy (qualifier value)</td></tr><tr><td>260360000</td><td>http://snomed.info/sct</td><td>Very high (qualifier value)</td></tr><tr><td>260361001</td><td>http://snomed.info/sct</td><td>Very light (qualifier value)</td></tr><tr><td>260362008</td><td>http://snomed.info/sct</td><td>Very low (qualifier value)</td></tr><tr><td>260364009</td><td>http://snomed.info/sct</td><td>Additive (qualifier value)</td></tr><tr><td>260365005</td><td>http://snomed.info/sct</td><td>Heightened (qualifier value)</td></tr><tr><td>260366006</td><td>http://snomed.info/sct</td><td>Increase (qualifier value)</td></tr><tr><td>260369004</td><td>http://snomed.info/sct</td><td>Increasing (qualifier value)</td></tr><tr><td>260370003</td><td>http://snomed.info/sct</td><td>Decrease (qualifier value)</td></tr><tr><td>260371004</td><td>http://snomed.info/sct</td><td>Decreasing (qualifier value)</td></tr><tr><td>260372006</td><td>http://snomed.info/sct</td><td>Deficient (qualifier value)</td></tr><tr><td>260373001</td><td>http://snomed.info/sct</td><td>Detected (qualifier value)</td></tr><tr><td>260375008</td><td>http://snomed.info/sct</td><td>Efficient (qualifier value)</td></tr><tr><td>260376009</td><td>http://snomed.info/sct</td><td>Enlarged (qualifier value)</td></tr><tr><td>260377000</td><td>http://snomed.info/sct</td><td>Exaggerated (qualifier value)</td></tr><tr><td>260378005</td><td>http://snomed.info/sct</td><td>Excessive (qualifier value)</td></tr><tr><td>260379002</td><td>http://snomed.info/sct</td><td>Impaired (qualifier value)</td></tr><tr><td>260380004</td><td>http://snomed.info/sct</td><td>Inconsistent (qualifier value)</td></tr><tr><td>260381000</td><td>http://snomed.info/sct</td><td>Inefficient (qualifier value)</td></tr><tr><td>260382007</td><td>http://snomed.info/sct</td><td>Large peak (qualifier value)</td></tr><tr><td>260383002</td><td>http://snomed.info/sct</td><td>Late (qualifier value)</td></tr><tr><td>260384008</td><td>http://snomed.info/sct</td><td>Long duration (qualifier value)</td></tr><tr><td>260385009</td><td>http://snomed.info/sct</td><td>Negative (qualifier value)</td></tr><tr><td>260386005</td><td>http://snomed.info/sct</td><td>Nil (qualifier value)</td></tr><tr><td>260387001</td><td>http://snomed.info/sct</td><td>No anaerobes detected (qualifier value)</td></tr><tr><td>260389003</td><td>http://snomed.info/sct</td><td>No reaction (qualifier value)</td></tr><tr><td>260390007</td><td>http://snomed.info/sct</td><td>Non-vital (qualifier value)</td></tr><tr><td>260391006</td><td>http://snomed.info/sct</td><td>Noninflammatory (qualifier value)</td></tr><tr><td>260392004</td><td>http://snomed.info/sct</td><td>Non-patent (qualifier value)</td></tr><tr><td>260393009</td><td>http://snomed.info/sct</td><td>Non-pigmented (qualifier value)</td></tr><tr><td>260394003</td><td>http://snomed.info/sct</td><td>Normal limits (qualifier value)</td></tr><tr><td>260395002</td><td>http://snomed.info/sct</td><td>Normal range (qualifier value)</td></tr><tr><td>260396001</td><td>http://snomed.info/sct</td><td>Numerous (qualifier value)</td></tr><tr><td>260398000</td><td>http://snomed.info/sct</td><td>Overaction (+) (qualifier value)</td></tr><tr><td>260399008</td><td>http://snomed.info/sct</td><td>Raised (qualifier value)</td></tr><tr><td>260400001</td><td>http://snomed.info/sct</td><td>Reduced (qualifier value)</td></tr><tr><td>260401002</td><td>http://snomed.info/sct</td><td>Semi-formed (qualifier value)</td></tr><tr><td>260402009</td><td>http://snomed.info/sct</td><td>Short duration (qualifier value)</td></tr><tr><td>260403004</td><td>http://snomed.info/sct</td><td>Small peak (qualifier value)</td></tr><tr><td>260404005</td><td>http://snomed.info/sct</td><td>Strong (qualifier value)</td></tr><tr><td>260405006</td><td>http://snomed.info/sct</td><td>Trace (qualifier value)</td></tr><tr><td>260406007</td><td>http://snomed.info/sct</td><td>Underaction (-) (qualifier value)</td></tr><tr><td>260407003</td><td>http://snomed.info/sct</td><td>Weak (qualifier value)</td></tr><tr><td>260408008</td><td>http://snomed.info/sct</td><td>Weakly positive (qualifier value)</td></tr><tr><td>260409000</td><td>http://snomed.info/sct</td><td>Well defined (qualifier value)</td></tr><tr><td>260410005</td><td>http://snomed.info/sct</td><td>Vital (qualifier value)</td></tr><tr><td>260411009</td><td>http://snomed.info/sct</td><td>Presence findings (qualifier value)</td></tr><tr><td>260412002</td><td>http://snomed.info/sct</td><td>Anaerobes detected (qualifier value)</td></tr><tr><td>260413007</td><td>http://snomed.info/sct</td><td>None (qualifier value)</td></tr><tr><td>260414001</td><td>http://snomed.info/sct</td><td>Nothing (qualifier value)</td></tr><tr><td>260415000</td><td>http://snomed.info/sct</td><td>Not detected (qualifier value)</td></tr><tr><td>260416004</td><td>http://snomed.info/sct</td><td>Not itching (qualifier value)</td></tr><tr><td>260417008</td><td>http://snomed.info/sct</td><td>Strains different (qualifier value)</td></tr><tr><td>260418003</td><td>http://snomed.info/sct</td><td>Strains similar (qualifier value)</td></tr><tr><td>260976002</td><td>http://snomed.info/sct</td><td>Presence of infection (qualifier value)</td></tr><tr><td>263650004</td><td>http://snomed.info/sct</td><td>Presence of calculi (qualifier value)</td></tr><tr><td>263651000</td><td>http://snomed.info/sct</td><td>Presence of delta phalanx (qualifier value)</td></tr><tr><td>263654008</td><td>http://snomed.info/sct</td><td>Abnormal (qualifier value)</td></tr><tr><td>263656005</td><td>http://snomed.info/sct</td><td>Accurate (qualifier value)</td></tr><tr><td>263745000</td><td>http://snomed.info/sct</td><td>Efficient emptying (qualifier value)</td></tr><tr><td>263776006</td><td>http://snomed.info/sct</td><td>Heavy growth (qualifier value)</td></tr><tr><td>263782009</td><td>http://snomed.info/sct</td><td>Inaccurate (qualifier value)</td></tr><tr><td>263812008</td><td>http://snomed.info/sct</td><td>Moderate growth (qualifier value)</td></tr><tr><td>263865001</td><td>http://snomed.info/sct</td><td>Scanty (qualifier value)</td></tr><tr><td>263866000</td><td>http://snomed.info/sct</td><td>Scanty growth (qualifier value)</td></tr><tr><td>263920009</td><td>http://snomed.info/sct</td><td>Unrecordable (qualifier value)</td></tr><tr><td>263926003</td><td>http://snomed.info/sct</td><td>Very slow (qualifier value)</td></tr><tr><td>264535005</td><td>http://snomed.info/sct</td><td>Inefficient emptying (qualifier value)</td></tr><tr><td>264840007</td><td>http://snomed.info/sct</td><td>Hyperplasia present (qualifier value)</td></tr><tr><td>264841006</td><td>http://snomed.info/sct</td><td>Intermediately susceptible (qualifier value)</td></tr><tr><td>264866005</td><td>http://snomed.info/sct</td><td>Neoplasm present (qualifier value)</td></tr><tr><td>264868006</td><td>http://snomed.info/sct</td><td>No growth (qualifier value)</td></tr><tr><td>264869003</td><td>http://snomed.info/sct</td><td>No neoplasm (qualifier value)</td></tr><tr><td>264871003</td><td>http://snomed.info/sct</td><td>Nodules absent (qualifier value)</td></tr><tr><td>264872005</td><td>http://snomed.info/sct</td><td>Nodules present (qualifier value)</td></tr><tr><td>264887000</td><td>http://snomed.info/sct</td><td>Not isolated (qualifier value)</td></tr><tr><td>264909001</td><td>http://snomed.info/sct</td><td>Post-receptor abnormality (qualifier value)</td></tr><tr><td>264914002</td><td>http://snomed.info/sct</td><td>Receptor abnormality</td></tr><tr><td>264915001</td><td>http://snomed.info/sct</td><td>Receptor absent</td></tr><tr><td>264916000</td><td>http://snomed.info/sct</td><td>Receptor defective</td></tr><tr><td>264929000</td><td>http://snomed.info/sct</td><td>Superadded infection absent (qualifier value)</td></tr><tr><td>272519000</td><td>http://snomed.info/sct</td><td>Absence findings (qualifier value)</td></tr><tr><td>272520006</td><td>http://snomed.info/sct</td><td>Degree findings (qualifier value)</td></tr><tr><td>276727009</td><td>http://snomed.info/sct</td><td>Null (qualifier value)</td></tr><tr><td>276800000</td><td>http://snomed.info/sct</td><td>Normality findings (qualifier value)</td></tr><tr><td>277025001</td><td>http://snomed.info/sct</td><td>Proven (qualifier value)</td></tr><tr><td>277026000</td><td>http://snomed.info/sct</td><td>Unproven (qualifier value)</td></tr><tr><td>281300000</td><td>http://snomed.info/sct</td><td>Below reference range (qualifier value)</td></tr><tr><td>281301001</td><td>http://snomed.info/sct</td><td>Within reference range (qualifier value)</td></tr><tr><td>281302008</td><td>http://snomed.info/sct</td><td>Above reference range (qualifier value)</td></tr><tr><td>288530001</td><td>http://snomed.info/sct</td><td>Proof findings (qualifier value)</td></tr><tr><td>300841009</td><td>http://snomed.info/sct</td><td>Poorly defined (qualifier value)</td></tr><tr><td>359530003</td><td>http://snomed.info/sct</td><td>Shortened (qualifier value)</td></tr><tr><td>367450005</td><td>http://snomed.info/sct</td><td>Short (qualifier value)</td></tr><tr><td>371148001</td><td>http://snomed.info/sct</td><td>Ability interpretation value (qualifier value)</td></tr><tr><td>371150009</td><td>http://snomed.info/sct</td><td>Able (qualifier value)</td></tr><tr><td>371151008</td><td>http://snomed.info/sct</td><td>Unable (qualifier value)</td></tr><tr><td>371152001</td><td>http://snomed.info/sct</td><td>Assisted (qualifier value)</td></tr><tr><td>371153006</td><td>http://snomed.info/sct</td><td>Independently able (qualifier value)</td></tr><tr><td>371154000</td><td>http://snomed.info/sct</td><td>Dependent (qualifier value)</td></tr><tr><td>371155004</td><td>http://snomed.info/sct</td><td>Able to and does (qualifier value)</td></tr><tr><td>371156003</td><td>http://snomed.info/sct</td><td>Does not, dependent (qualifier value)</td></tr><tr><td>371157007</td><td>http://snomed.info/sct</td><td>Has difficulty doing (qualifier value)</td></tr><tr><td>371879000</td><td>http://snomed.info/sct</td><td>Abnormally high (qualifier value)</td></tr><tr><td>371880002</td><td>http://snomed.info/sct</td><td>Abnormally low (qualifier value)</td></tr><tr><td>371925005</td><td>http://snomed.info/sct</td><td>Most significant (qualifier value)</td></tr><tr><td>371926006</td><td>http://snomed.info/sct</td><td>Highly significant (qualifier value)</td></tr><tr><td>371927002</td><td>http://snomed.info/sct</td><td>Moderately significant (qualifier value)</td></tr><tr><td>371928007</td><td>http://snomed.info/sct</td><td>Not significant (qualifier value)</td></tr><tr><td>371929004</td><td>http://snomed.info/sct</td><td>Minimally significant (qualifier value)</td></tr><tr><td>371932001</td><td>http://snomed.info/sct</td><td>Borderline normal (qualifier value)</td></tr><tr><td>371934000</td><td>http://snomed.info/sct</td><td>Normality undetermined (qualifier value)</td></tr><tr><td>373066001</td><td>http://snomed.info/sct</td><td>Yes (qualifier value)</td></tr><tr><td>373067005</td><td>http://snomed.info/sct</td><td>No (qualifier value)</td></tr><tr><td>373068000</td><td>http://snomed.info/sct</td><td>Undetermined (qualifier value)</td></tr><tr><td>385440003</td><td>http://snomed.info/sct</td><td>Lowered (qualifier value)</td></tr><tr><td>385640009</td><td>http://snomed.info/sct</td><td>Does (qualifier value)</td></tr><tr><td>386134007</td><td>http://snomed.info/sct</td><td>Significant (qualifier value)</td></tr><tr><td>386135008</td><td>http://snomed.info/sct</td><td>Significance undetermined (qualifier value)</td></tr><tr><td>394844007</td><td>http://snomed.info/sct</td><td>Outside reference range (qualifier value)</td></tr><tr><td>394845008</td><td>http://snomed.info/sct</td><td>Potentially abnormal (qualifier value)</td></tr><tr><td>419984006</td><td>http://snomed.info/sct</td><td>Inconclusive (qualifier value)</td></tr><tr><td>423437008</td><td>http://snomed.info/sct</td><td>Insufficient (qualifier value)</td></tr><tr><td>425404009</td><td>http://snomed.info/sct</td><td>Slightly (qualifier value)</td></tr><tr><td>425405005</td><td>http://snomed.info/sct</td><td>Excellent (qualifier value)</td></tr><tr><td>428247006</td><td>http://snomed.info/sct</td><td>Blunted (qualifier value)</td></tr><tr><td>428691001</td><td>http://snomed.info/sct</td><td>Accentuated (qualifier value)</td></tr><tr><td>441517005</td><td>http://snomed.info/sct</td><td>Present two plus out of three plus (qualifier value)</td></tr><tr><td>441521003</td><td>http://snomed.info/sct</td><td>Present three plus out of three plus (qualifier value)</td></tr><tr><td>441614007</td><td>http://snomed.info/sct</td><td>Present one plus out of three plus (qualifier value)</td></tr><tr><td>442499005</td><td>http://snomed.info/sct</td><td>Interpretation value (qualifier value)</td></tr><tr><td>442705008</td><td>http://snomed.info/sct</td><td>Reference range interpretation value (qualifier value)</td></tr><tr><td>442777001</td><td>http://snomed.info/sct</td><td>Borderline high (qualifier value)</td></tr><tr><td>442779003</td><td>http://snomed.info/sct</td><td>Borderline low (qualifier value)</td></tr><tr><td>1091000175109</td><td>http://snomed.info/sct</td><td>Requires practice (qualifier value)</td></tr><tr><td>444661000124105</td><td>http://snomed.info/sct</td><td>Does without difficulty (qualifier value)</td></tr><tr><td>444671000124103</td><td>http://snomed.info/sct</td><td>Does with some difficulty (qualifier value)</td></tr><tr><td>444681000124100</td><td>http://snomed.info/sct</td><td>Does with much difficulty (qualifier value)</td></tr><tr><td>444871000124104</td><td>http://snomed.info/sct</td><td>Very good (qualifier value)</td></tr><tr><td>444991000124106</td><td>http://snomed.info/sct</td><td>Repeatedly non-reactive (qualifier value)</td></tr><tr><td>445141000124103</td><td>http://snomed.info/sct</td><td>Has slight difficulty doing (qualifier value)</td></tr><tr><td>445451000124105</td><td>http://snomed.info/sct</td><td>Moderately good (qualifier value)</td></tr><tr><td>445481000124102</td><td>http://snomed.info/sct</td><td>Has no difficulty doing (qualifier value)</td></tr><tr><td>445511000124105</td><td>http://snomed.info/sct</td><td>Fair (qualifier value)</td></tr></table></div>"
  },
  "extension": [
    {
      "url": "http://hl7.org/fhir/StructureDefinition/valueset-oid",
      "valueUri": "2.16.840.1.113883.4.642.2.0"
    }
  ],
  "url": "http://hl7.org/fhir/ValueSet/observation-hspc-findings",
  "version": "0.01",
  "name": "HSPC SNOMED Findings Value Set Definition",
  "immutable": true,
  "publisher": "Health Services Platform Consortium (HSPC)",
  "contact": [
    {
      "telecom": [
        {
          "system": "url",
          "value": "http://hl7.org/fhir"
        },
        {
          "system": "email",
          "value": "fhir@lists.hl7.org"
        }
      ]
    }
  ],
  "description": "Value Set Contents (Expansion) for HSPC SNOMED Findings Value Set Definition at Tue, Jul 14, 2015 16:16+0000",
  "copyright": "TBD",
  "status": "draft",
  "experimental": true,
  "extensible": true,
  "date": "2015-02-09",
  "expansion": {
    "extension": [
      {
        "url": "http://hl7.org/fhir/StructureDefinition/valueset-expansionSource",
        "valueReference": {
          "reference": "ValueSet/valueset-observation-hspc-findings"
        }
      },
      {
        "url": "http://hl7.org/fhir/StructureDefinition/valueset-unclosed",
        "valueBoolean": true
      }
    ],
    "identifier": "urn:uuid:e307b2e8-ec4a-4479-bca0-92792b514599",
    "timestamp": "2015-07-03T23:51:43Z",
    "contains": [
      {
        "system": "http://snomed.info/sct",
        "code": "1250004",
        "display": "Decreased (qualifier value)"
      },
      {
        "system": "http://snomed.info/sct",
        "code": "2667000",
        "display": "Absent (qualifier value)"
      },
      {
        "system": "http://snomed.info/sct",
        "code": "10828004",
        "display": "Positive (qualifier value)"
      },
      {
        "system": "http://snomed.info/sct",
        "code": "17511009",
        "display": "Normal absence (qualifier value)"
      },
      {
        "system": "http://snomed.info/sct",
        "code": "17621005",
        "display": "Normal (qualifier value)"
      },
      {
        "system": "http://snomed.info/sct",
        "code": "18043004",
        "display": "Thin (qualifier value)"
      },
      {
        "system": "http://snomed.info/sct",
        "code": "18307000",
        "display": "Altered (qualifier value)"
      },
      {
        "system": "http://snomed.info/sct",
        "code": "20572008",
        "display": "Good (qualifier value)"
      },
      {
        "system": "http://snomed.info/sct",
        "code": "30714006",
        "display": "Resistant (qualifier value)"
      },
      {
        "system": "http://snomed.info/sct",
        "code": "35105006",
        "display": "Augmented"
      },
      {
        "system": "http://snomed.info/sct",
        "code": "40885006",
        "display": "Variant (qualifier value)"
      },
      {
        "system": "http://snomed.info/sct",
        "code": "41277001",
        "display": "Lacking (qualifier value)"
      },
      {
        "system": "http://snomed.info/sct",
        "code": "42425007",
        "display": "Equivocal (qualifier value)"
      },
      {
        "system": "http://snomed.info/sct",
        "code": "43261007",
        "display": "Abnormal presence of (qualifier value)"
      },
      {
        "system": "http://snomed.info/sct",
        "code": "46651001",
        "display": "Isolated (qualifier value)"
      },
      {
        "system": "http://snomed.info/sct",
        "code": "47492008",
        "display": "Not seen (qualifier value)"
      },
      {
        "system": "http://snomed.info/sct",
        "code": "52101004",
        "display": "Present (qualifier value)"
      },
      {
        "system": "http://snomed.info/sct",
        "code": "54328002",
        "display": "Indifferent (qualifier value)"
      },
      {
        "system": "http://snomed.info/sct",
        "code": "56116003",
        "display": "Patent (qualifier value)"
      },
      {
        "system": "http://snomed.info/sct",
        "code": "62482003",
        "display": "Low (qualifier value)"
      },
      {
        "system": "http://snomed.info/sct",
        "code": "71978007",
        "display": "Inadequate (qualifier value)"
      },
      {
        "system": "http://snomed.info/sct",
        "code": "75540009",
        "display": "High (qualifier value)"
      },
      {
        "system": "http://snomed.info/sct",
        "code": "82334004",
        "display": "Indeterminate (qualifier value)"
      },
      {
        "system": "http://snomed.info/sct",
        "code": "83185005",
        "display": "Sensitive (qualifier value)"
      },
      {
        "system": "http://snomed.info/sct",
        "code": "84496004",
        "display": "Microscopic (qualifier value)"
      },
      {
        "system": "http://snomed.info/sct",
        "code": "88323005",
        "display": "Adequate (qualifier value)"
      },
      {
        "system": "http://snomed.info/sct",
        "code": "131196009",
        "display": "Susceptible (qualifier value)"
      },
      {
        "system": "http://snomed.info/sct",
        "code": "134223000",
        "display": "Narrow (qualifier value)"
      },
      {
        "system": "http://snomed.info/sct",
        "code": "255358001",
        "display": "Rapid (qualifier value)"
      },
      {
        "system": "http://snomed.info/sct",
        "code": "255359009",
        "display": "Reducible (qualifier value)"
      },
      {
        "system": "http://snomed.info/sct",
        "code": "255361000",
        "display": "Slow (qualifier value)"
      },
      {
        "system": "http://snomed.info/sct",
        "code": "255507004",
        "display": "Small (qualifier value)"
      },
      {
        "system": "http://snomed.info/sct",
        "code": "255509001",
        "display": "Large (qualifier value)"
      },
      {
        "system": "http://snomed.info/sct",
        "code": "255510006",
        "display": "Slight (qualifier value)"
      },
      {
        "system": "http://snomed.info/sct",
        "code": "255511005",
        "display": "Long (qualifier value)"
      },
      {
        "system": "http://snomed.info/sct",
        "code": "255587001",
        "display": "Peak (qualifier value)"
      },
      {
        "system": "http://snomed.info/sct",
        "code": "255588006",
        "display": "Trough (qualifier value)"
      },
      {
        "system": "http://snomed.info/sct",
        "code": "257390007",
        "display": "Static (qualifier value)"
      },
      {
        "system": "http://snomed.info/sct",
        "code": "258262008",
        "display": "Very large (qualifier value)"
      },
      {
        "system": "http://snomed.info/sct",
        "code": "260347006",
        "display": "Present + out of ++++ (qualifier value)"
      },
      {
        "system": "http://snomed.info/sct",
        "code": "260348001",
        "display": "Present ++ out of ++++ (qualifier value)"
      },
      {
        "system": "http://snomed.info/sct",
        "code": "260349009",
        "display": "Present +++ out of ++++ (qualifier value)"
      },
      {
        "system": "http://snomed.info/sct",
        "code": "260350009",
        "display": "Present ++++ out of ++++ (qualifier value)"
      },
      {
        "system": "http://snomed.info/sct",
        "code": "260351008",
        "display": "Just noticeable (qualifier value)"
      },
      {
        "system": "http://snomed.info/sct",
        "code": "260352001",
        "display": "Marginate (qualifier value)"
      },
      {
        "system": "http://snomed.info/sct",
        "code": "260353006",
        "display": "Nothing at all (qualifier value)"
      },
      {
        "system": "http://snomed.info/sct",
        "code": "260354000",
        "display": "Moderate number (qualifier value)"
      },
      {
        "system": "http://snomed.info/sct",
        "code": "260355004",
        "display": "Moderate peak (qualifier value)"
      },
      {
        "system": "http://snomed.info/sct",
        "code": "260356003",
        "display": "Moderately resistant (qualifier value)"
      },
      {
        "system": "http://snomed.info/sct",
        "code": "260357007",
        "display": "Moderately susceptible (qualifier value)"
      },
      {
        "system": "http://snomed.info/sct",
        "code": "260358002",
        "display": "Very (qualifier value)"
      },
      {
        "system": "http://snomed.info/sct",
        "code": "260359005",
        "display": "Very heavy (qualifier value)"
      },
      {
        "system": "http://snomed.info/sct",
        "code": "260360000",
        "display": "Very high (qualifier value)"
      },
      {
        "system": "http://snomed.info/sct",
        "code": "260361001",
        "display": "Very light (qualifier value)"
      },
      {
        "system": "http://snomed.info/sct",
        "code": "260362008",
        "display": "Very low (qualifier value)"
      },
      {
        "system": "http://snomed.info/sct",
        "code": "260364009",
        "display": "Additive (qualifier value)"
      },
      {
        "system": "http://snomed.info/sct",
        "code": "260365005",
        "display": "Heightened (qualifier value)"
      },
      {
        "system": "http://snomed.info/sct",
        "code": "260366006",
        "display": "Increase (qualifier value)"
      },
      {
        "system": "http://snomed.info/sct",
        "code": "260369004",
        "display": "Increasing (qualifier value)"
      },
      {
        "system": "http://snomed.info/sct",
        "code": "260370003",
        "display": "Decrease (qualifier value)"
      },
      {
        "system": "http://snomed.info/sct",
        "code": "260371004",
        "display": "Decreasing (qualifier value)"
      },
      {
        "system": "http://snomed.info/sct",
        "code": "260372006",
        "display": "Deficient (qualifier value)"
      },
      {
        "system": "http://snomed.info/sct",
        "code": "260373001",
        "display": "Detected (qualifier value)"
      },
      {
        "system": "http://snomed.info/sct",
        "code": "260375008",
        "display": "Efficient (qualifier value)"
      },
      {
        "system": "http://snomed.info/sct",
        "code": "260376009",
        "display": "Enlarged (qualifier value)"
      },
      {
        "system": "http://snomed.info/sct",
        "code": "260377000",
        "display": "Exaggerated (qualifier value)"
      },
      {
        "system": "http://snomed.info/sct",
        "code": "260378005",
        "display": "Excessive (qualifier value)"
      },
      {
        "system": "http://snomed.info/sct",
        "code": "260379002",
        "display": "Impaired (qualifier value)"
      },
      {
        "system": "http://snomed.info/sct",
        "code": "260380004",
        "display": "Inconsistent (qualifier value)"
      },
      {
        "system": "http://snomed.info/sct",
        "code": "260381000",
        "display": "Inefficient (qualifier value)"
      },
      {
        "system": "http://snomed.info/sct",
        "code": "260382007",
        "display": "Large peak (qualifier value)"
      },
      {
        "system": "http://snomed.info/sct",
        "code": "260383002",
        "display": "Late (qualifier value)"
      },
      {
        "system": "http://snomed.info/sct",
        "code": "260384008",
        "display": "Long duration (qualifier value)"
      },
      {
        "system": "http://snomed.info/sct",
        "code": "260385009",
        "display": "Negative (qualifier value)"
      },
      {
        "system": "http://snomed.info/sct",
        "code": "260386005",
        "display": "Nil (qualifier value)"
      },
      {
        "system": "http://snomed.info/sct",
        "code": "260387001",
        "display": "No anaerobes detected (qualifier value)"
      },
      {
        "system": "http://snomed.info/sct",
        "code": "260389003",
        "display": "No reaction (qualifier value)"
      },
      {
        "system": "http://snomed.info/sct",
        "code": "260390007",
        "display": "Non-vital (qualifier value)"
      },
      {
        "system": "http://snomed.info/sct",
        "code": "260391006",
        "display": "Noninflammatory (qualifier value)"
      },
      {
        "system": "http://snomed.info/sct",
        "code": "260392004",
        "display": "Non-patent (qualifier value)"
      },
      {
        "system": "http://snomed.info/sct",
        "code": "260393009",
        "display": "Non-pigmented (qualifier value)"
      },
      {
        "system": "http://snomed.info/sct",
        "code": "260394003",
        "display": "Normal limits (qualifier value)"
      },
      {
        "system": "http://snomed.info/sct",
        "code": "260395002",
        "display": "Normal range (qualifier value)"
      },
      {
        "system": "http://snomed.info/sct",
        "code": "260396001",
        "display": "Numerous (qualifier value)"
      },
      {
        "system": "http://snomed.info/sct",
        "code": "260398000",
        "display": "Overaction (+) (qualifier value)"
      },
      {
        "system": "http://snomed.info/sct",
        "code": "260399008",
        "display": "Raised (qualifier value)"
      },
      {
        "system": "http://snomed.info/sct",
        "code": "260400001",
        "display": "Reduced (qualifier value)"
      },
      {
        "system": "http://snomed.info/sct",
        "code": "260401002",
        "display": "Semi-formed (qualifier value)"
      },
      {
        "system": "http://snomed.info/sct",
        "code": "260402009",
        "display": "Short duration (qualifier value)"
      },
      {
        "system": "http://snomed.info/sct",
        "code": "260403004",
        "display": "Small peak (qualifier value)"
      },
      {
        "system": "http://snomed.info/sct",
        "code": "260404005",
        "display": "Strong (qualifier value)"
      },
      {
        "system": "http://snomed.info/sct",
        "code": "260405006",
        "display": "Trace (qualifier value)"
      },
      {
        "system": "http://snomed.info/sct",
        "code": "260406007",
        "display": "Underaction (-) (qualifier value)"
      },
      {
        "system": "http://snomed.info/sct",
        "code": "260407003",
        "display": "Weak (qualifier value)"
      },
      {
        "system": "http://snomed.info/sct",
        "code": "260408008",
        "display": "Weakly positive (qualifier value)"
      },
      {
        "system": "http://snomed.info/sct",
        "code": "260409000",
        "display": "Well defined (qualifier value)"
      },
      {
        "system": "http://snomed.info/sct",
        "code": "260410005",
        "display": "Vital (qualifier value)"
      },
      {
        "system": "http://snomed.info/sct",
        "code": "260411009",
        "display": "Presence findings (qualifier value)"
      },
      {
        "system": "http://snomed.info/sct",
        "code": "260412002",
        "display": "Anaerobes detected (qualifier value)"
      },
      {
        "system": "http://snomed.info/sct",
        "code": "260413007",
        "display": "None (qualifier value)"
      },
      {
        "system": "http://snomed.info/sct",
        "code": "260414001",
        "display": "Nothing (qualifier value)"
      },
      {
        "system": "http://snomed.info/sct",
        "code": "260415000",
        "display": "Not detected (qualifier value)"
      },
      {
        "system": "http://snomed.info/sct",
        "code": "260416004",
        "display": "Not itching (qualifier value)"
      },
      {
        "system": "http://snomed.info/sct",
        "code": "260417008",
        "display": "Strains different (qualifier value)"
      },
      {
        "system": "http://snomed.info/sct",
        "code": "260418003",
        "display": "Strains similar (qualifier value)"
      },
      {
        "system": "http://snomed.info/sct",
        "code": "260976002",
        "display": "Presence of infection (qualifier value)"
      },
      {
        "system": "http://snomed.info/sct",
        "code": "263650004",
        "display": "Presence of calculi (qualifier value)"
      },
      {
        "system": "http://snomed.info/sct",
        "code": "263651000",
        "display": "Presence of delta phalanx (qualifier value)"
      },
      {
        "system": "http://snomed.info/sct",
        "code": "263654008",
        "display": "Abnormal (qualifier value)"
      },
      {
        "system": "http://snomed.info/sct",
        "code": "263656005",
        "display": "Accurate (qualifier value)"
      },
      {
        "system": "http://snomed.info/sct",
        "code": "263745000",
        "display": "Efficient emptying (qualifier value)"
      },
      {
        "system": "http://snomed.info/sct",
        "code": "263776006",
        "display": "Heavy growth (qualifier value)"
      },
      {
        "system": "http://snomed.info/sct",
        "code": "263782009",
        "display": "Inaccurate (qualifier value)"
      },
      {
        "system": "http://snomed.info/sct",
        "code": "263812008",
        "display": "Moderate growth (qualifier value)"
      },
      {
        "system": "http://snomed.info/sct",
        "code": "263865001",
        "display": "Scanty (qualifier value)"
      },
      {
        "system": "http://snomed.info/sct",
        "code": "263866000",
        "display": "Scanty growth (qualifier value)"
      },
      {
        "system": "http://snomed.info/sct",
        "code": "263920009",
        "display": "Unrecordable (qualifier value)"
      },
      {
        "system": "http://snomed.info/sct",
        "code": "263926003",
        "display": "Very slow (qualifier value)"
      },
      {
        "system": "http://snomed.info/sct",
        "code": "264535005",
        "display": "Inefficient emptying (qualifier value)"
      },
      {
        "system": "http://snomed.info/sct",
        "code": "264840007",
        "display": "Hyperplasia present (qualifier value)"
      },
      {
        "system": "http://snomed.info/sct",
        "code": "264841006",
        "display": "Intermediately susceptible (qualifier value)"
      },
      {
        "system": "http://snomed.info/sct",
        "code": "264866005",
        "display": "Neoplasm present (qualifier value)"
      },
      {
        "system": "http://snomed.info/sct",
        "code": "264868006",
        "display": "No growth (qualifier value)"
      },
      {
        "system": "http://snomed.info/sct",
        "code": "264869003",
        "display": "No neoplasm (qualifier value)"
      },
      {
        "system": "http://snomed.info/sct",
        "code": "264871003",
        "display": "Nodules absent (qualifier value)"
      },
      {
        "system": "http://snomed.info/sct",
        "code": "264872005",
        "display": "Nodules present (qualifier value)"
      },
      {
        "system": "http://snomed.info/sct",
        "code": "264887000",
        "display": "Not isolated (qualifier value)"
      },
      {
        "system": "http://snomed.info/sct",
        "code": "264909001",
        "display": "Post-receptor abnormality (qualifier value)"
      },
      {
        "system": "http://snomed.info/sct",
        "code": "264914002",
        "display": "Receptor abnormality"
      },
      {
        "system": "http://snomed.info/sct",
        "code": "264915001",
        "display": "Receptor absent"
      },
      {
        "system": "http://snomed.info/sct",
        "code": "264916000",
        "display": "Receptor defective"
      },
      {
        "system": "http://snomed.info/sct",
        "code": "264929000",
        "display": "Superadded infection absent (qualifier value)"
      },
      {
        "system": "http://snomed.info/sct",
        "code": "272519000",
        "display": "Absence findings (qualifier value)"
      },
      {
        "system": "http://snomed.info/sct",
        "code": "272520006",
        "display": "Degree findings (qualifier value)"
      },
      {
        "system": "http://snomed.info/sct",
        "code": "276727009",
        "display": "Null (qualifier value)"
      },
      {
        "system": "http://snomed.info/sct",
        "code": "276800000",
        "display": "Normality findings (qualifier value)"
      },
      {
        "system": "http://snomed.info/sct",
        "code": "277025001",
        "display": "Proven (qualifier value)"
      },
      {
        "system": "http://snomed.info/sct",
        "code": "277026000",
        "display": "Unproven (qualifier value)"
      },
      {
        "system": "http://snomed.info/sct",
        "code": "281300000",
        "display": "Below reference range (qualifier value)"
      },
      {
        "system": "http://snomed.info/sct",
        "code": "281301001",
        "display": "Within reference range (qualifier value)"
      },
      {
        "system": "http://snomed.info/sct",
        "code": "281302008",
        "display": "Above reference range (qualifier value)"
      },
      {
        "system": "http://snomed.info/sct",
        "code": "288530001",
        "display": "Proof findings (qualifier value)"
      },
      {
        "system": "http://snomed.info/sct",
        "code": "300841009",
        "display": "Poorly defined (qualifier value)"
      },
      {
        "system": "http://snomed.info/sct",
        "code": "359530003",
        "display": "Shortened (qualifier value)"
      },
      {
        "system": "http://snomed.info/sct",
        "code": "367450005",
        "display": "Short (qualifier value)"
      },
      {
        "system": "http://snomed.info/sct",
        "code": "371148001",
        "display": "Ability interpretation value (qualifier value)"
      },
      {
        "system": "http://snomed.info/sct",
        "code": "371150009",
        "display": "Able (qualifier value)"
      },
      {
        "system": "http://snomed.info/sct",
        "code": "371151008",
        "display": "Unable (qualifier value)"
      },
      {
        "system": "http://snomed.info/sct",
        "code": "371152001",
        "display": "Assisted (qualifier value)"
      },
      {
        "system": "http://snomed.info/sct",
        "code": "371153006",
        "display": "Independently able (qualifier value)"
      },
      {
        "system": "http://snomed.info/sct",
        "code": "371154000",
        "display": "Dependent (qualifier value)"
      },
      {
        "system": "http://snomed.info/sct",
        "code": "371155004",
        "display": "Able to and does (qualifier value)"
      },
      {
        "system": "http://snomed.info/sct",
        "code": "371156003",
        "display": "Does not, dependent (qualifier value)"
      },
      {
        "system": "http://snomed.info/sct",
        "code": "371157007",
        "display": "Has difficulty doing (qualifier value)"
      },
      {
        "system": "http://snomed.info/sct",
        "code": "371879000",
        "display": "Abnormally high (qualifier value)"
      },
      {
        "system": "http://snomed.info/sct",
        "code": "371880002",
        "display": "Abnormally low (qualifier value)"
      },
      {
        "system": "http://snomed.info/sct",
        "code": "371925005",
        "display": "Most significant (qualifier value)"
      },
      {
        "system": "http://snomed.info/sct",
        "code": "371926006",
        "display": "Highly significant (qualifier value)"
      },
      {
        "system": "http://snomed.info/sct",
        "code": "371927002",
        "display": "Moderately significant (qualifier value)"
      },
      {
        "system": "http://snomed.info/sct",
        "code": "371928007",
        "display": "Not significant (qualifier value)"
      },
      {
        "system": "http://snomed.info/sct",
        "code": "371929004",
        "display": "Minimally significant (qualifier value)"
      },
      {
        "system": "http://snomed.info/sct",
        "code": "371932001",
        "display": "Borderline normal (qualifier value)"
      },
      {
        "system": "http://snomed.info/sct",
        "code": "371934000",
        "display": "Normality undetermined (qualifier value)"
      },
      {
        "system": "http://snomed.info/sct",
        "code": "373066001",
        "display": "Yes (qualifier value)"
      },
      {
        "system": "http://snomed.info/sct",
        "code": "373067005",
        "display": "No (qualifier value)"
      },
      {
        "system": "http://snomed.info/sct",
        "code": "373068000",
        "display": "Undetermined (qualifier value)"
      },
      {
        "system": "http://snomed.info/sct",
        "code": "385440003",
        "display": "Lowered (qualifier value)"
      },
      {
        "system": "http://snomed.info/sct",
        "code": "385640009",
        "display": "Does (qualifier value)"
      },
      {
        "system": "http://snomed.info/sct",
        "code": "386134007",
        "display": "Significant (qualifier value)"
      },
      {
        "system": "http://snomed.info/sct",
        "code": "386135008",
        "display": "Significance undetermined (qualifier value)"
      },
      {
        "system": "http://snomed.info/sct",
        "code": "394844007",
        "display": "Outside reference range (qualifier value)"
      },
      {
        "system": "http://snomed.info/sct",
        "code": "394845008",
        "display": "Potentially abnormal (qualifier value)"
      },
      {
        "system": "http://snomed.info/sct",
        "code": "419984006",
        "display": "Inconclusive (qualifier value)"
      },
      {
        "system": "http://snomed.info/sct",
        "code": "423437008",
        "display": "Insufficient (qualifier value)"
      },
      {
        "system": "http://snomed.info/sct",
        "code": "425404009",
        "display": "Slightly (qualifier value)"
      },
      {
        "system": "http://snomed.info/sct",
        "code": "425405005",
        "display": "Excellent (qualifier value)"
      },
      {
        "system": "http://snomed.info/sct",
        "code": "428247006",
        "display": "Blunted (qualifier value)"
      },
      {
        "system": "http://snomed.info/sct",
        "code": "428691001",
        "display": "Accentuated (qualifier value)"
      },
      {
        "system": "http://snomed.info/sct",
        "code": "441517005",
        "display": "Present two plus out of three plus (qualifier value)"
      },
      {
        "system": "http://snomed.info/sct",
        "code": "441521003",
        "display": "Present three plus out of three plus (qualifier value)"
      },
      {
        "system": "http://snomed.info/sct",
        "code": "441614007",
        "display": "Present one plus out of three plus (qualifier value)"
      },
      {
        "system": "http://snomed.info/sct",
        "code": "442499005",
        "display": "Interpretation value (qualifier value)"
      },
      {
        "system": "http://snomed.info/sct",
        "code": "442705008",
        "display": "Reference range interpretation value (qualifier value)"
      },
      {
        "system": "http://snomed.info/sct",
        "code": "442777001",
        "display": "Borderline high (qualifier value)"
      },
      {
        "system": "http://snomed.info/sct",
        "code": "442779003",
        "display": "Borderline low (qualifier value)"
      },
      {
        "system": "http://snomed.info/sct",
        "code": "1091000175109",
        "display": "Requires practice (qualifier value)"
      },
      {
        "system": "http://snomed.info/sct",
        "code": "444661000124105",
        "display": "Does without difficulty (qualifier value)"
      },
      {
        "system": "http://snomed.info/sct",
        "code": "444671000124103",
        "display": "Does with some difficulty (qualifier value)"
      },
      {
        "system": "http://snomed.info/sct",
        "code": "444681000124100",
        "display": "Does with much difficulty (qualifier value)"
      },
      {
        "system": "http://snomed.info/sct",
        "code": "444871000124104",
        "display": "Very good (qualifier value)"
      },
      {
        "system": "http://snomed.info/sct",
        "code": "444991000124106",
        "display": "Repeatedly non-reactive (qualifier value)"
      },
      {
        "system": "http://snomed.info/sct",
        "code": "445141000124103",
        "display": "Has slight difficulty doing (qualifier value)"
      },
      {
        "system": "http://snomed.info/sct",
        "code": "445451000124105",
        "display": "Moderately good (qualifier value)"
      },
      {
        "system": "http://snomed.info/sct",
        "code": "445481000124102",
        "display": "Has no difficulty doing (qualifier value)"
      },
      {
        "system": "http://snomed.info/sct",
        "code": "445511000124105",
        "display": "Fair (qualifier value)"
      }
    ]
  }
}