{
  "resourceType": "ValueSet",
  "id": "hspc-heightunits",
  "meta": {
    "lastUpdated": "2015-07-14T16:14:24.220+00:00",
    "profile": [
      "http://hl7.org/fhir/StructureDefinition/valueset-shareable-definition"
    ]
  },
  "text": {
    "status": "generated",
    "div": "<div><h2>HSPC Height Units of Measure Value Set</h2><p>The list of codes that describe the length units used for height.</p><p><b>Copyright Statement:</b> This value set includes content from UCUM. Implementer use of UCUM is not covered by this agreement</p><p>This value set includes codes defined in other code systems, using the following rules:</p><ul><li>Include these codes as defined in http://unitsofmeasure.org<table><tr><td><b>Code</b></td><td><b>Display</b></td></tr><tr><td>[in_us]</td><td>Inch [length]</td><td/></tr><tr><td>[ft_us]</td><td>Foot [length]</td><td/></tr><tr><td>cm</td><td>Centimeter [SI Length Units]</td><td/></tr></table></li></ul></div>"
  },
  "extension": [
    {
      "url": "http://hl7.org/fhir/StructureDefinition/valueset-oid",
      "valueUri": "2.16.840.1.113883.4.642.2.0"
    }
  ],
  "url": "http://hl7.org/fhir/ValueSet/hspc-heightunits",
  "version": "0.5.0",
  "name": "HSPC Height Units of Measure Value Set",
  "publisher": "HSPC",
  "contact": [
    {
      "telecom": [
        {
          "system": "url",
          "value": "http://healthcaresoa.org"
        }
      ]
    }
  ],
  "description": "The list of codes that describe the length units used for height.",
  "copyright": "This value set includes content from UCUM. Implementer use of UCUM is not covered by this agreement",
  "status": "draft",
  "experimental": true,
  "date": "2015-07-14T16:14:24+00:00",
  "compose": {
    "include": [
      {
        "system": "http://unitsofmeasure.org",
        "concept": [
          {
            "code": "[in_us]",
            "display": "Inch [length]"
          },
          {
            "code": "[ft_us]",
            "display": "Foot [length]"
          },
          {
            "code": "cm",
            "display": "Centimeter [SI Length Units]"
          }
        ]
      }
    ]
  }
}