{
  "resourceType": "ValueSet",
  "id": "observation-hspc-weightMeasMethodDevice",
  "meta": {
    "lastUpdated": "2015-07-14T16:14:24.220+00:00",
    "profile": [
      "http://hl7.org/fhir/StructureDefinition/valueset-shareable-definition"
    ]
  },
  "text": {
    "status": "generated",
    "div": "<div><h2>HSPC Weight Meas Method Device</h2><p>The set of codes that describe the methods or devices used to measure an individual's weight.</p><p><b>Copyright Statement:</b> Intermountain Healthcare</p><p>This value set has an inline code system Internountain Healthcare HDD, which defines the following codes:</p><table class=\"codes\"><tr><td><b>Code</b></td><td><b>Display</b></td><td><b>Definition</b></td></tr><tr><td>1964<a name=\"1964\"> </a></td><td>Bed scale</td><td>A scale that measures the weight of a patient by measuring the total mass of a bed and patient, then subtracts the known mass of the bed.</td></tr><tr><td>2007<a name=\"2007\"> </a></td><td>Chair scale</td><td>A scale that measures the weight of a patient by measuring the total mass of a chair and patient, then subtracts the known mass of the chair.</td></tr><tr><td>2139<a name=\"2139\"> </a></td><td>Sling scale</td><td>A scale for patients that are unable to stand, patients sit in a sling attached to a boom.</td></tr><tr><td>2142<a name=\"2142\"> </a></td><td>Standing scale</td><td>A scale upon which an individual will stand to measure body weight</td></tr><tr><td>2180<a name=\"2180\"> </a></td><td>Weight, lean; immersion</td><td>A measurement of lean body weight made by immersing an individual in water and then measuring the mass of the displacement.</td></tr><tr><td>2181<a name=\"2181\"> </a></td><td>Weight, lean; skin fold</td><td>A measurement of lean body weight made by measuring the thickness of a fold of skin.</td></tr><tr><td>2185<a name=\"2185\"> </a></td><td>Weight, percentile</td><td>A body weight based on other measurements plotted on a percentile chart.</td></tr><tr><td>50550851<a name=\"50550851\"> </a></td><td>Infant Scale</td><td>A scale designed for use with infants only</td></tr><tr><td>521443011<a name=\"521443011\"> </a></td><td>Broselow tape</td><td>A measuring tape created to relate a child's height, as measured by the tape to the child's weight</td></tr></table></div>"
  },
  "extension": [
    {
      "url": "http://hl7.org/fhir/StructureDefinition/valueset-oid",
      "valueUri": "2.16.840.1.113883.4.642.2.0"
    }
  ],
  "url": "http://hl7.org/fhir/ValueSet/observation-hspc-weightMeasMethodDevice",
  "version": "0.01",
  "name": "HSPC Weight Meas Method Device",
  "immutable": true,
  "publisher": "HSPC",
  "contact": [
    {
      "telecom": [
        {
          "system": "url",
          "value": "http://healthcaresoa.org"
        }
      ]
    }
  ],
  "description": "The set of codes that describe the methods or devices used to measure an individual's weight.",
  "copyright": "Intermountain Healthcare",
  "status": "draft",
  "experimental": true,
  "extensible": true,
  "date": "2015-06-01",
  "define": {
    "system": "Internountain Healthcare HDD",
    "caseSensitive": true,
    "concept": [
      {
        "code": "1964",
        "display": "Bed scale",
        "definition": "A scale that measures the weight of a patient by measuring the total mass of a bed and patient, then subtracts the known mass of the bed."
      },
      {
        "code": "2007",
        "display": "Chair scale",
        "definition": "A scale that measures the weight of a patient by measuring the total mass of a chair and patient, then subtracts the known mass of the chair."
      },
      {
        "code": "2139",
        "display": "Sling scale",
        "definition": "A scale for patients that are unable to stand, patients sit in a sling attached to a boom."
      },
      {
        "code": "2142",
        "display": "Standing scale",
        "definition": "A scale upon which an individual will stand to measure body weight"
      },
      {
        "code": "2180",
        "display": "Weight, lean; immersion",
        "definition": "A measurement of lean body weight made by immersing an individual in water and then measuring the mass of the displacement."
      },
      {
        "code": "2181",
        "display": "Weight, lean; skin fold",
        "definition": "A measurement of lean body weight made by measuring the thickness of a fold of skin."
      },
      {
        "code": "2185",
        "display": "Weight, percentile",
        "definition": "A body weight based on other measurements plotted on a percentile chart."
      },
      {
        "code": "50550851",
        "display": "Infant Scale",
        "definition": "A scale designed for use with infants only"
      },
      {
        "code": "521443011",
        "display": "Broselow tape",
        "definition": "A measuring tape created to relate a child's height, as measured by the tape to the child's weight"
      }
    ]
  }
}