{
  "resourceType": "ValueSet",
  "id": "medication-package-form-codes",
  "meta": {
    "lastUpdated": "2015-07-14T16:14:24.220+00:00",
    "profile": [
      "http://hl7.org/fhir/StructureDefinition/valueset-shareable-definition"
    ]
  },
  "text": {
    "status": "generated",
    "div": "<div><p>This value set contains 143 concepts</p><table class=\"codes\"><tr><td><b>Code</b></td><td><b>System</b></td><td><b>Display</b></td></tr><tr><td>6064005</td><td>http://snomed.info/sct</td><td>Topical route (qualifier value)</td></tr><tr><td>10547007</td><td>http://snomed.info/sct</td><td>Otic route (qualifier value)</td></tr><tr><td>12130007</td><td>http://snomed.info/sct</td><td>Intra-articular route (qualifier value)</td></tr><tr><td>16857009</td><td>http://snomed.info/sct</td><td>Vaginal route (qualifier value)</td></tr><tr><td>26643006</td><td>http://snomed.info/sct</td><td>Oral route (qualifier value)</td></tr><tr><td>34206005</td><td>http://snomed.info/sct</td><td>Subcutaneous route (qualifier value)</td></tr><tr><td>37161004</td><td>http://snomed.info/sct</td><td>Rectal route (qualifier value)</td></tr><tr><td>37737002</td><td>http://snomed.info/sct</td><td>Intraluminal route (qualifier value)</td></tr><tr><td>37839007</td><td>http://snomed.info/sct</td><td>Sublingual route (qualifier value)</td></tr><tr><td>38239002</td><td>http://snomed.info/sct</td><td>Intraperitoneal route (qualifier value)</td></tr><tr><td>45890007</td><td>http://snomed.info/sct</td><td>Transdermal route</td></tr><tr><td>46713006</td><td>http://snomed.info/sct</td><td>Nasal route (qualifier value)</td></tr><tr><td>47625008</td><td>http://snomed.info/sct</td><td>Intravenous route (qualifier value)</td></tr><tr><td>54471007</td><td>http://snomed.info/sct</td><td>Buccal route (qualifier value)</td></tr><tr><td>54485002</td><td>http://snomed.info/sct</td><td>Ophthalmic route (qualifier value)</td></tr><tr><td>58100008</td><td>http://snomed.info/sct</td><td>Intra-arterial route (qualifier value)</td></tr><tr><td>60213007</td><td>http://snomed.info/sct</td><td>Intramedullary route (qualifier value)</td></tr><tr><td>62226000</td><td>http://snomed.info/sct</td><td>Intrauterine route (qualifier value)</td></tr><tr><td>72607000</td><td>http://snomed.info/sct</td><td>Intrathecal route (qualifier value)</td></tr><tr><td>78421000</td><td>http://snomed.info/sct</td><td>Intramuscular use</td></tr><tr><td>90028008</td><td>http://snomed.info/sct</td><td>Urethral route (qualifier value)</td></tr><tr><td>127490009</td><td>http://snomed.info/sct</td><td>Gastrostomy use</td></tr><tr><td>127491008</td><td>http://snomed.info/sct</td><td>Jejunostomy use</td></tr><tr><td>127492001</td><td>http://snomed.info/sct</td><td>Nasogastric use</td></tr><tr><td>372449004</td><td>http://snomed.info/sct</td><td>Dental route (qualifier value)</td></tr><tr><td>372450004</td><td>http://snomed.info/sct</td><td>Endocervical route (qualifier value)</td></tr><tr><td>372451000</td><td>http://snomed.info/sct</td><td>Endosinusial route (qualifier value)</td></tr><tr><td>372452007</td><td>http://snomed.info/sct</td><td>Endotracheopulmonary route (qualifier value)</td></tr><tr><td>372453002</td><td>http://snomed.info/sct</td><td>Extra-amniotic route (qualifier value)</td></tr><tr><td>372454008</td><td>http://snomed.info/sct</td><td>Gastroenteral route (qualifier value)</td></tr><tr><td>372457001</td><td>http://snomed.info/sct</td><td>Gingival route (qualifier value)</td></tr><tr><td>372458006</td><td>http://snomed.info/sct</td><td>Intraamniotic route (qualifier value)</td></tr><tr><td>372459003</td><td>http://snomed.info/sct</td><td>Intrabursal route (qualifier value)</td></tr><tr><td>372460008</td><td>http://snomed.info/sct</td><td>Intracardiac route (qualifier value)</td></tr><tr><td>372461007</td><td>http://snomed.info/sct</td><td>Intracavernous route (qualifier value)</td></tr><tr><td>372463005</td><td>http://snomed.info/sct</td><td>Intracoronary route (qualifier value)</td></tr><tr><td>372464004</td><td>http://snomed.info/sct</td><td>Intradermal route (qualifier value)</td></tr><tr><td>372465003</td><td>http://snomed.info/sct</td><td>Intradiscal route (qualifier value)</td></tr><tr><td>372466002</td><td>http://snomed.info/sct</td><td>Intralesional route (qualifier value)</td></tr><tr><td>372467006</td><td>http://snomed.info/sct</td><td>Intralymphatic route (qualifier value)</td></tr><tr><td>372468001</td><td>http://snomed.info/sct</td><td>Intraocular route (qualifier value)</td></tr><tr><td>372469009</td><td>http://snomed.info/sct</td><td>Intrapleural route (qualifier value)</td></tr><tr><td>372470005</td><td>http://snomed.info/sct</td><td>Intrasternal route (qualifier value)</td></tr><tr><td>372471009</td><td>http://snomed.info/sct</td><td>Intravesical route (qualifier value)</td></tr><tr><td>372473007</td><td>http://snomed.info/sct</td><td>Oromucosal route (qualifier value)</td></tr><tr><td>372474001</td><td>http://snomed.info/sct</td><td>Periarticular route (qualifier value)</td></tr><tr><td>372475000</td><td>http://snomed.info/sct</td><td>Perineural route (qualifier value)</td></tr><tr><td>372476004</td><td>http://snomed.info/sct</td><td>Subconjunctival route (qualifier value)</td></tr><tr><td>404815008</td><td>http://snomed.info/sct</td><td>Transmucosal route (qualifier value)</td></tr><tr><td>404819002</td><td>http://snomed.info/sct</td><td>Intrabiliary route (qualifier value)</td></tr><tr><td>404820008</td><td>http://snomed.info/sct</td><td>Epidural route (qualifier value)</td></tr><tr><td>416174007</td><td>http://snomed.info/sct</td><td>Suborbital route (qualifier value)</td></tr><tr><td>417070009</td><td>http://snomed.info/sct</td><td>Caudal route (qualifier value)</td></tr><tr><td>417255000</td><td>http://snomed.info/sct</td><td>Intraosseous route (qualifier value)</td></tr><tr><td>417950001</td><td>http://snomed.info/sct</td><td>A route that begins within the thorax internal to the ribs.</td></tr><tr><td>417985001</td><td>http://snomed.info/sct</td><td>Enteral route (qualifier value)</td></tr><tr><td>417989007</td><td>http://snomed.info/sct</td><td>Intraductal route (qualifier value)</td></tr><tr><td>418091004</td><td>http://snomed.info/sct</td><td>Intratympanic route (qualifier value)</td></tr><tr><td>418114005</td><td>http://snomed.info/sct</td><td>Intravenous central route (qualifier value)</td></tr><tr><td>418133000</td><td>http://snomed.info/sct</td><td>Intramyometrial route (qualifier value)</td></tr><tr><td>418136008</td><td>http://snomed.info/sct</td><td>Gastro-intestinal stoma route (qualifier value)</td></tr><tr><td>418162004</td><td>http://snomed.info/sct</td><td>Colostomy route (qualifier value)</td></tr><tr><td>418204005</td><td>http://snomed.info/sct</td><td>Periurethral route (qualifier value)</td></tr><tr><td>418287000</td><td>http://snomed.info/sct</td><td>Intracoronal route (qualifier value)</td></tr><tr><td>418321004</td><td>http://snomed.info/sct</td><td>Retrobulbar route (qualifier value)</td></tr><tr><td>418331006</td><td>http://snomed.info/sct</td><td>Intracartilaginous route (qualifier value)</td></tr><tr><td>418401004</td><td>http://snomed.info/sct</td><td>Intravitreal route (qualifier value)</td></tr><tr><td>418418000</td><td>http://snomed.info/sct</td><td>Intraspinal route (qualifier value)</td></tr><tr><td>418441008</td><td>http://snomed.info/sct</td><td>Orogastric route (qualifier value)</td></tr><tr><td>418511008</td><td>http://snomed.info/sct</td><td>Transurethral route (qualifier value)</td></tr><tr><td>418586008</td><td>http://snomed.info/sct</td><td>Intratendinous route (qualifier value)</td></tr><tr><td>418608002</td><td>http://snomed.info/sct</td><td>Intracorneal route (qualifier value)</td></tr><tr><td>418664002</td><td>http://snomed.info/sct</td><td>A respiratory tract route that begins with direct application to the oropharynx.</td></tr><tr><td>418722009</td><td>http://snomed.info/sct</td><td>Peribulbar route (qualifier value)</td></tr><tr><td>418730005</td><td>http://snomed.info/sct</td><td>Nasojejunal route (qualifier value)</td></tr><tr><td>418743005</td><td>http://snomed.info/sct</td><td>Fistula route (qualifier value)</td></tr><tr><td>418813001</td><td>http://snomed.info/sct</td><td>Surgical drain route (qualifier value)</td></tr><tr><td>418821007</td><td>http://snomed.info/sct</td><td>Intracameral route (qualifier value)</td></tr><tr><td>418851001</td><td>http://snomed.info/sct</td><td>Paracervical route (qualifier value)</td></tr><tr><td>418877009</td><td>http://snomed.info/sct</td><td>Intrasynovial route (qualifier value)</td></tr><tr><td>418887008</td><td>http://snomed.info/sct</td><td>Intraduodenal route (qualifier value)</td></tr><tr><td>418892005</td><td>http://snomed.info/sct</td><td>Intracisternal route (qualifier value)</td></tr><tr><td>418947002</td><td>http://snomed.info/sct</td><td>Intratesticular route (qualifier value)</td></tr><tr><td>418987007</td><td>http://snomed.info/sct</td><td>Intracranial route (qualifier value)</td></tr><tr><td>419021003</td><td>http://snomed.info/sct</td><td>Tumor cavity route (qualifier value)</td></tr><tr><td>419165009</td><td>http://snomed.info/sct</td><td>Paravertebral route (qualifier value)</td></tr><tr><td>419231003</td><td>http://snomed.info/sct</td><td>Intrasinal route (qualifier value)</td></tr><tr><td>419243002</td><td>http://snomed.info/sct</td><td>Transcervical route (qualifier value)</td></tr><tr><td>419320008</td><td>http://snomed.info/sct</td><td>Subtendinous route (qualifier value)</td></tr><tr><td>419396008</td><td>http://snomed.info/sct</td><td>Intraabdominal route (qualifier value)</td></tr><tr><td>419601003</td><td>http://snomed.info/sct</td><td>Subgingival route (qualifier value)</td></tr><tr><td>419631009</td><td>http://snomed.info/sct</td><td>Intraovarian route (qualifier value)</td></tr><tr><td>419684008</td><td>http://snomed.info/sct</td><td>Ureteral route (qualifier value)</td></tr><tr><td>419762003</td><td>http://snomed.info/sct</td><td>Peritendinous route (qualifier value)</td></tr><tr><td>419778001</td><td>http://snomed.info/sct</td><td>Intrabronchial route (qualifier value)</td></tr><tr><td>419810008</td><td>http://snomed.info/sct</td><td>Intraprostatic route (qualifier value)</td></tr><tr><td>419874009</td><td>http://snomed.info/sct</td><td>Submucosal route (qualifier value)</td></tr><tr><td>419894000</td><td>http://snomed.info/sct</td><td>Surgical cavity route (qualifier value)</td></tr><tr><td>419954003</td><td>http://snomed.info/sct</td><td>Ileostomy route (qualifier value)</td></tr><tr><td>419993007</td><td>http://snomed.info/sct</td><td>Intravenous peripheral route (qualifier value)</td></tr><tr><td>420047004</td><td>http://snomed.info/sct</td><td>Periosteal route (qualifier value)</td></tr><tr><td>420163009</td><td>http://snomed.info/sct</td><td>Esophagostomy route (qualifier value)</td></tr><tr><td>420168000</td><td>http://snomed.info/sct</td><td>Urostomy route (qualifier value)</td></tr><tr><td>420185003</td><td>http://snomed.info/sct</td><td>Laryngeal route (qualifier value)</td></tr><tr><td>420201002</td><td>http://snomed.info/sct</td><td>Intrapulmonary route (qualifier value)</td></tr><tr><td>420204005</td><td>http://snomed.info/sct</td><td>Mucous fistula route (qualifier value)</td></tr><tr><td>420218003</td><td>http://snomed.info/sct</td><td>Nasoduodenal route (qualifier value)</td></tr><tr><td>420254004</td><td>http://snomed.info/sct</td><td>Body cavity route (qualifier value)</td></tr><tr><td>420287000</td><td>http://snomed.info/sct</td><td>Intraventricular route - cardiac (qualifier value)</td></tr><tr><td>420719007</td><td>http://snomed.info/sct</td><td>Intracerebroventricular route (qualifier value)</td></tr><tr><td>428191002</td><td>http://snomed.info/sct</td><td>Percutaneous route (qualifier value)</td></tr><tr><td>429817007</td><td>http://snomed.info/sct</td><td>Interstitial route (qualifier value)</td></tr><tr><td>445752009</td><td>http://snomed.info/sct</td><td>Intraesophageal route (qualifier value)</td></tr><tr><td>445754005</td><td>http://snomed.info/sct</td><td>Intragingival route (qualifier value)</td></tr><tr><td>445755006</td><td>http://snomed.info/sct</td><td>Intravascular route (qualifier value)</td></tr><tr><td>445756007</td><td>http://snomed.info/sct</td><td>A meningeal route that begins within the dura.</td></tr><tr><td>445767008</td><td>http://snomed.info/sct</td><td>Intrameningeal route (qualifier value)</td></tr><tr><td>445768003</td><td>http://snomed.info/sct</td><td>Intragastric route</td></tr><tr><td>445769006</td><td>http://snomed.info/sct</td><td>Intracorpus cavernosum route</td></tr><tr><td>445771006</td><td>http://snomed.info/sct</td><td>Intrapericardial route (qualifier value)</td></tr><tr><td>445913005</td><td>http://snomed.info/sct</td><td>Intralingual route (qualifier value)</td></tr><tr><td>445941009</td><td>http://snomed.info/sct</td><td>Intrahepatic route (qualifier value)</td></tr><tr><td>446105004</td><td>http://snomed.info/sct</td><td>Conjunctival route (qualifier value)</td></tr><tr><td>446407004</td><td>http://snomed.info/sct</td><td>Intraepicardial route (qualifier value)</td></tr><tr><td>446435000</td><td>http://snomed.info/sct</td><td>Transendocardial route (qualifier value)</td></tr><tr><td>446442000</td><td>http://snomed.info/sct</td><td>Transplacental route (qualifier value)</td></tr><tr><td>446540005</td><td>http://snomed.info/sct</td><td>Intracerebral route (qualifier value)</td></tr><tr><td>447026006</td><td>http://snomed.info/sct</td><td>Intraileal route (qualifier value)</td></tr><tr><td>447052000</td><td>http://snomed.info/sct</td><td>Periodontal route (qualifier value)</td></tr><tr><td>447080003</td><td>http://snomed.info/sct</td><td>Peridural route (qualifier value)</td></tr><tr><td>447081004</td><td>http://snomed.info/sct</td><td>Lower respiratory tract route (qualifier value)</td></tr><tr><td>447121004</td><td>http://snomed.info/sct</td><td>Intramammary route (qualifier value)</td></tr><tr><td>447122006</td><td>http://snomed.info/sct</td><td>Intratumor route (qualifier value)</td></tr><tr><td>447227007</td><td>http://snomed.info/sct</td><td>Transtympanic route (qualifier value)</td></tr><tr><td>447229005</td><td>http://snomed.info/sct</td><td>Transtracheal route (qualifier value)</td></tr><tr><td>447694001</td><td>http://snomed.info/sct</td><td>Respiratory tract route (qualifier value)</td></tr><tr><td>447964005</td><td>http://snomed.info/sct</td><td>Digestive tract route (qualifier value)</td></tr><tr><td>448077001</td><td>http://snomed.info/sct</td><td>A route that begins within the epidermis of the skin.</td></tr><tr><td>448491004</td><td>http://snomed.info/sct</td><td>Intrajejunal route (qualifier value)</td></tr><tr><td>448492006</td><td>http://snomed.info/sct</td><td>Intracolonic route (qualifier value)</td></tr><tr><td>448598008</td><td>http://snomed.info/sct</td><td>Cutaneous route (qualifier value)</td></tr><tr><td>697971008</td><td>http://snomed.info/sct</td><td>Arteriovenous fistula route (qualifier value)</td></tr><tr><td>432671000124106</td><td>http://snomed.info/sct</td><td>Arteriovenous graft route (qualifier value)</td></tr></table></div>"
  },
  "extension": [
    {
      "url": "http://hl7.org/fhir/StructureDefinition/valueset-oid",
      "valueUri": "2.16.840.1.113883.4.642.2.111"
    }
  ],
  "url": "http://hl7.org/fhir/ValueSet/medication-package-form-codes",
  "version": "0.5.0",
  "name": "SNOMED CT Form Codes",
  "publisher": "FHIR Project team",
  "contact": [
    {
      "telecom": [
        {
          "system": "url",
          "value": "http://hl7.org/fhir"
        }
      ]
    }
  ],
  "description": "Value Set Contents (Expansion) for SNOMED CT Form Codes at Tue, Jul 14, 2015 16:16+0000",
  "copyright": "This value set includes content from SNOMED CT, which is copyright © 2002+ International Health Terminology Standards Development Organisation (IHTSDO), and distributed by agreement between IHTSDO and HL7. Implementer use of SNOMED CT is not covered by this agreement",
  "status": "draft",
  "experimental": true,
  "date": "2015-07-14T16:14:24+00:00",
  "expansion": {
    "extension": [
      {
        "url": "http://hl7.org/fhir/StructureDefinition/valueset-expansionSource",
        "valueReference": {
          "reference": "ValueSet/valueset-medication-codes"
        }
      },
      {
        "url": "http://hl7.org/fhir/StructureDefinition/valueset-unclosed",
        "valueBoolean": true
      }
    ],
    "identifier": "urn:uuid:e044a4bd-1242-46a8-aaa2-b889c9127b2a",
    "timestamp": "2015-07-03T23:50:52Z",
    "contains": [
      {
        "system": "http://snomed.info/sct",
        "code": "6064005",
        "display": "Topical route (qualifier value)"
      },
      {
        "system": "http://snomed.info/sct",
        "code": "10547007",
        "display": "Otic route (qualifier value)"
      },
      {
        "system": "http://snomed.info/sct",
        "code": "12130007",
        "display": "Intra-articular route (qualifier value)"
      },
      {
        "system": "http://snomed.info/sct",
        "code": "16857009",
        "display": "Vaginal route (qualifier value)"
      },
      {
        "system": "http://snomed.info/sct",
        "code": "26643006",
        "display": "Oral route (qualifier value)"
      },
      {
        "system": "http://snomed.info/sct",
        "code": "34206005",
        "display": "Subcutaneous route (qualifier value)"
      },
      {
        "system": "http://snomed.info/sct",
        "code": "37161004",
        "display": "Rectal route (qualifier value)"
      },
      {
        "system": "http://snomed.info/sct",
        "code": "37737002",
        "display": "Intraluminal route (qualifier value)"
      },
      {
        "system": "http://snomed.info/sct",
        "code": "37839007",
        "display": "Sublingual route (qualifier value)"
      },
      {
        "system": "http://snomed.info/sct",
        "code": "38239002",
        "display": "Intraperitoneal route (qualifier value)"
      },
      {
        "system": "http://snomed.info/sct",
        "code": "45890007",
        "display": "Transdermal route"
      },
      {
        "system": "http://snomed.info/sct",
        "code": "46713006",
        "display": "Nasal route (qualifier value)"
      },
      {
        "system": "http://snomed.info/sct",
        "code": "47625008",
        "display": "Intravenous route (qualifier value)"
      },
      {
        "system": "http://snomed.info/sct",
        "code": "54471007",
        "display": "Buccal route (qualifier value)"
      },
      {
        "system": "http://snomed.info/sct",
        "code": "54485002",
        "display": "Ophthalmic route (qualifier value)"
      },
      {
        "system": "http://snomed.info/sct",
        "code": "58100008",
        "display": "Intra-arterial route (qualifier value)"
      },
      {
        "system": "http://snomed.info/sct",
        "code": "60213007",
        "display": "Intramedullary route (qualifier value)"
      },
      {
        "system": "http://snomed.info/sct",
        "code": "62226000",
        "display": "Intrauterine route (qualifier value)"
      },
      {
        "system": "http://snomed.info/sct",
        "code": "72607000",
        "display": "Intrathecal route (qualifier value)"
      },
      {
        "system": "http://snomed.info/sct",
        "code": "78421000",
        "display": "Intramuscular use"
      },
      {
        "system": "http://snomed.info/sct",
        "code": "90028008",
        "display": "Urethral route (qualifier value)"
      },
      {
        "system": "http://snomed.info/sct",
        "code": "127490009",
        "display": "Gastrostomy use"
      },
      {
        "system": "http://snomed.info/sct",
        "code": "127491008",
        "display": "Jejunostomy use"
      },
      {
        "system": "http://snomed.info/sct",
        "code": "127492001",
        "display": "Nasogastric use"
      },
      {
        "system": "http://snomed.info/sct",
        "code": "372449004",
        "display": "Dental route (qualifier value)"
      },
      {
        "system": "http://snomed.info/sct",
        "code": "372450004",
        "display": "Endocervical route (qualifier value)"
      },
      {
        "system": "http://snomed.info/sct",
        "code": "372451000",
        "display": "Endosinusial route (qualifier value)"
      },
      {
        "system": "http://snomed.info/sct",
        "code": "372452007",
        "display": "Endotracheopulmonary route (qualifier value)"
      },
      {
        "system": "http://snomed.info/sct",
        "code": "372453002",
        "display": "Extra-amniotic route (qualifier value)"
      },
      {
        "system": "http://snomed.info/sct",
        "code": "372454008",
        "display": "Gastroenteral route (qualifier value)"
      },
      {
        "system": "http://snomed.info/sct",
        "code": "372457001",
        "display": "Gingival route (qualifier value)"
      },
      {
        "system": "http://snomed.info/sct",
        "code": "372458006",
        "display": "Intraamniotic route (qualifier value)"
      },
      {
        "system": "http://snomed.info/sct",
        "code": "372459003",
        "display": "Intrabursal route (qualifier value)"
      },
      {
        "system": "http://snomed.info/sct",
        "code": "372460008",
        "display": "Intracardiac route (qualifier value)"
      },
      {
        "system": "http://snomed.info/sct",
        "code": "372461007",
        "display": "Intracavernous route (qualifier value)"
      },
      {
        "system": "http://snomed.info/sct",
        "code": "372463005",
        "display": "Intracoronary route (qualifier value)"
      },
      {
        "system": "http://snomed.info/sct",
        "code": "372464004",
        "display": "Intradermal route (qualifier value)"
      },
      {
        "system": "http://snomed.info/sct",
        "code": "372465003",
        "display": "Intradiscal route (qualifier value)"
      },
      {
        "system": "http://snomed.info/sct",
        "code": "372466002",
        "display": "Intralesional route (qualifier value)"
      },
      {
        "system": "http://snomed.info/sct",
        "code": "372467006",
        "display": "Intralymphatic route (qualifier value)"
      },
      {
        "system": "http://snomed.info/sct",
        "code": "372468001",
        "display": "Intraocular route (qualifier value)"
      },
      {
        "system": "http://snomed.info/sct",
        "code": "372469009",
        "display": "Intrapleural route (qualifier value)"
      },
      {
        "system": "http://snomed.info/sct",
        "code": "372470005",
        "display": "Intrasternal route (qualifier value)"
      },
      {
        "system": "http://snomed.info/sct",
        "code": "372471009",
        "display": "Intravesical route (qualifier value)"
      },
      {
        "system": "http://snomed.info/sct",
        "code": "372473007",
        "display": "Oromucosal route (qualifier value)"
      },
      {
        "system": "http://snomed.info/sct",
        "code": "372474001",
        "display": "Periarticular route (qualifier value)"
      },
      {
        "system": "http://snomed.info/sct",
        "code": "372475000",
        "display": "Perineural route (qualifier value)"
      },
      {
        "system": "http://snomed.info/sct",
        "code": "372476004",
        "display": "Subconjunctival route (qualifier value)"
      },
      {
        "system": "http://snomed.info/sct",
        "code": "404815008",
        "display": "Transmucosal route (qualifier value)"
      },
      {
        "system": "http://snomed.info/sct",
        "code": "404819002",
        "display": "Intrabiliary route (qualifier value)"
      },
      {
        "system": "http://snomed.info/sct",
        "code": "404820008",
        "display": "Epidural route (qualifier value)"
      },
      {
        "system": "http://snomed.info/sct",
        "code": "416174007",
        "display": "Suborbital route (qualifier value)"
      },
      {
        "system": "http://snomed.info/sct",
        "code": "417070009",
        "display": "Caudal route (qualifier value)"
      },
      {
        "system": "http://snomed.info/sct",
        "code": "417255000",
        "display": "Intraosseous route (qualifier value)"
      },
      {
        "system": "http://snomed.info/sct",
        "code": "417950001",
        "display": "A route that begins within the thorax internal to the ribs."
      },
      {
        "system": "http://snomed.info/sct",
        "code": "417985001",
        "display": "Enteral route (qualifier value)"
      },
      {
        "system": "http://snomed.info/sct",
        "code": "417989007",
        "display": "Intraductal route (qualifier value)"
      },
      {
        "system": "http://snomed.info/sct",
        "code": "418091004",
        "display": "Intratympanic route (qualifier value)"
      },
      {
        "system": "http://snomed.info/sct",
        "code": "418114005",
        "display": "Intravenous central route (qualifier value)"
      },
      {
        "system": "http://snomed.info/sct",
        "code": "418133000",
        "display": "Intramyometrial route (qualifier value)"
      },
      {
        "system": "http://snomed.info/sct",
        "code": "418136008",
        "display": "Gastro-intestinal stoma route (qualifier value)"
      },
      {
        "system": "http://snomed.info/sct",
        "code": "418162004",
        "display": "Colostomy route (qualifier value)"
      },
      {
        "system": "http://snomed.info/sct",
        "code": "418204005",
        "display": "Periurethral route (qualifier value)"
      },
      {
        "system": "http://snomed.info/sct",
        "code": "418287000",
        "display": "Intracoronal route (qualifier value)"
      },
      {
        "system": "http://snomed.info/sct",
        "code": "418321004",
        "display": "Retrobulbar route (qualifier value)"
      },
      {
        "system": "http://snomed.info/sct",
        "code": "418331006",
        "display": "Intracartilaginous route (qualifier value)"
      },
      {
        "system": "http://snomed.info/sct",
        "code": "418401004",
        "display": "Intravitreal route (qualifier value)"
      },
      {
        "system": "http://snomed.info/sct",
        "code": "418418000",
        "display": "Intraspinal route (qualifier value)"
      },
      {
        "system": "http://snomed.info/sct",
        "code": "418441008",
        "display": "Orogastric route (qualifier value)"
      },
      {
        "system": "http://snomed.info/sct",
        "code": "418511008",
        "display": "Transurethral route (qualifier value)"
      },
      {
        "system": "http://snomed.info/sct",
        "code": "418586008",
        "display": "Intratendinous route (qualifier value)"
      },
      {
        "system": "http://snomed.info/sct",
        "code": "418608002",
        "display": "Intracorneal route (qualifier value)"
      },
      {
        "system": "http://snomed.info/sct",
        "code": "418664002",
        "display": "A respiratory tract route that begins with direct application to the oropharynx."
      },
      {
        "system": "http://snomed.info/sct",
        "code": "418722009",
        "display": "Peribulbar route (qualifier value)"
      },
      {
        "system": "http://snomed.info/sct",
        "code": "418730005",
        "display": "Nasojejunal route (qualifier value)"
      },
      {
        "system": "http://snomed.info/sct",
        "code": "418743005",
        "display": "Fistula route (qualifier value)"
      },
      {
        "system": "http://snomed.info/sct",
        "code": "418813001",
        "display": "Surgical drain route (qualifier value)"
      },
      {
        "system": "http://snomed.info/sct",
        "code": "418821007",
        "display": "Intracameral route (qualifier value)"
      },
      {
        "system": "http://snomed.info/sct",
        "code": "418851001",
        "display": "Paracervical route (qualifier value)"
      },
      {
        "system": "http://snomed.info/sct",
        "code": "418877009",
        "display": "Intrasynovial route (qualifier value)"
      },
      {
        "system": "http://snomed.info/sct",
        "code": "418887008",
        "display": "Intraduodenal route (qualifier value)"
      },
      {
        "system": "http://snomed.info/sct",
        "code": "418892005",
        "display": "Intracisternal route (qualifier value)"
      },
      {
        "system": "http://snomed.info/sct",
        "code": "418947002",
        "display": "Intratesticular route (qualifier value)"
      },
      {
        "system": "http://snomed.info/sct",
        "code": "418987007",
        "display": "Intracranial route (qualifier value)"
      },
      {
        "system": "http://snomed.info/sct",
        "code": "419021003",
        "display": "Tumor cavity route (qualifier value)"
      },
      {
        "system": "http://snomed.info/sct",
        "code": "419165009",
        "display": "Paravertebral route (qualifier value)"
      },
      {
        "system": "http://snomed.info/sct",
        "code": "419231003",
        "display": "Intrasinal route (qualifier value)"
      },
      {
        "system": "http://snomed.info/sct",
        "code": "419243002",
        "display": "Transcervical route (qualifier value)"
      },
      {
        "system": "http://snomed.info/sct",
        "code": "419320008",
        "display": "Subtendinous route (qualifier value)"
      },
      {
        "system": "http://snomed.info/sct",
        "code": "419396008",
        "display": "Intraabdominal route (qualifier value)"
      },
      {
        "system": "http://snomed.info/sct",
        "code": "419601003",
        "display": "Subgingival route (qualifier value)"
      },
      {
        "system": "http://snomed.info/sct",
        "code": "419631009",
        "display": "Intraovarian route (qualifier value)"
      },
      {
        "system": "http://snomed.info/sct",
        "code": "419684008",
        "display": "Ureteral route (qualifier value)"
      },
      {
        "system": "http://snomed.info/sct",
        "code": "419762003",
        "display": "Peritendinous route (qualifier value)"
      },
      {
        "system": "http://snomed.info/sct",
        "code": "419778001",
        "display": "Intrabronchial route (qualifier value)"
      },
      {
        "system": "http://snomed.info/sct",
        "code": "419810008",
        "display": "Intraprostatic route (qualifier value)"
      },
      {
        "system": "http://snomed.info/sct",
        "code": "419874009",
        "display": "Submucosal route (qualifier value)"
      },
      {
        "system": "http://snomed.info/sct",
        "code": "419894000",
        "display": "Surgical cavity route (qualifier value)"
      },
      {
        "system": "http://snomed.info/sct",
        "code": "419954003",
        "display": "Ileostomy route (qualifier value)"
      },
      {
        "system": "http://snomed.info/sct",
        "code": "419993007",
        "display": "Intravenous peripheral route (qualifier value)"
      },
      {
        "system": "http://snomed.info/sct",
        "code": "420047004",
        "display": "Periosteal route (qualifier value)"
      },
      {
        "system": "http://snomed.info/sct",
        "code": "420163009",
        "display": "Esophagostomy route (qualifier value)"
      },
      {
        "system": "http://snomed.info/sct",
        "code": "420168000",
        "display": "Urostomy route (qualifier value)"
      },
      {
        "system": "http://snomed.info/sct",
        "code": "420185003",
        "display": "Laryngeal route (qualifier value)"
      },
      {
        "system": "http://snomed.info/sct",
        "code": "420201002",
        "display": "Intrapulmonary route (qualifier value)"
      },
      {
        "system": "http://snomed.info/sct",
        "code": "420204005",
        "display": "Mucous fistula route (qualifier value)"
      },
      {
        "system": "http://snomed.info/sct",
        "code": "420218003",
        "display": "Nasoduodenal route (qualifier value)"
      },
      {
        "system": "http://snomed.info/sct",
        "code": "420254004",
        "display": "Body cavity route (qualifier value)"
      },
      {
        "system": "http://snomed.info/sct",
        "code": "420287000",
        "display": "Intraventricular route - cardiac (qualifier value)"
      },
      {
        "system": "http://snomed.info/sct",
        "code": "420719007",
        "display": "Intracerebroventricular route (qualifier value)"
      },
      {
        "system": "http://snomed.info/sct",
        "code": "428191002",
        "display": "Percutaneous route (qualifier value)"
      },
      {
        "system": "http://snomed.info/sct",
        "code": "429817007",
        "display": "Interstitial route (qualifier value)"
      },
      {
        "system": "http://snomed.info/sct",
        "code": "445752009",
        "display": "Intraesophageal route (qualifier value)"
      },
      {
        "system": "http://snomed.info/sct",
        "code": "445754005",
        "display": "Intragingival route (qualifier value)"
      },
      {
        "system": "http://snomed.info/sct",
        "code": "445755006",
        "display": "Intravascular route (qualifier value)"
      },
      {
        "system": "http://snomed.info/sct",
        "code": "445756007",
        "display": "A meningeal route that begins within the dura."
      },
      {
        "system": "http://snomed.info/sct",
        "code": "445767008",
        "display": "Intrameningeal route (qualifier value)"
      },
      {
        "system": "http://snomed.info/sct",
        "code": "445768003",
        "display": "Intragastric route"
      },
      {
        "system": "http://snomed.info/sct",
        "code": "445769006",
        "display": "Intracorpus cavernosum route"
      },
      {
        "system": "http://snomed.info/sct",
        "code": "445771006",
        "display": "Intrapericardial route (qualifier value)"
      },
      {
        "system": "http://snomed.info/sct",
        "code": "445913005",
        "display": "Intralingual route (qualifier value)"
      },
      {
        "system": "http://snomed.info/sct",
        "code": "445941009",
        "display": "Intrahepatic route (qualifier value)"
      },
      {
        "system": "http://snomed.info/sct",
        "code": "446105004",
        "display": "Conjunctival route (qualifier value)"
      },
      {
        "system": "http://snomed.info/sct",
        "code": "446407004",
        "display": "Intraepicardial route (qualifier value)"
      },
      {
        "system": "http://snomed.info/sct",
        "code": "446435000",
        "display": "Transendocardial route (qualifier value)"
      },
      {
        "system": "http://snomed.info/sct",
        "code": "446442000",
        "display": "Transplacental route (qualifier value)"
      },
      {
        "system": "http://snomed.info/sct",
        "code": "446540005",
        "display": "Intracerebral route (qualifier value)"
      },
      {
        "system": "http://snomed.info/sct",
        "code": "447026006",
        "display": "Intraileal route (qualifier value)"
      },
      {
        "system": "http://snomed.info/sct",
        "code": "447052000",
        "display": "Periodontal route (qualifier value)"
      },
      {
        "system": "http://snomed.info/sct",
        "code": "447080003",
        "display": "Peridural route (qualifier value)"
      },
      {
        "system": "http://snomed.info/sct",
        "code": "447081004",
        "display": "Lower respiratory tract route (qualifier value)"
      },
      {
        "system": "http://snomed.info/sct",
        "code": "447121004",
        "display": "Intramammary route (qualifier value)"
      },
      {
        "system": "http://snomed.info/sct",
        "code": "447122006",
        "display": "Intratumor route (qualifier value)"
      },
      {
        "system": "http://snomed.info/sct",
        "code": "447227007",
        "display": "Transtympanic route (qualifier value)"
      },
      {
        "system": "http://snomed.info/sct",
        "code": "447229005",
        "display": "Transtracheal route (qualifier value)"
      },
      {
        "system": "http://snomed.info/sct",
        "code": "447694001",
        "display": "Respiratory tract route (qualifier value)"
      },
      {
        "system": "http://snomed.info/sct",
        "code": "447964005",
        "display": "Digestive tract route (qualifier value)"
      },
      {
        "system": "http://snomed.info/sct",
        "code": "448077001",
        "display": "A route that begins within the epidermis of the skin."
      },
      {
        "system": "http://snomed.info/sct",
        "code": "448491004",
        "display": "Intrajejunal route (qualifier value)"
      },
      {
        "system": "http://snomed.info/sct",
        "code": "448492006",
        "display": "Intracolonic route (qualifier value)"
      },
      {
        "system": "http://snomed.info/sct",
        "code": "448598008",
        "display": "Cutaneous route (qualifier value)"
      },
      {
        "system": "http://snomed.info/sct",
        "code": "697971008",
        "display": "Arteriovenous fistula route (qualifier value)"
      },
      {
        "system": "http://snomed.info/sct",
        "code": "432671000124106",
        "display": "Arteriovenous graft route (qualifier value)"
      }
    ]
  }
}