<?xml version="1.0" encoding="UTF-8"?><svg xmlns="http://www.w3.org/2000/svg" xmlns:xlink="http://www.w3.org/1999/xlink" version="1.1" width="824.0" height="266.0">  <defs>
    <filter id="shadow1" x="0" y="0" width="200%" height="200%">
      <feOffset result="offOut" in="SourceGraphic" dx="3" dy="3" />
      <feColorMatrix result="matrixOut" in="offOut" type="matrix" values="0.2 0 0 0 0 0 0.2 0 0 0 0 0 0.2 0 0 0 0 0 1 0" />
      <feGaussianBlur result="blurOut" in="matrixOut" stdDeviation="2" />
      <feBlend in="SourceGraphic" in2="blurOut" mode="normal" />
    </filter>
  </defs><rect x="0.0" y="63.0" rx="4" ry="4" width="220.0" height="120.0" filter="url(#shadow1)" style="fill:#f0f8ff;stroke:black;stroke-width:1"/><line x1="0.0" y1="91.0" x2="220.0" y2="91.0" style="stroke:dimgrey;stroke-width:1"/><text x="110.0" y="83.0" fill="black" class="diagram-class-title  diagram-class-resource">VisionPrescription<tspan class="diagram-class-title-link"> (<a xlink:href="domainresource.html" class="diagram-class-reference">DomainResource</a>)</tspan></text><text x="6.0" y="105.0" fill="black" class="diagram-class-detail"><a xlink:href="visionprescription-definitions.html#VisionPrescription.identifier"><title>Business identifier which may be used by other parties to reference or identify the prescription</title>identifier</a> : <a xlink:href="datatypes.html#Identifier">Identifier</a> 0..*</text><text x="6.0" y="119.0" fill="black" class="diagram-class-detail"><a xlink:href="visionprescription-definitions.html#VisionPrescription.dateWritten"><title>The date (and perhaps time) when the prescription was written</title>dateWritten</a> : <a xlink:href="datatypes.html#dateTime">dateTime</a> 0..1</text><text x="6.0" y="133.0" fill="black" class="diagram-class-detail"><a xlink:href="visionprescription-definitions.html#VisionPrescription.patient"><title>A link to a resource representing the person to whom the Vision products will be supplied</title>patient</a> : <a xlink:href="references.html#Reference">Reference</a>(<a xlink:href="patient.html#Patient">Patient</a>) 0..1</text><text x="6.0" y="147.0" fill="black" class="diagram-class-detail"><a xlink:href="visionprescription-definitions.html#VisionPrescription.prescriber"><title>The healthcare professional responsible for authorizing the prescription</title>prescriber</a> : <a xlink:href="references.html#Reference">Reference</a>(<a xlink:href="practitioner.html#Practitioner">Practitioner</a>) 0..1</text><text x="6.0" y="161.0" fill="black" class="diagram-class-detail"><a xlink:href="visionprescription-definitions.html#VisionPrescription.encounter"><title>A link to a resource that identifies the particular occurrence of contact between patient and health care provider</title>encounter</a> : <a xlink:href="references.html#Reference">Reference</a>(<a xlink:href="encounter.html#Encounter">Encounter</a>) 0..1</text><text x="6.0" y="175.0" fill="black" class="diagram-class-detail"><a xlink:href="visionprescription-definitions.html#VisionPrescription.reason_x_"><title>Can be the reason or the indication for writing the prescription</title>reason[x]</a> : <a xlink:href="datatypes.html#CodeableConcept">CodeableConcept</a>|<a xlink:href="references.html#Reference">Reference</a>(<a xlink:href="condition.html#Condition">Condition</a>) 0..1</text><rect x="340.0" y="0.0" rx="4" ry="4" width="284.0" height="246.0" filter="url(#shadow1)" style="fill:#f0f8ff;stroke:black;stroke-width:1"/><line x1="340.0" y1="28.0" x2="624.0" y2="28.0" style="stroke:dimgrey;stroke-width:1"/><text x="482.0" y="20.0" fill="black" class="diagram-class-title">Dispense</text><text x="346.0" y="42.0" fill="black" class="diagram-class-detail"><a xlink:href="visionprescription-definitions.html#VisionPrescription.dispense.product"><title>Identifies the type of Vision correction product which is required for the patient</title>product</a> : <a xlink:href="datatypes.html#Coding">Coding</a> 1..1 « (<a xlink:href="valueset-vision-product.html"><title>A coded concept describing the Vision products.</title>Example Vision Prescription Product Codes</a>) »</text><text x="346.0" y="56.0" fill="black" class="diagram-class-detail"><a xlink:href="visionprescription-definitions.html#VisionPrescription.dispense.eye"><title>The eye for which the lens applies</title>eye</a> : <a xlink:href="datatypes.html#code">code</a> 0..1 « <a xlink:href="valueset-eye-codes.html"><title>A coded concept listing the eye codes.</title>VisionEyes</a> »</text><text x="346.0" y="70.0" fill="black" class="diagram-class-detail"><a xlink:href="visionprescription-definitions.html#VisionPrescription.dispense.sphere"><title>Lens power measured in diopters (0.25 units)</title>sphere</a> : <a xlink:href="datatypes.html#decimal">decimal</a> 0..1</text><text x="346.0" y="84.0" fill="black" class="diagram-class-detail"><a xlink:href="visionprescription-definitions.html#VisionPrescription.dispense.cylinder"><title>Power adjustment for astigmatism measured in diopters (0.25 units)</title>cylinder</a> : <a xlink:href="datatypes.html#decimal">decimal</a> 0..1</text><text x="346.0" y="98.0" fill="black" class="diagram-class-detail"><a xlink:href="visionprescription-definitions.html#VisionPrescription.dispense.axis"><title>Adjustment for astigmatism measured in integer degrees</title>axis</a> : <a xlink:href="datatypes.html#integer">integer</a> 0..1</text><text x="346.0" y="112.0" fill="black" class="diagram-class-detail"><a xlink:href="visionprescription-definitions.html#VisionPrescription.dispense.prism"><title>Amount of prism to compensate for eye alignment in fractional units</title>prism</a> : <a xlink:href="datatypes.html#decimal">decimal</a> 0..1</text><text x="346.0" y="126.0" fill="black" class="diagram-class-detail"><a xlink:href="visionprescription-definitions.html#VisionPrescription.dispense.base"><title>The relative base, or reference lens edge, for the prism</title>base</a> : <a xlink:href="datatypes.html#code">code</a> 0..1 « <a xlink:href="valueset-base-codes.html"><title>A coded concept listing the base codes.</title>VisionBase</a> »</text><text x="346.0" y="140.0" fill="black" class="diagram-class-detail"><a xlink:href="visionprescription-definitions.html#VisionPrescription.dispense.add"><title>Power adjustment for multifocal lenses measured in diopters (0.25 units)</title>add</a> : <a xlink:href="datatypes.html#decimal">decimal</a> 0..1</text><text x="346.0" y="154.0" fill="black" class="diagram-class-detail"><a xlink:href="visionprescription-definitions.html#VisionPrescription.dispense.power"><title>Contact lens power measured in diopters (0.25 units)</title>power</a> : <a xlink:href="datatypes.html#decimal">decimal</a> 0..1</text><text x="346.0" y="168.0" fill="black" class="diagram-class-detail"><a xlink:href="visionprescription-definitions.html#VisionPrescription.dispense.backCurve"><title>Back Curvature measured in millimeters</title>backCurve</a> : <a xlink:href="datatypes.html#decimal">decimal</a> 0..1</text><text x="346.0" y="182.0" fill="black" class="diagram-class-detail"><a xlink:href="visionprescription-definitions.html#VisionPrescription.dispense.diameter"><title>Contact lens diameter measured in millimeters</title>diameter</a> : <a xlink:href="datatypes.html#decimal">decimal</a> 0..1</text><text x="346.0" y="196.0" fill="black" class="diagram-class-detail"><a xlink:href="visionprescription-definitions.html#VisionPrescription.dispense.duration"><title>The recommended maximum wear period for the lens</title>duration</a> : <a xlink:href="datatypes.html#Quantity">Quantity</a> 0..1</text><text x="346.0" y="210.0" fill="black" class="diagram-class-detail"><a xlink:href="visionprescription-definitions.html#VisionPrescription.dispense.color"><title>Special color or pattern</title>color</a> : <a xlink:href="datatypes.html#string">string</a> 0..1</text><text x="346.0" y="224.0" fill="black" class="diagram-class-detail"><a xlink:href="visionprescription-definitions.html#VisionPrescription.dispense.brand"><title>Brand recommendations or restrictions</title>brand</a> : <a xlink:href="datatypes.html#string">string</a> 0..1</text><text x="346.0" y="238.0" fill="black" class="diagram-class-detail"><a xlink:href="visionprescription-definitions.html#VisionPrescription.dispense.notes"><title>Notes for special requirements such as coatings and lens materials</title>notes</a> : <a xlink:href="datatypes.html#string">string</a> 0..1</text><line x1="220.0" y1="123.0" x2="340.0" y2="123.0" style="stroke:navy;stroke-width:1"/><polygon points="220.0,123.0 226.0,127.0 232.0,123.0 226.0,119.0 220.0,123.0" style="fill:navy;stroke:navy;stroke-width:1" transform="rotate(0.0 220.0 123.0)"/><rect x="264.0" y="116.0" width="32.0" height="18.0" style="fill:white;stroke:black;stroke-width:0"/><text x="280.0" y="126.0" fill="black" class="diagram-class-linkage"><a xlink:href="visionprescription-definitions.html#VisionPrescription.dispense"><title>Deals with details of the dispense part of the supply specification</title>dispense</a></text><text x="320.0" y="119.0" fill="black" class="diagram-class-linkage">0..*</text></svg>