{
  "resourceType": "ValueSet",
  "id": "v2-0122",
  "meta": {
    "profile": [
      "http://hl7.org/fhir/StructureDefinition/valueset-shareable-definition"
    ]
  },
  "text": {
    "status": "additional",
    "div": "<div><p>Charge Type</p>\r\n<table class=\"grid\"><tr><td><b>Code</b></td><td><b>Description</b></td><td><b>Version</b></td></tr><tr><td>CH<a name=\"CH\"> </a></td><td>Charge</td><td>from v2.1</td></tr><tr><td>CO<a name=\"CO\"> </a></td><td>Contract</td><td>from v2.1</td></tr><tr><td>CR<a name=\"CR\"> </a></td><td>Credit</td><td>from v2.1</td></tr><tr><td>DP<a name=\"DP\"> </a></td><td>Department</td><td>from v2.1</td></tr><tr><td>GR<a name=\"GR\"> </a></td><td>Grant</td><td>from v2.1</td></tr><tr><td>NC<a name=\"NC\"> </a></td><td>No Charge</td><td>from v2.1</td></tr><tr><td>PC<a name=\"PC\"> </a></td><td>Professional</td><td>from v2.1</td></tr><tr><td>RS<a name=\"RS\"> </a></td><td>Research</td><td>from v2.1</td></tr></table>\r\n</div>"
  },
  "url": "http://hl7.org/fhir/ValueSet/v2-0122",
  "version": "2.7",
  "name": "v2 Charge Type",
  "publisher": "HL7, Inc",
  "contact": [
    {
      "telecom": [
        {
          "system": "url",
          "value": "http://hl7.org"
        }
      ]
    }
  ],
  "description": "FHIR Value set/code system definition for HL7 v2 table 0122 ( Charge Type)",
  "status": "active",
  "experimental": true,
  "date": "2011-01-28",
  "define": {
    "system": "http://hl7.org/fhir/v2/0122",
    "caseSensitive": true,
    "concept": [
      {
        "code": "CH",
        "display": "Charge"
      },
      {
        "code": "CO",
        "display": "Contract"
      },
      {
        "code": "CR",
        "display": "Credit"
      },
      {
        "code": "DP",
        "display": "Department"
      },
      {
        "code": "GR",
        "display": "Grant"
      },
      {
        "code": "NC",
        "display": "No Charge"
      },
      {
        "code": "PC",
        "display": "Professional"
      },
      {
        "code": "RS",
        "display": "Research"
      }
    ]
  }
}