{
  "resourceType": "ValueSet",
  "id": "v2-0739",
  "meta": {
    "profile": [
      "http://hl7.org/fhir/StructureDefinition/valueset-shareable-definition"
    ]
  },
  "text": {
    "status": "additional",
    "div": "<div><p>Status Patient</p>\r\n<table class=\"grid\"><tr><td><b>Code</b></td><td><b>Description</b></td><td><b>Version</b></td></tr><tr><td>1<a name=\"1\"> </a></td><td>Normal length of stay</td><td>added v2.6</td></tr><tr><td>2<a name=\"2\"> </a></td><td>Short length of stay</td><td>added v2.6</td></tr><tr><td>3<a name=\"3\"> </a></td><td>Long length of stay</td><td>added v2.6</td></tr></table>\r\n</div>"
  },
  "url": "http://hl7.org/fhir/ValueSet/v2-0739",
  "version": "2.7",
  "name": "v2 Status Patient",
  "publisher": "HL7, Inc",
  "contact": [
    {
      "telecom": [
        {
          "system": "url",
          "value": "http://hl7.org"
        }
      ]
    }
  ],
  "description": "FHIR Value set/code system definition for HL7 v2 table 0739 ( Status Patient)",
  "status": "active",
  "experimental": true,
  "date": "2011-01-28",
  "define": {
    "system": "http://hl7.org/fhir/v2/0739",
    "caseSensitive": true,
    "concept": [
      {
        "code": "1",
        "display": "Normal length of stay"
      },
      {
        "code": "2",
        "display": "Short length of stay"
      },
      {
        "code": "3",
        "display": "Long length of stay"
      }
    ]
  }
}