{
  "resourceType": "ValueSet",
  "id": "v3-LanguageAbilityMode",
  "meta": {
    "lastUpdated": "2015-03-23T00:00:00.000+00:00",
    "profile": [
      "http://hl7.org/fhir/StructureDefinition/valueset-shareable-definition"
    ]
  },
  "text": {
    "status": "generated",
    "div": "<div><p>Release Date: 2015-03-23</p>\r\n<p>OID for code system: 2.16.840.1.113883.5.60</p>\r\n<p>OID for value set: 2.16.840.1.113883.1.11.12249 (this is the value set that includes the entire code system)</p>\r\n<h2>Description</h2>\r\n<p>\n                  A value representing the method of expression of the language.<br/>\r\n\n                  \n                     Example:Expressed spoken, expressed written, expressed signed, received spoken, received written, received signed.<br/>\r\n\n                  \n                     OpenIssue: Description copied from Concept Domain of same name.  Must be verified.<br/>\r\n\n               </p>\r\n<hr/>\r\n<table class=\"grid\">\r\n <tr><td><b>Level</b></td><td><b>Code</b></td><td><b>Display</b></td><td><b>Definition</b></td></tr>\r\n <tr><td>1</td><td>ESGN<a name=\"ESGN\"> </a></td><td>Expressed signed</td><td/></tr>\r\n <tr><td>1</td><td>ESP<a name=\"ESP\"> </a></td><td>Expressed spoken</td><td/></tr>\r\n <tr><td>1</td><td>EWR<a name=\"EWR\"> </a></td><td>Expressed written</td><td/></tr>\r\n <tr><td>1</td><td>RSGN<a name=\"RSGN\"> </a></td><td>Received signed</td><td/></tr>\r\n <tr><td>1</td><td>RSP<a name=\"RSP\"> </a></td><td>Received spoken</td><td/></tr>\r\n <tr><td>1</td><td>RWR<a name=\"RWR\"> </a></td><td>Received written</td><td/></tr>\r\n</table>\r\n</div>"
  },
  "extension": [
    {
      "url": "http://hl7.org/fhir/StructureDefinition/valueset-oid",
      "valueUri": "urn:oid:2.16.840.1.113883.1.11.12249"
    }
  ],
  "url": "http://hl7.org/fhir/ValueSet/v3-LanguageAbilityMode",
  "version": "2015-03-23",
  "name": "v3 Code System LanguageAbilityMode",
  "publisher": "HL7, Inc",
  "contact": [
    {
      "telecom": [
        {
          "system": "url",
          "value": "http://hl7.org"
        }
      ]
    }
  ],
  "description": " A value representing the method of expression of the language.  Example:\r\nExpressed spoken, expressed written, expressed signed, received spoken, received written, received signed.  OpenIssue:\r\nDescription copied from Concept Domain of same name.  Must be verified.",
  "status": "active",
  "experimental": false,
  "date": "2015-03-23",
  "define": {
    "extension": [
      {
        "url": "http://hl7.org/fhir/StructureDefinition/valueset-oid",
        "valueUri": "urn:oid:2.16.840.1.113883.5.60"
      }
    ],
    "system": "http://hl7.org/fhir/v3/LanguageAbilityMode",
    "caseSensitive": true,
    "concept": [
      {
        "code": "ESGN",
        "abstract": false,
        "display": "Expressed signed",
        "definition": "Expressed signed"
      },
      {
        "code": "ESP",
        "abstract": false,
        "display": "Expressed spoken",
        "definition": "Expressed spoken"
      },
      {
        "code": "EWR",
        "abstract": false,
        "display": "Expressed written",
        "definition": "Expressed written"
      },
      {
        "code": "RSGN",
        "abstract": false,
        "display": "Received signed",
        "definition": "Received signed"
      },
      {
        "code": "RSP",
        "abstract": false,
        "display": "Received spoken",
        "definition": "Received spoken"
      },
      {
        "code": "RWR",
        "abstract": false,
        "display": "Received written",
        "definition": "Received written"
      }
    ]
  }
}