{
  "resourceType": "ValueSet",
  "id": "v3-VaccineManufacturer",
  "meta": {
    "lastUpdated": "2015-03-23T00:00:00.000+00:00",
    "profile": [
      "http://hl7.org/fhir/StructureDefinition/valueset-shareable-definition"
    ]
  },
  "text": {
    "status": "generated",
    "div": "<div><p>Release Date: 2015-03-23</p>\r\n<p>OID for code system: 2.16.840.1.113883.5.144</p>\r\n<p>OID for value set: 2.16.840.1.113883.1.11.227 (this is the value set that includes the entire code system)</p>\r\n<h2>Description</h2>\r\n<p>\n                  The manufacturer of a vaccine.<br/>\r\n\n               </p>\r\n<hr/>\r\n<table class=\"grid\">\r\n <tr><td><b>Level</b></td><td><b>Code</b></td><td><b>Display</b></td><td><b>Definition</b></td></tr>\r\n <tr><td>1</td><td>AB<a name=\"AB\"> </a></td><td>Abbott Laboratories (includes Ross Products Division)</td><td>\n                        Abbott Laboratories (includes Ross Products Division)<br/>\r\n\n                     </td></tr>\r\n <tr><td>1</td><td>AD<a name=\"AD\"> </a></td><td>Adams Laboratories</td><td>\n                        Adams Laboratories<br/>\r\n\n                     </td></tr>\r\n <tr><td>1</td><td>ALP<a name=\"ALP\"> </a></td><td>Alpha Therapeutic Corporation</td><td>\n                        Alpha Therapeutic Corporation<br/>\r\n\n                     </td></tr>\r\n <tr><td>1</td><td>AR<a name=\"AR\"> </a></td><td>Armour [Inactive - use CEN]</td><td>\n                        Armour [Inactive-use CEN]<br/>\r\n\n                     </td></tr>\r\n <tr><td>1</td><td>AVI<a name=\"AVI\"> </a></td><td>Aviron</td><td>\n                        Aviron<br/>\r\n\n                     </td></tr>\r\n <tr><td>1</td><td>BA<a name=\"BA\"> </a></td><td>Baxter Healthcare Corporation</td><td>\n                        Baxter Healthcare Corporation<br/>\r\n\n                     </td></tr>\r\n <tr><td>1</td><td>BAY<a name=\"BAY\"> </a></td><td>Bayer Corporation (includes Miles, Inc. and Cutter Laboratories)</td><td>\n                        Bayer Corporation (includes Miles, Inc. and Cutter Laboratories)<br/>\r\n\n                     </td></tr>\r\n <tr><td>1</td><td>BP<a name=\"BP\"> </a></td><td>Berna Products [Inactive - use BPC]</td><td>\n                        Berna Products [Inactive-use BPC]<br/>\r\n\n                     </td></tr>\r\n <tr><td>1</td><td>BPC<a name=\"BPC\"> </a></td><td>Berna Products Corporation (includes Swiss Serum and Vaccine Institute Berne)</td><td>\n                        Berna Products Corporation (includes Swiss Serum and Vaccine Institute Berne)<br/>\r\n\n                     </td></tr>\r\n <tr><td>1</td><td>CEN<a name=\"CEN\"> </a></td><td>Centeon L.L.C. (includes Armour Pharmaceutical Company)</td><td>\n                        Centeon L.L.C. (includes Armour Pharmaceutical Company)<br/>\r\n\n                     </td></tr>\r\n <tr><td>1</td><td>CHI<a name=\"CHI\"> </a></td><td>Chiron Corporation</td><td>\n                        Chiron Corporation<br/>\r\n\n                     </td></tr>\r\n <tr><td>1</td><td>CON<a name=\"CON\"> </a></td><td>Connaught [Inactive - use PMC]</td><td>\n                        Connaught [Inactive-use PMC]<br/>\r\n\n                     </td></tr>\r\n <tr><td>1</td><td>EVN<a name=\"EVN\"> </a></td><td>Evans Medical Limited (an affiliate of Medeva Pharmaceuticals, Inc.)</td><td>\n                        Evans Medical Limited (an affiliate of Medeva Pharmaceuticals, Inc.)<br/>\r\n\n                     </td></tr>\r\n <tr><td>1</td><td>GRE<a name=\"GRE\"> </a></td><td>Greer Laboratories, Inc.</td><td>\n                        Greer Laboratories, Inc.<br/>\r\n\n                     </td></tr>\r\n <tr><td>1</td><td>IAG<a name=\"IAG\"> </a></td><td>Immuno International AG</td><td>\n                        Immuno International AG<br/>\r\n\n                     </td></tr>\r\n <tr><td>1</td><td>IM<a name=\"IM\"> </a></td><td>Merieux [Inactive - use PMC]</td><td>\n                        Merieux [Inactive-use PMC]<br/>\r\n\n                     </td></tr>\r\n <tr><td>1</td><td>IUS<a name=\"IUS\"> </a></td><td>Immuno-U.S., Inc.</td><td>\n                        Immuno-U.S., Inc.<br/>\r\n\n                     </td></tr>\r\n <tr><td>1</td><td>JPN<a name=\"JPN\"> </a></td><td>The Research Foundation for Microbial Diseases of Osaka University (BIKEN)</td><td>\n                        The Research Foundation for Microbial Diseases of Osaka University (BIKEN)<br/>\r\n\n                     </td></tr>\r\n <tr><td>1</td><td>KGC<a name=\"KGC\"> </a></td><td>Korea Green Cross Corporation</td><td>\n                        Korea Green Cross Corporation<br/>\r\n\n                     </td></tr>\r\n <tr><td>1</td><td>LED<a name=\"LED\"> </a></td><td>Lederle [Inactive - use WAL]</td><td>\n                        Lederle [Inactive-use WAL]<br/>\r\n\n                     </td></tr>\r\n <tr><td>1</td><td>MA<a name=\"MA\"> </a></td><td>Massachusetts Public Health Biologic Laboratories</td><td>\n                        Massachusetts Public Health Biologic Laboratories<br/>\r\n\n                     </td></tr>\r\n <tr><td>1</td><td>MED<a name=\"MED\"> </a></td><td>MedImmune, Inc.</td><td>\n                        MedImmune, Inc.<br/>\r\n\n                     </td></tr>\r\n <tr><td>1</td><td>MIL<a name=\"MIL\"> </a></td><td>Miles [Inactive - use BAY]</td><td>\n                        Miles [Inactive-use BAY]<br/>\r\n\n                     </td></tr>\r\n <tr><td>1</td><td>MIP<a name=\"MIP\"> </a></td><td>Bioport Corporation (formerly Michigan Biologic Products Institute)</td><td>\n                        Bioport Corporation (formerly Michigan Biologic Products Institute)<br/>\r\n\n                     </td></tr>\r\n <tr><td>1</td><td>MSD<a name=\"MSD\"> </a></td><td>Merck and Co., Inc.</td><td>\n                        Merck &amp; Co., Inc.<br/>\r\n\n                     </td></tr>\r\n <tr><td>1</td><td>NAB<a name=\"NAB\"> </a></td><td>NABI (formerly North American Biologicals, Inc.)</td><td>\n                        NABI (formerly North American Biologicals, Inc.)<br/>\r\n\n                     </td></tr>\r\n <tr><td>1</td><td>NAV<a name=\"NAV\"> </a></td><td>North American Vaccine, Inc.</td><td>\n                        North American Vaccine, Inc.<br/>\r\n\n                     </td></tr>\r\n <tr><td>1</td><td>NOV<a name=\"NOV\"> </a></td><td>Novartis Pharmaceutical Corporation (includes Ciba-Geigy Limited and Sandoz Limited)</td><td>\n                        Novartis Pharmaceutical Corporation (includes Ciba-Geigy Limited and Sandoz Limited)<br/>\r\n\n                     </td></tr>\r\n <tr><td>1</td><td>NYB<a name=\"NYB\"> </a></td><td>New York Blood Center</td><td>\n                        New York Blood Center<br/>\r\n\n                     </td></tr>\r\n <tr><td>1</td><td>ORT<a name=\"ORT\"> </a></td><td>Ortho Diagnostic Systems, Inc.</td><td>\n                        Ortho Diagnostic Systems, Inc.<br/>\r\n\n                     </td></tr>\r\n <tr><td>1</td><td>OTC<a name=\"OTC\"> </a></td><td>Organon Teknika Corporation</td><td>\n                        Organon Teknika Corporation<br/>\r\n\n                     </td></tr>\r\n <tr><td>1</td><td>PD<a name=\"PD\"> </a></td><td>Parkedale Pharmaceuticals (formerly Parke-Davis)</td><td>\n                        Parkedale Pharmaceuticals (formerly Parke-Davis)<br/>\r\n\n                     </td></tr>\r\n <tr><td>1</td><td>PMC<a name=\"PMC\"> </a></td><td>Aventis Pasteur Inc. (formerly Pasteur Merieux Connaught; includes Connaught Laboratories and Pasteur Merieux)</td><td>\n                        Aventis Pasteur Inc. (formerly Pasteur Merieux Connaught; includes Connaught Laboratories and Pasteur Merieux)<br/>\r\n\n                     </td></tr>\r\n <tr><td>1</td><td>PRX<a name=\"PRX\"> </a></td><td>Praxis Biologics [Inactive - use WAL]</td><td>\n                        Praxis Biologics [Inactive-use WAL]<br/>\r\n\n                     </td></tr>\r\n <tr><td>1</td><td>SCL<a name=\"SCL\"> </a></td><td>Sclavo, Inc.</td><td>\n                        Sclavo, Inc.<br/>\r\n\n                     </td></tr>\r\n <tr><td>1</td><td>SI<a name=\"SI\"> </a></td><td>Swiss Serum and Vaccine Inst. [Inactive - use BPC]</td><td>\n                        Swiss Serum and Vaccine Inst. [Inactive-use BPC]<br/>\r\n\n                     </td></tr>\r\n <tr><td>1</td><td>SKB<a name=\"SKB\"> </a></td><td>SmithKline Beecham</td><td>\n                        SmithKline Beecham<br/>\r\n\n                     </td></tr>\r\n <tr><td>1</td><td>USA<a name=\"USA\"> </a></td><td>United States Army Medical Research and Materiel Command</td><td>\n                        United States Army Medical Research and Materiel Command<br/>\r\n\n                     </td></tr>\r\n <tr><td>1</td><td>WA<a name=\"WA\"> </a></td><td>Wyeth-Ayerst [Inactive - use WAL]</td><td>\n                        Wyeth-Ayerst [Inactive-use WAL]<br/>\r\n\n                     </td></tr>\r\n <tr><td>1</td><td>WAL<a name=\"WAL\"> </a></td><td>Wyeth-Ayerst (includes Wyeth-Lederle Vaccines and Pediatrics, Wyeth Laboratories, Lederle Laboratories, and Praxis Biologics)</td><td>\n                        Wyeth-Ayerst (includes Wyeth-Lederle Vaccines and Pediatrics, Wyeth Laboratories, Lederle Laboratories, and Praxis Biologics)<br/>\r\n\n                     </td></tr>\r\n</table>\r\n</div>"
  },
  "extension": [
    {
      "url": "http://hl7.org/fhir/StructureDefinition/valueset-oid",
      "valueUri": "urn:oid:2.16.840.1.113883.1.11.227"
    }
  ],
  "url": "http://hl7.org/fhir/ValueSet/v3-VaccineManufacturer",
  "version": "2015-03-23",
  "name": "v3 Code System VaccineManufacturer",
  "publisher": "HL7, Inc",
  "contact": [
    {
      "telecom": [
        {
          "system": "url",
          "value": "http://hl7.org"
        }
      ]
    }
  ],
  "description": " The manufacturer of a vaccine.",
  "status": "active",
  "experimental": false,
  "date": "2015-03-23",
  "define": {
    "extension": [
      {
        "url": "http://hl7.org/fhir/StructureDefinition/valueset-oid",
        "valueUri": "urn:oid:2.16.840.1.113883.5.144"
      }
    ],
    "system": "http://hl7.org/fhir/v3/VaccineManufacturer",
    "caseSensitive": true,
    "concept": [
      {
        "code": "AB",
        "abstract": false,
        "display": "Abbott Laboratories (includes Ross Products Division)",
        "definition": "Abbott Laboratories (includes Ross Products Division)"
      },
      {
        "code": "AD",
        "abstract": false,
        "display": "Adams Laboratories",
        "definition": "Adams Laboratories"
      },
      {
        "code": "ALP",
        "abstract": false,
        "display": "Alpha Therapeutic Corporation",
        "definition": "Alpha Therapeutic Corporation"
      },
      {
        "code": "AR",
        "abstract": false,
        "display": "Armour [Inactive - use CEN]",
        "definition": "Armour [Inactive-use CEN]"
      },
      {
        "code": "AVI",
        "abstract": false,
        "display": "Aviron",
        "definition": "Aviron"
      },
      {
        "code": "BA",
        "abstract": false,
        "display": "Baxter Healthcare Corporation",
        "definition": "Baxter Healthcare Corporation"
      },
      {
        "code": "BAY",
        "abstract": false,
        "display": "Bayer Corporation (includes Miles, Inc. and Cutter Laboratories)",
        "definition": "Bayer Corporation (includes Miles, Inc. and Cutter Laboratories)"
      },
      {
        "code": "BP",
        "abstract": false,
        "display": "Berna Products [Inactive - use BPC]",
        "definition": "Berna Products [Inactive-use BPC]"
      },
      {
        "code": "BPC",
        "abstract": false,
        "display": "Berna Products Corporation (includes Swiss Serum and Vaccine Institute Berne)",
        "definition": "Berna Products Corporation (includes Swiss Serum and Vaccine Institute Berne)"
      },
      {
        "code": "CEN",
        "abstract": false,
        "display": "Centeon L.L.C. (includes Armour Pharmaceutical Company)",
        "definition": "Centeon L.L.C. (includes Armour Pharmaceutical Company)"
      },
      {
        "code": "CHI",
        "abstract": false,
        "display": "Chiron Corporation",
        "definition": "Chiron Corporation"
      },
      {
        "code": "CON",
        "abstract": false,
        "display": "Connaught [Inactive - use PMC]",
        "definition": "Connaught [Inactive-use PMC]"
      },
      {
        "code": "EVN",
        "abstract": false,
        "display": "Evans Medical Limited (an affiliate of Medeva Pharmaceuticals, Inc.)",
        "definition": "Evans Medical Limited (an affiliate of Medeva Pharmaceuticals, Inc.)"
      },
      {
        "code": "GRE",
        "abstract": false,
        "display": "Greer Laboratories, Inc.",
        "definition": "Greer Laboratories, Inc."
      },
      {
        "code": "IAG",
        "abstract": false,
        "display": "Immuno International AG",
        "definition": "Immuno International AG"
      },
      {
        "code": "IM",
        "abstract": false,
        "display": "Merieux [Inactive - use PMC]",
        "definition": "Merieux [Inactive-use PMC]"
      },
      {
        "code": "IUS",
        "abstract": false,
        "display": "Immuno-U.S., Inc.",
        "definition": "Immuno-U.S., Inc."
      },
      {
        "code": "JPN",
        "abstract": false,
        "display": "The Research Foundation for Microbial Diseases of Osaka University (BIKEN)",
        "definition": "The Research Foundation for Microbial Diseases of Osaka University (BIKEN)"
      },
      {
        "code": "KGC",
        "abstract": false,
        "display": "Korea Green Cross Corporation",
        "definition": "Korea Green Cross Corporation"
      },
      {
        "code": "LED",
        "abstract": false,
        "display": "Lederle [Inactive - use WAL]",
        "definition": "Lederle [Inactive-use WAL]"
      },
      {
        "code": "MA",
        "abstract": false,
        "display": "Massachusetts Public Health Biologic Laboratories",
        "definition": "Massachusetts Public Health Biologic Laboratories"
      },
      {
        "code": "MED",
        "abstract": false,
        "display": "MedImmune, Inc.",
        "definition": "MedImmune, Inc."
      },
      {
        "code": "MIL",
        "abstract": false,
        "display": "Miles [Inactive - use BAY]",
        "definition": "Miles [Inactive-use BAY]"
      },
      {
        "code": "MIP",
        "abstract": false,
        "display": "Bioport Corporation (formerly Michigan Biologic Products Institute)",
        "definition": "Bioport Corporation (formerly Michigan Biologic Products Institute)"
      },
      {
        "code": "MSD",
        "abstract": false,
        "display": "Merck and Co., Inc.",
        "definition": "Merck & Co., Inc."
      },
      {
        "code": "NAB",
        "abstract": false,
        "display": "NABI (formerly North American Biologicals, Inc.)",
        "definition": "NABI (formerly North American Biologicals, Inc.)"
      },
      {
        "code": "NAV",
        "abstract": false,
        "display": "North American Vaccine, Inc.",
        "definition": "North American Vaccine, Inc."
      },
      {
        "code": "NOV",
        "abstract": false,
        "display": "Novartis Pharmaceutical Corporation (includes Ciba-Geigy Limited and Sandoz Limited)",
        "definition": "Novartis Pharmaceutical Corporation (includes Ciba-Geigy Limited and Sandoz Limited)"
      },
      {
        "code": "NYB",
        "abstract": false,
        "display": "New York Blood Center",
        "definition": "New York Blood Center"
      },
      {
        "code": "ORT",
        "abstract": false,
        "display": "Ortho Diagnostic Systems, Inc.",
        "definition": "Ortho Diagnostic Systems, Inc."
      },
      {
        "code": "OTC",
        "abstract": false,
        "display": "Organon Teknika Corporation",
        "definition": "Organon Teknika Corporation"
      },
      {
        "code": "PD",
        "abstract": false,
        "display": "Parkedale Pharmaceuticals (formerly Parke-Davis)",
        "definition": "Parkedale Pharmaceuticals (formerly Parke-Davis)"
      },
      {
        "code": "PMC",
        "abstract": false,
        "display": "Aventis Pasteur Inc. (formerly Pasteur Merieux Connaught; includes Connaught Laboratories and Pasteur Merieux)",
        "definition": "Aventis Pasteur Inc. (formerly Pasteur Merieux Connaught; includes Connaught Laboratories and Pasteur Merieux)"
      },
      {
        "code": "PRX",
        "abstract": false,
        "display": "Praxis Biologics [Inactive - use WAL]",
        "definition": "Praxis Biologics [Inactive-use WAL]"
      },
      {
        "code": "SCL",
        "abstract": false,
        "display": "Sclavo, Inc.",
        "definition": "Sclavo, Inc."
      },
      {
        "code": "SI",
        "abstract": false,
        "display": "Swiss Serum and Vaccine Inst. [Inactive - use BPC]",
        "definition": "Swiss Serum and Vaccine Inst. [Inactive-use BPC]"
      },
      {
        "code": "SKB",
        "abstract": false,
        "display": "SmithKline Beecham",
        "definition": "SmithKline Beecham"
      },
      {
        "code": "USA",
        "abstract": false,
        "display": "United States Army Medical Research and Materiel Command",
        "definition": "United States Army Medical Research and Materiel Command"
      },
      {
        "code": "WA",
        "abstract": false,
        "display": "Wyeth-Ayerst [Inactive - use WAL]",
        "definition": "Wyeth-Ayerst [Inactive-use WAL]"
      },
      {
        "code": "WAL",
        "abstract": false,
        "display": "Wyeth-Ayerst (includes Wyeth-Lederle Vaccines and Pediatrics, Wyeth Laboratories, Lederle Laboratories, and Praxis Biologics)",
        "definition": "Wyeth-Ayerst (includes Wyeth-Lederle Vaccines and Pediatrics, Wyeth Laboratories, Lederle Laboratories, and Praxis Biologics)"
      }
    ]
  }
}