{
  "resourceType": "ValueSet",
  "id": "v2-0513",
  "meta": {
    "profile": [
      "http://hl7.org/fhir/StructureDefinition/valueset-shareable-definition"
    ]
  },
  "text": {
    "status": "additional",
    "div": "<div><p>Blood Product Transfusion/Disposition Status</p>\r\n<table class=\"grid\"><tr><td><b>Code</b></td><td><b>Description</b></td><td><b>Version</b></td></tr><tr><td>RA<a name=\"RA\"> </a></td><td>Returned unused/no longer needed</td><td>added v2.5</td></tr><tr><td>RL<a name=\"RL\"> </a></td><td>Returned unused/keep linked to patient for possible use later</td><td>added v2.5</td></tr><tr><td>TR<a name=\"TR\"> </a></td><td>Transfused with adverse reaction</td><td>added v2.5</td></tr><tr><td>TX<a name=\"TX\"> </a></td><td>Transfused</td><td>added v2.5</td></tr><tr><td>WA<a name=\"WA\"> </a></td><td>Wasted (product no longer viable)</td><td>added v2.5</td></tr></table>\r\n</div>"
  },
  "url": "http://hl7.org/fhir/ValueSet/v2-0513",
  "version": "2.7",
  "name": "v2 Blood Product Transfusion/Disposition Status",
  "publisher": "HL7, Inc",
  "contact": [
    {
      "telecom": [
        {
          "system": "url",
          "value": "http://hl7.org"
        }
      ]
    }
  ],
  "description": "FHIR Value set/code system definition for HL7 v2 table 0513 ( Blood Product Transfusion/Disposition Status)",
  "status": "active",
  "experimental": true,
  "date": "2011-01-28",
  "define": {
    "system": "http://hl7.org/fhir/v2/0513",
    "caseSensitive": true,
    "concept": [
      {
        "code": "RA",
        "display": "Returned unused/no longer needed"
      },
      {
        "code": "RL",
        "display": "Returned unused/keep linked to patient for possible use later"
      },
      {
        "code": "TR",
        "display": "Transfused with adverse reaction"
      },
      {
        "code": "TX",
        "display": "Transfused"
      },
      {
        "code": "WA",
        "display": "Wasted (product no longer viable)"
      }
    ]
  }
}