{
  "resourceType": "ValueSet",
  "id": "v3-CompressionAlgorithm",
  "meta": {
    "lastUpdated": "2015-03-23T00:00:00.000+00:00",
    "profile": [
      "http://hl7.org/fhir/StructureDefinition/valueset-shareable-definition"
    ]
  },
  "text": {
    "status": "generated",
    "div": "<div><p>Release Date: 2015-03-23</p>\r\n<p>OID for code system: 2.16.840.1.113883.5.1009</p>\r\n<p>OID for value set: 2.16.840.1.113883.1.11.10620 (this is the value set that includes the entire code system)</p>\r\n<table class=\"grid\">\r\n <tr><td><b>Level</b></td><td><b>Code</b></td><td><b>Display</b></td><td><b>Definition</b></td></tr>\r\n <tr><td>1</td><td>BZ<a name=\"BZ\"> </a></td><td>bzip</td><td>\n                        bzip-2 compression format. See [http://www.bzip.org/] for more information.<br/>\r\n\n                     </td></tr>\r\n <tr><td>1</td><td>DF<a name=\"DF\"> </a></td><td>deflate</td><td>\n                        The deflate compressed data format as specified in RFC 1951 [http://www.ietf.org/rfc/rfc1951.txt].<br/>\r\n\n                     </td></tr>\r\n <tr><td>1</td><td>GZ<a name=\"GZ\"> </a></td><td>gzip</td><td>\n                        A compressed data format that is compatible with the widely used GZIP utility as specified in RFC 1952 [http://www.ietf.org/rfc/rfc1952.txt] (uses the deflate algorithm).<br/>\r\n\n                     </td></tr>\r\n <tr><td>1</td><td>Z<a name=\"Z\"> </a></td><td>compress</td><td>\n                        Original UNIX compress algorithm and file format using the LZC algorithm (a variant of LZW).  Patent encumbered and less efficient than deflate.<br/>\r\n\n                     </td></tr>\r\n <tr><td>1</td><td>Z7<a name=\"Z7\"> </a></td><td>Z7</td><td>\n                        7z compression file format. See [http://www.7-zip.org/7z.html] for more information.<br/>\r\n\n                     </td></tr>\r\n <tr><td>1</td><td>ZL<a name=\"ZL\"> </a></td><td>zlib</td><td>\n                        A compressed data format that also uses the deflate algorithm.  Specified as RFC 1950 [http://www.ietf.org/rfc/rfc1952.txt]<br/>\r\n\n                     </td></tr>\r\n</table>\r\n</div>"
  },
  "extension": [
    {
      "url": "http://hl7.org/fhir/StructureDefinition/valueset-oid",
      "valueUri": "urn:oid:2.16.840.1.113883.1.11.10620"
    }
  ],
  "url": "http://hl7.org/fhir/ValueSet/v3-CompressionAlgorithm",
  "version": "2015-03-23",
  "name": "v3 Code System CompressionAlgorithm",
  "publisher": "HL7, Inc",
  "contact": [
    {
      "telecom": [
        {
          "system": "url",
          "value": "http://hl7.org"
        }
      ]
    }
  ],
  "description": "**** MISSING DEFINITIONS ****",
  "status": "active",
  "experimental": false,
  "date": "2015-03-23",
  "define": {
    "extension": [
      {
        "url": "http://hl7.org/fhir/StructureDefinition/valueset-oid",
        "valueUri": "urn:oid:2.16.840.1.113883.5.1009"
      }
    ],
    "system": "http://hl7.org/fhir/v3/CompressionAlgorithm",
    "caseSensitive": true,
    "concept": [
      {
        "code": "BZ",
        "abstract": false,
        "display": "bzip",
        "definition": "bzip-2 compression format. See [http://www.bzip.org/] for more information."
      },
      {
        "code": "DF",
        "abstract": false,
        "display": "deflate",
        "definition": "The deflate compressed data format as specified in RFC 1951 [http://www.ietf.org/rfc/rfc1951.txt]."
      },
      {
        "code": "GZ",
        "abstract": false,
        "display": "gzip",
        "definition": "A compressed data format that is compatible with the widely used GZIP utility as specified in RFC 1952 [http://www.ietf.org/rfc/rfc1952.txt] (uses the deflate algorithm)."
      },
      {
        "code": "Z",
        "abstract": false,
        "display": "compress",
        "definition": "Original UNIX compress algorithm and file format using the LZC algorithm (a variant of LZW).  Patent encumbered and less efficient than deflate."
      },
      {
        "code": "Z7",
        "abstract": false,
        "display": "Z7",
        "definition": "7z compression file format. See [http://www.7-zip.org/7z.html] for more information."
      },
      {
        "code": "ZL",
        "abstract": false,
        "display": "zlib",
        "definition": "A compressed data format that also uses the deflate algorithm.  Specified as RFC 1950 [http://www.ietf.org/rfc/rfc1952.txt]"
      }
    ]
  }
}