{
  "resourceType": "ValueSet",
  "id": "v2-0203",
  "meta": {
    "profile": [
      "http://hl7.org/fhir/StructureDefinition/valueset-shareable-definition"
    ]
  },
  "text": {
    "status": "additional",
    "div": "<div><p>Identifier Type</p>\r\n<table class=\"grid\"><tr><td><b>Code</b></td><td><b>Description</b></td><td><b>Version</b></td></tr><tr><td>ACSN<a name=\"ACSN\"> </a></td><td>Accession ID</td><td>added v2.7</td></tr><tr><td>AM<a name=\"AM\"> </a></td><td>American Express</td><td>added v2.3</td></tr><tr><td>AMA<a name=\"AMA\"> </a></td><td>American Medical Association Number</td><td>added v2.6</td></tr><tr><td>AN<a name=\"AN\"> </a></td><td>Account number</td><td>added v2.3</td></tr><tr><td>ANC<a name=\"ANC\"> </a></td><td>Account number Creditor</td><td>added v2.5</td></tr><tr><td>AND<a name=\"AND\"> </a></td><td>Account number debitor</td><td>added v2.5</td></tr><tr><td>ANON<a name=\"ANON\"> </a></td><td>Anonymous identifier</td><td>added v2.5</td></tr><tr><td>ANT<a name=\"ANT\"> </a></td><td>Temporary Account Number</td><td>added v2.5</td></tr><tr><td>APRN<a name=\"APRN\"> </a></td><td>Advanced Practice Registered Nurse number</td><td>added v2.5</td></tr><tr><td>ASID<a name=\"ASID\"> </a></td><td>Ancestor Specimen ID</td><td>added v2.7</td></tr><tr><td>BA<a name=\"BA\"> </a></td><td>Bank Account Number</td><td>added v2.4</td></tr><tr><td>BC<a name=\"BC\"> </a></td><td>Bank Card Number</td><td>added v2.5</td></tr><tr><td>BCT<a name=\"BCT\"> </a></td><td>Birth Certificate</td><td>added v2.6</td></tr><tr><td>BR<a name=\"BR\"> </a></td><td>Birth registry number</td><td>added v2.3</td></tr><tr><td>BRN<a name=\"BRN\"> </a></td><td>Breed Registry Number</td><td>added v2.4</td></tr><tr><td>BSNR<a name=\"BSNR\"> </a></td><td>Primary physician office number</td><td>added v2.7</td></tr><tr><td>CC<a name=\"CC\"> </a></td><td>Cost Center number</td><td>added v2.5</td></tr><tr><td>CONM<a name=\"CONM\"> </a></td><td>Change of Name Document</td><td>added v2.6</td></tr><tr><td>CY<a name=\"CY\"> </a></td><td>County number</td><td>added v2.5</td></tr><tr><td>CZ<a name=\"CZ\"> </a></td><td>Citizenship Card</td><td>added v2.6</td></tr><tr><td>DDS<a name=\"DDS\"> </a></td><td>Dentist license number</td><td>added v2.5</td></tr><tr><td>DEA<a name=\"DEA\"> </a></td><td>Drug Enforcement Administration registration number</td><td>added v2.5</td></tr><tr><td>DFN<a name=\"DFN\"> </a></td><td>Drug Furnishing or prescriptive authority Number</td><td>added v2.5</td></tr><tr><td>DI<a name=\"DI\"> </a></td><td>Diner's Club card</td><td>added v2.3</td></tr><tr><td>DL<a name=\"DL\"> </a></td><td>Driver's license number</td><td>added v2.3</td></tr><tr><td>DN<a name=\"DN\"> </a></td><td>Doctor number</td><td>added v2.3</td></tr><tr><td>DO<a name=\"DO\"> </a></td><td>Osteopathic License number</td><td>added v2.5</td></tr><tr><td>DP<a name=\"DP\"> </a></td><td>Diplomatic Passport</td><td>added v2.6</td></tr><tr><td>DPM<a name=\"DPM\"> </a></td><td>Podiatrist license number</td><td>added v2.5</td></tr><tr><td>DR<a name=\"DR\"> </a></td><td>Donor Registration Number</td><td>added v2.4</td></tr><tr><td>DS<a name=\"DS\"> </a></td><td>Discover Card</td><td>added v2.3</td></tr><tr><td>EI<a name=\"EI\"> </a></td><td>Employee number</td><td>added v2.3</td></tr><tr><td>EN<a name=\"EN\"> </a></td><td>Employer number</td><td>added v2.3</td></tr><tr><td>ESN<a name=\"ESN\"> </a></td><td>Staff Enterprise Number</td><td>added v2.6</td></tr><tr><td>FI<a name=\"FI\"> </a></td><td>Facility ID</td><td>added v2.3.1</td></tr><tr><td>GI<a name=\"GI\"> </a></td><td>Guarantor internal identifier</td><td>added v2.3</td></tr><tr><td>GL<a name=\"GL\"> </a></td><td>General ledger number</td><td>added v2.5</td></tr><tr><td>GN<a name=\"GN\"> </a></td><td>Guarantor external  identifier</td><td>added v2.3</td></tr><tr><td>HC<a name=\"HC\"> </a></td><td>Health Card Number</td><td>added v2.4</td></tr><tr><td>IND<a name=\"IND\"> </a></td><td>Indigenous/Aboriginal</td><td>added v2.5</td></tr><tr><td>JHN<a name=\"JHN\"> </a></td><td>Jurisdictional health number (Canada)</td><td>added v2.4</td></tr><tr><td>LACSN<a name=\"LACSN\"> </a></td><td>Laboratory Accession ID</td><td>added v2.7</td></tr><tr><td>LANR<a name=\"LANR\"> </a></td><td>Lifelong physician number</td><td>added v2.7</td></tr><tr><td>LI<a name=\"LI\"> </a></td><td>Labor and industries number</td><td>added v2.5</td></tr><tr><td>LN<a name=\"LN\"> </a></td><td>License number</td><td>added v2.3.1</td></tr><tr><td>LR<a name=\"LR\"> </a></td><td>Local Registry ID</td><td>added v2.3.1</td></tr><tr><td>MA<a name=\"MA\"> </a></td><td>Patient Medicaid number</td><td>added v2.3</td></tr><tr><td>MB<a name=\"MB\"> </a></td><td>Member Number</td><td>added v2.5</td></tr><tr><td>MC<a name=\"MC\"> </a></td><td>Patient's Medicare number</td><td>added v2.3</td></tr><tr><td>MCD<a name=\"MCD\"> </a></td><td>Practitioner Medicaid number</td><td>added v2.5</td></tr><tr><td>MCN<a name=\"MCN\"> </a></td><td>Microchip Number</td><td>added v2.4</td></tr><tr><td>MCR<a name=\"MCR\"> </a></td><td>Practitioner Medicare number</td><td>added v2.5</td></tr><tr><td>MCT<a name=\"MCT\"> </a></td><td>Marriage Certificate</td><td>added v2.6</td></tr><tr><td>MD<a name=\"MD\"> </a></td><td>Medical License number</td><td>added v2.5</td></tr><tr><td>MI<a name=\"MI\"> </a></td><td>Military ID number</td><td>added v2.5</td></tr><tr><td>MR<a name=\"MR\"> </a></td><td>Medical record number</td><td>added v2.3</td></tr><tr><td>MRT<a name=\"MRT\"> </a></td><td>Temporary Medical Record Number</td><td>added v2.5</td></tr><tr><td>MS<a name=\"MS\"> </a></td><td>MasterCard</td><td>added v2.3</td></tr><tr><td>NBSNR<a name=\"NBSNR\"> </a></td><td>Secondary physician office number</td><td>added v2.7</td></tr><tr><td>NCT<a name=\"NCT\"> </a></td><td>Naturalization Certificate</td><td>added v2.6</td></tr><tr><td>NE<a name=\"NE\"> </a></td><td>National employer identifier</td><td>added v2.3.1</td></tr><tr><td>NH<a name=\"NH\"> </a></td><td>National Health Plan Identifier</td><td>added v2.3.1</td></tr><tr><td>NI<a name=\"NI\"> </a></td><td>National unique individual identifier</td><td>added v2.3.1</td></tr><tr><td>NII<a name=\"NII\"> </a></td><td>National Insurance Organization Identifier</td><td>added v2.5</td></tr><tr><td>NIIP<a name=\"NIIP\"> </a></td><td>National Insurance Payor Identifier (Payor)</td><td>added v2.5</td></tr><tr><td>NNxxx<a name=\"NNxxx\"> </a></td><td>National Person Identifier where the xxx is the ISO table 3166 3-character (alphabetic) country code</td><td>added v2.3.1</td></tr><tr><td>NP<a name=\"NP\"> </a></td><td>Nurse practitioner number</td><td>added v2.5</td></tr><tr><td>NPI<a name=\"NPI\"> </a></td><td>National provider identifier</td><td>added v2.3.1</td></tr><tr><td>OD<a name=\"OD\"> </a></td><td>Optometrist license number</td><td>added v2.5</td></tr><tr><td>PA<a name=\"PA\"> </a></td><td>Physician Assistant number</td><td>added v2.5</td></tr><tr><td>PC<a name=\"PC\"> </a></td><td>Parole Card</td><td>added v2.6</td></tr><tr><td>PCN<a name=\"PCN\"> </a></td><td>Penitentiary/correctional institution Number</td><td>added v2.5</td></tr><tr><td>PE<a name=\"PE\"> </a></td><td>Living Subject Enterprise Number</td><td>added v2.5</td></tr><tr><td>PEN<a name=\"PEN\"> </a></td><td>Pension Number</td><td>added v2.4</td></tr><tr><td>PI<a name=\"PI\"> </a></td><td>Patient internal identifier</td><td>added v2.3</td></tr><tr><td>PN<a name=\"PN\"> </a></td><td>Person number</td><td>added v2.3.1</td></tr><tr><td>PNT<a name=\"PNT\"> </a></td><td>Temporary Living Subject Number</td><td>added v2.5</td></tr><tr><td>PPIN<a name=\"PPIN\"> </a></td><td>Medicare/CMS Performing Provider Identification Number</td><td>added v2.6</td></tr><tr><td>PPN<a name=\"PPN\"> </a></td><td>Passport number</td><td>added v2.5</td></tr><tr><td>PRC<a name=\"PRC\"> </a></td><td>Permanent Resident Card Number</td><td>added v2.5</td></tr><tr><td>PRN<a name=\"PRN\"> </a></td><td>Provider number</td><td>added v2.3.1</td></tr><tr><td>PT<a name=\"PT\"> </a></td><td>Patient external identifier</td><td>added v2.3</td></tr><tr><td>QA<a name=\"QA\"> </a></td><td>QA number</td><td>added v2.5</td></tr><tr><td>RI<a name=\"RI\"> </a></td><td>Resource identifier</td><td>added v2.5</td></tr><tr><td>RN<a name=\"RN\"> </a></td><td>Registered Nurse Number</td><td>added v2.5</td></tr><tr><td>RPH<a name=\"RPH\"> </a></td><td>Pharmacist license number</td><td>added v2.5</td></tr><tr><td>RR<a name=\"RR\"> </a></td><td>Railroad Retirement number</td><td>added v2.3</td></tr><tr><td>RRI<a name=\"RRI\"> </a></td><td>Regional registry ID</td><td>added v2.3.1</td></tr><tr><td>RRP<a name=\"RRP\"> </a></td><td>Railroad Retirement Provider</td><td>added v2.6</td></tr><tr><td>SID<a name=\"SID\"> </a></td><td>Specimen ID</td><td>added v2.7</td></tr><tr><td>SL<a name=\"SL\"> </a></td><td>State license</td><td>added v2.3.1</td></tr><tr><td>SN<a name=\"SN\"> </a></td><td>Subscriber Number</td><td>added v2.5</td></tr><tr><td>SP<a name=\"SP\"> </a></td><td>Study Permit</td><td>added v2.6</td></tr><tr><td>SR<a name=\"SR\"> </a></td><td>State registry ID</td><td>added v2.3.1</td></tr><tr><td>SS<a name=\"SS\"> </a></td><td>Social Security number</td><td>added v2.3</td></tr><tr><td>TAX<a name=\"TAX\"> </a></td><td>Tax ID number</td><td>added v2.5</td></tr><tr><td>TN<a name=\"TN\"> </a></td><td>Treaty Number/ (Canada)</td><td>added v2.5</td></tr><tr><td>TPR<a name=\"TPR\"> </a></td><td>Temporary Permanent Resident (Canada)</td><td>added v2.6</td></tr><tr><td>U<a name=\"U\"> </a></td><td>Unspecified identifier</td><td>added v2.3.1</td></tr><tr><td>UPIN<a name=\"UPIN\"> </a></td><td>Medicare/CMS (formerly HCFA)'s Universal Physician Identification numbers</td><td>added v2.3.1</td></tr><tr><td>USID<a name=\"USID\"> </a></td><td>Unique Specimen ID</td><td>added v2.7</td></tr><tr><td>VN<a name=\"VN\"> </a></td><td>Visit number</td><td>added v2.3</td></tr><tr><td>VP<a name=\"VP\"> </a></td><td>Visitor Permit</td><td>added v2.6</td></tr><tr><td>VS<a name=\"VS\"> </a></td><td>VISA</td><td>added v2.3</td></tr><tr><td>WC<a name=\"WC\"> </a></td><td>WIC identifier</td><td>added v2.3.1</td></tr><tr><td>WCN<a name=\"WCN\"> </a></td><td>Workers' Comp Number</td><td>added v2.4</td></tr><tr><td>WP<a name=\"WP\"> </a></td><td>Work Permit</td><td>added v2.6</td></tr><tr><td>XX<a name=\"XX\"> </a></td><td>Organization identifier</td><td>added v2.3</td></tr></table>\r\n</div>"
  },
  "url": "http://hl7.org/fhir/ValueSet/v2-0203",
  "version": "2.7",
  "name": "v2 Identifier Type",
  "publisher": "HL7, Inc",
  "contact": [
    {
      "telecom": [
        {
          "system": "url",
          "value": "http://hl7.org"
        }
      ]
    }
  ],
  "description": "FHIR Value set/code system definition for HL7 v2 table 0203 ( Identifier Type)",
  "status": "active",
  "experimental": true,
  "date": "2011-01-28",
  "define": {
    "system": "http://hl7.org/fhir/v2/0203",
    "caseSensitive": true,
    "concept": [
      {
        "code": "ACSN",
        "display": "Accession ID"
      },
      {
        "code": "AM",
        "display": "American Express"
      },
      {
        "code": "AMA",
        "display": "American Medical Association Number"
      },
      {
        "code": "AN",
        "display": "Account number"
      },
      {
        "code": "ANC",
        "display": "Account number Creditor"
      },
      {
        "code": "AND",
        "display": "Account number debitor"
      },
      {
        "code": "ANON",
        "display": "Anonymous identifier"
      },
      {
        "code": "ANT",
        "display": "Temporary Account Number"
      },
      {
        "code": "APRN",
        "display": "Advanced Practice Registered Nurse number"
      },
      {
        "code": "ASID",
        "display": "Ancestor Specimen ID"
      },
      {
        "code": "BA",
        "display": "Bank Account Number"
      },
      {
        "code": "BC",
        "display": "Bank Card Number"
      },
      {
        "code": "BCT",
        "display": "Birth Certificate"
      },
      {
        "code": "BR",
        "display": "Birth registry number"
      },
      {
        "code": "BRN",
        "display": "Breed Registry Number"
      },
      {
        "code": "BSNR",
        "display": "Primary physician office number"
      },
      {
        "code": "CC",
        "display": "Cost Center number"
      },
      {
        "code": "CONM",
        "display": "Change of Name Document"
      },
      {
        "code": "CY",
        "display": "County number"
      },
      {
        "code": "CZ",
        "display": "Citizenship Card"
      },
      {
        "code": "DDS",
        "display": "Dentist license number"
      },
      {
        "code": "DEA",
        "display": "Drug Enforcement Administration registration number"
      },
      {
        "code": "DFN",
        "display": "Drug Furnishing or prescriptive authority Number"
      },
      {
        "code": "DI",
        "display": "Diner's Club card"
      },
      {
        "code": "DL",
        "display": "Driver's license number"
      },
      {
        "code": "DN",
        "display": "Doctor number"
      },
      {
        "code": "DO",
        "display": "Osteopathic License number"
      },
      {
        "code": "DP",
        "display": "Diplomatic Passport"
      },
      {
        "code": "DPM",
        "display": "Podiatrist license number"
      },
      {
        "code": "DR",
        "display": "Donor Registration Number"
      },
      {
        "code": "DS",
        "display": "Discover Card"
      },
      {
        "code": "EI",
        "display": "Employee number"
      },
      {
        "code": "EN",
        "display": "Employer number"
      },
      {
        "code": "ESN",
        "display": "Staff Enterprise Number"
      },
      {
        "code": "FI",
        "display": "Facility ID"
      },
      {
        "code": "GI",
        "display": "Guarantor internal identifier"
      },
      {
        "code": "GL",
        "display": "General ledger number"
      },
      {
        "code": "GN",
        "display": "Guarantor external  identifier"
      },
      {
        "code": "HC",
        "display": "Health Card Number"
      },
      {
        "code": "IND",
        "display": "Indigenous/Aboriginal"
      },
      {
        "code": "JHN",
        "display": "Jurisdictional health number (Canada)"
      },
      {
        "code": "LACSN",
        "display": "Laboratory Accession ID"
      },
      {
        "code": "LANR",
        "display": "Lifelong physician number"
      },
      {
        "code": "LI",
        "display": "Labor and industries number"
      },
      {
        "code": "LN",
        "display": "License number"
      },
      {
        "code": "LR",
        "display": "Local Registry ID"
      },
      {
        "code": "MA",
        "display": "Patient Medicaid number"
      },
      {
        "code": "MB",
        "display": "Member Number"
      },
      {
        "code": "MC",
        "display": "Patient's Medicare number"
      },
      {
        "code": "MCD",
        "display": "Practitioner Medicaid number"
      },
      {
        "code": "MCN",
        "display": "Microchip Number"
      },
      {
        "code": "MCR",
        "display": "Practitioner Medicare number"
      },
      {
        "code": "MCT",
        "display": "Marriage Certificate"
      },
      {
        "code": "MD",
        "display": "Medical License number"
      },
      {
        "code": "MI",
        "display": "Military ID number"
      },
      {
        "code": "MR",
        "display": "Medical record number"
      },
      {
        "code": "MRT",
        "display": "Temporary Medical Record Number"
      },
      {
        "code": "MS",
        "display": "MasterCard"
      },
      {
        "code": "NBSNR",
        "display": "Secondary physician office number"
      },
      {
        "code": "NCT",
        "display": "Naturalization Certificate"
      },
      {
        "code": "NE",
        "display": "National employer identifier"
      },
      {
        "code": "NH",
        "display": "National Health Plan Identifier"
      },
      {
        "code": "NI",
        "display": "National unique individual identifier"
      },
      {
        "code": "NII",
        "display": "National Insurance Organization Identifier"
      },
      {
        "code": "NIIP",
        "display": "National Insurance Payor Identifier (Payor)"
      },
      {
        "code": "NNxxx",
        "display": "National Person Identifier where the xxx is the ISO table 3166 3-character (alphabetic) country code"
      },
      {
        "code": "NP",
        "display": "Nurse practitioner number"
      },
      {
        "code": "NPI",
        "display": "National provider identifier"
      },
      {
        "code": "OD",
        "display": "Optometrist license number"
      },
      {
        "code": "PA",
        "display": "Physician Assistant number"
      },
      {
        "code": "PC",
        "display": "Parole Card"
      },
      {
        "code": "PCN",
        "display": "Penitentiary/correctional institution Number"
      },
      {
        "code": "PE",
        "display": "Living Subject Enterprise Number"
      },
      {
        "code": "PEN",
        "display": "Pension Number"
      },
      {
        "code": "PI",
        "display": "Patient internal identifier"
      },
      {
        "code": "PN",
        "display": "Person number"
      },
      {
        "code": "PNT",
        "display": "Temporary Living Subject Number"
      },
      {
        "code": "PPIN",
        "display": "Medicare/CMS Performing Provider Identification Number"
      },
      {
        "code": "PPN",
        "display": "Passport number"
      },
      {
        "code": "PRC",
        "display": "Permanent Resident Card Number"
      },
      {
        "code": "PRN",
        "display": "Provider number"
      },
      {
        "code": "PT",
        "display": "Patient external identifier"
      },
      {
        "code": "QA",
        "display": "QA number"
      },
      {
        "code": "RI",
        "display": "Resource identifier"
      },
      {
        "code": "RN",
        "display": "Registered Nurse Number"
      },
      {
        "code": "RPH",
        "display": "Pharmacist license number"
      },
      {
        "code": "RR",
        "display": "Railroad Retirement number"
      },
      {
        "code": "RRI",
        "display": "Regional registry ID"
      },
      {
        "code": "RRP",
        "display": "Railroad Retirement Provider"
      },
      {
        "code": "SID",
        "display": "Specimen ID"
      },
      {
        "code": "SL",
        "display": "State license"
      },
      {
        "code": "SN",
        "display": "Subscriber Number"
      },
      {
        "code": "SP",
        "display": "Study Permit"
      },
      {
        "code": "SR",
        "display": "State registry ID"
      },
      {
        "code": "SS",
        "display": "Social Security number"
      },
      {
        "code": "TAX",
        "display": "Tax ID number"
      },
      {
        "code": "TN",
        "display": "Treaty Number/ (Canada)"
      },
      {
        "code": "TPR",
        "display": "Temporary Permanent Resident (Canada)"
      },
      {
        "code": "U",
        "display": "Unspecified identifier"
      },
      {
        "code": "UPIN",
        "display": "Medicare/CMS (formerly HCFA)'s Universal Physician Identification numbers"
      },
      {
        "code": "USID",
        "display": "Unique Specimen ID"
      },
      {
        "code": "VN",
        "display": "Visit number"
      },
      {
        "code": "VP",
        "display": "Visitor Permit"
      },
      {
        "code": "VS",
        "display": "VISA"
      },
      {
        "code": "WC",
        "display": "WIC identifier"
      },
      {
        "code": "WCN",
        "display": "Workers' Comp Number"
      },
      {
        "code": "WP",
        "display": "Work Permit"
      },
      {
        "code": "XX",
        "display": "Organization identifier"
      }
    ]
  }
}