{
  "resourceType": "ValueSet",
  "id": "v2-0187",
  "meta": {
    "profile": [
      "http://hl7.org/fhir/StructureDefinition/valueset-shareable-definition"
    ]
  },
  "text": {
    "status": "additional",
    "div": "<div><p>Provider Billing</p>\r\n<table class=\"grid\"><tr><td><b>Code</b></td><td><b>Description</b></td><td><b>Version</b></td></tr><tr><td>I<a name=\"I\"> </a></td><td>Institution bills for provider</td><td>added v2.2</td></tr><tr><td>P<a name=\"P\"> </a></td><td>Provider does own billing</td><td>added v2.2</td></tr></table>\r\n</div>"
  },
  "url": "http://hl7.org/fhir/ValueSet/v2-0187",
  "version": "2.7",
  "name": "v2 Provider Billing",
  "publisher": "HL7, Inc",
  "contact": [
    {
      "telecom": [
        {
          "system": "url",
          "value": "http://hl7.org"
        }
      ]
    }
  ],
  "description": "FHIR Value set/code system definition for HL7 v2 table 0187 ( Provider Billing)",
  "status": "active",
  "experimental": true,
  "date": "2011-01-28",
  "define": {
    "system": "http://hl7.org/fhir/v2/0187",
    "caseSensitive": true,
    "concept": [
      {
        "code": "I",
        "display": "Institution bills for provider"
      },
      {
        "code": "P",
        "display": "Provider does own billing"
      }
    ]
  }
}