{
  "resourceType": "ValueSet",
  "id": "v3-ActStatus",
  "meta": {
    "lastUpdated": "2015-03-23T00:00:00.000+00:00",
    "profile": [
      "http://hl7.org/fhir/StructureDefinition/valueset-shareable-definition"
    ]
  },
  "text": {
    "status": "generated",
    "div": "<div><p>Release Date: 2015-03-23</p>\r\n<p>OID for code system: 2.16.840.1.113883.5.14</p>\r\n<p>OID for value set: 2.16.840.1.113883.1.11.15933 (this is the value set that includes the entire code system)</p>\r\n<h2>Description</h2>\r\n<p>\n                  Codes representing the defined possible states of an Act, as defined by the Act class state machine.<br/>\r\n\n               </p>\r\n<hr/>\r\n<table class=\"grid\">\r\n <tr><td><b>Level</b></td><td><b>Code</b></td><td><b>Display</b></td><td><b>Definition</b></td></tr>\r\n <tr><td>1</td><td>normal<a name=\"normal\"> </a></td><td>normal</td><td>\n                        Encompasses the expected states of an Act, but excludes &quot;nullified&quot; and &quot;obsolete&quot; which represent unusual terminal states for the life-cycle.<br/>\r\n\n                     </td></tr>\r\n <tr><td>2</td><td>&nbsp;&nbsp;aborted<a name=\"aborted\"> </a></td><td>aborted</td><td>\n                        The Act has been terminated prior to the originally intended completion.<br/>\r\n\n                     </td></tr>\r\n <tr><td>2</td><td>&nbsp;&nbsp;active<a name=\"active\"> </a></td><td>active</td><td>\n                        The Act can be performed or is being performed<br/>\r\n\n                     </td></tr>\r\n <tr><td>2</td><td>&nbsp;&nbsp;cancelled<a name=\"cancelled\"> </a></td><td>cancelled</td><td>\n                        The Act has been abandoned before activation.<br/>\r\n\n                     </td></tr>\r\n <tr><td>2</td><td>&nbsp;&nbsp;completed<a name=\"completed\"> </a></td><td>completed</td><td>\n                        An Act that has terminated normally after all of its constituents have been performed.<br/>\r\n\n                     </td></tr>\r\n <tr><td>2</td><td>&nbsp;&nbsp;held<a name=\"held\"> </a></td><td>held</td><td>\n                        An Act that is still in the preparatory stages has been put aside.  No action can occur until the Act is released.<br/>\r\n\n                     </td></tr>\r\n <tr><td>2</td><td>&nbsp;&nbsp;new<a name=\"new\"> </a></td><td>new</td><td>\n                        An Act that is in the preparatory stages and may not yet be acted upon<br/>\r\n\n                     </td></tr>\r\n <tr><td>2</td><td>&nbsp;&nbsp;suspended<a name=\"suspended\"> </a></td><td>suspended</td><td>\n                        An Act that has been activated (actions could or have been performed against it), but has been temporarily disabled.  No further action should be taken against it until it is released<br/>\r\n\n                     </td></tr>\r\n <tr><td>1</td><td>nullified<a name=\"nullified\"> </a></td><td>nullified</td><td>\n                        This Act instance was created in error and has been 'removed' and is treated as though it never existed.  A record is retained for audit purposes only.<br/>\r\n\n                     </td></tr>\r\n <tr><td>1</td><td>obsolete<a name=\"obsolete\"> </a></td><td>obsolete</td><td>\n                        This Act instance has been replaced by a new instance.<br/>\r\n\n                     </td></tr>\r\n</table>\r\n</div>"
  },
  "extension": [
    {
      "url": "http://hl7.org/fhir/StructureDefinition/valueset-oid",
      "valueUri": "urn:oid:2.16.840.1.113883.1.11.15933"
    }
  ],
  "url": "http://hl7.org/fhir/ValueSet/v3-ActStatus",
  "version": "2015-03-23",
  "name": "v3 Code System ActStatus",
  "publisher": "HL7, Inc",
  "contact": [
    {
      "telecom": [
        {
          "system": "url",
          "value": "http://hl7.org"
        }
      ]
    }
  ],
  "description": " Codes representing the defined possible states of an Act, as defined by the Act class state machine.",
  "status": "active",
  "experimental": false,
  "date": "2015-03-23",
  "define": {
    "extension": [
      {
        "url": "http://hl7.org/fhir/StructureDefinition/valueset-oid",
        "valueUri": "urn:oid:2.16.840.1.113883.5.14"
      }
    ],
    "system": "http://hl7.org/fhir/v3/ActStatus",
    "caseSensitive": true,
    "concept": [
      {
        "code": "normal",
        "abstract": false,
        "display": "normal",
        "definition": "Encompasses the expected states of an Act, but excludes \"nullified\" and \"obsolete\" which represent unusual terminal states for the life-cycle.",
        "concept": [
          {
            "code": "aborted",
            "abstract": false,
            "display": "aborted",
            "definition": "The Act has been terminated prior to the originally intended completion."
          },
          {
            "code": "active",
            "abstract": false,
            "display": "active",
            "definition": "The Act can be performed or is being performed"
          },
          {
            "code": "cancelled",
            "abstract": false,
            "display": "cancelled",
            "definition": "The Act has been abandoned before activation."
          },
          {
            "code": "completed",
            "abstract": false,
            "display": "completed",
            "definition": "An Act that has terminated normally after all of its constituents have been performed."
          },
          {
            "code": "held",
            "abstract": false,
            "display": "held",
            "definition": "An Act that is still in the preparatory stages has been put aside.  No action can occur until the Act is released."
          },
          {
            "code": "new",
            "abstract": false,
            "display": "new",
            "definition": "An Act that is in the preparatory stages and may not yet be acted upon"
          },
          {
            "code": "suspended",
            "abstract": false,
            "display": "suspended",
            "definition": "An Act that has been activated (actions could or have been performed against it), but has been temporarily disabled.  No further action should be taken against it until it is released"
          }
        ]
      },
      {
        "code": "nullified",
        "abstract": false,
        "display": "nullified",
        "definition": "This Act instance was created in error and has been 'removed' and is treated as though it never existed.  A record is retained for audit purposes only."
      },
      {
        "code": "obsolete",
        "abstract": false,
        "display": "obsolete",
        "definition": "This Act instance has been replaced by a new instance."
      }
    ]
  }
}