{
  "resourceType": "ValueSet",
  "id": "v2-0282",
  "meta": {
    "profile": [
      "http://hl7.org/fhir/StructureDefinition/valueset-shareable-definition"
    ]
  },
  "text": {
    "status": "additional",
    "div": "<div><p>Referral Disposition</p>\r\n<table class=\"grid\"><tr><td><b>Code</b></td><td><b>Description</b></td><td><b>Version</b></td></tr><tr><td>AM<a name=\"AM\"> </a></td><td>Assume Management</td><td>added v2.3</td></tr><tr><td>RP<a name=\"RP\"> </a></td><td>Return Patient After Evaluation</td><td>added v2.3</td></tr><tr><td>SO<a name=\"SO\"> </a></td><td>Second Opinion</td><td>added v2.3</td></tr><tr><td>WR<a name=\"WR\"> </a></td><td>Send Written Report</td><td>added v2.3</td></tr></table>\r\n</div>"
  },
  "url": "http://hl7.org/fhir/ValueSet/v2-0282",
  "version": "2.7",
  "name": "v2 Referral Disposition",
  "publisher": "HL7, Inc",
  "contact": [
    {
      "telecom": [
        {
          "system": "url",
          "value": "http://hl7.org"
        }
      ]
    }
  ],
  "description": "FHIR Value set/code system definition for HL7 v2 table 0282 ( Referral Disposition)",
  "status": "active",
  "experimental": true,
  "date": "2011-01-28",
  "define": {
    "system": "http://hl7.org/fhir/v2/0282",
    "caseSensitive": true,
    "concept": [
      {
        "code": "AM",
        "display": "Assume Management"
      },
      {
        "code": "RP",
        "display": "Return Patient After Evaluation"
      },
      {
        "code": "SO",
        "display": "Second Opinion"
      },
      {
        "code": "WR",
        "display": "Send Written Report"
      }
    ]
  }
}