{
  "resourceType": "ValueSet",
  "id": "v2-0516",
  "meta": {
    "profile": [
      "http://hl7.org/fhir/StructureDefinition/valueset-shareable-definition"
    ]
  },
  "text": {
    "status": "additional",
    "div": "<div><p>Error Severity</p>\r\n<table class=\"grid\"><tr><td><b>Code</b></td><td><b>Description</b></td><td><b>Version</b></td></tr><tr><td>E<a name=\"E\"> </a></td><td>Error</td><td>added v2.5</td></tr><tr><td>F<a name=\"F\"> </a></td><td>Fatal Error</td><td>added v2.6</td></tr><tr><td>I<a name=\"I\"> </a></td><td>Information</td><td>added v2.5</td></tr><tr><td>W<a name=\"W\"> </a></td><td>Warning</td><td>added v2.5</td></tr></table>\r\n</div>"
  },
  "url": "http://hl7.org/fhir/ValueSet/v2-0516",
  "version": "2.7",
  "name": "v2 Error Severity",
  "publisher": "HL7, Inc",
  "contact": [
    {
      "telecom": [
        {
          "system": "url",
          "value": "http://hl7.org"
        }
      ]
    }
  ],
  "description": "FHIR Value set/code system definition for HL7 v2 table 0516 ( Error Severity)",
  "status": "active",
  "experimental": true,
  "date": "2011-01-28",
  "define": {
    "system": "http://hl7.org/fhir/v2/0516",
    "caseSensitive": true,
    "concept": [
      {
        "code": "E",
        "display": "Error"
      },
      {
        "code": "F",
        "display": "Fatal Error"
      },
      {
        "code": "I",
        "display": "Information"
      },
      {
        "code": "W",
        "display": "Warning"
      }
    ]
  }
}