{
  "resourceType": "ValueSet",
  "id": "v2-0004",
  "meta": {
    "profile": [
      "http://hl7.org/fhir/StructureDefinition/valueset-shareable-definition"
    ]
  },
  "text": {
    "status": "additional",
    "div": "<div><p>Patient Class</p>\r\n<table class=\"grid\"><tr><td><b>Code</b></td><td><b>Description</b></td><td><b>Version</b></td></tr><tr><td>B<a name=\"B\"> </a></td><td>Obstetrics</td><td>added v2.2</td></tr><tr><td>C<a name=\"C\"> </a></td><td>Commercial Account</td><td>added v2.4</td></tr><tr><td>E<a name=\"E\"> </a></td><td>Emergency</td><td>from v2.1</td></tr><tr><td>I<a name=\"I\"> </a></td><td>Inpatient</td><td>from v2.1</td></tr><tr><td>N<a name=\"N\"> </a></td><td>Not Applicable</td><td>added v2.4</td></tr><tr><td>O<a name=\"O\"> </a></td><td>Outpatient</td><td>from v2.1</td></tr><tr><td>P<a name=\"P\"> </a></td><td>Preadmit</td><td>from v2.1</td></tr><tr><td>R<a name=\"R\"> </a></td><td>Recurring patient</td><td>added v2.2</td></tr><tr><td>TK<a name=\"TK\"> </a></td><td/><td>added v2.2, removed after v2.2</td></tr><tr><td>TS<a name=\"TS\"> </a></td><td>teilstationäre Behandlung</td><td>added v2.2, removed after v2.2</td></tr><tr><td>U<a name=\"U\"> </a></td><td>Unknown</td><td>added v2.4</td></tr><tr><td>VS<a name=\"VS\"> </a></td><td>vollstationäre Behandlung</td><td>added v2.2, removed after v2.2</td></tr></table>\r\n</div>"
  },
  "url": "http://hl7.org/fhir/ValueSet/v2-0004",
  "version": "2.7",
  "name": "v2 Patient Class",
  "publisher": "HL7, Inc",
  "contact": [
    {
      "telecom": [
        {
          "system": "url",
          "value": "http://hl7.org"
        }
      ]
    }
  ],
  "description": "FHIR Value set/code system definition for HL7 v2 table 0004 ( Patient Class)",
  "status": "active",
  "experimental": true,
  "date": "2011-01-28",
  "define": {
    "system": "http://hl7.org/fhir/v2/0004",
    "caseSensitive": true,
    "concept": [
      {
        "code": "B",
        "display": "Obstetrics"
      },
      {
        "code": "C",
        "display": "Commercial Account"
      },
      {
        "code": "E",
        "display": "Emergency"
      },
      {
        "code": "I",
        "display": "Inpatient"
      },
      {
        "code": "N",
        "display": "Not Applicable"
      },
      {
        "code": "O",
        "display": "Outpatient"
      },
      {
        "code": "P",
        "display": "Preadmit"
      },
      {
        "code": "R",
        "display": "Recurring patient"
      },
      {
        "extension": [
          {
            "url": "http://hl7.org/fhir/StructureDefinition/valueset-deprecated",
            "valueBoolean": true
          }
        ],
        "code": "TK"
      },
      {
        "extension": [
          {
            "url": "http://hl7.org/fhir/StructureDefinition/valueset-deprecated",
            "valueBoolean": true
          }
        ],
        "code": "TS",
        "display": "teilstationäre Behandlung"
      },
      {
        "code": "U",
        "display": "Unknown"
      },
      {
        "extension": [
          {
            "url": "http://hl7.org/fhir/StructureDefinition/valueset-deprecated",
            "valueBoolean": true
          }
        ],
        "code": "VS",
        "display": "vollstationäre Behandlung"
      }
    ]
  }
}