{
  "resourceType": "ValueSet",
  "id": "v2-0272",
  "meta": {
    "profile": [
      "http://hl7.org/fhir/StructureDefinition/valueset-shareable-definition"
    ]
  },
  "text": {
    "status": "additional",
    "div": "<div><p>Document Confidentiality Status</p>\r\n<table class=\"grid\"><tr><td><b>Code</b></td><td><b>Description</b></td><td><b>Version</b></td></tr><tr><td>1<a name=\"1\"> </a></td><td>ASTM Level 1</td><td>added v2.3, removed after v2.3</td></tr><tr><td>2<a name=\"2\"> </a></td><td>ASTM Level 2</td><td>added v2.3, removed after v2.3</td></tr><tr><td>3<a name=\"3\"> </a></td><td>ASTM Level 3</td><td>added v2.3, removed after v2.3</td></tr><tr><td>R<a name=\"R\"> </a></td><td>Restricted</td><td>added v2.3.1</td></tr><tr><td>RE<a name=\"RE\"> </a></td><td>Restricted</td><td>added v2.3, removed after v2.3</td></tr><tr><td>U<a name=\"U\"> </a></td><td>Usual control</td><td>added v2.3.1</td></tr><tr><td>UC<a name=\"UC\"> </a></td><td>Usual control</td><td>added v2.3, removed after v2.3</td></tr><tr><td>V<a name=\"V\"> </a></td><td>Very restricted</td><td>added v2.3.1</td></tr><tr><td>VR<a name=\"VR\"> </a></td><td>Very restricted</td><td>added v2.3, removed after v2.3</td></tr></table>\r\n</div>"
  },
  "url": "http://hl7.org/fhir/ValueSet/v2-0272",
  "version": "2.7",
  "name": "v2 Document Confidentiality Status",
  "publisher": "HL7, Inc",
  "contact": [
    {
      "telecom": [
        {
          "system": "url",
          "value": "http://hl7.org"
        }
      ]
    }
  ],
  "description": "FHIR Value set/code system definition for HL7 v2 table 0272 ( Document Confidentiality Status)",
  "status": "active",
  "experimental": true,
  "date": "2011-01-28",
  "define": {
    "system": "http://hl7.org/fhir/v2/0272",
    "caseSensitive": true,
    "concept": [
      {
        "extension": [
          {
            "url": "http://hl7.org/fhir/StructureDefinition/valueset-deprecated",
            "valueBoolean": true
          }
        ],
        "code": "1",
        "display": "ASTM Level 1"
      },
      {
        "extension": [
          {
            "url": "http://hl7.org/fhir/StructureDefinition/valueset-deprecated",
            "valueBoolean": true
          }
        ],
        "code": "2",
        "display": "ASTM Level 2"
      },
      {
        "extension": [
          {
            "url": "http://hl7.org/fhir/StructureDefinition/valueset-deprecated",
            "valueBoolean": true
          }
        ],
        "code": "3",
        "display": "ASTM Level 3"
      },
      {
        "code": "R",
        "display": "Restricted"
      },
      {
        "extension": [
          {
            "url": "http://hl7.org/fhir/StructureDefinition/valueset-deprecated",
            "valueBoolean": true
          }
        ],
        "code": "RE",
        "display": "Restricted"
      },
      {
        "code": "U",
        "display": "Usual control"
      },
      {
        "extension": [
          {
            "url": "http://hl7.org/fhir/StructureDefinition/valueset-deprecated",
            "valueBoolean": true
          }
        ],
        "code": "UC",
        "display": "Usual control"
      },
      {
        "code": "V",
        "display": "Very restricted"
      },
      {
        "extension": [
          {
            "url": "http://hl7.org/fhir/StructureDefinition/valueset-deprecated",
            "valueBoolean": true
          }
        ],
        "code": "VR",
        "display": "Very restricted"
      }
    ]
  }
}