{
  "resourceType": "ValueSet",
  "id": "v2-0881",
  "meta": {
    "profile": [
      "http://hl7.org/fhir/StructureDefinition/valueset-shareable-definition"
    ]
  },
  "text": {
    "status": "additional",
    "div": "<div><p>Role Executing Physician</p>\r\n<table class=\"grid\"><tr><td><b>Code</b></td><td><b>Description</b></td><td><b>Version</b></td></tr><tr><td>B<a name=\"B\"> </a></td><td>Both</td><td>added v2.6</td></tr><tr><td>P<a name=\"P\"> </a></td><td>Professional Part</td><td>added v2.6</td></tr><tr><td>T<a name=\"T\"> </a></td><td>Technical Part</td><td>added v2.6</td></tr></table>\r\n</div>"
  },
  "url": "http://hl7.org/fhir/ValueSet/v2-0881",
  "version": "2.7",
  "name": "v2 Role Executing Physician",
  "publisher": "HL7, Inc",
  "contact": [
    {
      "telecom": [
        {
          "system": "url",
          "value": "http://hl7.org"
        }
      ]
    }
  ],
  "description": "FHIR Value set/code system definition for HL7 v2 table 0881 ( Role Executing Physician)",
  "status": "active",
  "experimental": true,
  "date": "2011-01-28",
  "define": {
    "system": "http://hl7.org/fhir/v2/0881",
    "caseSensitive": true,
    "concept": [
      {
        "code": "B",
        "display": "Both"
      },
      {
        "code": "P",
        "display": "Professional Part"
      },
      {
        "code": "T",
        "display": "Technical Part"
      }
    ]
  }
}