{
  "resourceType": "ValueSet",
  "id": "v2-0493",
  "meta": {
    "profile": [
      "http://hl7.org/fhir/StructureDefinition/valueset-shareable-definition"
    ]
  },
  "text": {
    "status": "additional",
    "div": "<div><p>Specimen Condition</p>\r\n<table class=\"grid\"><tr><td><b>Code</b></td><td><b>Description</b></td><td><b>Version</b></td></tr><tr><td>AUT<a name=\"AUT\"> </a></td><td>Autolyzed</td><td>added v2.5</td></tr><tr><td>CLOT<a name=\"CLOT\"> </a></td><td>Clotted</td><td>added v2.5</td></tr><tr><td>CON<a name=\"CON\"> </a></td><td>Contaminated</td><td>added v2.5</td></tr><tr><td>COOL<a name=\"COOL\"> </a></td><td>Cool</td><td>added v2.5</td></tr><tr><td>FROZ<a name=\"FROZ\"> </a></td><td>Frozen</td><td>added v2.5</td></tr><tr><td>HEM<a name=\"HEM\"> </a></td><td>Hemolyzed</td><td>added v2.5</td></tr><tr><td>LIVE<a name=\"LIVE\"> </a></td><td>Live</td><td>added v2.5</td></tr><tr><td>ROOM<a name=\"ROOM\"> </a></td><td>Room temperature</td><td>added v2.5</td></tr><tr><td>SNR<a name=\"SNR\"> </a></td><td>Sample not received</td><td>added v2.5</td></tr></table>\r\n</div>"
  },
  "url": "http://hl7.org/fhir/ValueSet/v2-0493",
  "version": "2.7",
  "name": "v2 Specimen Condition",
  "publisher": "HL7, Inc",
  "contact": [
    {
      "telecom": [
        {
          "system": "url",
          "value": "http://hl7.org"
        }
      ]
    }
  ],
  "description": "FHIR Value set/code system definition for HL7 v2 table 0493 ( Specimen Condition)",
  "status": "active",
  "experimental": true,
  "date": "2011-01-28",
  "define": {
    "system": "http://hl7.org/fhir/v2/0493",
    "caseSensitive": true,
    "concept": [
      {
        "code": "AUT",
        "display": "Autolyzed"
      },
      {
        "code": "CLOT",
        "display": "Clotted"
      },
      {
        "code": "CON",
        "display": "Contaminated"
      },
      {
        "code": "COOL",
        "display": "Cool"
      },
      {
        "code": "FROZ",
        "display": "Frozen"
      },
      {
        "code": "HEM",
        "display": "Hemolyzed"
      },
      {
        "code": "LIVE",
        "display": "Live"
      },
      {
        "code": "ROOM",
        "display": "Room temperature"
      },
      {
        "code": "SNR",
        "display": "Sample not received"
      }
    ]
  }
}