{
  "resourceType": "ValueSet",
  "id": "v2-0241",
  "meta": {
    "profile": [
      "http://hl7.org/fhir/StructureDefinition/valueset-shareable-definition"
    ]
  },
  "text": {
    "status": "additional",
    "div": "<div><p>Patient Outcome</p>\r\n<table class=\"grid\"><tr><td><b>Code</b></td><td><b>Description</b></td><td><b>Version</b></td></tr><tr><td>D<a name=\"D\"> </a></td><td>Died</td><td>added v2.3</td></tr><tr><td>F<a name=\"F\"> </a></td><td>Fully recovered</td><td>added v2.3</td></tr><tr><td>N<a name=\"N\"> </a></td><td>Not recovering/unchanged</td><td>added v2.3</td></tr><tr><td>R<a name=\"R\"> </a></td><td>Recovering</td><td>added v2.3</td></tr><tr><td>S<a name=\"S\"> </a></td><td>Sequelae</td><td>added v2.3</td></tr><tr><td>U<a name=\"U\"> </a></td><td>Unknown</td><td>added v2.3</td></tr><tr><td>W<a name=\"W\"> </a></td><td>Worsening</td><td>added v2.3</td></tr></table>\r\n</div>"
  },
  "url": "http://hl7.org/fhir/ValueSet/v2-0241",
  "version": "2.7",
  "name": "v2 Patient Outcome",
  "publisher": "HL7, Inc",
  "contact": [
    {
      "telecom": [
        {
          "system": "url",
          "value": "http://hl7.org"
        }
      ]
    }
  ],
  "description": "FHIR Value set/code system definition for HL7 v2 table 0241 ( Patient Outcome)",
  "status": "active",
  "experimental": true,
  "date": "2011-01-28",
  "define": {
    "system": "http://hl7.org/fhir/v2/0241",
    "caseSensitive": true,
    "concept": [
      {
        "code": "D",
        "display": "Died"
      },
      {
        "code": "F",
        "display": "Fully recovered"
      },
      {
        "code": "N",
        "display": "Not recovering/unchanged"
      },
      {
        "code": "R",
        "display": "Recovering"
      },
      {
        "code": "S",
        "display": "Sequelae"
      },
      {
        "code": "U",
        "display": "Unknown"
      },
      {
        "code": "W",
        "display": "Worsening"
      }
    ]
  }
}