{
  "resourceType": "ValueSet",
  "id": "v2-0755",
  "meta": {
    "profile": [
      "http://hl7.org/fhir/StructureDefinition/valueset-shareable-definition"
    ]
  },
  "text": {
    "status": "additional",
    "div": "<div><p>Status Weight At Birth</p>\r\n<table class=\"grid\"><tr><td><b>Code</b></td><td><b>Description</b></td><td><b>Version</b></td></tr><tr><td>0<a name=\"0\"> </a></td><td>No weight reported at admission used for grouping</td><td>added v2.6</td></tr><tr><td>1<a name=\"1\"> </a></td><td>Weight reported at admission used for grouping</td><td>added v2.6</td></tr><tr><td>2<a name=\"2\"> </a></td><td>Default weight (&gt;2499g) used for grouping</td><td>added v2.6</td></tr></table>\r\n</div>"
  },
  "url": "http://hl7.org/fhir/ValueSet/v2-0755",
  "version": "2.7",
  "name": "v2 Status Weight At Birth",
  "publisher": "HL7, Inc",
  "contact": [
    {
      "telecom": [
        {
          "system": "url",
          "value": "http://hl7.org"
        }
      ]
    }
  ],
  "description": "FHIR Value set/code system definition for HL7 v2 table 0755 ( Status Weight At Birth)",
  "status": "active",
  "experimental": true,
  "date": "2011-01-28",
  "define": {
    "system": "http://hl7.org/fhir/v2/0755",
    "caseSensitive": true,
    "concept": [
      {
        "code": "0",
        "display": "No weight reported at admission used for grouping"
      },
      {
        "code": "1",
        "display": "Weight reported at admission used for grouping"
      },
      {
        "code": "2",
        "display": "Default weight (>2499g) used for grouping"
      }
    ]
  }
}