{
  "resourceType": "ValueSet",
  "id": "v2-0494",
  "meta": {
    "profile": [
      "http://hl7.org/fhir/StructureDefinition/valueset-shareable-definition"
    ]
  },
  "text": {
    "status": "additional",
    "div": "<div><p>Specimen Child Role</p>\r\n<table class=\"grid\"><tr><td><b>Code</b></td><td><b>Description</b></td><td><b>Version</b></td></tr><tr><td>A<a name=\"A\"> </a></td><td>Aliquot</td><td>added v2.5</td></tr><tr><td>C<a name=\"C\"> </a></td><td>Component</td><td>added v2.5</td></tr><tr><td>M<a name=\"M\"> </a></td><td>Modified from original specimen</td><td>added v2.5</td></tr></table>\r\n</div>"
  },
  "url": "http://hl7.org/fhir/ValueSet/v2-0494",
  "version": "2.7",
  "name": "v2 Specimen Child Role",
  "publisher": "HL7, Inc",
  "contact": [
    {
      "telecom": [
        {
          "system": "url",
          "value": "http://hl7.org"
        }
      ]
    }
  ],
  "description": "FHIR Value set/code system definition for HL7 v2 table 0494 ( Specimen Child Role)",
  "status": "active",
  "experimental": true,
  "date": "2011-01-28",
  "define": {
    "system": "http://hl7.org/fhir/v2/0494",
    "caseSensitive": true,
    "concept": [
      {
        "code": "A",
        "display": "Aliquot"
      },
      {
        "code": "C",
        "display": "Component"
      },
      {
        "code": "M",
        "display": "Modified from original specimen"
      }
    ]
  }
}