{
  "resourceType": "ValueSet",
  "id": "v3-PatientImportance",
  "meta": {
    "lastUpdated": "2015-03-23T00:00:00.000+00:00",
    "profile": [
      "http://hl7.org/fhir/StructureDefinition/valueset-shareable-definition"
    ]
  },
  "text": {
    "status": "generated",
    "div": "<div><p>Release Date: 2015-03-23</p>\r\n<p>OID for code system: 2.16.840.1.113883.5.1075</p>\r\n<p>OID for value set: 2.16.840.1.113883.1.11.19265 (this is the value set that includes the entire code system)</p>\r\n<h2>Description</h2>\r\n<p>\n                  Patient VIP code<br/>\r\n\n               </p>\r\n<hr/>\r\n<table class=\"grid\">\r\n <tr><td><b>Level</b></td><td><b>Code</b></td><td><b>Display</b></td><td><b>Definition</b></td></tr>\r\n <tr><td>1</td><td>BM<a name=\"BM\"> </a></td><td>Board Member</td><td>\n                        Board member of health care organization<br/>\r\n\n                     </td></tr>\r\n <tr><td>1</td><td>DFM<a name=\"DFM\"> </a></td><td>Physician Family Member</td><td>\n                        Family member of staff physician<br/>\r\n\n                     </td></tr>\r\n <tr><td>1</td><td>DR<a name=\"DR\"> </a></td><td>Staff Physician</td><td>\n                        Member of the health care organization physician staff<br/>\r\n\n                     </td></tr>\r\n <tr><td>1</td><td>FD<a name=\"FD\"> </a></td><td>Financial Donor</td><td>\n                        Financial donor to the health care organization<br/>\r\n\n                     </td></tr>\r\n <tr><td>1</td><td>FOR<a name=\"FOR\"> </a></td><td>Foreign Dignitary</td><td>\n                        Foreign citizen dignitary of interest to the health care organization<br/>\r\n\n                     </td></tr>\r\n <tr><td>1</td><td>GOVT<a name=\"GOVT\"> </a></td><td>Government Dignitary</td><td>\n                        Government dignitary of interest to the organization<br/>\r\n\n                     </td></tr>\r\n <tr><td>1</td><td>SFM<a name=\"SFM\"> </a></td><td>Staff Family Member</td><td>\n                        Family member of staff member<br/>\r\n\n                     </td></tr>\r\n <tr><td>1</td><td>STF<a name=\"STF\"> </a></td><td>Staff Member</td><td>\n                        Staff member of the health care organization<br/>\r\n\n                     </td></tr>\r\n <tr><td>1</td><td>VIP<a name=\"VIP\"> </a></td><td>Very Important Person</td><td>\n                        Very important person of interest to the health care organization<br/>\r\n\n                     </td></tr>\r\n</table>\r\n</div>"
  },
  "extension": [
    {
      "url": "http://hl7.org/fhir/StructureDefinition/valueset-oid",
      "valueUri": "urn:oid:2.16.840.1.113883.1.11.19265"
    }
  ],
  "url": "http://hl7.org/fhir/ValueSet/v3-PatientImportance",
  "version": "2015-03-23",
  "name": "v3 Code System PatientImportance",
  "publisher": "HL7, Inc",
  "contact": [
    {
      "telecom": [
        {
          "system": "url",
          "value": "http://hl7.org"
        }
      ]
    }
  ],
  "description": " Patient VIP code",
  "status": "active",
  "experimental": false,
  "date": "2015-03-23",
  "define": {
    "extension": [
      {
        "url": "http://hl7.org/fhir/StructureDefinition/valueset-oid",
        "valueUri": "urn:oid:2.16.840.1.113883.5.1075"
      }
    ],
    "system": "http://hl7.org/fhir/v3/PatientImportance",
    "caseSensitive": true,
    "concept": [
      {
        "code": "BM",
        "abstract": false,
        "display": "Board Member",
        "definition": "Board member of health care organization"
      },
      {
        "code": "DFM",
        "abstract": false,
        "display": "Physician Family Member",
        "definition": "Family member of staff physician"
      },
      {
        "code": "DR",
        "abstract": false,
        "display": "Staff Physician",
        "definition": "Member of the health care organization physician staff"
      },
      {
        "code": "FD",
        "abstract": false,
        "display": "Financial Donor",
        "definition": "Financial donor to the health care organization"
      },
      {
        "code": "FOR",
        "abstract": false,
        "display": "Foreign Dignitary",
        "definition": "Foreign citizen dignitary of interest to the health care organization"
      },
      {
        "code": "GOVT",
        "abstract": false,
        "display": "Government Dignitary",
        "definition": "Government dignitary of interest to the organization"
      },
      {
        "code": "SFM",
        "abstract": false,
        "display": "Staff Family Member",
        "definition": "Family member of staff member"
      },
      {
        "code": "STF",
        "abstract": false,
        "display": "Staff Member",
        "definition": "Staff member of the health care organization"
      },
      {
        "code": "VIP",
        "abstract": false,
        "display": "Very Important Person",
        "definition": "Very important person of interest to the health care organization"
      }
    ]
  }
}