{
  "resourceType": "ValueSet",
  "id": "v2-0276",
  "meta": {
    "profile": [
      "http://hl7.org/fhir/StructureDefinition/valueset-shareable-definition"
    ]
  },
  "text": {
    "status": "additional",
    "div": "<div><p>Appointment reason codes</p>\r\n<table class=\"grid\"><tr><td><b>Code</b></td><td><b>Description</b></td><td><b>Version</b></td></tr><tr><td>CHECKUP<a name=\"CHECKUP\"> </a></td><td>A routine check-up, such as an annual physical</td><td>added v2.3</td></tr><tr><td>EMERGENCY<a name=\"EMERGENCY\"> </a></td><td>Emergency appointment</td><td>added v2.3</td></tr><tr><td>FOLLOWUP<a name=\"FOLLOWUP\"> </a></td><td>A follow up visit from a previous appointment</td><td>added v2.3</td></tr><tr><td>ROUTINE<a name=\"ROUTINE\"> </a></td><td>Routine appointment - default if not valued</td><td>added v2.3</td></tr><tr><td>WALKIN<a name=\"WALKIN\"> </a></td><td>A previously unscheduled walk-in visit</td><td>added v2.3</td></tr></table>\r\n</div>"
  },
  "url": "http://hl7.org/fhir/ValueSet/v2-0276",
  "version": "2.7",
  "name": "v2 Appointment reason codes",
  "publisher": "HL7, Inc",
  "contact": [
    {
      "telecom": [
        {
          "system": "url",
          "value": "http://hl7.org"
        }
      ]
    }
  ],
  "description": "FHIR Value set/code system definition for HL7 v2 table 0276 ( Appointment reason codes)",
  "status": "active",
  "experimental": true,
  "date": "2011-01-28",
  "define": {
    "system": "http://hl7.org/fhir/v2/0276",
    "caseSensitive": true,
    "concept": [
      {
        "code": "CHECKUP",
        "display": "A routine check-up, such as an annual physical"
      },
      {
        "code": "EMERGENCY",
        "display": "Emergency appointment"
      },
      {
        "code": "FOLLOWUP",
        "display": "A follow up visit from a previous appointment"
      },
      {
        "code": "ROUTINE",
        "display": "Routine appointment - default if not valued"
      },
      {
        "code": "WALKIN",
        "display": "A previously unscheduled walk-in visit"
      }
    ]
  }
}