{
  "resourceType": "ValueSet",
  "id": "v2-0501",
  "meta": {
    "profile": [
      "http://hl7.org/fhir/StructureDefinition/valueset-shareable-definition"
    ]
  },
  "text": {
    "status": "additional",
    "div": "<div><p>Consent Non-Disclosure Reason</p>\r\n<table class=\"grid\"><tr><td><b>Code</b></td><td><b>Description</b></td><td><b>Version</b></td></tr><tr><td>E<a name=\"E\"> </a></td><td>Emergency</td><td>added v2.5</td></tr><tr><td>PR<a name=\"PR\"> </a></td><td>Patient Request</td><td>added v2.5</td></tr><tr><td>RX<a name=\"RX\"> </a></td><td>Rx Private</td><td>added v2.5</td></tr></table>\r\n</div>"
  },
  "url": "http://hl7.org/fhir/ValueSet/v2-0501",
  "version": "2.7",
  "name": "v2 Consent Non-Disclosure Reason",
  "publisher": "HL7, Inc",
  "contact": [
    {
      "telecom": [
        {
          "system": "url",
          "value": "http://hl7.org"
        }
      ]
    }
  ],
  "description": "FHIR Value set/code system definition for HL7 v2 table 0501 ( Consent Non-Disclosure Reason)",
  "status": "active",
  "experimental": true,
  "date": "2011-01-28",
  "define": {
    "system": "http://hl7.org/fhir/v2/0501",
    "caseSensitive": true,
    "concept": [
      {
        "code": "E",
        "display": "Emergency"
      },
      {
        "code": "PR",
        "display": "Patient Request"
      },
      {
        "code": "RX",
        "display": "Rx Private"
      }
    ]
  }
}