{
  "resourceType": "ValueSet",
  "id": "v2-0160",
  "meta": {
    "profile": [
      "http://hl7.org/fhir/StructureDefinition/valueset-shareable-definition"
    ]
  },
  "text": {
    "status": "additional",
    "div": "<div><p>Tray Type</p>\r\n<table class=\"grid\"><tr><td><b>Code</b></td><td><b>Description</b></td><td><b>Version</b></td></tr><tr><td>EARLY<a name=\"EARLY\"> </a></td><td>Early tray</td><td>added v2.2</td></tr><tr><td>GUEST<a name=\"GUEST\"> </a></td><td>Guest tray</td><td>added v2.2</td></tr><tr><td>LATE<a name=\"LATE\"> </a></td><td>Late tray</td><td>added v2.2</td></tr><tr><td>MSG<a name=\"MSG\"> </a></td><td>Tray message only</td><td>added v2.2</td></tr><tr><td>NO<a name=\"NO\"> </a></td><td>No tray</td><td>added v2.2</td></tr></table>\r\n</div>"
  },
  "url": "http://hl7.org/fhir/ValueSet/v2-0160",
  "version": "2.7",
  "name": "v2 Tray Type",
  "publisher": "HL7, Inc",
  "contact": [
    {
      "telecom": [
        {
          "system": "url",
          "value": "http://hl7.org"
        }
      ]
    }
  ],
  "description": "FHIR Value set/code system definition for HL7 v2 table 0160 ( Tray Type)",
  "status": "active",
  "experimental": true,
  "date": "2011-01-28",
  "define": {
    "system": "http://hl7.org/fhir/v2/0160",
    "caseSensitive": true,
    "concept": [
      {
        "code": "EARLY",
        "display": "Early tray"
      },
      {
        "code": "GUEST",
        "display": "Guest tray"
      },
      {
        "code": "LATE",
        "display": "Late tray"
      },
      {
        "code": "MSG",
        "display": "Tray message only"
      },
      {
        "code": "NO",
        "display": "No tray"
      }
    ]
  }
}