{
  "resourceType": "ValueSet",
  "id": "v2-0505",
  "meta": {
    "profile": [
      "http://hl7.org/fhir/StructureDefinition/valueset-shareable-definition"
    ]
  },
  "text": {
    "status": "additional",
    "div": "<div><p>Cyclic Entry/Exit Indicator</p>\r\n<table class=\"grid\"><tr><td><b>Code</b></td><td><b>Description</b></td><td><b>Version</b></td></tr><tr><td>#<a name=\".35\"> </a></td><td>The last service request in a cyclic group.</td><td>added v2.5</td></tr><tr><td>*<a name=\".42\"> </a></td><td>The first service request in a cyclic group</td><td>added v2.5</td></tr></table>\r\n</div>"
  },
  "url": "http://hl7.org/fhir/ValueSet/v2-0505",
  "version": "2.7",
  "name": "v2 Cyclic Entry/Exit Indicator",
  "publisher": "HL7, Inc",
  "contact": [
    {
      "telecom": [
        {
          "system": "url",
          "value": "http://hl7.org"
        }
      ]
    }
  ],
  "description": "FHIR Value set/code system definition for HL7 v2 table 0505 ( Cyclic Entry/Exit Indicator)",
  "status": "active",
  "experimental": true,
  "date": "2011-01-28",
  "define": {
    "system": "http://hl7.org/fhir/v2/0505",
    "caseSensitive": true,
    "concept": [
      {
        "code": "#",
        "display": "The last service request in a cyclic group."
      },
      {
        "code": "*",
        "display": "The first service request in a cyclic group"
      }
    ]
  }
}