{
  "resourceType": "ValueSet",
  "id": "v2-0495",
  "meta": {
    "profile": [
      "http://hl7.org/fhir/StructureDefinition/valueset-shareable-definition"
    ]
  },
  "text": {
    "status": "additional",
    "div": "<div><p>Body Site Modifier</p>\r\n<table class=\"grid\"><tr><td><b>Code</b></td><td><b>Description</b></td><td><b>Version</b></td></tr><tr><td>ANT<a name=\"ANT\"> </a></td><td>Anterior</td><td>added v2.5</td></tr><tr><td>BIL<a name=\"BIL\"> </a></td><td>Bilateral</td><td>added v2.5</td></tr><tr><td>DIS<a name=\"DIS\"> </a></td><td>Distal</td><td>added v2.5</td></tr><tr><td>EXT<a name=\"EXT\"> </a></td><td>External</td><td>added v2.5</td></tr><tr><td>L<a name=\"L\"> </a></td><td>Left</td><td>added v2.5</td></tr><tr><td>LAT<a name=\"LAT\"> </a></td><td>Lateral</td><td>added v2.5</td></tr><tr><td>LLQ<a name=\"LLQ\"> </a></td><td>Quadrant, Left Lower</td><td>added v2.5</td></tr><tr><td>LOW<a name=\"LOW\"> </a></td><td>Lower</td><td>added v2.5</td></tr><tr><td>LUQ<a name=\"LUQ\"> </a></td><td>Quadrant, Left Upper</td><td>added v2.5</td></tr><tr><td>MED<a name=\"MED\"> </a></td><td>Medial</td><td>added v2.5</td></tr><tr><td>POS<a name=\"POS\"> </a></td><td>Posterior</td><td>added v2.5</td></tr><tr><td>PRO<a name=\"PRO\"> </a></td><td>Proximal</td><td>added v2.5</td></tr><tr><td>R<a name=\"R\"> </a></td><td>Right</td><td>added v2.5</td></tr><tr><td>RLQ<a name=\"RLQ\"> </a></td><td>Quadrant, Right Lower</td><td>added v2.5</td></tr><tr><td>RUQ<a name=\"RUQ\"> </a></td><td>Quadrant, Right Upper</td><td>added v2.5</td></tr><tr><td>UPP<a name=\"UPP\"> </a></td><td>Upper</td><td>added v2.5</td></tr></table>\r\n</div>"
  },
  "url": "http://hl7.org/fhir/ValueSet/v2-0495",
  "version": "2.7",
  "name": "v2 Body Site Modifier",
  "publisher": "HL7, Inc",
  "contact": [
    {
      "telecom": [
        {
          "system": "url",
          "value": "http://hl7.org"
        }
      ]
    }
  ],
  "description": "FHIR Value set/code system definition for HL7 v2 table 0495 ( Body Site Modifier)",
  "status": "active",
  "experimental": true,
  "date": "2011-01-28",
  "define": {
    "system": "http://hl7.org/fhir/v2/0495",
    "caseSensitive": true,
    "concept": [
      {
        "code": "ANT",
        "display": "Anterior"
      },
      {
        "code": "BIL",
        "display": "Bilateral"
      },
      {
        "code": "DIS",
        "display": "Distal"
      },
      {
        "code": "EXT",
        "display": "External"
      },
      {
        "code": "L",
        "display": "Left"
      },
      {
        "code": "LAT",
        "display": "Lateral"
      },
      {
        "code": "LLQ",
        "display": "Quadrant, Left Lower"
      },
      {
        "code": "LOW",
        "display": "Lower"
      },
      {
        "code": "LUQ",
        "display": "Quadrant, Left Upper"
      },
      {
        "code": "MED",
        "display": "Medial"
      },
      {
        "code": "POS",
        "display": "Posterior"
      },
      {
        "code": "PRO",
        "display": "Proximal"
      },
      {
        "code": "R",
        "display": "Right"
      },
      {
        "code": "RLQ",
        "display": "Quadrant, Right Lower"
      },
      {
        "code": "RUQ",
        "display": "Quadrant, Right Upper"
      },
      {
        "code": "UPP",
        "display": "Upper"
      }
    ]
  }
}