{
  "resourceType": "ValueSet",
  "id": "v3-IdentifierReliability",
  "meta": {
    "lastUpdated": "2015-03-23T00:00:00.000+00:00",
    "profile": [
      "http://hl7.org/fhir/StructureDefinition/valueset-shareable-definition"
    ]
  },
  "text": {
    "status": "generated",
    "div": "<div><p>Release Date: 2015-03-23</p>\r\n<p>OID for code system: 2.16.840.1.113883.5.1117</p>\r\n<p>OID for value set: 2.16.840.1.113883.1.11.20277 (this is the value set that includes the entire code system)</p>\r\n<h2>Description</h2>\r\n<p>\n                  Specifies the reliability with which the identifier is known. This attribute MAY be used to assist with identifier matching algorithms.<br/>\r\n\n               </p>\r\n<hr/>\r\n<table class=\"grid\">\r\n <tr><td><b>Level</b></td><td><b>Code</b></td><td><b>Display</b></td><td><b>Definition</b></td></tr>\r\n <tr><td>1</td><td>ISS<a name=\"ISS\"> </a></td><td>Issued by System</td><td>\n                        \n                           Description: The identifier was issued by the system responsible for constructing the instance.<br/>\r\n\n                     </td></tr>\r\n <tr><td>1</td><td>UNV<a name=\"UNV\"> </a></td><td>Unverified by system</td><td>\n                        \n                           Description: The identifier was provided to the system that constructed the instance, but has not been verified. e.g. a Drivers  license entered manually into a system by a user.<br/>\r\n\n                     </td></tr>\r\n <tr><td>1</td><td>VRF<a name=\"VRF\"> </a></td><td>Verified by system</td><td>\n                        \n                           Description: The identifier was not issued by the system responsible for constructing the instance, but the system that captured the id has verified the identifier with the issuing authority, or with another system that has verified the identifier.<br/>\r\n\n                     </td></tr>\r\n</table>\r\n</div>"
  },
  "extension": [
    {
      "url": "http://hl7.org/fhir/StructureDefinition/valueset-oid",
      "valueUri": "urn:oid:2.16.840.1.113883.1.11.20277"
    }
  ],
  "url": "http://hl7.org/fhir/ValueSet/v3-IdentifierReliability",
  "version": "2015-03-23",
  "name": "v3 Code System IdentifierReliability",
  "publisher": "HL7, Inc",
  "contact": [
    {
      "telecom": [
        {
          "system": "url",
          "value": "http://hl7.org"
        }
      ]
    }
  ],
  "description": " Specifies the reliability with which the identifier is known. This attribute MAY be used to assist with identifier matching algorithms.",
  "status": "active",
  "experimental": false,
  "date": "2015-03-23",
  "define": {
    "extension": [
      {
        "url": "http://hl7.org/fhir/StructureDefinition/valueset-oid",
        "valueUri": "urn:oid:2.16.840.1.113883.5.1117"
      }
    ],
    "system": "http://hl7.org/fhir/v3/IdentifierReliability",
    "caseSensitive": true,
    "concept": [
      {
        "code": "ISS",
        "abstract": false,
        "display": "Issued by System",
        "definition": "Description: The identifier was issued by the system responsible for constructing the instance."
      },
      {
        "code": "UNV",
        "abstract": false,
        "display": "Unverified by system",
        "definition": "Description: The identifier was provided to the system that constructed the instance, but has not been verified. e.g. a Drivers  license entered manually into a system by a user."
      },
      {
        "code": "VRF",
        "abstract": false,
        "display": "Verified by system",
        "definition": "Description: The identifier was not issued by the system responsible for constructing the instance, but the system that captured the id has verified the identifier with the issuing authority, or with another system that has verified the identifier."
      }
    ]
  }
}