{
  "resourceType": "ValueSet",
  "id": "v3-TableRules",
  "meta": {
    "lastUpdated": "2015-03-23T00:00:00.000+00:00",
    "profile": [
      "http://hl7.org/fhir/StructureDefinition/valueset-shareable-definition"
    ]
  },
  "text": {
    "status": "generated",
    "div": "<div><p>Release Date: 2015-03-23</p>\r\n<p>OID for code system: 2.16.840.1.113883.5.136</p>\r\n<p>OID for value set: 2.16.840.1.113883.1.11.11002 (this is the value set that includes the entire code system)</p>\r\n<h2>Description</h2>\r\n<p>\n                  These values are defined within the XHTML 4.0 Table Model<br/>\r\n\n               </p>\r\n<hr/>\r\n<table class=\"grid\">\r\n <tr><td><b>Level</b></td><td><b>Code</b></td><td><b>Display</b></td><td><b>Definition</b></td></tr>\r\n <tr><td>1</td><td>all<a name=\"all\"> </a></td><td>all</td><td/></tr>\r\n <tr><td>1</td><td>cols<a name=\"cols\"> </a></td><td>cols</td><td/></tr>\r\n <tr><td>1</td><td>groups<a name=\"groups\"> </a></td><td>groups</td><td/></tr>\r\n <tr><td>1</td><td>none<a name=\"none\"> </a></td><td>none</td><td/></tr>\r\n <tr><td>1</td><td>rows<a name=\"rows\"> </a></td><td>rows</td><td/></tr>\r\n</table>\r\n</div>"
  },
  "extension": [
    {
      "url": "http://hl7.org/fhir/StructureDefinition/valueset-oid",
      "valueUri": "urn:oid:2.16.840.1.113883.1.11.11002"
    }
  ],
  "url": "http://hl7.org/fhir/ValueSet/v3-TableRules",
  "version": "2015-03-23",
  "name": "v3 Code System TableRules",
  "publisher": "HL7, Inc",
  "contact": [
    {
      "telecom": [
        {
          "system": "url",
          "value": "http://hl7.org"
        }
      ]
    }
  ],
  "description": " These values are defined within the XHTML 4.0 Table Model",
  "status": "active",
  "experimental": false,
  "date": "2015-03-23",
  "define": {
    "extension": [
      {
        "url": "http://hl7.org/fhir/StructureDefinition/valueset-oid",
        "valueUri": "urn:oid:2.16.840.1.113883.5.136"
      }
    ],
    "system": "http://hl7.org/fhir/v3/TableRules",
    "caseSensitive": true,
    "concept": [
      {
        "code": "all",
        "abstract": false,
        "display": "all",
        "definition": "all"
      },
      {
        "code": "cols",
        "abstract": false,
        "display": "cols",
        "definition": "cols"
      },
      {
        "code": "groups",
        "abstract": false,
        "display": "groups",
        "definition": "groups"
      },
      {
        "code": "none",
        "abstract": false,
        "display": "none",
        "definition": "none"
      },
      {
        "code": "rows",
        "abstract": false,
        "display": "rows",
        "definition": "rows"
      }
    ]
  }
}