{
  "resourceType": "ValueSet",
  "id": "v2-0169",
  "meta": {
    "profile": [
      "http://hl7.org/fhir/StructureDefinition/valueset-shareable-definition"
    ]
  },
  "text": {
    "status": "additional",
    "div": "<div><p>Reporting Priority</p>\r\n<table class=\"grid\"><tr><td><b>Code</b></td><td><b>Description</b></td><td><b>Version</b></td></tr><tr><td>C<a name=\"C\"> </a></td><td>Call back results</td><td>added v2.2</td></tr><tr><td>R<a name=\"R\"> </a></td><td>Rush reporting</td><td>added v2.2</td></tr></table>\r\n</div>"
  },
  "url": "http://hl7.org/fhir/ValueSet/v2-0169",
  "version": "2.7",
  "name": "v2 Reporting Priority",
  "publisher": "HL7, Inc",
  "contact": [
    {
      "telecom": [
        {
          "system": "url",
          "value": "http://hl7.org"
        }
      ]
    }
  ],
  "description": "FHIR Value set/code system definition for HL7 v2 table 0169 ( Reporting Priority)",
  "status": "active",
  "experimental": true,
  "date": "2011-01-28",
  "define": {
    "system": "http://hl7.org/fhir/v2/0169",
    "caseSensitive": true,
    "concept": [
      {
        "code": "C",
        "display": "Call back results"
      },
      {
        "code": "R",
        "display": "Rush reporting"
      }
    ]
  }
}