{
  "resourceType": "ValueSet",
  "id": "v2-0063",
  "meta": {
    "profile": [
      "http://hl7.org/fhir/StructureDefinition/valueset-shareable-definition"
    ]
  },
  "text": {
    "status": "additional",
    "div": "<div><p>Relationship</p>\r\n<table class=\"grid\"><tr><td><b>Code</b></td><td><b>Description</b></td><td><b>Version</b></td></tr><tr><td>ASC<a name=\"ASC\"> </a></td><td>Associate</td><td>added v2.4</td></tr><tr><td>BRO<a name=\"BRO\"> </a></td><td>Brother</td><td>added v2.4</td></tr><tr><td>CGV<a name=\"CGV\"> </a></td><td>Care giver</td><td>added v2.4</td></tr><tr><td>CHD<a name=\"CHD\"> </a></td><td>Child</td><td>added v2.4</td></tr><tr><td>DEP<a name=\"DEP\"> </a></td><td>Handicapped dependent</td><td>added v2.4</td></tr><tr><td>DOM<a name=\"DOM\"> </a></td><td>Life partner</td><td>added v2.4</td></tr><tr><td>EMC<a name=\"EMC\"> </a></td><td>Emergency contact</td><td>added v2.4</td></tr><tr><td>EME<a name=\"EME\"> </a></td><td>Employee</td><td>added v2.4</td></tr><tr><td>EMR<a name=\"EMR\"> </a></td><td>Employer</td><td>added v2.4</td></tr><tr><td>EXF<a name=\"EXF\"> </a></td><td>Extended family</td><td>added v2.4</td></tr><tr><td>FCH<a name=\"FCH\"> </a></td><td>Foster child</td><td>added v2.4</td></tr><tr><td>FND<a name=\"FND\"> </a></td><td>Friend</td><td>added v2.4</td></tr><tr><td>FTH<a name=\"FTH\"> </a></td><td>Father</td><td>added v2.4</td></tr><tr><td>GCH<a name=\"GCH\"> </a></td><td>Grandchild</td><td>added v2.4</td></tr><tr><td>GRD<a name=\"GRD\"> </a></td><td>Guardian</td><td>added v2.4</td></tr><tr><td>GRP<a name=\"GRP\"> </a></td><td>Grandparent</td><td>added v2.4</td></tr><tr><td>MGR<a name=\"MGR\"> </a></td><td>Manager</td><td>added v2.4</td></tr><tr><td>MTH<a name=\"MTH\"> </a></td><td>Mother</td><td>added v2.4</td></tr><tr><td>NCH<a name=\"NCH\"> </a></td><td>Natural child</td><td>added v2.4</td></tr><tr><td>NON<a name=\"NON\"> </a></td><td>None</td><td>added v2.4</td></tr><tr><td>OAD<a name=\"OAD\"> </a></td><td>Other adult</td><td>added v2.4</td></tr><tr><td>OTH<a name=\"OTH\"> </a></td><td>Other</td><td>added v2.4</td></tr><tr><td>OWN<a name=\"OWN\"> </a></td><td>Owner</td><td>added v2.4</td></tr><tr><td>PAR<a name=\"PAR\"> </a></td><td>Parent</td><td>added v2.4</td></tr><tr><td>SCH<a name=\"SCH\"> </a></td><td>Stepchild</td><td>added v2.4</td></tr><tr><td>SEL<a name=\"SEL\"> </a></td><td>Self</td><td>added v2.4</td></tr><tr><td>SIB<a name=\"SIB\"> </a></td><td>Sibling</td><td>added v2.4</td></tr><tr><td>SIS<a name=\"SIS\"> </a></td><td>Sister</td><td>added v2.4</td></tr><tr><td>SPO<a name=\"SPO\"> </a></td><td>Spouse</td><td>added v2.4</td></tr><tr><td>TRA<a name=\"TRA\"> </a></td><td>Trainer</td><td>added v2.4</td></tr><tr><td>UNK<a name=\"UNK\"> </a></td><td>Unknown</td><td>added v2.4</td></tr><tr><td>WRD<a name=\"WRD\"> </a></td><td>Ward of court</td><td>added v2.4</td></tr></table>\r\n</div>"
  },
  "url": "http://hl7.org/fhir/ValueSet/v2-0063",
  "version": "2.7",
  "name": "v2 Relationship",
  "publisher": "HL7, Inc",
  "contact": [
    {
      "telecom": [
        {
          "system": "url",
          "value": "http://hl7.org"
        }
      ]
    }
  ],
  "description": "FHIR Value set/code system definition for HL7 v2 table 0063 ( Relationship)",
  "status": "active",
  "experimental": true,
  "date": "2011-01-28",
  "define": {
    "system": "http://hl7.org/fhir/v2/0063",
    "caseSensitive": true,
    "concept": [
      {
        "code": "ASC",
        "display": "Associate"
      },
      {
        "code": "BRO",
        "display": "Brother"
      },
      {
        "code": "CGV",
        "display": "Care giver"
      },
      {
        "code": "CHD",
        "display": "Child"
      },
      {
        "code": "DEP",
        "display": "Handicapped dependent"
      },
      {
        "code": "DOM",
        "display": "Life partner"
      },
      {
        "code": "EMC",
        "display": "Emergency contact"
      },
      {
        "code": "EME",
        "display": "Employee"
      },
      {
        "code": "EMR",
        "display": "Employer"
      },
      {
        "code": "EXF",
        "display": "Extended family"
      },
      {
        "code": "FCH",
        "display": "Foster child"
      },
      {
        "code": "FND",
        "display": "Friend"
      },
      {
        "code": "FTH",
        "display": "Father"
      },
      {
        "code": "GCH",
        "display": "Grandchild"
      },
      {
        "code": "GRD",
        "display": "Guardian"
      },
      {
        "code": "GRP",
        "display": "Grandparent"
      },
      {
        "code": "MGR",
        "display": "Manager"
      },
      {
        "code": "MTH",
        "display": "Mother"
      },
      {
        "code": "NCH",
        "display": "Natural child"
      },
      {
        "code": "NON",
        "display": "None"
      },
      {
        "code": "OAD",
        "display": "Other adult"
      },
      {
        "code": "OTH",
        "display": "Other"
      },
      {
        "code": "OWN",
        "display": "Owner"
      },
      {
        "code": "PAR",
        "display": "Parent"
      },
      {
        "code": "SCH",
        "display": "Stepchild"
      },
      {
        "code": "SEL",
        "display": "Self"
      },
      {
        "code": "SIB",
        "display": "Sibling"
      },
      {
        "code": "SIS",
        "display": "Sister"
      },
      {
        "code": "SPO",
        "display": "Spouse"
      },
      {
        "code": "TRA",
        "display": "Trainer"
      },
      {
        "code": "UNK",
        "display": "Unknown"
      },
      {
        "code": "WRD",
        "display": "Ward of court"
      }
    ]
  }
}