{
  "resourceType": "ValueSet",
  "id": "v2-0180",
  "meta": {
    "profile": [
      "http://hl7.org/fhir/StructureDefinition/valueset-shareable-definition"
    ]
  },
  "text": {
    "status": "additional",
    "div": "<div><p>Record-level Event Code</p>\r\n<table class=\"grid\"><tr><td><b>Code</b></td><td><b>Description</b></td><td><b>Version</b></td></tr><tr><td>MAC<a name=\"MAC\"> </a></td><td>Reactivate deactivated record</td><td>added v2.2</td></tr><tr><td>MAD<a name=\"MAD\"> </a></td><td>Add record to master file</td><td>added v2.2</td></tr><tr><td>MDC<a name=\"MDC\"> </a></td><td>Deactivate: discontinue using record in master file, but do not delete from database</td><td>added v2.2</td></tr><tr><td>MDL<a name=\"MDL\"> </a></td><td>Delete record from master file</td><td>added v2.2</td></tr><tr><td>MUP<a name=\"MUP\"> </a></td><td>Update record for master file</td><td>added v2.2</td></tr></table>\r\n</div>"
  },
  "url": "http://hl7.org/fhir/ValueSet/v2-0180",
  "version": "2.7",
  "name": "v2 Record-level Event Code",
  "publisher": "HL7, Inc",
  "contact": [
    {
      "telecom": [
        {
          "system": "url",
          "value": "http://hl7.org"
        }
      ]
    }
  ],
  "description": "FHIR Value set/code system definition for HL7 v2 table 0180 ( Record-level Event Code)",
  "status": "active",
  "experimental": true,
  "date": "2011-01-28",
  "define": {
    "system": "http://hl7.org/fhir/v2/0180",
    "caseSensitive": true,
    "concept": [
      {
        "code": "MAC",
        "display": "Reactivate deactivated record"
      },
      {
        "code": "MAD",
        "display": "Add record to master file"
      },
      {
        "code": "MDC",
        "display": "Deactivate: discontinue using record in master file, but do not delete from database"
      },
      {
        "code": "MDL",
        "display": "Delete record from master file"
      },
      {
        "code": "MUP",
        "display": "Update record for master file"
      }
    ]
  }
}