{
  "resourceType": "ValueSet",
  "id": "v2-0498",
  "meta": {
    "profile": [
      "http://hl7.org/fhir/StructureDefinition/valueset-shareable-definition"
    ]
  },
  "text": {
    "status": "additional",
    "div": "<div><p>Consent Status</p>\r\n<table class=\"grid\"><tr><td><b>Code</b></td><td><b>Description</b></td><td><b>Version</b></td></tr><tr><td>A<a name=\"A\"> </a></td><td>Active - Consent has been granted</td><td>added v2.5</td></tr><tr><td>B<a name=\"B\"> </a></td><td>Bypassed (Consent not sought)</td><td>added v2.5</td></tr><tr><td>L<a name=\"L\"> </a></td><td>Limited - Consent has been granted with limitations</td><td>added v2.5</td></tr><tr><td>P<a name=\"P\"> </a></td><td>Pending - Consent has not yet been sought</td><td>added v2.5</td></tr><tr><td>R<a name=\"R\"> </a></td><td>Refused - Consent has been refused</td><td>added v2.5</td></tr><tr><td>X<a name=\"X\"> </a></td><td>Rescinded - Consent was initially granted, but was subsequently revoked or ended.</td><td>added v2.5</td></tr></table>\r\n</div>"
  },
  "url": "http://hl7.org/fhir/ValueSet/v2-0498",
  "version": "2.7",
  "name": "v2 Consent Status",
  "publisher": "HL7, Inc",
  "contact": [
    {
      "telecom": [
        {
          "system": "url",
          "value": "http://hl7.org"
        }
      ]
    }
  ],
  "description": "FHIR Value set/code system definition for HL7 v2 table 0498 ( Consent Status)",
  "status": "active",
  "experimental": true,
  "date": "2011-01-28",
  "define": {
    "system": "http://hl7.org/fhir/v2/0498",
    "caseSensitive": true,
    "concept": [
      {
        "code": "A",
        "display": "Active - Consent has been granted"
      },
      {
        "code": "B",
        "display": "Bypassed (Consent not sought)"
      },
      {
        "code": "L",
        "display": "Limited - Consent has been granted with limitations"
      },
      {
        "code": "P",
        "display": "Pending - Consent has not yet been sought"
      },
      {
        "code": "R",
        "display": "Refused - Consent has been refused"
      },
      {
        "code": "X",
        "display": "Rescinded - Consent was initially granted, but was subsequently revoked or ended."
      }
    ]
  }
}