{
  "resourceType": "ValueSet",
  "id": "v2-0904",
  "meta": {
    "profile": [
      "http://hl7.org/fhir/StructureDefinition/valueset-shareable-definition"
    ]
  },
  "text": {
    "status": "additional",
    "div": "<div><p>Security Check Scheme</p>\r\n<table class=\"grid\"><tr><td><b>Code</b></td><td><b>Description</b></td><td><b>Version</b></td></tr><tr><td>BCV<a name=\"BCV\"> </a></td><td>Bank Card Validation Number</td><td>added v2.7</td></tr><tr><td>CCS<a name=\"CCS\"> </a></td><td>Credit Card Security code</td><td>added v2.7</td></tr><tr><td>VID<a name=\"VID\"> </a></td><td>Version ID</td><td>added v2.7</td></tr></table>\r\n</div>"
  },
  "url": "http://hl7.org/fhir/ValueSet/v2-0904",
  "version": "2.7",
  "name": "v2 Security Check Scheme",
  "publisher": "HL7, Inc",
  "contact": [
    {
      "telecom": [
        {
          "system": "url",
          "value": "http://hl7.org"
        }
      ]
    }
  ],
  "description": "FHIR Value set/code system definition for HL7 v2 table 0904 ( Security Check Scheme)",
  "status": "active",
  "experimental": true,
  "date": "2011-01-28",
  "define": {
    "system": "http://hl7.org/fhir/v2/0904",
    "caseSensitive": true,
    "concept": [
      {
        "code": "BCV",
        "display": "Bank Card Validation Number"
      },
      {
        "code": "CCS",
        "display": "Credit Card Security code"
      },
      {
        "code": "VID",
        "display": "Version ID"
      }
    ]
  }
}