{
  "resourceType": "ValueSet",
  "id": "v2-0507",
  "meta": {
    "profile": [
      "http://hl7.org/fhir/StructureDefinition/valueset-shareable-definition"
    ]
  },
  "text": {
    "status": "additional",
    "div": "<div><p>Observation Result Handling</p>\r\n<table class=\"grid\"><tr><td><b>Code</b></td><td><b>Description</b></td><td><b>Version</b></td></tr><tr><td>F<a name=\"F\"> </a></td><td>Film-with-patient</td><td>added v2.5</td></tr><tr><td>N<a name=\"N\"> </a></td><td>Notify provider when ready</td><td>added v2.5</td></tr></table>\r\n</div>"
  },
  "url": "http://hl7.org/fhir/ValueSet/v2-0507",
  "version": "2.7",
  "name": "v2 Observation Result Handling",
  "publisher": "HL7, Inc",
  "contact": [
    {
      "telecom": [
        {
          "system": "url",
          "value": "http://hl7.org"
        }
      ]
    }
  ],
  "description": "FHIR Value set/code system definition for HL7 v2 table 0507 ( Observation Result Handling)",
  "status": "active",
  "experimental": true,
  "date": "2011-01-28",
  "define": {
    "system": "http://hl7.org/fhir/v2/0507",
    "caseSensitive": true,
    "concept": [
      {
        "code": "F",
        "display": "Film-with-patient"
      },
      {
        "code": "N",
        "display": "Notify provider when ready"
      }
    ]
  }
}