{
  "resourceType": "ValueSet",
  "id": "v2-0510",
  "meta": {
    "profile": [
      "http://hl7.org/fhir/StructureDefinition/valueset-shareable-definition"
    ]
  },
  "text": {
    "status": "additional",
    "div": "<div><p>Blood Product Dispense Status</p>\r\n<table class=\"grid\"><tr><td><b>Code</b></td><td><b>Description</b></td><td><b>Version</b></td></tr><tr><td>CR<a name=\"CR\"> </a></td><td>Released into inventory for general availability</td><td>added v2.5</td></tr><tr><td>DS<a name=\"DS\"> </a></td><td>Dispensed to patient location</td><td>added v2.5</td></tr><tr><td>PT<a name=\"PT\"> </a></td><td>Presumed transfused (dispensed and not returned)</td><td>added v2.5</td></tr><tr><td>RA<a name=\"RA\"> </a></td><td>Returned unused/no longer needed</td><td>added v2.5</td></tr><tr><td>RD<a name=\"RD\"> </a></td><td>Reserved and ready to dispense</td><td>added v2.5</td></tr><tr><td>RE<a name=\"RE\"> </a></td><td>Released (no longer allocated for the patient)</td><td>added v2.5</td></tr><tr><td>RI<a name=\"RI\"> </a></td><td>Received into inventory (for specified patient)</td><td>added v2.5</td></tr><tr><td>RL<a name=\"RL\"> </a></td><td>Returned unused/keep linked to patient for possible use later</td><td>added v2.5</td></tr><tr><td>RQ<a name=\"RQ\"> </a></td><td>Request to dispense blood product</td><td>added v2.5</td></tr><tr><td>RS<a name=\"RS\"> </a></td><td>Reserved (ordered and product allocated for the patient)</td><td>added v2.5</td></tr><tr><td>WA<a name=\"WA\"> </a></td><td>Wasted (product no longer viable)</td><td>added v2.5</td></tr></table>\r\n</div>"
  },
  "url": "http://hl7.org/fhir/ValueSet/v2-0510",
  "version": "2.7",
  "name": "v2 Blood Product Dispense Status",
  "publisher": "HL7, Inc",
  "contact": [
    {
      "telecom": [
        {
          "system": "url",
          "value": "http://hl7.org"
        }
      ]
    }
  ],
  "description": "FHIR Value set/code system definition for HL7 v2 table 0510 ( Blood Product Dispense Status)",
  "status": "active",
  "experimental": true,
  "date": "2011-01-28",
  "define": {
    "system": "http://hl7.org/fhir/v2/0510",
    "caseSensitive": true,
    "concept": [
      {
        "code": "CR",
        "display": "Released into inventory for general availability"
      },
      {
        "code": "DS",
        "display": "Dispensed to patient location"
      },
      {
        "code": "PT",
        "display": "Presumed transfused (dispensed and not returned)"
      },
      {
        "code": "RA",
        "display": "Returned unused/no longer needed"
      },
      {
        "code": "RD",
        "display": "Reserved and ready to dispense"
      },
      {
        "code": "RE",
        "display": "Released (no longer allocated for the patient)"
      },
      {
        "code": "RI",
        "display": "Received into inventory (for specified patient)"
      },
      {
        "code": "RL",
        "display": "Returned unused/keep linked to patient for possible use later"
      },
      {
        "code": "RQ",
        "display": "Request to dispense blood product"
      },
      {
        "code": "RS",
        "display": "Reserved (ordered and product allocated for the patient)"
      },
      {
        "code": "WA",
        "display": "Wasted (product no longer viable)"
      }
    ]
  }
}