{
  "resourceType": "ValueSet",
  "id": "v2-0207",
  "meta": {
    "profile": [
      "http://hl7.org/fhir/StructureDefinition/valueset-shareable-definition"
    ]
  },
  "text": {
    "status": "additional",
    "div": "<div><p>Processing Mode</p>\r\n<table class=\"grid\"><tr><td><b>Code</b></td><td><b>Description</b></td><td><b>Version</b></td></tr><tr><td>A<a name=\"A\"> </a></td><td>Archive</td><td>added v2.3.1</td></tr><tr><td>I<a name=\"I\"> </a></td><td>Initial load</td><td>added v2.3.1</td></tr><tr><td>Not present<a name=\"Notpresent\"> </a></td><td>Not present (the default, meaning current  processing)</td><td>added v2.4</td></tr><tr><td>R<a name=\"R\"> </a></td><td>Restore from archive</td><td>added v2.3.1</td></tr><tr><td>T<a name=\"T\"> </a></td><td>Current processing, transmitted at intervals (scheduled or on demand)</td><td>added v2.3.1</td></tr><tr><td>a<a name=\"a\"> </a></td><td>Archive</td><td>added v2.3, removed after v2.3</td></tr><tr><td>i<a name=\"i\"> </a></td><td>Initial Load</td><td>added v2.3, removed after v2.3</td></tr><tr><td>not present<a name=\"notpresent\"> </a></td><td>Not present (the default, meaning current  processing)</td><td>added v2.3, removed after v2.3.1</td></tr><tr><td>r<a name=\"r\"> </a></td><td>Restore from Archive</td><td>added v2.3, removed after v2.3</td></tr></table>\r\n</div>"
  },
  "url": "http://hl7.org/fhir/ValueSet/v2-0207",
  "version": "2.7",
  "name": "v2 Processing Mode",
  "publisher": "HL7, Inc",
  "contact": [
    {
      "telecom": [
        {
          "system": "url",
          "value": "http://hl7.org"
        }
      ]
    }
  ],
  "description": "FHIR Value set/code system definition for HL7 v2 table 0207 ( Processing Mode)",
  "status": "active",
  "experimental": true,
  "date": "2011-01-28",
  "define": {
    "system": "http://hl7.org/fhir/v2/0207",
    "caseSensitive": true,
    "concept": [
      {
        "code": "A",
        "display": "Archive"
      },
      {
        "code": "I",
        "display": "Initial load"
      },
      {
        "code": "Not present",
        "display": "Not present (the default, meaning current  processing)"
      },
      {
        "code": "R",
        "display": "Restore from archive"
      },
      {
        "code": "T",
        "display": "Current processing, transmitted at intervals (scheduled or on demand)"
      },
      {
        "extension": [
          {
            "url": "http://hl7.org/fhir/StructureDefinition/valueset-deprecated",
            "valueBoolean": true
          }
        ],
        "code": "a",
        "display": "Archive"
      },
      {
        "extension": [
          {
            "url": "http://hl7.org/fhir/StructureDefinition/valueset-deprecated",
            "valueBoolean": true
          }
        ],
        "code": "i",
        "display": "Initial Load"
      },
      {
        "extension": [
          {
            "url": "http://hl7.org/fhir/StructureDefinition/valueset-deprecated",
            "valueBoolean": true
          }
        ],
        "code": "not present",
        "display": "Not present (the default, meaning current  processing)"
      },
      {
        "extension": [
          {
            "url": "http://hl7.org/fhir/StructureDefinition/valueset-deprecated",
            "valueBoolean": true
          }
        ],
        "code": "r",
        "display": "Restore from Archive"
      }
    ]
  }
}