{
  "resourceType": "ValueSet",
  "id": "v2-0104",
  "meta": {
    "profile": [
      "http://hl7.org/fhir/StructureDefinition/valueset-shareable-definition"
    ]
  },
  "text": {
    "status": "additional",
    "div": "<div><p>Version ID</p>\r\n<table class=\"grid\"><tr><td><b>Code</b></td><td><b>Description</b></td><td><b>Version</b></td></tr><tr><td>2.0<a name=\"2.460\"> </a></td><td>Release 2.0</td><td>from v2.1</td></tr><tr><td>2.0D<a name=\"2.460D\"> </a></td><td>Demo 2.0</td><td>from v2.1</td></tr><tr><td>2.1<a name=\"2.461\"> </a></td><td>Release 2.1</td><td>from v2.1</td></tr><tr><td>2.2<a name=\"2.462\"> </a></td><td>Release 2.2</td><td>added v2.2</td></tr><tr><td>2.3<a name=\"2.463\"> </a></td><td>Release 2.3</td><td>added v2.3</td></tr><tr><td>2.3.1<a name=\"2.463.461\"> </a></td><td>Release 2.3.1</td><td>added v2.3.1</td></tr><tr><td>2.3.2<a name=\"2.463.462\"> </a></td><td>Release 2.3.2</td><td>added v2.3.1, removed after v2.3.1</td></tr><tr><td>2.4<a name=\"2.464\"> </a></td><td>Release 2.4</td><td>added v2.4</td></tr><tr><td>2.5<a name=\"2.465\"> </a></td><td>Release 2.5</td><td>added v2.5</td></tr><tr><td>2.5.1<a name=\"2.465.461\"> </a></td><td>Release 2.5.1</td><td>added v2.5.1</td></tr><tr><td>2.6<a name=\"2.466\"> </a></td><td>Release 2.6</td><td>added v2.6</td></tr><tr><td>2.7<a name=\"2.467\"> </a></td><td>Release 2.7</td><td>added v2.7</td></tr></table>\r\n</div>"
  },
  "url": "http://hl7.org/fhir/ValueSet/v2-0104",
  "version": "2.7",
  "name": "v2 Version ID",
  "publisher": "HL7, Inc",
  "contact": [
    {
      "telecom": [
        {
          "system": "url",
          "value": "http://hl7.org"
        }
      ]
    }
  ],
  "description": "FHIR Value set/code system definition for HL7 v2 table 0104 ( Version ID)",
  "status": "active",
  "experimental": true,
  "date": "2011-01-28",
  "define": {
    "system": "http://hl7.org/fhir/v2/0104",
    "caseSensitive": true,
    "concept": [
      {
        "code": "2.0",
        "display": "Release 2.0"
      },
      {
        "code": "2.0D",
        "display": "Demo 2.0"
      },
      {
        "code": "2.1",
        "display": "Release 2.1"
      },
      {
        "code": "2.2",
        "display": "Release 2.2"
      },
      {
        "code": "2.3",
        "display": "Release 2.3"
      },
      {
        "code": "2.3.1",
        "display": "Release 2.3.1"
      },
      {
        "extension": [
          {
            "url": "http://hl7.org/fhir/StructureDefinition/valueset-deprecated",
            "valueBoolean": true
          }
        ],
        "code": "2.3.2",
        "display": "Release 2.3.2"
      },
      {
        "code": "2.4",
        "display": "Release 2.4"
      },
      {
        "code": "2.5",
        "display": "Release 2.5"
      },
      {
        "code": "2.5.1",
        "display": "Release 2.5.1"
      },
      {
        "code": "2.6",
        "display": "Release 2.6"
      },
      {
        "code": "2.7",
        "display": "Release 2.7"
      }
    ]
  }
}