{
  "resourceType": "ValueSet",
  "id": "v2-0242",
  "meta": {
    "profile": [
      "http://hl7.org/fhir/StructureDefinition/valueset-shareable-definition"
    ]
  },
  "text": {
    "status": "additional",
    "div": "<div><p>Primary Observer's Qualification</p>\r\n<table class=\"grid\"><tr><td><b>Code</b></td><td><b>Description</b></td><td><b>Version</b></td></tr><tr><td>C<a name=\"C\"> </a></td><td>Health care consumer/patient</td><td>added v2.3</td></tr><tr><td>H<a name=\"H\"> </a></td><td>Other health professional</td><td>added v2.3</td></tr><tr><td>L<a name=\"L\"> </a></td><td>Lawyer/attorney</td><td>added v2.3</td></tr><tr><td>M<a name=\"M\"> </a></td><td>Mid-level professional (nurse, nurse practitioner, physician's assistant)</td><td>added v2.3</td></tr><tr><td>O<a name=\"O\"> </a></td><td>Other non-health professional</td><td>added v2.3</td></tr><tr><td>P<a name=\"P\"> </a></td><td>Physician (osteopath, homeopath)</td><td>added v2.3</td></tr><tr><td>R<a name=\"R\"> </a></td><td>Pharmacist</td><td>added v2.3</td></tr></table>\r\n</div>"
  },
  "url": "http://hl7.org/fhir/ValueSet/v2-0242",
  "version": "2.7",
  "name": "v2 Primary Observer's Qualification",
  "publisher": "HL7, Inc",
  "contact": [
    {
      "telecom": [
        {
          "system": "url",
          "value": "http://hl7.org"
        }
      ]
    }
  ],
  "description": "FHIR Value set/code system definition for HL7 v2 table 0242 ( Primary Observer's Qualification)",
  "status": "active",
  "experimental": true,
  "date": "2011-01-28",
  "define": {
    "system": "http://hl7.org/fhir/v2/0242",
    "caseSensitive": true,
    "concept": [
      {
        "code": "C",
        "display": "Health care consumer/patient"
      },
      {
        "code": "H",
        "display": "Other health professional"
      },
      {
        "code": "L",
        "display": "Lawyer/attorney"
      },
      {
        "code": "M",
        "display": "Mid-level professional (nurse, nurse practitioner, physician's assistant)"
      },
      {
        "code": "O",
        "display": "Other non-health professional"
      },
      {
        "code": "P",
        "display": "Physician (osteopath, homeopath)"
      },
      {
        "code": "R",
        "display": "Pharmacist"
      }
    ]
  }
}