{
  "resourceType": "ValueSet",
  "id": "v3-RelationshipConjunction",
  "meta": {
    "lastUpdated": "2015-03-23T00:00:00.000+00:00",
    "profile": [
      "http://hl7.org/fhir/StructureDefinition/valueset-shareable-definition"
    ]
  },
  "text": {
    "status": "generated",
    "div": "<div><p>Release Date: 2015-03-23</p>\r\n<p>OID for code system: 2.16.840.1.113883.5.106</p>\r\n<p>OID for value set: 2.16.840.1.113883.1.11.10365 (this is the value set that includes the entire code system)</p>\r\n<table class=\"grid\">\r\n <tr><td><b>Level</b></td><td><b>Code</b></td><td><b>Display</b></td><td><b>Definition</b></td></tr>\r\n <tr><td>1</td><td>AND<a name=\"AND\"> </a></td><td>and</td><td>\n                        This condition must be true.<br/>\r\n\n                     </td></tr>\r\n <tr><td>1</td><td>OR<a name=\"OR\"> </a></td><td>or</td><td>\n                        At least one of the condition among all OR conditions must be true.<br/>\r\n\n                     </td></tr>\r\n <tr><td>1</td><td>XOR<a name=\"XOR\"> </a></td><td>exclusive or</td><td>\n                        One and only one of the XOR conditions must be true.<br/>\r\n\n                     </td></tr>\r\n</table>\r\n</div>"
  },
  "extension": [
    {
      "url": "http://hl7.org/fhir/StructureDefinition/valueset-oid",
      "valueUri": "urn:oid:2.16.840.1.113883.1.11.10365"
    }
  ],
  "url": "http://hl7.org/fhir/ValueSet/v3-RelationshipConjunction",
  "version": "2015-03-23",
  "name": "v3 Code System RelationshipConjunction",
  "publisher": "HL7, Inc",
  "contact": [
    {
      "telecom": [
        {
          "system": "url",
          "value": "http://hl7.org"
        }
      ]
    }
  ],
  "description": "**** MISSING DEFINITIONS ****",
  "status": "active",
  "experimental": false,
  "date": "2015-03-23",
  "define": {
    "extension": [
      {
        "url": "http://hl7.org/fhir/StructureDefinition/valueset-oid",
        "valueUri": "urn:oid:2.16.840.1.113883.5.106"
      }
    ],
    "system": "http://hl7.org/fhir/v3/RelationshipConjunction",
    "caseSensitive": true,
    "concept": [
      {
        "code": "AND",
        "abstract": false,
        "display": "and",
        "definition": "This condition must be true."
      },
      {
        "code": "OR",
        "abstract": false,
        "display": "or",
        "definition": "At least one of the condition among all OR conditions must be true."
      },
      {
        "code": "XOR",
        "abstract": false,
        "display": "exclusive or",
        "definition": "One and only one of the XOR conditions must be true."
      }
    ]
  }
}