{
  "resourceType": "ValueSet",
  "id": "v2-0250",
  "meta": {
    "profile": [
      "http://hl7.org/fhir/StructureDefinition/valueset-shareable-definition"
    ]
  },
  "text": {
    "status": "additional",
    "div": "<div><p>Relatedness Assessment</p>\r\n<table class=\"grid\"><tr><td><b>Code</b></td><td><b>Description</b></td><td><b>Version</b></td></tr><tr><td>H<a name=\"H\"> </a></td><td>Highly probable</td><td>added v2.3</td></tr><tr><td>I<a name=\"I\"> </a></td><td>Improbable</td><td>added v2.3</td></tr><tr><td>M<a name=\"M\"> </a></td><td>Moderately probable</td><td>added v2.3</td></tr><tr><td>N<a name=\"N\"> </a></td><td>Not related</td><td>added v2.3</td></tr><tr><td>S<a name=\"S\"> </a></td><td>Somewhat probable</td><td>added v2.3</td></tr></table>\r\n</div>"
  },
  "url": "http://hl7.org/fhir/ValueSet/v2-0250",
  "version": "2.7",
  "name": "v2 Relatedness Assessment",
  "publisher": "HL7, Inc",
  "contact": [
    {
      "telecom": [
        {
          "system": "url",
          "value": "http://hl7.org"
        }
      ]
    }
  ],
  "description": "FHIR Value set/code system definition for HL7 v2 table 0250 ( Relatedness Assessment)",
  "status": "active",
  "experimental": true,
  "date": "2011-01-28",
  "define": {
    "system": "http://hl7.org/fhir/v2/0250",
    "caseSensitive": true,
    "concept": [
      {
        "code": "H",
        "display": "Highly probable"
      },
      {
        "code": "I",
        "display": "Improbable"
      },
      {
        "code": "M",
        "display": "Moderately probable"
      },
      {
        "code": "N",
        "display": "Not related"
      },
      {
        "code": "S",
        "display": "Somewhat probable"
      }
    ]
  }
}