{
  "resourceType": "ValueSet",
  "id": "v3-ActRelationshipJoin",
  "meta": {
    "lastUpdated": "2015-03-23T00:00:00.000+00:00",
    "profile": [
      "http://hl7.org/fhir/StructureDefinition/valueset-shareable-definition"
    ]
  },
  "text": {
    "status": "generated",
    "div": "<div><p>Release Date: 2015-03-23</p>\r\n<p>OID for code system: 2.16.840.1.113883.5.12</p>\r\n<p>OID for value set: 2.16.840.1.113883.1.11.10360 (this is the value set that includes the entire code system)</p>\r\n<table class=\"grid\">\r\n <tr><td><b>Level</b></td><td><b>Code</b></td><td><b>Display</b></td><td><b>Definition</b></td></tr>\r\n <tr><td>1</td><td>D<a name=\"D\"> </a></td><td>detached</td><td>\n                        Detach this branch from the other branches so it will not be resynchronized with the other branches.<br/>\r\n\n                     </td></tr>\r\n <tr><td>1</td><td>K<a name=\"K\"> </a></td><td>kill</td><td>\n                        When all other concurrent branches are terminated, interrupt and discontinue this branch.<br/>\r\n\n                     </td></tr>\r\n <tr><td>1</td><td>W<a name=\"W\"> </a></td><td>wait</td><td>\n                        Wait for this branch to terminate.<br/>\r\n\n                     </td></tr>\r\n <tr><td>1</td><td>X<a name=\"X\"> </a></td><td>exclusive wait</td><td>\n                        Wait for any one of the branches in the set of exclusive wait branches to terminate, then discontinue all the other exclusive wait branches.<br/>\r\n\n                     </td></tr>\r\n</table>\r\n</div>"
  },
  "extension": [
    {
      "url": "http://hl7.org/fhir/StructureDefinition/valueset-oid",
      "valueUri": "urn:oid:2.16.840.1.113883.1.11.10360"
    }
  ],
  "url": "http://hl7.org/fhir/ValueSet/v3-ActRelationshipJoin",
  "version": "2015-03-23",
  "name": "v3 Code System ActRelationshipJoin",
  "publisher": "HL7, Inc",
  "contact": [
    {
      "telecom": [
        {
          "system": "url",
          "value": "http://hl7.org"
        }
      ]
    }
  ],
  "description": "**** MISSING DEFINITIONS ****",
  "status": "active",
  "experimental": false,
  "date": "2015-03-23",
  "define": {
    "extension": [
      {
        "url": "http://hl7.org/fhir/StructureDefinition/valueset-oid",
        "valueUri": "urn:oid:2.16.840.1.113883.5.12"
      }
    ],
    "system": "http://hl7.org/fhir/v3/ActRelationshipJoin",
    "caseSensitive": true,
    "concept": [
      {
        "code": "D",
        "abstract": false,
        "display": "detached",
        "definition": "Detach this branch from the other branches so it will not be resynchronized with the other branches."
      },
      {
        "code": "K",
        "abstract": false,
        "display": "kill",
        "definition": "When all other concurrent branches are terminated, interrupt and discontinue this branch."
      },
      {
        "code": "W",
        "abstract": false,
        "display": "wait",
        "definition": "Wait for this branch to terminate."
      },
      {
        "code": "X",
        "abstract": false,
        "display": "exclusive wait",
        "definition": "Wait for any one of the branches in the set of exclusive wait branches to terminate, then discontinue all the other exclusive wait branches."
      }
    ]
  }
}