{
  "resourceType": "ValueSet",
  "id": "v2-0251",
  "meta": {
    "profile": [
      "http://hl7.org/fhir/StructureDefinition/valueset-shareable-definition"
    ]
  },
  "text": {
    "status": "additional",
    "div": "<div><p>Action Taken in Response to the Event</p>\r\n<table class=\"grid\"><tr><td><b>Code</b></td><td><b>Description</b></td><td><b>Version</b></td></tr><tr><td>DI<a name=\"DI\"> </a></td><td>Product dose or frequency of use increased</td><td>added v2.3</td></tr><tr><td>DR<a name=\"DR\"> </a></td><td>Product dose or frequency of use reduced</td><td>added v2.3</td></tr><tr><td>N<a name=\"N\"> </a></td><td>None</td><td>added v2.3</td></tr><tr><td>OT<a name=\"OT\"> </a></td><td>Other</td><td>added v2.3</td></tr><tr><td>WP<a name=\"WP\"> </a></td><td>Product withdrawn permanently</td><td>added v2.3</td></tr><tr><td>WT<a name=\"WT\"> </a></td><td>Product withdrawn temporarily</td><td>added v2.3</td></tr></table>\r\n</div>"
  },
  "url": "http://hl7.org/fhir/ValueSet/v2-0251",
  "version": "2.7",
  "name": "v2 Action Taken in Response to the Event",
  "publisher": "HL7, Inc",
  "contact": [
    {
      "telecom": [
        {
          "system": "url",
          "value": "http://hl7.org"
        }
      ]
    }
  ],
  "description": "FHIR Value set/code system definition for HL7 v2 table 0251 ( Action Taken in Response to the Event)",
  "status": "active",
  "experimental": true,
  "date": "2011-01-28",
  "define": {
    "system": "http://hl7.org/fhir/v2/0251",
    "caseSensitive": true,
    "concept": [
      {
        "code": "DI",
        "display": "Product dose or frequency of use increased"
      },
      {
        "code": "DR",
        "display": "Product dose or frequency of use reduced"
      },
      {
        "code": "N",
        "display": "None"
      },
      {
        "code": "OT",
        "display": "Other"
      },
      {
        "code": "WP",
        "display": "Product withdrawn permanently"
      },
      {
        "code": "WT",
        "display": "Product withdrawn temporarily"
      }
    ]
  }
}