{
  "resourceType": "ValueSet",
  "id": "v3-RelationalOperator",
  "meta": {
    "lastUpdated": "2015-03-23T00:00:00.000+00:00",
    "profile": [
      "http://hl7.org/fhir/StructureDefinition/valueset-shareable-definition"
    ]
  },
  "text": {
    "status": "generated",
    "div": "<div><p>Release Date: 2015-03-23</p>\r\n<p>OID for code system: 2.16.840.1.113883.5.105</p>\r\n<p>OID for value set: 2.16.840.1.113883.1.11.209 (this is the value set that includes the entire code system)</p>\r\n<table class=\"grid\">\r\n <tr><td><b>Level</b></td><td><b>Code</b></td><td><b>Display</b></td><td><b>Definition</b></td></tr>\r\n <tr><td>1</td><td>CT<a name=\"CT\"> </a></td><td>Contains</td><td>\n                        Specified set of things includes value being evaluated.<br/>\r\n\n                     </td></tr>\r\n <tr><td>1</td><td>EQ<a name=\"EQ\"> </a></td><td>Equal</td><td>\n                        Equal condition applied to comparisons.<br/>\r\n\n                     </td></tr>\r\n <tr><td>1</td><td>GE<a name=\"GE\"> </a></td><td>Greater than or equal</td><td>\n                        Greater than or equal condition applied to comparisons.<br/>\r\n\n                     </td></tr>\r\n <tr><td>1</td><td>GN<a name=\"GN\"> </a></td><td>Generic</td><td>\n                        A generic comparison selects a record for inclusion in the response if the beginning of the designated element value matches the select string.<br/>\r\n\n                     </td></tr>\r\n <tr><td>1</td><td>GT<a name=\"GT\"> </a></td><td>Greater than</td><td>\n                        Greater than condition applied to comparisons.<br/>\r\n\n                     </td></tr>\r\n <tr><td>1</td><td>LE<a name=\"LE\"> </a></td><td>Less than or equal</td><td>\n                        Less than or equal condition applied to comparisons.<br/>\r\n\n                     </td></tr>\r\n <tr><td>1</td><td>LT<a name=\"LT\"> </a></td><td>Less than</td><td>\n                        Less than condition applied to comparisons.<br/>\r\n\n                     </td></tr>\r\n <tr><td>1</td><td>NE<a name=\"NE\"> </a></td><td>Not Equal</td><td>\n                        Not equal condition applied to comparisons.<br/>\r\n\n                     </td></tr>\r\n</table>\r\n</div>"
  },
  "extension": [
    {
      "url": "http://hl7.org/fhir/StructureDefinition/valueset-oid",
      "valueUri": "urn:oid:2.16.840.1.113883.1.11.209"
    }
  ],
  "url": "http://hl7.org/fhir/ValueSet/v3-RelationalOperator",
  "version": "2015-03-23",
  "name": "v3 Code System RelationalOperator",
  "publisher": "HL7, Inc",
  "contact": [
    {
      "telecom": [
        {
          "system": "url",
          "value": "http://hl7.org"
        }
      ]
    }
  ],
  "description": "**** MISSING DEFINITIONS ****",
  "status": "active",
  "experimental": false,
  "date": "2015-03-23",
  "define": {
    "extension": [
      {
        "url": "http://hl7.org/fhir/StructureDefinition/valueset-oid",
        "valueUri": "urn:oid:2.16.840.1.113883.5.105"
      }
    ],
    "system": "http://hl7.org/fhir/v3/RelationalOperator",
    "caseSensitive": true,
    "concept": [
      {
        "code": "CT",
        "abstract": false,
        "display": "Contains",
        "definition": "Specified set of things includes value being evaluated."
      },
      {
        "code": "EQ",
        "abstract": false,
        "display": "Equal",
        "definition": "Equal condition applied to comparisons."
      },
      {
        "code": "GE",
        "abstract": false,
        "display": "Greater than or equal",
        "definition": "Greater than or equal condition applied to comparisons."
      },
      {
        "code": "GN",
        "abstract": false,
        "display": "Generic",
        "definition": "A generic comparison selects a record for inclusion in the response if the beginning of the designated element value matches the select string."
      },
      {
        "code": "GT",
        "abstract": false,
        "display": "Greater than",
        "definition": "Greater than condition applied to comparisons."
      },
      {
        "code": "LE",
        "abstract": false,
        "display": "Less than or equal",
        "definition": "Less than or equal condition applied to comparisons."
      },
      {
        "code": "LT",
        "abstract": false,
        "display": "Less than",
        "definition": "Less than condition applied to comparisons."
      },
      {
        "code": "NE",
        "abstract": false,
        "display": "Not Equal",
        "definition": "Not equal condition applied to comparisons."
      }
    ]
  }
}