{
  "resourceType": "ValueSet",
  "id": "v2-0164",
  "meta": {
    "profile": [
      "http://hl7.org/fhir/StructureDefinition/valueset-shareable-definition"
    ]
  },
  "text": {
    "status": "additional",
    "div": "<div><p>Administration Device</p>\r\n<table class=\"grid\"><tr><td><b>Code</b></td><td><b>Description</b></td><td><b>Version</b></td></tr><tr><td>AP<a name=\"AP\"> </a></td><td>Applicator</td><td>added v2.2</td></tr><tr><td>BT<a name=\"BT\"> </a></td><td>Buretrol</td><td>added v2.2</td></tr><tr><td>HL<a name=\"HL\"> </a></td><td>Heparin Lock</td><td>added v2.2</td></tr><tr><td>IPPB<a name=\"IPPB\"> </a></td><td>IPPB</td><td>added v2.2</td></tr><tr><td>IVP<a name=\"IVP\"> </a></td><td>IV Pump</td><td>added v2.2</td></tr><tr><td>IVS<a name=\"IVS\"> </a></td><td>IV Soluset</td><td>added v2.2</td></tr><tr><td>MI<a name=\"MI\"> </a></td><td>Metered Inhaler</td><td>added v2.2</td></tr><tr><td>NEB<a name=\"NEB\"> </a></td><td>Nebulizer</td><td>added v2.2</td></tr><tr><td>PCA<a name=\"PCA\"> </a></td><td>PCA Pump</td><td>added v2.2</td></tr></table>\r\n</div>"
  },
  "url": "http://hl7.org/fhir/ValueSet/v2-0164",
  "version": "2.7",
  "name": "v2 Administration Device",
  "publisher": "HL7, Inc",
  "contact": [
    {
      "telecom": [
        {
          "system": "url",
          "value": "http://hl7.org"
        }
      ]
    }
  ],
  "description": "FHIR Value set/code system definition for HL7 v2 table 0164 ( Administration Device)",
  "status": "active",
  "experimental": true,
  "date": "2011-01-28",
  "define": {
    "system": "http://hl7.org/fhir/v2/0164",
    "caseSensitive": true,
    "concept": [
      {
        "code": "AP",
        "display": "Applicator"
      },
      {
        "code": "BT",
        "display": "Buretrol"
      },
      {
        "code": "HL",
        "display": "Heparin Lock"
      },
      {
        "code": "IPPB",
        "display": "IPPB"
      },
      {
        "code": "IVP",
        "display": "IV Pump"
      },
      {
        "code": "IVS",
        "display": "IV Soluset"
      },
      {
        "code": "MI",
        "display": "Metered Inhaler"
      },
      {
        "code": "NEB",
        "display": "Nebulizer"
      },
      {
        "code": "PCA",
        "display": "PCA Pump"
      }
    ]
  }
}